{
"document" : {
"data" : {
"NAME" : "TCP_DATA_RECEIVER_PRODUCER_TABLE",
"COMMENT" : "No comment.",
"AUTHOR" : "admin",
"CREATION_TIME" : 1625849130,
"COL_TYPES" : {
"PROCESSOR_UID" : "STRING",
"BUFFER_SIZE" : "NUMBER",
"SERVER_IP_ADDRESS" : "STRING",
"SERVER_PORT" : "NUMBER",
"DATA_TYPE" : "STRING",
"COMMENT_DESCRIPTION" : "STRING",
"AUTHOR" : "STRING",
"RECORD_INSERTION_TIME" : "TIMESTAMP WITH TIMEZONE"
},
"DATA_SET" : [
{
"PROCESSOR_UID" : "VBBurninBoxListener",
"BUFFER_SIZE" : "1000",
"SERVER_IP_ADDRESS" : "127.0.0.1",
"SERVER_PORT" : "50000",
"DATA_TYPE" : "Raw",
"COMMENT_DESCRIPTION" : "No Comment",
"AUTHOR" : "admin",
"RECORD_INSERTION_TIME" : "1625087761"
},
{
"PROCESSOR_UID" : "VBPowerSupplyListener",
"BUFFER_SIZE" : "1000",
"SERVER_IP_ADDRESS" : "127.0.0.1",
"SERVER_PORT" : "50001",
"DATA_TYPE" : "Packet",
"COMMENT_DESCRIPTION" : "No Comment",
"AUTHOR" : "admin",
"RECORD_INSERTION_TIME" : "1625087761"
},
{
"PROCESSOR_UID" : "VBTrackerListener",
"BUFFER_SIZE" : "1000",
"SERVER_IP_ADDRESS" : "127.0.0.1",
"SERVER_PORT" : "50002",
"DATA_TYPE" : "Raw",
"COMMENT_DESCRIPTION" : "No Comment",
"AUTHOR" : "admin",
"RECORD_INSERTION_TIME" : "1625849130"
}
]
},
"metadata" : {

},
"search" : [

]
},
"comments" : [

],
"origin" : {
"source" : "template",
"name" : "notprovided",
"format" : "json",
"created" : "2021-07-09T11:45:30.613-0500",
"rawdata" : [

]
},
"version" : "1",
"entities" : [
{
"name" : "OTSROOT",
"assigned" : "2021-07-09T11:45:30.614-0500"
}
],
"configurations" : [
{
"name" : "notprovided",
"assigned" : "2021-07-09T11:45:30.613-0500"
},
{
"name" : "BurninBoxConfiguration_v38",
"assigned" : "2021-07-09T11:47:14.302-0500"
},
{
"name" : "BurninBoxConfiguration_v39",
"assigned" : "2021-07-09T11:48:46.416-0500"
}
],
"changelog" : "notprovided",
"bookkeeping" : {
"isdeleted" : false,
"isreadonly" : false,
"updates" : [
{
"event" : "addConfiguration",
"timestamp" : "2021-07-09T11:45:30.613-0500",
"value" : {
"name" : "notprovided",
"assigned" : "2021-07-09T11:45:30.613-0500"
}
},
{
"event" : "setVersion",
"timestamp" : "2021-07-09T11:45:30.614-0500",
"value" : {
"name" : "1",
"assigned" : "2021-07-09T11:45:30.614-0500"
}
},
{
"event" : "setCollection",
"timestamp" : "2021-07-09T11:45:30.614-0500",
"value" : {
"name" : "TCPDataReceiverProducerTable",
"assigned" : "2021-07-09T11:45:30.614-0500"
}
},
{
"event" : "addEntity",
"timestamp" : "2021-07-09T11:45:30.614-0500",
"value" : {
"name" : "OTSROOT",
"assigned" : "2021-07-09T11:45:30.614-0500"
}
},
{
"event" : "addConfiguration",
"timestamp" : "2021-07-09T11:47:14.302-0500",
"value" : {
"name" : "BurninBoxConfiguration_v38",
"assigned" : "2021-07-09T11:47:14.302-0500"
}
},
{
"event" : "addConfiguration",
"timestamp" : "2021-07-09T11:48:46.416-0500",
"value" : {
"name" : "BurninBoxConfiguration_v39",
"assigned" : "2021-07-09T11:48:46.416-0500"
}
}
],
"created" : "2021-07-09T11:45:30.613-0500"
},
"_id" : {
"$oid" : "2b73209dd4bd4f6a956b61f3"
},
"collection" : "TCPDataReceiverProducerTable",
"aliases" : {
"active" : [

],
"history" : [

]
},
"runs" : [

],
"attachments" : [

],
"configtype" : "notprovided"
}