{
"document" : {
"data" : {
"NAME" : "FE_MIDDLEWARE_INTERFACE_TABLE",
"COMMENT" : "No comment.",
"AUTHOR" : "admin",
"CREATION_TIME" : 1601935854,
"COL_TYPES" : {
"INTERFACE_ID" : "STRING",
"INTERFACE_IP_ADDRESS" : "STRING",
"INTERFACE_PORT" : "NUMBER",
"CALIBRATION_NAME" : "STRING",
"CONFIGURATION_DIR" : "STRING",
"CONFIGURATION_NAME" : "STRING",
"COMMENT_DESCRIPTION" : "STRING",
"AUTHOR" : "STRING",
"RECORD_INSERTION_TIME" : "TIMESTAMP WITH TIMEZONE"
},
"DATA_SET" : [
{
"INTERFACE_ID" : "FETrackerInterface0",
"INTERFACE_IP_ADDRESS" : "localhost.localdomain",
"INTERFACE_PORT" : "5000",
"CALIBRATION_NAME" : "calibrationandpedenoise",
"CONFIGURATION_DIR" : "settings",
"CONFIGURATION_NAME" : "D19CDescription_2CBC3_Feynman.xml",
"COMMENT_DESCRIPTION" : "No Comment",
"AUTHOR" : "admin",
"RECORD_INSERTION_TIME" : "1601934947"
},
{
"INTERFACE_ID" : "FETrackerInterface1",
"INTERFACE_IP_ADDRESS" : "localhost.localdomain",
"INTERFACE_PORT" : "5000",
"CALIBRATION_NAME" : "calibrationandpedenoise",
"CONFIGURATION_DIR" : "settings",
"CONFIGURATION_NAME" : "D19CDescription_2CBC3_Feynman.xml",
"COMMENT_DESCRIPTION" : "No Comment",
"AUTHOR" : "admin",
"RECORD_INSERTION_TIME" : "1601935854"
}
]
},
"metadata" : {

},
"search" : [

]
},
"comments" : [

],
"origin" : {
"source" : "template",
"name" : "notprovided",
"format" : "json",
"created" : "2020-10-05T17:10:54.070-0500",
"rawdata" : [

]
},
"version" : "4",
"entities" : [
{
"name" : "OTSROOT",
"assigned" : "2020-10-05T17:10:54.071-0500"
}
],
"configurations" : [
{
"name" : "notprovided",
"assigned" : "2020-10-05T17:10:54.070-0500"
},
{
"name" : "BurninBoxConfiguration_v10",
"assigned" : "2020-10-05T17:11:02.390-0500"
},
{
"name" : "BurninBoxConfiguration_v11",
"assigned" : "2020-10-05T17:39:03.935-0500"
},
{
"name" : "BurninBoxConfiguration_v12",
"assigned" : "2020-10-05T17:43:06.165-0500"
},
{
"name" : "BurninBoxConfiguration_v13",
"assigned" : "2020-10-09T14:43:40.104-0500"
}
],
"changelog" : "notprovided",
"bookkeeping" : {
"isdeleted" : false,
"isreadonly" : false,
"updates" : [
{
"event" : "addConfiguration",
"timestamp" : "2020-10-05T17:10:54.070-0500",
"value" : {
"name" : "notprovided",
"assigned" : "2020-10-05T17:10:54.070-0500"
}
},
{
"event" : "setVersion",
"timestamp" : "2020-10-05T17:10:54.071-0500",
"value" : {
"name" : "4",
"assigned" : "2020-10-05T17:10:54.071-0500"
}
},
{
"event" : "setCollection",
"timestamp" : "2020-10-05T17:10:54.071-0500",
"value" : {
"name" : "FEMiddlewareInterfaceTable",
"assigned" : "2020-10-05T17:10:54.071-0500"
}
},
{
"event" : "addEntity",
"timestamp" : "2020-10-05T17:10:54.071-0500",
"value" : {
"name" : "OTSROOT",
"assigned" : "2020-10-05T17:10:54.071-0500"
}
},
{
"event" : "addConfiguration",
"timestamp" : "2020-10-05T17:11:02.390-0500",
"value" : {
"name" : "BurninBoxConfiguration_v10",
"assigned" : "2020-10-05T17:11:02.390-0500"
}
},
{
"event" : "addConfiguration",
"timestamp" : "2020-10-05T17:39:03.935-0500",
"value" : {
"name" : "BurninBoxConfiguration_v11",
"assigned" : "2020-10-05T17:39:03.935-0500"
}
},
{
"event" : "addConfiguration",
"timestamp" : "2020-10-05T17:43:06.165-0500",
"value" : {
"name" : "BurninBoxConfiguration_v12",
"assigned" : "2020-10-05T17:43:06.165-0500"
}
},
{
"event" : "addConfiguration",
"timestamp" : "2020-10-09T14:43:40.104-0500",
"value" : {
"name" : "BurninBoxConfiguration_v13",
"assigned" : "2020-10-09T14:43:40.104-0500"
}
}
],
"created" : "2020-10-05T17:10:54.070-0500"
},
"_id" : {
"$oid" : "554bbe3afb6d4e919d1b2b4e"
},
"collection" : "FEMiddlewareInterfaceTable",
"aliases" : {
"active" : [

],
"history" : [

]
},
"runs" : [

],
"attachments" : [

],
"configtype" : "notprovided"
}