{
"ouid" : [
"6ee7e1cac0fd458cb8ad2db6"
],
"version" : {
"0" : [
"6ee7e1cac0fd458cb8ad2db6"
]
},
"configurations.name" : {
"notprovided" : [
"6ee7e1cac0fd458cb8ad2db6"
],
"BurninBoxConfiguration_v0" : [
"6ee7e1cac0fd458cb8ad2db6"
],
"BurninBoxConfiguration_v1" : [
"6ee7e1cac0fd458cb8ad2db6"
],
"BurninBoxConfiguration_v2" : [
"6ee7e1cac0fd458cb8ad2db6"
]
},
"entities.name" : {
"OTSROOT" : [
"6ee7e1cac0fd458cb8ad2db6"
]
},
"aliases.active.name" : {

},
"runs.name" : {

},
"configurations.assigned" : {
"notprovided" : [
"2023-10-25T15:16:48.734-0500"
],
"BurninBoxConfiguration_v0" : [
"2023-10-25T15:16:49.650-0500"
],
"BurninBoxConfiguration_v1" : [
"2023-10-25T15:16:50.502-0500"
],
"BurninBoxConfiguration_v2" : [
"2023-10-25T15:16:51.748-0500"
]
}
}