{
"ouid" : [
"0c181cf8a6004372aae20197",
"1ef1b7a940ab4fb9a4227a9b",
"21592f6c384f4df480c7b0a7",
"2afbc91d42a74daaaa1bcf48",
"2c47c65d998447d5a28a81b9",
"43857d6adf1b488c834e1dc4",
"5c9ac59574304a09a3a1e40a",
"8be5a51a5aa14573ad19fe18",
"b5f9bf8992744b6eb544ea10",
"bc4e41a8f36a4344aa3cde05",
"c5b94fd84fce4d7cbf2fccc2",
"c5d0b8dc993b4606b7f02032",
"cc29718dfb9246a9a549c887",
"f810712846094ef39a8a0593"
],
"version" : {
"0" : [
"c5d0b8dc993b4606b7f02032"
],
"1" : [
"bc4e41a8f36a4344aa3cde05"
],
"2" : [
"2c47c65d998447d5a28a81b9"
],
"3" : [
"2afbc91d42a74daaaa1bcf48"
],
"4" : [
"5c9ac59574304a09a3a1e40a"
],
"5" : [
"0c181cf8a6004372aae20197"
],
"6" : [
"8be5a51a5aa14573ad19fe18"
],
"7" : [
"43857d6adf1b488c834e1dc4"
],
"8" : [
"1ef1b7a940ab4fb9a4227a9b"
],
"9" : [
"c5b94fd84fce4d7cbf2fccc2"
],
"10" : [
"21592f6c384f4df480c7b0a7"
],
"11" : [
"b5f9bf8992744b6eb544ea10"
],
"12" : [
"f810712846094ef39a8a0593"
],
"13" : [
"cc29718dfb9246a9a549c887"
]
},
"configurations.name" : {
"notprovided" : [
"0c181cf8a6004372aae20197",
"1ef1b7a940ab4fb9a4227a9b",
"21592f6c384f4df480c7b0a7",
"2afbc91d42a74daaaa1bcf48",
"2c47c65d998447d5a28a81b9",
"43857d6adf1b488c834e1dc4",
"5c9ac59574304a09a3a1e40a",
"8be5a51a5aa14573ad19fe18",
"b5f9bf8992744b6eb544ea10",
"bc4e41a8f36a4344aa3cde05",
"c5b94fd84fce4d7cbf2fccc2",
"c5d0b8dc993b4606b7f02032",
"cc29718dfb9246a9a549c887",
"f810712846094ef39a8a0593"
],
"iterateDefaultGroup_v2" : [
"c5d0b8dc993b4606b7f02032"
],
"iterateDefaultGroup_v3" : [
"c5d0b8dc993b4606b7f02032"
],
"iterateDefaultGroup_v4" : [
"c5d0b8dc993b4606b7f02032"
],
"iterateDefaultGroup_v5" : [
"c5d0b8dc993b4606b7f02032"
],
"iterateDefaultGroup_v6" : [
"c5d0b8dc993b4606b7f02032"
],
"iterateDefaultGroup_v7" : [
"c5d0b8dc993b4606b7f02032"
],
"iterateDefaultGroup_v8" : [
"c5d0b8dc993b4606b7f02032"
],
"iterateDefaultGroup_v9" : [
"2c47c65d998447d5a28a81b9"
],
"iterateDefaultGroup_v10" : [
"2afbc91d42a74daaaa1bcf48"
],
"iterateDefaultGroup_v11" : [
"5c9ac59574304a09a3a1e40a"
],
"iterateDefaultGroup_v12" : [
"0c181cf8a6004372aae20197"
],
"iterateDefaultGroup_v13" : [
"0c181cf8a6004372aae20197"
],
"iterateDefaultGroup_v14" : [
"0c181cf8a6004372aae20197"
],
"iterateDefaultGroup_v15" : [
"0c181cf8a6004372aae20197"
],
"iterateDefaultGroup_v16" : [
"0c181cf8a6004372aae20197"
],
"iterateDefaultGroup_v17" : [
"0c181cf8a6004372aae20197"
],
"iterateDefaultGroup_v18" : [
"0c181cf8a6004372aae20197"
],
"iterateDefaultGroup_v19" : [
"0c181cf8a6004372aae20197"
],
"iterateDefaultGroup_v20" : [
"0c181cf8a6004372aae20197"
],
"iterateDefaultGroup_v21" : [
"0c181cf8a6004372aae20197"
],
"iterateDefaultGroup_v22" : [
"0c181cf8a6004372aae20197"
],
"iterateDefaultGroup_v23" : [
"8be5a51a5aa14573ad19fe18"
],
"iterateDefaultGroup_v24" : [
"8be5a51a5aa14573ad19fe18"
],
"iterateDefaultGroup_v25" : [
"8be5a51a5aa14573ad19fe18"
],
"iterateDefaultGroup_v26" : [
"8be5a51a5aa14573ad19fe18"
],
"iterateDefaultGroup_v27" : [
"8be5a51a5aa14573ad19fe18"
],
"iterateDefaultGroup_v28" : [
"8be5a51a5aa14573ad19fe18"
],
"iterateDefaultGroup_v29" : [
"8be5a51a5aa14573ad19fe18"
],
"iterateDefaultGroup_v30" : [
"43857d6adf1b488c834e1dc4"
],
"iterateDefaultGroup_v31" : [
"1ef1b7a940ab4fb9a4227a9b"
],
"iterateDefaultGroup_v32" : [
"1ef1b7a940ab4fb9a4227a9b"
],
"iterateDefaultGroup_v33" : [
"c5b94fd84fce4d7cbf2fccc2"
],
"iterateDefaultGroup_v34" : [
"c5b94fd84fce4d7cbf2fccc2"
],
"iterateDefaultGroup_v35" : [
"c5b94fd84fce4d7cbf2fccc2"
],
"iterateDefaultGroup_v36" : [
"c5b94fd84fce4d7cbf2fccc2"
],
"iterateDefaultGroup_v37" : [
"21592f6c384f4df480c7b0a7"
],
"iterateDefaultGroup_v38" : [
"b5f9bf8992744b6eb544ea10"
],
"iterateDefaultGroup_v39" : [
"f810712846094ef39a8a0593"
],
"iterateDefaultGroup_v40" : [
"21592f6c384f4df480c7b0a7"
],
"iterateDefaultGroup_v41" : [
"21592f6c384f4df480c7b0a7"
],
"iterateDefaultGroup_v42" : [
"21592f6c384f4df480c7b0a7"
],
"iterateDefaultGroup_v43" : [
"21592f6c384f4df480c7b0a7"
],
"iterateDefaultGroup_v44" : [
"21592f6c384f4df480c7b0a7"
],
"iterateDefaultGroup_v45" : [
"21592f6c384f4df480c7b0a7"
],
"iterateDefaultGroup_v46" : [
"cc29718dfb9246a9a549c887"
],
"iterateDefaultGroup_v47" : [
"cc29718dfb9246a9a549c887"
],
"iterateDefaultGroup_v48" : [
"cc29718dfb9246a9a549c887"
],
"iterateDefaultGroup_v49" : [
"cc29718dfb9246a9a549c887"
],
"iterateDefaultGroup_v50" : [
"cc29718dfb9246a9a549c887"
],
"iterateDefaultGroup_v51" : [
"cc29718dfb9246a9a549c887"
],
"iterateDefaultGroup_v52" : [
"b5f9bf8992744b6eb544ea10"
],
"iterateDefaultGroup_v53" : [
"b5f9bf8992744b6eb544ea10"
],
"iterateDefaultGroup_v54" : [
"b5f9bf8992744b6eb544ea10"
],
"iterateDefaultGroup_v55" : [
"b5f9bf8992744b6eb544ea10"
],
"iterateDefaultGroup_v56" : [
"b5f9bf8992744b6eb544ea10"
],
"iterateDefaultGroup_v57" : [
"b5f9bf8992744b6eb544ea10"
],
"iterateDefaultGroup_v58" : [
"b5f9bf8992744b6eb544ea10"
],
"iterateDefaultGroup_v59" : [
"b5f9bf8992744b6eb544ea10"
],
"iterateDefaultGroup_v60" : [
"b5f9bf8992744b6eb544ea10"
]
},
"entities.name" : {
"OTSROOT" : [
"0c181cf8a6004372aae20197",
"1ef1b7a940ab4fb9a4227a9b",
"21592f6c384f4df480c7b0a7",
"2afbc91d42a74daaaa1bcf48",
"2c47c65d998447d5a28a81b9",
"43857d6adf1b488c834e1dc4",
"5c9ac59574304a09a3a1e40a",
"8be5a51a5aa14573ad19fe18",
"b5f9bf8992744b6eb544ea10",
"bc4e41a8f36a4344aa3cde05",
"c5b94fd84fce4d7cbf2fccc2",
"c5d0b8dc993b4606b7f02032",
"cc29718dfb9246a9a549c887",
"f810712846094ef39a8a0593"
]
},
"aliases.active.name" : {

},
"runs.name" : {

},
"configurations.assigned" : {
"notprovided" : [
"2020-07-28T16:25:05.835-0500",
"2020-07-29T14:00:06.016-0500",
"2020-07-29T14:01:02.687-0500",
"2020-10-12T13:54:16.893-0500",
"2020-10-12T15:28:44.524-0500",
"2020-10-12T15:33:39.817-0500",
"2021-07-20T15:28:32.140-0500",
"2021-07-28T08:44:02.945-0500",
"2021-07-28T09:04:33.762-0500",
"2021-07-28T09:08:58.558-0500",
"2021-07-28T11:56:30.191-0500",
"2021-07-28T13:37:14.586-0500",
"2021-07-28T14:34:04.874-0500",
"2021-07-28T15:11:16.623-0500"
],
"iterateDefaultGroup_v2" : [
"2020-07-28T16:25:06.214-0500"
],
"iterateDefaultGroup_v3" : [
"2020-07-29T13:52:20.522-0500"
],
"iterateDefaultGroup_v4" : [
"2020-07-29T13:56:47.644-0500"
],
"iterateDefaultGroup_v5" : [
"2020-07-29T15:14:11.891-0500"
],
"iterateDefaultGroup_v6" : [
"2020-10-09T16:10:10.107-0500"
],
"iterateDefaultGroup_v7" : [
"2020-10-09T16:31:32.038-0500"
],
"iterateDefaultGroup_v8" : [
"2020-10-09T16:46:00.712-0500"
],
"iterateDefaultGroup_v9" : [
"2020-10-12T10:30:01.837-0500"
],
"iterateDefaultGroup_v10" : [
"2020-10-12T13:54:18.260-0500"
],
"iterateDefaultGroup_v11" : [
"2020-10-12T15:28:45.838-0500"
],
"iterateDefaultGroup_v12" : [
"2020-10-12T15:33:41.217-0500"
],
"iterateDefaultGroup_v13" : [
"2020-10-26T10:34:09.653-0500"
],
"iterateDefaultGroup_v14" : [
"2020-10-26T11:12:08.737-0500"
],
"iterateDefaultGroup_v15" : [
"2020-10-26T13:20:58.886-0500"
],
"iterateDefaultGroup_v16" : [
"2020-10-26T13:46:31.805-0500"
],
"iterateDefaultGroup_v17" : [
"2020-10-27T17:08:44.433-0500"
],
"iterateDefaultGroup_v18" : [
"2021-06-30T15:46:04.157-0500"
],
"iterateDefaultGroup_v19" : [
"2021-07-12T11:48:21.786-0500"
],
"iterateDefaultGroup_v20" : [
"2021-07-12T13:38:44.903-0500"
],
"iterateDefaultGroup_v21" : [
"2021-07-12T13:40:39.848-0500"
],
"iterateDefaultGroup_v22" : [
"2021-07-14T16:20:56.733-0500"
],
"iterateDefaultGroup_v23" : [
"2021-07-20T15:29:51.349-0500"
],
"iterateDefaultGroup_v24" : [
"2021-07-22T18:34:19.075-0500"
],
"iterateDefaultGroup_v25" : [
"2021-07-23T12:39:38.460-0500"
],
"iterateDefaultGroup_v26" : [
"2021-07-23T12:45:35.840-0500"
],
"iterateDefaultGroup_v27" : [
"2021-07-23T13:08:43.599-0500"
],
"iterateDefaultGroup_v28" : [
"2021-07-23T13:16:30.131-0500"
],
"iterateDefaultGroup_v29" : [
"2021-07-23T14:16:53.919-0500"
],
"iterateDefaultGroup_v30" : [
"2021-07-28T08:44:04.884-0500"
],
"iterateDefaultGroup_v31" : [
"2021-07-28T09:04:35.644-0500"
],
"iterateDefaultGroup_v32" : [
"2021-07-28T09:08:06.458-0500"
],
"iterateDefaultGroup_v33" : [
"2021-07-28T09:09:00.464-0500"
],
"iterateDefaultGroup_v34" : [
"2021-07-28T09:11:42.499-0500"
],
"iterateDefaultGroup_v35" : [
"2021-07-28T10:45:28.547-0500"
],
"iterateDefaultGroup_v36" : [
"2021-07-28T11:09:41.742-0500"
],
"iterateDefaultGroup_v37" : [
"2021-07-28T11:56:32.104-0500"
],
"iterateDefaultGroup_v38" : [
"2021-07-28T13:37:16.682-0500"
],
"iterateDefaultGroup_v39" : [
"2021-07-28T14:34:06.842-0500"
],
"iterateDefaultGroup_v40" : [
"2021-07-28T14:42:30.146-0500"
],
"iterateDefaultGroup_v41" : [
"2021-07-28T14:47:07.140-0500"
],
"iterateDefaultGroup_v42" : [
"2021-07-28T14:48:23.548-0500"
],
"iterateDefaultGroup_v43" : [
"2021-07-28T14:48:51.469-0500"
],
"iterateDefaultGroup_v44" : [
"2021-07-28T14:51:22.895-0500"
],
"iterateDefaultGroup_v45" : [
"2021-07-28T15:03:29.804-0500"
],
"iterateDefaultGroup_v46" : [
"2021-07-28T15:11:18.666-0500"
],
"iterateDefaultGroup_v47" : [
"2021-07-28T15:13:40.136-0500"
],
"iterateDefaultGroup_v48" : [
"2021-07-28T15:30:21.253-0500"
],
"iterateDefaultGroup_v49" : [
"2021-07-28T15:42:30.539-0500"
],
"iterateDefaultGroup_v50" : [
"2021-07-28T15:54:18.418-0500"
],
"iterateDefaultGroup_v51" : [
"2021-07-28T16:06:51.271-0500"
],
"iterateDefaultGroup_v52" : [
"2021-07-28T16:13:47.260-0500"
],
"iterateDefaultGroup_v53" : [
"2021-07-28T16:15:01.474-0500"
],
"iterateDefaultGroup_v54" : [
"2021-09-02T13:40:33.668-0500"
],
"iterateDefaultGroup_v55" : [
"2021-09-02T14:33:16.662-0500"
],
"iterateDefaultGroup_v56" : [
"2021-09-02T14:42:09.155-0500"
],
"iterateDefaultGroup_v57" : [
"2021-10-12T11:12:24.961-0500"
],
"iterateDefaultGroup_v58" : [
"2021-10-12T16:34:03.685-0500"
],
"iterateDefaultGroup_v59" : [
"2021-10-13T18:15:37.415-0500"
],
"iterateDefaultGroup_v60" : [
"2021-10-15T15:39:58.967-0500"
]
}
}