{
"ouid" : [
"57640575f33746859dc42dac",
"be7f3b320dae49f2862205a5"
],
"version" : {
"3" : [
"be7f3b320dae49f2862205a5"
],
"2" : [
"57640575f33746859dc42dac"
]
},
"configurations.name" : {
"notprovided" : [
"57640575f33746859dc42dac",
"be7f3b320dae49f2862205a5"
],
"TableEditWizBackbone_v3" : [
"be7f3b320dae49f2862205a5"
],
"TableEditWizBackbone_v2" : [
"57640575f33746859dc42dac"
],
"TableEditWizBackbone_v4" : [
"be7f3b320dae49f2862205a5"
],
"TableEditWizBackbone_v5" : [
"be7f3b320dae49f2862205a5"
],
"TableEditWizBackbone_v6" : [
"be7f3b320dae49f2862205a5"
],
"TableEditWizBackbone_v7" : [
"be7f3b320dae49f2862205a5"
],
"TableEditWizBackbone_v8" : [
"be7f3b320dae49f2862205a5"
],
"TableEditWizBackbone_v9" : [
"be7f3b320dae49f2862205a5"
],
"GroupAliasTreeEditWizBackbone_v0" : [
"be7f3b320dae49f2862205a5"
],
"GroupAliasTreeEditWizBackbone_v1" : [
"be7f3b320dae49f2862205a5"
],
"TableEditWizBackbone_v10" : [
"be7f3b320dae49f2862205a5"
],
"TableEditWizBackbone_v11" : [
"be7f3b320dae49f2862205a5"
],
"TableEditWizBackbone_v12" : [
"be7f3b320dae49f2862205a5"
],
"TableEditWizBackbone_v13" : [
"be7f3b320dae49f2862205a5"
],
"TableEditWizBackbone_v14" : [
"be7f3b320dae49f2862205a5"
],
"TableEditWizBackbone_v15" : [
"be7f3b320dae49f2862205a5"
],
"TableEditWizBackbone_v16" : [
"be7f3b320dae49f2862205a5"
],
"TableEditWizBackbone_v17" : [
"be7f3b320dae49f2862205a5"
],
"TableEditWizBackbone_v18" : [
"be7f3b320dae49f2862205a5"
],
"TableEditWizBackbone_v19" : [
"be7f3b320dae49f2862205a5"
],
"TableEditWizBackbone_v20" : [
"be7f3b320dae49f2862205a5"
],
"TableEditWizBackbone_v21" : [
"be7f3b320dae49f2862205a5"
],
"TableEditWizBackbone_v22" : [
"be7f3b320dae49f2862205a5"
],
"TableEditWizBackbone_v23" : [
"be7f3b320dae49f2862205a5"
],
"TableEditWizBackbone_v24" : [
"be7f3b320dae49f2862205a5"
],
"TableEditWizBackbone_v25" : [
"be7f3b320dae49f2862205a5"
],
"GroupAliasTreeEditWizBackbone_v2" : [
"be7f3b320dae49f2862205a5"
],
"GroupAliasTreeEditWizBackbone_v3" : [
"be7f3b320dae49f2862205a5"
],
"GroupAliasTreeEditWizBackbone_v4" : [
"be7f3b320dae49f2862205a5"
],
"GroupAliasTreeEditWizBackbone_v5" : [
"be7f3b320dae49f2862205a5"
],
"TableEditWizBackbone_v26" : [
"be7f3b320dae49f2862205a5"
],
"GroupAliasTreeEditWizBackbone_v6" : [
"be7f3b320dae49f2862205a5"
],
"TableEditWizBackbone_v27" : [
"be7f3b320dae49f2862205a5"
],
"TableEditWizBackbone_v28" : [
"be7f3b320dae49f2862205a5"
],
"GroupAliasTreeEditWizBackbone_v7" : [
"be7f3b320dae49f2862205a5"
],
"GroupAliasTreeEditWizBackbone_v8" : [
"be7f3b320dae49f2862205a5"
],
"TableEditWizBackbone_v29" : [
"be7f3b320dae49f2862205a5"
],
"TableEditWizBackbone_v30" : [
"be7f3b320dae49f2862205a5"
],
"GroupAliasTreeEditWizBackbone_v9" : [
"be7f3b320dae49f2862205a5"
],
"TableEditWizBackbone_v31" : [
"be7f3b320dae49f2862205a5"
],
"GroupAliasTreeEditWizBackbone_v10" : [
"be7f3b320dae49f2862205a5"
],
"GroupAliasTreeEditWizBackbone_v11" : [
"be7f3b320dae49f2862205a5"
],
"TableEditWizBackbone_v32" : [
"be7f3b320dae49f2862205a5"
],
"TableEditWizBackbone_v33" : [
"be7f3b320dae49f2862205a5"
],
"TableEditWizBackbone_v34" : [
"be7f3b320dae49f2862205a5"
],
"TableEditWizBackbone_v35" : [
"be7f3b320dae49f2862205a5"
],
"GroupAliasTreeEditWizBackbone_v12" : [
"be7f3b320dae49f2862205a5"
],
"GroupAliasTreeEditWizBackbone_v13" : [
"be7f3b320dae49f2862205a5"
],
"TableEditWizBackbone_v36" : [
"be7f3b320dae49f2862205a5"
],
"TableEditWizBackbone_v37" : [
"be7f3b320dae49f2862205a5"
],
"TableEditWizBackbone_v38" : [
"be7f3b320dae49f2862205a5"
],
"GroupAliasTreeEditWizBackbone_v14" : [
"be7f3b320dae49f2862205a5"
],
"GroupAliasTreeEditWizBackbone_v15" : [
"be7f3b320dae49f2862205a5"
],
"GroupAliasTreeEditWizBackbone_v16" : [
"be7f3b320dae49f2862205a5"
],
"GroupAliasTreeEditWizBackbone_v17" : [
"be7f3b320dae49f2862205a5"
],
"GroupAliasTreeEditWizBackbone_v18" : [
"be7f3b320dae49f2862205a5"
],
"GroupAliasTreeEditWizBackbone_v19" : [
"be7f3b320dae49f2862205a5"
],
"TableEditWizBackbone_v39" : [
"be7f3b320dae49f2862205a5"
],
"TableEditWizBackbone_v40" : [
"be7f3b320dae49f2862205a5"
],
"TableEditWizBackbone_v41" : [
"be7f3b320dae49f2862205a5"
],
"TableEditWizBackbone_v42" : [
"be7f3b320dae49f2862205a5"
],
"TableEditWizBackbone_v43" : [
"be7f3b320dae49f2862205a5"
],
"GroupAliasTreeEditWizBackbone_v20" : [
"be7f3b320dae49f2862205a5"
],
"TableEditWizBackbone_v44" : [
"be7f3b320dae49f2862205a5"
],
"TableEditWizBackbone_v45" : [
"be7f3b320dae49f2862205a5"
],
"TableEditWizBackbone_v46" : [
"be7f3b320dae49f2862205a5"
],
"TableEditWizBackbone_v47" : [
"be7f3b320dae49f2862205a5"
],
"TableEditWizBackbone_v48" : [
"be7f3b320dae49f2862205a5"
],
"TableEditWizBackbone_v49" : [
"be7f3b320dae49f2862205a5"
],
"TableEditWizBackbone_v50" : [
"be7f3b320dae49f2862205a5"
],
"TableEditWizBackbone_v51" : [
"be7f3b320dae49f2862205a5"
],
"TableEditWizBackbone_v52" : [
"be7f3b320dae49f2862205a5"
],
"TableEditWizBackbone_v53" : [
"be7f3b320dae49f2862205a5"
],
"GroupAliasTreeEditWizBackbone_v21" : [
"be7f3b320dae49f2862205a5"
],
"TableEditWizBackbone_v54" : [
"be7f3b320dae49f2862205a5"
],
"TableEditWizBackbone_v55" : [
"be7f3b320dae49f2862205a5"
],
"TableEditWizBackbone_v56" : [
"be7f3b320dae49f2862205a5"
],
"GroupAliasTreeEditWizBackbone_v22" : [
"be7f3b320dae49f2862205a5"
],
"GroupAliasTreeEditWizBackbone_v23" : [
"be7f3b320dae49f2862205a5"
],
"GroupAliasTreeEditWizBackbone_v24" : [
"be7f3b320dae49f2862205a5"
],
"TableEditWizBackbone_v57" : [
"be7f3b320dae49f2862205a5"
],
"GroupAliasTreeEditWizBackbone_v25" : [
"be7f3b320dae49f2862205a5"
],
"GroupAliasTreeEditWizBackbone_v26" : [
"be7f3b320dae49f2862205a5"
],
"GroupAliasTreeEditWizBackbone_v27" : [
"be7f3b320dae49f2862205a5"
],
"TableEditWizBackbone_v58" : [
"be7f3b320dae49f2862205a5"
],
"GroupAliasTreeEditWizBackbone_v28" : [
"be7f3b320dae49f2862205a5"
],
"TableEditWizBackbone_v59" : [
"be7f3b320dae49f2862205a5"
],
"GroupAliasTreeEditWizBackbone_v29" : [
"be7f3b320dae49f2862205a5"
],
"GroupAliasTreeEditWizBackbone_v30" : [
"be7f3b320dae49f2862205a5"
],
"TableEditWizBackbone_v60" : [
"be7f3b320dae49f2862205a5"
],
"TableEditWizBackbone_v61" : [
"be7f3b320dae49f2862205a5"
],
"TableEditWizBackbone_v62" : [
"be7f3b320dae49f2862205a5"
],
"TableEditWizBackbone_v63" : [
"be7f3b320dae49f2862205a5"
],
"TableEditWizBackbone_v64" : [
"be7f3b320dae49f2862205a5"
],
"GroupAliasTreeEditWizBackbone_v31" : [
"be7f3b320dae49f2862205a5"
],
"TableEditWizBackbone_v65" : [
"be7f3b320dae49f2862205a5"
],
"GroupAliasTreeEditWizBackbone_v32" : [
"be7f3b320dae49f2862205a5"
],
"GroupAliasTreeEditWizBackbone_v33" : [
"be7f3b320dae49f2862205a5"
],
"TableEditWizBackbone_v66" : [
"be7f3b320dae49f2862205a5"
],
"GroupAliasTreeEditWizBackbone_v34" : [
"be7f3b320dae49f2862205a5"
],
"GroupAliasTreeEditWizBackbone_v35" : [
"be7f3b320dae49f2862205a5"
],
"GroupAliasTreeEditWizBackbone_v36" : [
"be7f3b320dae49f2862205a5"
],
"TableEditWizBackbone_v67" : [
"be7f3b320dae49f2862205a5"
],
"GroupAliasTreeEditWizBackbone_v37" : [
"be7f3b320dae49f2862205a5"
],
"GroupAliasTreeEditWizBackbone_v38" : [
"be7f3b320dae49f2862205a5"
],
"GroupAliasTreeEditWizBackbone_v39" : [
"be7f3b320dae49f2862205a5"
],
"TableEditWizBackbone_v68" : [
"be7f3b320dae49f2862205a5"
],
"TableEditWizBackbone_v69" : [
"be7f3b320dae49f2862205a5"
],
"TableEditWizBackbone_v70" : [
"be7f3b320dae49f2862205a5"
],
"TableEditWizBackbone_v71" : [
"be7f3b320dae49f2862205a5"
],
"TableEditWizBackbone_v72" : [
"be7f3b320dae49f2862205a5"
],
"GroupAliasTreeEditWizBackbone_v40" : [
"be7f3b320dae49f2862205a5"
],
"GroupAliasTreeEditWizBackbone_v41" : [
"be7f3b320dae49f2862205a5"
],
"TableEditWizBackbone_v73" : [
"be7f3b320dae49f2862205a5"
],
"TableEditWizBackbone_v74" : [
"be7f3b320dae49f2862205a5"
],
"TableEditWizBackbone_v75" : [
"be7f3b320dae49f2862205a5"
],
"TableEditWizBackbone_v76" : [
"be7f3b320dae49f2862205a5"
],
"TableEditWizBackbone_v77" : [
"be7f3b320dae49f2862205a5"
],
"GroupAliasTreeEditWizBackbone_v42" : [
"be7f3b320dae49f2862205a5"
],
"GroupAliasTreeEditWizBackbone_v43" : [
"be7f3b320dae49f2862205a5"
],
"GroupAliasTreeEditWizBackbone_v44" : [
"be7f3b320dae49f2862205a5"
],
"GroupAliasTreeEditWizBackbone_v45" : [
"be7f3b320dae49f2862205a5"
],
"GroupAliasTreeEditWizBackbone_v46" : [
"be7f3b320dae49f2862205a5"
],
"GroupAliasTreeEditWizBackbone_v47" : [
"be7f3b320dae49f2862205a5"
],
"GroupAliasTreeEditWizBackbone_v48" : [
"be7f3b320dae49f2862205a5"
],
"GroupAliasTreeEditWizBackbone_v49" : [
"be7f3b320dae49f2862205a5"
],
"GroupAliasTreeEditWizBackbone_v50" : [
"be7f3b320dae49f2862205a5"
],
"GroupAliasTreeEditWizBackbone_v51" : [
"be7f3b320dae49f2862205a5"
],
"TableEditWizBackbone_v78" : [
"be7f3b320dae49f2862205a5"
],
"GroupAliasTreeEditWizBackbone_v52" : [
"be7f3b320dae49f2862205a5"
],
"TableEditWizBackbone_v79" : [
"be7f3b320dae49f2862205a5"
],
"TableEditWizBackbone_v80" : [
"be7f3b320dae49f2862205a5"
],
"TableEditWizBackbone_v81" : [
"be7f3b320dae49f2862205a5"
],
"GroupAliasTreeEditWizBackbone_v53" : [
"be7f3b320dae49f2862205a5"
],
"GroupAliasTreeEditWizBackbone_v54" : [
"be7f3b320dae49f2862205a5"
],
"GroupAliasTreeEditWizBackbone_v55" : [
"be7f3b320dae49f2862205a5"
],
"GroupAliasTreeEditWizBackbone_v56" : [
"be7f3b320dae49f2862205a5"
],
"GroupAliasTreeEditWizBackbone_v57" : [
"be7f3b320dae49f2862205a5"
],
"GroupAliasTreeEditWizBackbone_v58" : [
"be7f3b320dae49f2862205a5"
],
"GroupAliasTreeEditWizBackbone_v59" : [
"be7f3b320dae49f2862205a5"
],
"GroupAliasTreeEditWizBackbone_v60" : [
"be7f3b320dae49f2862205a5"
],
"GroupAliasTreeEditWizBackbone_v61" : [
"be7f3b320dae49f2862205a5"
],
"GroupAliasTreeEditWizBackbone_v62" : [
"be7f3b320dae49f2862205a5"
],
"GroupAliasTreeEditWizBackbone_v63" : [
"be7f3b320dae49f2862205a5"
],
"GroupAliasTreeEditWizBackbone_v64" : [
"be7f3b320dae49f2862205a5"
],
"GroupAliasTreeEditWizBackbone_v65" : [
"be7f3b320dae49f2862205a5"
],
"TableEditWizBackbone_v82" : [
"be7f3b320dae49f2862205a5"
],
"TableEditWizBackbone_v83" : [
"be7f3b320dae49f2862205a5"
],
"TableEditWizBackbone_v84" : [
"be7f3b320dae49f2862205a5"
],
"GroupAliasTreeEditWizBackbone_v66" : [
"be7f3b320dae49f2862205a5"
],
"GroupAliasTreeEditWizBackbone_v67" : [
"be7f3b320dae49f2862205a5"
],
"TableEditWizBackbone_v85" : [
"be7f3b320dae49f2862205a5"
],
"GroupAliasTreeEditWizBackbone_v68" : [
"be7f3b320dae49f2862205a5"
],
"TableEditWizBackbone_v86" : [
"be7f3b320dae49f2862205a5"
],
"GroupAliasTreeEditWizBackbone_v69" : [
"be7f3b320dae49f2862205a5"
],
"TableEditWizBackbone_v87" : [
"be7f3b320dae49f2862205a5"
],
"GroupAliasTreeEditWizBackbone_v70" : [
"be7f3b320dae49f2862205a5"
],
"TableEditWizBackbone_v88" : [
"be7f3b320dae49f2862205a5"
],
"TableEditWizBackbone_v89" : [
"be7f3b320dae49f2862205a5"
],
"GroupAliasTreeEditWizBackbone_v71" : [
"be7f3b320dae49f2862205a5"
],
"GroupAliasTreeEditWizBackbone_v72" : [
"be7f3b320dae49f2862205a5"
],
"TableEditWizBackbone_v90" : [
"be7f3b320dae49f2862205a5"
],
"TableEditWizBackbone_v91" : [
"be7f3b320dae49f2862205a5"
],
"GroupAliasTreeEditWizBackbone_v73" : [
"be7f3b320dae49f2862205a5"
],
"TableEditWizBackbone_v92" : [
"be7f3b320dae49f2862205a5"
],
"TableEditWizBackbone_v93" : [
"be7f3b320dae49f2862205a5"
],
"TableEditWizBackbone_v94" : [
"be7f3b320dae49f2862205a5"
],
"TableEditWizBackbone_v95" : [
"be7f3b320dae49f2862205a5"
],
"TableEditWizBackbone_v96" : [
"be7f3b320dae49f2862205a5"
],
"TableEditWizBackbone_v97" : [
"be7f3b320dae49f2862205a5"
],
"TableEditWizBackbone_v98" : [
"be7f3b320dae49f2862205a5"
],
"GroupAliasTreeEditWizBackbone_v74" : [
"be7f3b320dae49f2862205a5"
],
"GroupAliasTreeEditWizBackbone_v75" : [
"be7f3b320dae49f2862205a5"
],
"TableEditWizBackbone_v99" : [
"be7f3b320dae49f2862205a5"
],
"TableEditWizBackbone_v100" : [
"be7f3b320dae49f2862205a5"
],
"GroupAliasTreeEditWizBackbone_v76" : [
"be7f3b320dae49f2862205a5"
],
"GroupAliasTreeEditWizBackbone_v77" : [
"be7f3b320dae49f2862205a5"
],
"GroupAliasTreeEditWizBackbone_v78" : [
"be7f3b320dae49f2862205a5"
],
"TableEditWizBackbone_v101" : [
"be7f3b320dae49f2862205a5"
],
"TableEditWizBackbone_v102" : [
"be7f3b320dae49f2862205a5"
],
"GroupAliasTreeEditWizBackbone_v79" : [
"be7f3b320dae49f2862205a5"
],
"GroupAliasTreeEditWizBackbone_v80" : [
"be7f3b320dae49f2862205a5"
],
"TableEditWizBackbone_v103" : [
"be7f3b320dae49f2862205a5"
],
"TableEditWizBackbone_v104" : [
"be7f3b320dae49f2862205a5"
],
"GroupAliasTreeEditWizBackbone_v81" : [
"be7f3b320dae49f2862205a5"
],
"TableEditWizBackbone_v105" : [
"be7f3b320dae49f2862205a5"
],
"TableEditWizBackbone_v106" : [
"be7f3b320dae49f2862205a5"
],
"TableEditWizBackbone_v107" : [
"be7f3b320dae49f2862205a5"
],
"GroupAliasTreeEditWizBackbone_v82" : [
"be7f3b320dae49f2862205a5"
],
"GroupAliasTreeEditWizBackbone_v83" : [
"be7f3b320dae49f2862205a5"
],
"TableEditWizBackbone_v108" : [
"be7f3b320dae49f2862205a5"
],
"TableEditWizBackbone_v109" : [
"be7f3b320dae49f2862205a5"
],
"TableEditWizBackbone_v110" : [
"be7f3b320dae49f2862205a5"
],
"TableEditWizBackbone_v111" : [
"be7f3b320dae49f2862205a5"
],
"TableEditWizBackbone_v112" : [
"be7f3b320dae49f2862205a5"
],
"TableEditWizBackbone_v113" : [
"be7f3b320dae49f2862205a5"
],
"TableEditWizBackbone_v114" : [
"be7f3b320dae49f2862205a5"
],
"TableEditWizBackbone_v115" : [
"be7f3b320dae49f2862205a5"
],
"GroupAliasTreeEditWizBackbone_v84" : [
"be7f3b320dae49f2862205a5"
],
"GroupAliasTreeEditWizBackbone_v85" : [
"be7f3b320dae49f2862205a5"
],
"GroupAliasTreeEditWizBackbone_v86" : [
"be7f3b320dae49f2862205a5"
],
"GroupAliasTreeEditWizBackbone_v87" : [
"be7f3b320dae49f2862205a5"
],
"TableEditWizBackbone_v116" : [
"be7f3b320dae49f2862205a5"
],
"TableEditWizBackbone_v117" : [
"be7f3b320dae49f2862205a5"
],
"TableEditWizBackbone_v118" : [
"be7f3b320dae49f2862205a5"
],
"TableEditWizBackbone_v119" : [
"be7f3b320dae49f2862205a5"
],
"GroupAliasTreeEditWizBackbone_v88" : [
"be7f3b320dae49f2862205a5"
],
"GroupAliasTreeEditWizBackbone_v89" : [
"be7f3b320dae49f2862205a5"
],
"GroupAliasTreeEditWizBackbone_v90" : [
"be7f3b320dae49f2862205a5"
],
"TableEditWizBackbone_v120" : [
"be7f3b320dae49f2862205a5"
],
"TableEditWizBackbone_v121" : [
"be7f3b320dae49f2862205a5"
],
"TableEditWizBackbone_v122" : [
"be7f3b320dae49f2862205a5"
],
"TableEditWizBackbone_v123" : [
"be7f3b320dae49f2862205a5"
],
"TableEditWizBackbone_v124" : [
"be7f3b320dae49f2862205a5"
],
"TableEditWizBackbone_v125" : [
"be7f3b320dae49f2862205a5"
],
"TableEditWizBackbone_v126" : [
"be7f3b320dae49f2862205a5"
],
"TableEditWizBackbone_v127" : [
"be7f3b320dae49f2862205a5"
],
"TableEditWizBackbone_v128" : [
"be7f3b320dae49f2862205a5"
],
"TableEditWizBackbone_v129" : [
"be7f3b320dae49f2862205a5"
],
"TableEditWizBackbone_v130" : [
"be7f3b320dae49f2862205a5"
],
"TableEditWizBackbone_v131" : [
"be7f3b320dae49f2862205a5"
],
"TableEditWizBackbone_v132" : [
"be7f3b320dae49f2862205a5"
],
"TableEditWizBackbone_v133" : [
"be7f3b320dae49f2862205a5"
],
"TableEditWizBackbone_v134" : [
"be7f3b320dae49f2862205a5"
],
"TableEditWizBackbone_v135" : [
"be7f3b320dae49f2862205a5"
],
"TableEditWizBackbone_v136" : [
"be7f3b320dae49f2862205a5"
],
"TableEditWizBackbone_v137" : [
"be7f3b320dae49f2862205a5"
],
"TableEditWizBackbone_v138" : [
"be7f3b320dae49f2862205a5"
],
"TableEditWizBackbone_v139" : [
"be7f3b320dae49f2862205a5"
],
"TableEditWizBackbone_v140" : [
"be7f3b320dae49f2862205a5"
],
"TableEditWizBackbone_v141" : [
"be7f3b320dae49f2862205a5"
],
"TableEditWizBackbone_v142" : [
"be7f3b320dae49f2862205a5"
],
"TableEditWizBackbone_v143" : [
"be7f3b320dae49f2862205a5"
],
"GroupAliasTreeEditWizBackbone_v91" : [
"be7f3b320dae49f2862205a5"
],
"GroupAliasTreeEditWizBackbone_v92" : [
"be7f3b320dae49f2862205a5"
],
"GroupAliasTreeEditWizBackbone_v93" : [
"be7f3b320dae49f2862205a5"
],
"GroupAliasWizBackbone_v0" : [
"be7f3b320dae49f2862205a5"
],
"GroupAliasWizBackbone_v1" : [
"be7f3b320dae49f2862205a5"
],
"GroupAliasWizBackbone_v2" : [
"be7f3b320dae49f2862205a5"
],
"GroupAliasTreeEditWizBackbone_v94" : [
"be7f3b320dae49f2862205a5"
],
"GroupAliasTreeEditWizBackbone_v95" : [
"be7f3b320dae49f2862205a5"
],
"GroupAliasTreeEditWizBackbone_v96" : [
"be7f3b320dae49f2862205a5"
]
},
"entities.name" : {
"OTSROOT" : [
"57640575f33746859dc42dac",
"be7f3b320dae49f2862205a5"
]
},
"aliases.active.name" : {

},
"runs.name" : {

},
"configurations.assigned" : {
"notprovided" : [
"2018-09-06T17:34:15.667-0500",
"2018-09-06T17:34:15.895-0500"
],
"TableEditWizBackbone_v3" : [
"2018-09-06T17:34:15.967-0500"
],
"TableEditWizBackbone_v2" : [
"2018-09-06T17:34:15.824-0500"
],
"TableEditWizBackbone_v4" : [
"2018-09-10T09:24:24.879-0500"
],
"TableEditWizBackbone_v5" : [
"2018-09-10T10:45:51.888-0500"
],
"TableEditWizBackbone_v6" : [
"2018-09-10T11:24:19.340-0500"
],
"TableEditWizBackbone_v7" : [
"2018-09-11T09:59:56.940-0500"
],
"TableEditWizBackbone_v8" : [
"2018-09-11T10:00:21.174-0500"
],
"TableEditWizBackbone_v9" : [
"2018-09-11T10:01:20.065-0500"
],
"GroupAliasTreeEditWizBackbone_v0" : [
"2018-09-11T10:11:16.717-0500"
],
"GroupAliasTreeEditWizBackbone_v1" : [
"2018-09-12T12:16:44.519-0500"
],
"TableEditWizBackbone_v10" : [
"2018-09-12T13:36:48.289-0500"
],
"TableEditWizBackbone_v11" : [
"2018-09-12T13:37:50.991-0500"
],
"TableEditWizBackbone_v12" : [
"2018-09-17T11:12:10.292-0500"
],
"TableEditWizBackbone_v13" : [
"2018-09-17T13:53:34.263-0500"
],
"TableEditWizBackbone_v14" : [
"2018-09-17T14:03:58.933-0500"
],
"TableEditWizBackbone_v15" : [
"2018-09-18T15:31:06.534-0500"
],
"TableEditWizBackbone_v16" : [
"2018-09-19T09:27:06.299-0500"
],
"TableEditWizBackbone_v17" : [
"2018-09-19T10:08:02.972-0500"
],
"TableEditWizBackbone_v18" : [
"2018-09-19T10:23:22.937-0500"
],
"TableEditWizBackbone_v19" : [
"2018-09-19T11:22:22.338-0500"
],
"TableEditWizBackbone_v20" : [
"2018-09-19T12:26:56.252-0500"
],
"TableEditWizBackbone_v21" : [
"2018-09-20T14:22:28.200-0500"
],
"TableEditWizBackbone_v22" : [
"2018-09-20T15:42:04.082-0500"
],
"TableEditWizBackbone_v23" : [
"2018-09-21T11:16:32.366-0500"
],
"TableEditWizBackbone_v24" : [
"2018-09-21T13:39:26.403-0500"
],
"TableEditWizBackbone_v25" : [
"2018-09-21T13:39:50.319-0500"
],
"GroupAliasTreeEditWizBackbone_v2" : [
"2019-02-28T12:04:26.452-0600"
],
"GroupAliasTreeEditWizBackbone_v3" : [
"2019-02-28T12:05:08.918-0600"
],
"GroupAliasTreeEditWizBackbone_v4" : [
"2019-02-28T13:57:10.504-0600"
],
"GroupAliasTreeEditWizBackbone_v5" : [
"2019-07-17T14:42:57.324-0500"
],
"TableEditWizBackbone_v26" : [
"2019-07-19T15:24:17.039-0500"
],
"GroupAliasTreeEditWizBackbone_v6" : [
"2019-07-19T15:25:11.793-0500"
],
"TableEditWizBackbone_v27" : [
"2019-07-24T14:34:11.553-0500"
],
"TableEditWizBackbone_v28" : [
"2019-07-24T14:47:24.810-0500"
],
"GroupAliasTreeEditWizBackbone_v7" : [
"2019-07-24T14:48:42.584-0500"
],
"GroupAliasTreeEditWizBackbone_v8" : [
"2019-07-24T14:48:43.436-0500"
],
"TableEditWizBackbone_v29" : [
"2019-10-22T14:55:22.546-0500"
],
"TableEditWizBackbone_v30" : [
"2020-06-29T11:00:06.308-0500"
],
"GroupAliasTreeEditWizBackbone_v9" : [
"2020-06-29T11:05:40.929-0500"
],
"TableEditWizBackbone_v31" : [
"2020-06-29T11:28:22.748-0500"
],
"GroupAliasTreeEditWizBackbone_v10" : [
"2020-07-24T10:58:18.968-0500"
],
"GroupAliasTreeEditWizBackbone_v11" : [
"2020-07-24T11:00:08.624-0500"
],
"TableEditWizBackbone_v32" : [
"2020-07-24T11:56:07.509-0500"
],
"TableEditWizBackbone_v33" : [
"2020-07-24T12:12:10.386-0500"
],
"TableEditWizBackbone_v34" : [
"2020-07-24T12:16:36.914-0500"
],
"TableEditWizBackbone_v35" : [
"2020-07-29T15:59:42.145-0500"
],
"GroupAliasTreeEditWizBackbone_v12" : [
"2020-07-29T16:01:23.668-0500"
],
"GroupAliasTreeEditWizBackbone_v13" : [
"2020-07-29T16:34:44.044-0500"
],
"TableEditWizBackbone_v36" : [
"2020-07-29T16:39:54.918-0500"
],
"TableEditWizBackbone_v37" : [
"2020-07-29T16:40:45.543-0500"
],
"TableEditWizBackbone_v38" : [
"2020-07-29T16:45:02.953-0500"
],
"GroupAliasTreeEditWizBackbone_v14" : [
"2020-07-29T16:49:17.607-0500"
],
"GroupAliasTreeEditWizBackbone_v15" : [
"2020-07-30T11:42:29.579-0500"
],
"GroupAliasTreeEditWizBackbone_v16" : [
"2020-07-30T11:42:30.726-0500"
],
"GroupAliasTreeEditWizBackbone_v17" : [
"2020-07-30T11:54:27.074-0500"
],
"GroupAliasTreeEditWizBackbone_v18" : [
"2020-07-30T12:05:14.179-0500"
],
"GroupAliasTreeEditWizBackbone_v19" : [
"2020-07-31T09:38:02.021-0500"
],
"TableEditWizBackbone_v39" : [
"2020-09-02T11:30:05.714-0500"
],
"TableEditWizBackbone_v40" : [
"2020-09-02T11:31:33.587-0500"
],
"TableEditWizBackbone_v41" : [
"2020-09-02T15:08:52.700-0500"
],
"TableEditWizBackbone_v42" : [
"2020-09-02T15:22:10.902-0500"
],
"TableEditWizBackbone_v43" : [
"2020-09-02T16:01:07.298-0500"
],
"GroupAliasTreeEditWizBackbone_v20" : [
"2020-09-02T16:05:20.874-0500"
],
"TableEditWizBackbone_v44" : [
"2020-10-05T17:04:59.681-0500"
],
"TableEditWizBackbone_v45" : [
"2020-10-05T17:05:57.001-0500"
],
"TableEditWizBackbone_v46" : [
"2020-10-05T17:07:08.197-0500"
],
"TableEditWizBackbone_v47" : [
"2020-10-05T17:09:50.053-0500"
],
"TableEditWizBackbone_v48" : [
"2020-10-05T17:11:03.885-0500"
],
"TableEditWizBackbone_v49" : [
"2020-10-05T17:39:05.594-0500"
],
"TableEditWizBackbone_v50" : [
"2020-10-05T17:43:07.864-0500"
],
"TableEditWizBackbone_v51" : [
"2020-10-05T17:43:28.642-0500"
],
"TableEditWizBackbone_v52" : [
"2020-10-05T17:51:31.673-0500"
],
"TableEditWizBackbone_v53" : [
"2020-10-09T11:58:11.810-0500"
],
"GroupAliasTreeEditWizBackbone_v21" : [
"2020-10-09T12:53:55.616-0500"
],
"TableEditWizBackbone_v54" : [
"2020-10-09T12:57:08.298-0500"
],
"TableEditWizBackbone_v55" : [
"2020-10-09T13:00:59.594-0500"
],
"TableEditWizBackbone_v56" : [
"2020-10-09T14:43:41.818-0500"
],
"GroupAliasTreeEditWizBackbone_v22" : [
"2020-10-09T15:30:50.090-0500"
],
"GroupAliasTreeEditWizBackbone_v23" : [
"2020-10-09T15:30:51.459-0500"
],
"GroupAliasTreeEditWizBackbone_v24" : [
"2020-10-09T15:32:25.740-0500"
],
"TableEditWizBackbone_v57" : [
"2020-10-09T15:33:00.081-0500"
],
"GroupAliasTreeEditWizBackbone_v25" : [
"2020-10-09T16:47:20.727-0500"
],
"GroupAliasTreeEditWizBackbone_v26" : [
"2020-10-12T09:37:51.757-0500"
],
"GroupAliasTreeEditWizBackbone_v27" : [
"2020-10-12T09:41:41.291-0500"
],
"TableEditWizBackbone_v58" : [
"2020-10-12T10:14:45.517-0500"
],
"GroupAliasTreeEditWizBackbone_v28" : [
"2020-10-12T10:19:11.612-0500"
],
"TableEditWizBackbone_v59" : [
"2020-10-12T15:33:11.205-0500"
],
"GroupAliasTreeEditWizBackbone_v29" : [
"2020-10-19T16:12:59.009-0500"
],
"GroupAliasTreeEditWizBackbone_v30" : [
"2020-10-19T16:16:04.414-0500"
],
"TableEditWizBackbone_v60" : [
"2020-10-23T11:00:22.090-0500"
],
"TableEditWizBackbone_v61" : [
"2020-10-26T10:39:59.510-0500"
],
"TableEditWizBackbone_v62" : [
"2020-10-26T11:51:23.208-0500"
],
"TableEditWizBackbone_v63" : [
"2020-10-26T11:51:44.829-0500"
],
"TableEditWizBackbone_v64" : [
"2020-10-26T11:56:44.354-0500"
],
"GroupAliasTreeEditWizBackbone_v31" : [
"2020-10-26T13:16:59.469-0500"
],
"TableEditWizBackbone_v65" : [
"2020-10-26T14:34:36.254-0500"
],
"GroupAliasTreeEditWizBackbone_v32" : [
"2020-10-26T14:53:04.514-0500"
],
"GroupAliasTreeEditWizBackbone_v33" : [
"2020-10-26T14:53:05.859-0500"
],
"TableEditWizBackbone_v66" : [
"2020-10-26T15:02:48.440-0500"
],
"GroupAliasTreeEditWizBackbone_v34" : [
"2020-10-26T15:37:56.160-0500"
],
"GroupAliasTreeEditWizBackbone_v35" : [
"2020-10-27T17:42:12.482-0500"
],
"GroupAliasTreeEditWizBackbone_v36" : [
"2020-10-29T11:39:19.443-0500"
],
"TableEditWizBackbone_v67" : [
"2020-10-29T11:52:34.583-0500"
],
"GroupAliasTreeEditWizBackbone_v37" : [
"2020-10-29T11:54:30.039-0500"
],
"GroupAliasTreeEditWizBackbone_v38" : [
"2020-10-29T11:54:31.392-0500"
],
"GroupAliasTreeEditWizBackbone_v39" : [
"2020-10-29T11:54:57.951-0500"
],
"TableEditWizBackbone_v68" : [
"2020-10-29T13:30:26.267-0500"
],
"TableEditWizBackbone_v69" : [
"2020-10-29T13:33:32.847-0500"
],
"TableEditWizBackbone_v70" : [
"2020-10-29T13:45:57.609-0500"
],
"TableEditWizBackbone_v71" : [
"2020-10-29T13:46:40.004-0500"
],
"TableEditWizBackbone_v72" : [
"2020-10-29T13:48:04.672-0500"
],
"GroupAliasTreeEditWizBackbone_v40" : [
"2020-10-29T14:39:30.706-0500"
],
"GroupAliasTreeEditWizBackbone_v41" : [
"2020-11-16T17:04:45.022-0600"
],
"TableEditWizBackbone_v73" : [
"2020-11-16T17:07:51.368-0600"
],
"TableEditWizBackbone_v74" : [
"2020-11-16T17:10:05.568-0600"
],
"TableEditWizBackbone_v75" : [
"2021-06-30T16:17:53.765-0500"
],
"TableEditWizBackbone_v76" : [
"2021-06-30T16:23:50.493-0500"
],
"TableEditWizBackbone_v77" : [
"2021-07-07T14:45:54.078-0500"
],
"GroupAliasTreeEditWizBackbone_v42" : [
"2021-07-07T16:02:06.216-0500"
],
"GroupAliasTreeEditWizBackbone_v43" : [
"2021-07-07T16:05:39.608-0500"
],
"GroupAliasTreeEditWizBackbone_v44" : [
"2021-07-08T14:00:22.092-0500"
],
"GroupAliasTreeEditWizBackbone_v45" : [
"2021-07-08T14:06:15.833-0500"
],
"GroupAliasTreeEditWizBackbone_v46" : [
"2021-07-08T14:12:40.908-0500"
],
"GroupAliasTreeEditWizBackbone_v47" : [
"2021-07-08T14:17:01.851-0500"
],
"GroupAliasTreeEditWizBackbone_v48" : [
"2021-07-08T14:17:03.279-0500"
],
"GroupAliasTreeEditWizBackbone_v49" : [
"2021-07-08T16:20:46.888-0500"
],
"GroupAliasTreeEditWizBackbone_v50" : [
"2021-07-08T16:21:58.041-0500"
],
"GroupAliasTreeEditWizBackbone_v51" : [
"2021-07-08T16:24:41.232-0500"
],
"TableEditWizBackbone_v78" : [
"2021-07-09T11:47:15.917-0500"
],
"GroupAliasTreeEditWizBackbone_v52" : [
"2021-07-09T11:48:48.073-0500"
],
"TableEditWizBackbone_v79" : [
"2021-07-09T16:06:02.590-0500"
],
"TableEditWizBackbone_v80" : [
"2021-07-12T11:04:57.424-0500"
],
"TableEditWizBackbone_v81" : [
"2021-07-13T12:01:33.708-0500"
],
"GroupAliasTreeEditWizBackbone_v53" : [
"2021-07-13T12:22:09.124-0500"
],
"GroupAliasTreeEditWizBackbone_v54" : [
"2021-07-13T12:22:10.924-0500"
],
"GroupAliasTreeEditWizBackbone_v55" : [
"2021-07-14T13:02:16.126-0500"
],
"GroupAliasTreeEditWizBackbone_v56" : [
"2021-07-14T13:03:03.252-0500"
],
"GroupAliasTreeEditWizBackbone_v57" : [
"2021-07-14T13:03:04.978-0500"
],
"GroupAliasTreeEditWizBackbone_v58" : [
"2021-07-14T13:06:00.560-0500"
],
"GroupAliasTreeEditWizBackbone_v59" : [
"2021-07-14T14:21:03.453-0500"
],
"GroupAliasTreeEditWizBackbone_v60" : [
"2021-07-14T14:21:05.107-0500"
],
"GroupAliasTreeEditWizBackbone_v61" : [
"2021-07-14T14:26:06.901-0500"
],
"GroupAliasTreeEditWizBackbone_v62" : [
"2021-07-14T14:39:33.744-0500"
],
"GroupAliasTreeEditWizBackbone_v63" : [
"2021-07-14T14:47:00.362-0500"
],
"GroupAliasTreeEditWizBackbone_v64" : [
"2021-07-14T14:47:02.068-0500"
],
"GroupAliasTreeEditWizBackbone_v65" : [
"2021-07-14T14:51:08.252-0500"
],
"TableEditWizBackbone_v82" : [
"2021-07-14T15:24:35.899-0500"
],
"TableEditWizBackbone_v83" : [
"2021-07-14T16:05:31.677-0500"
],
"TableEditWizBackbone_v84" : [
"2021-07-14T16:15:43.362-0500"
],
"GroupAliasTreeEditWizBackbone_v66" : [
"2021-07-14T16:17:44.148-0500"
],
"GroupAliasTreeEditWizBackbone_v67" : [
"2021-07-14T16:17:45.824-0500"
],
"TableEditWizBackbone_v85" : [
"2021-07-15T11:50:36.009-0500"
],
"GroupAliasTreeEditWizBackbone_v68" : [
"2021-07-20T13:45:56.003-0500"
],
"TableEditWizBackbone_v86" : [
"2021-07-20T16:41:44.505-0500"
],
"GroupAliasTreeEditWizBackbone_v69" : [
"2021-07-20T16:50:38.639-0500"
],
"TableEditWizBackbone_v87" : [
"2021-07-20T17:09:29.104-0500"
],
"GroupAliasTreeEditWizBackbone_v70" : [
"2021-07-20T17:28:42.402-0500"
],
"TableEditWizBackbone_v88" : [
"2021-07-20T17:46:29.734-0500"
],
"TableEditWizBackbone_v89" : [
"2021-07-21T11:50:04.045-0500"
],
"GroupAliasTreeEditWizBackbone_v71" : [
"2021-07-21T11:58:41.265-0500"
],
"GroupAliasTreeEditWizBackbone_v72" : [
"2021-07-21T11:58:43.026-0500"
],
"TableEditWizBackbone_v90" : [
"2021-07-21T11:59:35.632-0500"
],
"TableEditWizBackbone_v91" : [
"2021-07-21T12:08:24.594-0500"
],
"GroupAliasTreeEditWizBackbone_v73" : [
"2021-07-22T18:35:02.871-0500"
],
"TableEditWizBackbone_v92" : [
"2021-07-23T12:33:59.078-0500"
],
"TableEditWizBackbone_v93" : [
"2021-07-24T00:54:51.841-0500"
],
"TableEditWizBackbone_v94" : [
"2021-07-24T12:12:53.776-0500"
],
"TableEditWizBackbone_v95" : [
"2021-07-25T21:07:18.453-0500"
],
"TableEditWizBackbone_v96" : [
"2021-07-26T07:43:14.299-0500"
],
"TableEditWizBackbone_v97" : [
"2021-07-26T18:37:14.383-0500"
],
"TableEditWizBackbone_v98" : [
"2021-07-27T08:25:43.136-0500"
],
"GroupAliasTreeEditWizBackbone_v74" : [
"2021-08-03T11:10:41.829-0500"
],
"GroupAliasTreeEditWizBackbone_v75" : [
"2021-08-03T11:10:43.713-0500"
],
"TableEditWizBackbone_v99" : [
"2021-08-04T12:22:00.118-0500"
],
"TableEditWizBackbone_v100" : [
"2021-09-02T13:43:36.501-0500"
],
"GroupAliasTreeEditWizBackbone_v76" : [
"2021-09-02T14:03:39.320-0500"
],
"GroupAliasTreeEditWizBackbone_v77" : [
"2021-09-02T14:08:03.262-0500"
],
"GroupAliasTreeEditWizBackbone_v78" : [
"2021-09-02T14:38:40.088-0500"
],
"TableEditWizBackbone_v101" : [
"2021-09-23T15:47:07.725-0500"
],
"TableEditWizBackbone_v102" : [
"2021-09-23T15:47:44.673-0500"
],
"GroupAliasTreeEditWizBackbone_v79" : [
"2021-09-24T15:36:54.943-0500"
],
"GroupAliasTreeEditWizBackbone_v80" : [
"2021-09-24T15:36:56.848-0500"
],
"TableEditWizBackbone_v103" : [
"2021-09-24T15:42:29.280-0500"
],
"TableEditWizBackbone_v104" : [
"2021-09-24T15:44:06.385-0500"
],
"GroupAliasTreeEditWizBackbone_v81" : [
"2021-09-24T15:49:57.077-0500"
],
"TableEditWizBackbone_v105" : [
"2021-09-24T15:53:25.648-0500"
],
"TableEditWizBackbone_v106" : [
"2021-09-24T16:04:24.657-0500"
],
"TableEditWizBackbone_v107" : [
"2021-09-24T16:22:56.137-0500"
],
"GroupAliasTreeEditWizBackbone_v82" : [
"2021-09-24T16:24:16.294-0500"
],
"GroupAliasTreeEditWizBackbone_v83" : [
"2021-09-24T16:26:22.094-0500"
],
"TableEditWizBackbone_v108" : [
"2021-09-24T16:28:09.505-0500"
],
"TableEditWizBackbone_v109" : [
"2021-09-24T16:28:31.830-0500"
],
"TableEditWizBackbone_v110" : [
"2021-09-27T09:02:58.892-0500"
],
"TableEditWizBackbone_v111" : [
"2021-09-27T09:04:06.866-0500"
],
"TableEditWizBackbone_v112" : [
"2021-09-27T14:22:27.277-0500"
],
"TableEditWizBackbone_v113" : [
"2021-09-27T14:23:22.003-0500"
],
"TableEditWizBackbone_v114" : [
"2021-09-28T09:24:53.224-0500"
],
"TableEditWizBackbone_v115" : [
"2021-09-28T09:25:13.064-0500"
],
"GroupAliasTreeEditWizBackbone_v84" : [
"2021-09-28T10:23:00.034-0500"
],
"GroupAliasTreeEditWizBackbone_v85" : [
"2021-09-28T11:22:06.386-0500"
],
"GroupAliasTreeEditWizBackbone_v86" : [
"2021-09-29T11:49:47.100-0500"
],
"GroupAliasTreeEditWizBackbone_v87" : [
"2021-09-30T09:14:53.485-0500"
],
"TableEditWizBackbone_v116" : [
"2021-10-01T10:56:23.964-0500"
],
"TableEditWizBackbone_v117" : [
"2021-10-01T10:56:41.853-0500"
],
"TableEditWizBackbone_v118" : [
"2021-10-01T11:01:43.575-0500"
],
"TableEditWizBackbone_v119" : [
"2021-10-01T11:03:51.412-0500"
],
"GroupAliasTreeEditWizBackbone_v88" : [
"2021-10-01T13:59:56.335-0500"
],
"GroupAliasTreeEditWizBackbone_v89" : [
"2021-10-01T14:01:56.912-0500"
],
"GroupAliasTreeEditWizBackbone_v90" : [
"2021-10-05T17:13:04.112-0500"
],
"TableEditWizBackbone_v120" : [
"2021-10-06T10:02:34.019-0500"
],
"TableEditWizBackbone_v121" : [
"2021-10-06T10:02:51.938-0500"
],
"TableEditWizBackbone_v122" : [
"2021-10-07T16:32:43.028-0500"
],
"TableEditWizBackbone_v123" : [
"2021-10-07T16:33:04.766-0500"
],
"TableEditWizBackbone_v124" : [
"2021-10-08T14:03:17.937-0500"
],
"TableEditWizBackbone_v125" : [
"2021-10-11T16:00:59.052-0500"
],
"TableEditWizBackbone_v126" : [
"2021-10-11T17:57:26.597-0500"
],
"TableEditWizBackbone_v127" : [
"2021-10-12T09:07:20.247-0500"
],
"TableEditWizBackbone_v128" : [
"2021-10-12T09:07:35.020-0500"
],
"TableEditWizBackbone_v129" : [
"2021-10-12T11:11:25.902-0500"
],
"TableEditWizBackbone_v130" : [
"2021-10-12T11:11:48.130-0500"
],
"TableEditWizBackbone_v131" : [
"2021-10-12T13:46:55.928-0500"
],
"TableEditWizBackbone_v132" : [
"2021-10-12T14:33:53.783-0500"
],
"TableEditWizBackbone_v133" : [
"2021-10-14T17:03:19.399-0500"
],
"TableEditWizBackbone_v134" : [
"2021-10-14T17:03:40.067-0500"
],
"TableEditWizBackbone_v135" : [
"2021-10-15T10:48:33.975-0500"
],
"TableEditWizBackbone_v136" : [
"2021-10-15T10:48:46.978-0500"
],
"TableEditWizBackbone_v137" : [
"2021-10-15T15:50:52.103-0500"
],
"TableEditWizBackbone_v138" : [
"2021-10-15T15:51:07.299-0500"
],
"TableEditWizBackbone_v139" : [
"2021-11-03T16:30:22.882-0500"
],
"TableEditWizBackbone_v140" : [
"2021-11-03T16:31:02.559-0500"
],
"TableEditWizBackbone_v141" : [
"2021-11-10T08:36:02.890-0600"
],
"TableEditWizBackbone_v142" : [
"2021-11-10T15:06:50.299-0600"
],
"TableEditWizBackbone_v143" : [
"2021-11-10T15:08:33.779-0600"
],
"GroupAliasTreeEditWizBackbone_v91" : [
"2021-11-10T15:11:07.988-0600"
],
"GroupAliasTreeEditWizBackbone_v92" : [
"2021-11-10T15:11:10.183-0600"
],
"GroupAliasTreeEditWizBackbone_v93" : [
"2021-11-10T16:33:25.005-0600"
],
"GroupAliasWizBackbone_v0" : [
"2022-04-18T12:56:06.218-0400"
],
"GroupAliasWizBackbone_v1" : [
"2022-04-19T14:35:58.703-0400"
],
"GroupAliasWizBackbone_v2" : [
"2022-04-19T15:00:29.031-0400"
],
"GroupAliasTreeEditWizBackbone_v94" : [
"2022-04-20T10:06:08.567-0400"
],
"GroupAliasTreeEditWizBackbone_v95" : [
"2022-04-20T10:06:55.171-0400"
],
"GroupAliasTreeEditWizBackbone_v96" : [
"2022-04-20T11:23:55.399-0400"
]
}
}