{
"document" : {
"data" : {
"NAME" : "SLOW_CONTROLS_DASHBOARD_SUPERVISOR_TABLE",
"COMMENT" : "No comment.",
"AUTHOR" : "admin",
"CREATION_TIME" : 1593446109,
"COL_TYPES" : {
"SUPERVISOR_UID" : "STRING",
"SLOW_CONTROLS_INTERFACE_PLUGIN_TYPE" : "STRING",
"SLOW_CONTROLS_CHANNEL_SOURCE_TABLE_LIST" : "STRING",
"LINK_TO_CONFIGURE_ALARMS_TO_MONITOR_TABLE" : "STRING",
"LINK_TO_CONFIGURE_ALARMS_TO_MONITOR_GROUP_ID" : "STRING",
"LINK_TO_HALT_ALARMS_TO_MONITOR_TABLE" : "STRING",
"LINK_TO_HALT_ALARMS_TO_MONITOR_GROUP_ID" : "STRING",
"LINK_TO_PAUSE_ALARMS_TO_MONITOR_TABLE" : "STRING",
"LINK_TO_PAUSE_ALARMS_TO_MONITOR_GROUP_ID" : "STRING",
"LINK_TO_RESUME_ALARMS_TO_MONITOR_TABLE" : "STRING",
"LINK_TO_RESUME_ALARMS_TO_MONITOR_GROUP_ID" : "STRING",
"LINK_TO_START_ALARMS_TO_MONITOR_TABLE" : "STRING",
"LINK_TO_START_ALARMS_TO_MONITOR_GROUP_ID" : "STRING",
"LINK_TO_STOP_ALARMS_TO_MONITOR_TABLE" : "STRING",
"LINK_TO_STOP_ALARMS_TO_MONITOR_GROUP_ID" : "STRING",
"LINK_TO_RUNNING_ALARMS_TO_MONITOR_TABLE" : "STRING",
"LINK_TO_RUNNING_ALARMS_TO_MONITOR_GROUP_ID" : "STRING",
"LINK_TO_ALARM_ALERT_NOTIFICATIONS_TABLE" : "STRING",
"LINK_TO_ALARM_ALERT_NOTIFICATIONS_GROUP_ID" : "STRING",
"COMMENT_DESCRIPTION" : "STRING",
"AUTHOR" : "STRING",
"RECORD_INSERTION_TIME" : "TIMESTAMP WITH TIMEZONE"
},
"DATA_SET" : [
{
"SUPERVISOR_UID" : "DEFAULT",
"SLOW_CONTROLS_INTERFACE_PLUGIN_TYPE" : "DEFAULT",
"SLOW_CONTROLS_CHANNEL_SOURCE_TABLE_LIST" : "DEFAULT",
"LINK_TO_CONFIGURE_ALARMS_TO_MONITOR_TABLE" : "NO_LINK",
"LINK_TO_CONFIGURE_ALARMS_TO_MONITOR_GROUP_ID" : "DEFAULT",
"LINK_TO_HALT_ALARMS_TO_MONITOR_TABLE" : "NO_LINK",
"LINK_TO_HALT_ALARMS_TO_MONITOR_GROUP_ID" : "DEFAULT",
"LINK_TO_PAUSE_ALARMS_TO_MONITOR_TABLE" : "NO_LINK",
"LINK_TO_PAUSE_ALARMS_TO_MONITOR_GROUP_ID" : "DEFAULT",
"LINK_TO_RESUME_ALARMS_TO_MONITOR_TABLE" : "NO_LINK",
"LINK_TO_RESUME_ALARMS_TO_MONITOR_GROUP_ID" : "DEFAULT",
"LINK_TO_START_ALARMS_TO_MONITOR_TABLE" : "NO_LINK",
"LINK_TO_START_ALARMS_TO_MONITOR_GROUP_ID" : "DEFAULT",
"LINK_TO_STOP_ALARMS_TO_MONITOR_TABLE" : "NO_LINK",
"LINK_TO_STOP_ALARMS_TO_MONITOR_GROUP_ID" : "DEFAULT",
"LINK_TO_RUNNING_ALARMS_TO_MONITOR_TABLE" : "NO_LINK",
"LINK_TO_RUNNING_ALARMS_TO_MONITOR_GROUP_ID" : "DEFAULT",
"LINK_TO_ALARM_ALERT_NOTIFICATIONS_TABLE" : "NO_LINK",
"LINK_TO_ALARM_ALERT_NOTIFICATIONS_GROUP_ID" : "DEFAULT",
"COMMENT_DESCRIPTION" : "No Comment",
"AUTHOR" : "admin",
"RECORD_INSERTION_TIME" : "1593446109"
}
]
},
"metadata" : {

},
"search" : [

]
},
"comments" : [

],
"origin" : {
"source" : "template",
"name" : "notprovided",
"format" : "json",
"created" : "2020-06-29T10:55:09.620-0500",
"rawdata" : [

]
},
"version" : "0",
"entities" : [
{
"name" : "OTSROOT",
"assigned" : "2020-06-29T10:55:09.622-0500"
}
],
"configurations" : [
{
"name" : "notprovided",
"assigned" : "2020-06-29T10:55:09.621-0500"
},
{
"name" : "BurninBoxConfig_v29",
"assigned" : "2020-06-29T10:55:10.726-0500"
},
{
"name" : "DefaultContext_v5",
"assigned" : "2020-06-29T11:00:05.285-0500"
},
{
"name" : "DefaultContext_v6",
"assigned" : "2020-07-29T16:01:22.392-0500"
},
{
"name" : "DefaultContext_v7",
"assigned" : "2020-07-29T16:34:42.750-0500"
},
{
"name" : "DefaultContext_v8",
"assigned" : "2020-07-29T16:39:53.588-0500"
},
{
"name" : "DefaultContext_v9",
"assigned" : "2020-07-29T16:40:44.204-0500"
},
{
"name" : "DefaultContext_v10",
"assigned" : "2020-07-29T16:45:01.493-0500"
},
{
"name" : "DefaultContext_v11",
"assigned" : "2020-07-29T16:49:16.303-0500"
},
{
"name" : "DefaultContext_v12",
"assigned" : "2020-09-02T15:22:09.469-0500"
},
{
"name" : "DefaultContext_v13",
"assigned" : "2020-10-05T17:04:58.207-0500"
},
{
"name" : "DefaultContext_v14",
"assigned" : "2020-10-05T17:07:06.710-0500"
},
{
"name" : "DefaultContext_v15",
"assigned" : "2020-10-05T17:43:27.150-0500"
},
{
"name" : "DefaultContext_v16",
"assigned" : "2020-10-05T17:51:30.095-0500"
},
{
"name" : "DefaultContext_v17",
"assigned" : "2020-10-09T11:58:10.192-0500"
},
{
"name" : "DefaultContext_v18",
"assigned" : "2020-10-09T12:53:53.903-0500"
},
{
"name" : "DefaultContext_v19",
"assigned" : "2020-10-09T12:57:06.662-0500"
},
{
"name" : "DefaultContext_v20",
"assigned" : "2020-10-09T13:00:58.002-0500"
},
{
"name" : "DefaultContext_v21",
"assigned" : "2020-10-09T15:30:48.447-0500"
},
{
"name" : "DefaultContext_v22",
"assigned" : "2020-10-09T15:32:24.127-0500"
},
{
"name" : "DefaultContext_v23",
"assigned" : "2020-10-09T15:32:58.497-0500"
},
{
"name" : "DefaultContext_v24",
"assigned" : "2020-10-09T16:47:19.076-0500"
},
{
"name" : "DefaultContext_v25",
"assigned" : "2020-10-12T09:37:49.944-0500"
},
{
"name" : "DefaultContext_v26",
"assigned" : "2020-10-12T09:41:39.455-0500"
},
{
"name" : "DefaultContext_v27",
"assigned" : "2020-10-29T11:54:28.355-0500"
},
{
"name" : "DefaultContext_v28",
"assigned" : "2020-10-29T11:54:56.346-0500"
},
{
"name" : "DefaultContext_v29",
"assigned" : "2020-10-29T13:33:31.054-0500"
},
{
"name" : "DefaultContext_v30",
"assigned" : "2020-11-16T17:04:43.352-0600"
},
{
"name" : "DefaultContext_v31",
"assigned" : "2020-11-16T17:07:49.691-0600"
},
{
"name" : "DefaultContext_v32",
"assigned" : "2020-11-16T17:10:03.819-0600"
},
{
"name" : "DefaultContext_v33",
"assigned" : "2021-07-07T14:45:52.233-0500"
},
{
"name" : "DefaultContext_v34",
"assigned" : "2021-07-07T16:02:04.355-0500"
},
{
"name" : "DefaultContext_v35",
"assigned" : "2021-07-07T16:05:37.916-0500"
},
{
"name" : "DefaultContext_v36",
"assigned" : "2021-07-08T14:00:20.433-0500"
},
{
"name" : "DefaultContext_v37",
"assigned" : "2021-07-08T14:17:00.149-0500"
},
{
"name" : "DefaultContext_v38",
"assigned" : "2021-07-08T16:21:56.261-0500"
},
{
"name" : "DefaultContext_v39",
"assigned" : "2021-07-08T16:24:39.395-0500"
},
{
"name" : "DefaultContext_v40",
"assigned" : "2021-07-14T13:02:14.203-0500"
},
{
"name" : "DefaultContext_v41",
"assigned" : "2021-07-14T13:03:01.334-0500"
},
{
"name" : "DefaultContext_v42",
"assigned" : "2021-07-14T14:39:31.797-0500"
},
{
"name" : "DefaultContext_v43",
"assigned" : "2021-07-21T12:08:22.617-0500"
},
{
"name" : "DefaultContext_v44",
"assigned" : "2021-08-03T11:10:39.577-0500"
},
{
"name" : "DefaultContext_v45",
"assigned" : "2021-09-02T14:08:00.972-0500"
},
{
"name" : "DefaultContext_v46",
"assigned" : "2021-09-24T15:36:52.610-0500"
},
{
"name" : "DefaultContext_v47",
"assigned" : "2021-09-28T10:22:57.615-0500"
},
{
"name" : "DefaultContext_v48",
"assigned" : "2021-11-10T15:11:05.305-0600"
},
{
"name" : "DefaultContext_v49",
"assigned" : "2022-04-18T12:56:04.330-0400"
},
{
"name" : "DefaultContext_v50",
"assigned" : "2022-04-20T10:06:52.245-0400"
}
],
"changelog" : "notprovided",
"bookkeeping" : {
"isdeleted" : false,
"isreadonly" : false,
"updates" : [
{
"event" : "addConfiguration",
"timestamp" : "2020-06-29T10:55:09.621-0500",
"value" : {
"name" : "notprovided",
"assigned" : "2020-06-29T10:55:09.621-0500"
}
},
{
"event" : "setVersion",
"timestamp" : "2020-06-29T10:55:09.621-0500",
"value" : {
"name" : "0",
"assigned" : "2020-06-29T10:55:09.621-0500"
}
},
{
"event" : "setCollection",
"timestamp" : "2020-06-29T10:55:09.622-0500",
"value" : {
"name" : "SlowControlsDashboardSupervisorTable",
"assigned" : "2020-06-29T10:55:09.622-0500"
}
},
{
"event" : "addEntity",
"timestamp" : "2020-06-29T10:55:09.622-0500",
"value" : {
"name" : "OTSROOT",
"assigned" : "2020-06-29T10:55:09.622-0500"
}
},
{
"event" : "addConfiguration",
"timestamp" : "2020-06-29T10:55:10.726-0500",
"value" : {
"name" : "BurninBoxConfig_v29",
"assigned" : "2020-06-29T10:55:10.726-0500"
}
},
{
"event" : "addConfiguration",
"timestamp" : "2020-06-29T11:00:05.285-0500",
"value" : {
"name" : "DefaultContext_v5",
"assigned" : "2020-06-29T11:00:05.285-0500"
}
},
{
"event" : "addConfiguration",
"timestamp" : "2020-07-29T16:01:22.392-0500",
"value" : {
"name" : "DefaultContext_v6",
"assigned" : "2020-07-29T16:01:22.392-0500"
}
},
{
"event" : "addConfiguration",
"timestamp" : "2020-07-29T16:34:42.750-0500",
"value" : {
"name" : "DefaultContext_v7",
"assigned" : "2020-07-29T16:34:42.750-0500"
}
},
{
"event" : "addConfiguration",
"timestamp" : "2020-07-29T16:39:53.588-0500",
"value" : {
"name" : "DefaultContext_v8",
"assigned" : "2020-07-29T16:39:53.588-0500"
}
},
{
"event" : "addConfiguration",
"timestamp" : "2020-07-29T16:40:44.204-0500",
"value" : {
"name" : "DefaultContext_v9",
"assigned" : "2020-07-29T16:40:44.204-0500"
}
},
{
"event" : "addConfiguration",
"timestamp" : "2020-07-29T16:45:01.493-0500",
"value" : {
"name" : "DefaultContext_v10",
"assigned" : "2020-07-29T16:45:01.493-0500"
}
},
{
"event" : "addConfiguration",
"timestamp" : "2020-07-29T16:49:16.303-0500",
"value" : {
"name" : "DefaultContext_v11",
"assigned" : "2020-07-29T16:49:16.303-0500"
}
},
{
"event" : "addConfiguration",
"timestamp" : "2020-09-02T15:22:09.469-0500",
"value" : {
"name" : "DefaultContext_v12",
"assigned" : "2020-09-02T15:22:09.469-0500"
}
},
{
"event" : "addConfiguration",
"timestamp" : "2020-10-05T17:04:58.207-0500",
"value" : {
"name" : "DefaultContext_v13",
"assigned" : "2020-10-05T17:04:58.207-0500"
}
},
{
"event" : "addConfiguration",
"timestamp" : "2020-10-05T17:07:06.710-0500",
"value" : {
"name" : "DefaultContext_v14",
"assigned" : "2020-10-05T17:07:06.710-0500"
}
},
{
"event" : "addConfiguration",
"timestamp" : "2020-10-05T17:43:27.150-0500",
"value" : {
"name" : "DefaultContext_v15",
"assigned" : "2020-10-05T17:43:27.150-0500"
}
},
{
"event" : "addConfiguration",
"timestamp" : "2020-10-05T17:51:30.095-0500",
"value" : {
"name" : "DefaultContext_v16",
"assigned" : "2020-10-05T17:51:30.095-0500"
}
},
{
"event" : "addConfiguration",
"timestamp" : "2020-10-09T11:58:10.192-0500",
"value" : {
"name" : "DefaultContext_v17",
"assigned" : "2020-10-09T11:58:10.192-0500"
}
},
{
"event" : "addConfiguration",
"timestamp" : "2020-10-09T12:53:53.903-0500",
"value" : {
"name" : "DefaultContext_v18",
"assigned" : "2020-10-09T12:53:53.903-0500"
}
},
{
"event" : "addConfiguration",
"timestamp" : "2020-10-09T12:57:06.662-0500",
"value" : {
"name" : "DefaultContext_v19",
"assigned" : "2020-10-09T12:57:06.662-0500"
}
},
{
"event" : "addConfiguration",
"timestamp" : "2020-10-09T13:00:58.002-0500",
"value" : {
"name" : "DefaultContext_v20",
"assigned" : "2020-10-09T13:00:58.002-0500"
}
},
{
"event" : "addConfiguration",
"timestamp" : "2020-10-09T15:30:48.447-0500",
"value" : {
"name" : "DefaultContext_v21",
"assigned" : "2020-10-09T15:30:48.447-0500"
}
},
{
"event" : "addConfiguration",
"timestamp" : "2020-10-09T15:32:24.127-0500",
"value" : {
"name" : "DefaultContext_v22",
"assigned" : "2020-10-09T15:32:24.127-0500"
}
},
{
"event" : "addConfiguration",
"timestamp" : "2020-10-09T15:32:58.497-0500",
"value" : {
"name" : "DefaultContext_v23",
"assigned" : "2020-10-09T15:32:58.497-0500"
}
},
{
"event" : "addConfiguration",
"timestamp" : "2020-10-09T16:47:19.076-0500",
"value" : {
"name" : "DefaultContext_v24",
"assigned" : "2020-10-09T16:47:19.076-0500"
}
},
{
"event" : "addConfiguration",
"timestamp" : "2020-10-12T09:37:49.944-0500",
"value" : {
"name" : "DefaultContext_v25",
"assigned" : "2020-10-12T09:37:49.944-0500"
}
},
{
"event" : "addConfiguration",
"timestamp" : "2020-10-12T09:41:39.455-0500",
"value" : {
"name" : "DefaultContext_v26",
"assigned" : "2020-10-12T09:41:39.455-0500"
}
},
{
"event" : "addConfiguration",
"timestamp" : "2020-10-29T11:54:28.355-0500",
"value" : {
"name" : "DefaultContext_v27",
"assigned" : "2020-10-29T11:54:28.355-0500"
}
},
{
"event" : "addConfiguration",
"timestamp" : "2020-10-29T11:54:56.346-0500",
"value" : {
"name" : "DefaultContext_v28",
"assigned" : "2020-10-29T11:54:56.346-0500"
}
},
{
"event" : "addConfiguration",
"timestamp" : "2020-10-29T13:33:31.054-0500",
"value" : {
"name" : "DefaultContext_v29",
"assigned" : "2020-10-29T13:33:31.054-0500"
}
},
{
"event" : "addConfiguration",
"timestamp" : "2020-11-16T17:04:43.352-0600",
"value" : {
"name" : "DefaultContext_v30",
"assigned" : "2020-11-16T17:04:43.352-0600"
}
},
{
"event" : "addConfiguration",
"timestamp" : "2020-11-16T17:07:49.691-0600",
"value" : {
"name" : "DefaultContext_v31",
"assigned" : "2020-11-16T17:07:49.691-0600"
}
},
{
"event" : "addConfiguration",
"timestamp" : "2020-11-16T17:10:03.819-0600",
"value" : {
"name" : "DefaultContext_v32",
"assigned" : "2020-11-16T17:10:03.819-0600"
}
},
{
"event" : "addConfiguration",
"timestamp" : "2021-07-07T14:45:52.233-0500",
"value" : {
"name" : "DefaultContext_v33",
"assigned" : "2021-07-07T14:45:52.233-0500"
}
},
{
"event" : "addConfiguration",
"timestamp" : "2021-07-07T16:02:04.355-0500",
"value" : {
"name" : "DefaultContext_v34",
"assigned" : "2021-07-07T16:02:04.355-0500"
}
},
{
"event" : "addConfiguration",
"timestamp" : "2021-07-07T16:05:37.916-0500",
"value" : {
"name" : "DefaultContext_v35",
"assigned" : "2021-07-07T16:05:37.916-0500"
}
},
{
"event" : "addConfiguration",
"timestamp" : "2021-07-08T14:00:20.433-0500",
"value" : {
"name" : "DefaultContext_v36",
"assigned" : "2021-07-08T14:00:20.433-0500"
}
},
{
"event" : "addConfiguration",
"timestamp" : "2021-07-08T14:17:00.149-0500",
"value" : {
"name" : "DefaultContext_v37",
"assigned" : "2021-07-08T14:17:00.149-0500"
}
},
{
"event" : "addConfiguration",
"timestamp" : "2021-07-08T16:21:56.261-0500",
"value" : {
"name" : "DefaultContext_v38",
"assigned" : "2021-07-08T16:21:56.261-0500"
}
},
{
"event" : "addConfiguration",
"timestamp" : "2021-07-08T16:24:39.395-0500",
"value" : {
"name" : "DefaultContext_v39",
"assigned" : "2021-07-08T16:24:39.395-0500"
}
},
{
"event" : "addConfiguration",
"timestamp" : "2021-07-14T13:02:14.203-0500",
"value" : {
"name" : "DefaultContext_v40",
"assigned" : "2021-07-14T13:02:14.203-0500"
}
},
{
"event" : "addConfiguration",
"timestamp" : "2021-07-14T13:03:01.334-0500",
"value" : {
"name" : "DefaultContext_v41",
"assigned" : "2021-07-14T13:03:01.334-0500"
}
},
{
"event" : "addConfiguration",
"timestamp" : "2021-07-14T14:39:31.797-0500",
"value" : {
"name" : "DefaultContext_v42",
"assigned" : "2021-07-14T14:39:31.797-0500"
}
},
{
"event" : "addConfiguration",
"timestamp" : "2021-07-21T12:08:22.617-0500",
"value" : {
"name" : "DefaultContext_v43",
"assigned" : "2021-07-21T12:08:22.617-0500"
}
},
{
"event" : "addConfiguration",
"timestamp" : "2021-08-03T11:10:39.577-0500",
"value" : {
"name" : "DefaultContext_v44",
"assigned" : "2021-08-03T11:10:39.577-0500"
}
},
{
"event" : "addConfiguration",
"timestamp" : "2021-09-02T14:08:00.972-0500",
"value" : {
"name" : "DefaultContext_v45",
"assigned" : "2021-09-02T14:08:00.972-0500"
}
},
{
"event" : "addConfiguration",
"timestamp" : "2021-09-24T15:36:52.610-0500",
"value" : {
"name" : "DefaultContext_v46",
"assigned" : "2021-09-24T15:36:52.610-0500"
}
},
{
"event" : "addConfiguration",
"timestamp" : "2021-09-28T10:22:57.615-0500",
"value" : {
"name" : "DefaultContext_v47",
"assigned" : "2021-09-28T10:22:57.615-0500"
}
},
{
"event" : "addConfiguration",
"timestamp" : "2021-11-10T15:11:05.306-0600",
"value" : {
"name" : "DefaultContext_v48",
"assigned" : "2021-11-10T15:11:05.305-0600"
}
},
{
"event" : "addConfiguration",
"timestamp" : "2022-04-18T12:56:04.330-0400",
"value" : {
"name" : "DefaultContext_v49",
"assigned" : "2022-04-18T12:56:04.330-0400"
}
},
{
"event" : "addConfiguration",
"timestamp" : "2022-04-20T10:06:52.245-0400",
"value" : {
"name" : "DefaultContext_v50",
"assigned" : "2022-04-20T10:06:52.245-0400"
}
}
],
"created" : "2020-06-29T10:55:09.620-0500"
},
"_id" : {
"$oid" : "2ac16f5aa3c44782b06990fa"
},
"collection" : "SlowControlsDashboardSupervisorTable",
"aliases" : {
"active" : [

],
"history" : [

]
},
"runs" : [

],
"attachments" : [

],
"configtype" : "notprovided"
}