{
"ouid" : [
"9c6def7b052142229721d0db"
],
"version" : {
"0" : [
"9c6def7b052142229721d0db"
]
},
"configurations.name" : {
"notprovided" : [
"9c6def7b052142229721d0db"
],
"BurninBoxConfiguration_v0" : [
"9c6def7b052142229721d0db"
],
"BurninBoxConfiguration_v1" : [
"9c6def7b052142229721d0db"
],
"BurninBoxConfiguration_v2" : [
"9c6def7b052142229721d0db"
]
},
"entities.name" : {
"OTSROOT" : [
"9c6def7b052142229721d0db"
]
},
"aliases.active.name" : {

},
"runs.name" : {

},
"configurations.assigned" : {
"notprovided" : [
"2023-10-25T15:16:48.938-0500"
],
"BurninBoxConfiguration_v0" : [
"2023-10-25T15:16:49.788-0500"
],
"BurninBoxConfiguration_v1" : [
"2023-10-25T15:16:50.650-0500"
],
"BurninBoxConfiguration_v2" : [
"2023-10-25T15:16:51.892-0500"
]
}
}