{
"ouid" : [
"4b08ac9cbd124654ada6198f",
"b53fb1819cfb4f1083af61a3",
"dbaaee103d5f48018a1401c6"
],
"version" : {
"0" : [
"b53fb1819cfb4f1083af61a3"
],
"1" : [
"4b08ac9cbd124654ada6198f"
],
"2" : [
"dbaaee103d5f48018a1401c6"
]
},
"configurations.name" : {
"notprovided" : [
"4b08ac9cbd124654ada6198f",
"b53fb1819cfb4f1083af61a3",
"dbaaee103d5f48018a1401c6"
],
"BurninBoxConfig_v0" : [
"b53fb1819cfb4f1083af61a3"
],
"BurninBoxConfig_v1" : [
"b53fb1819cfb4f1083af61a3"
],
"BurninBoxConfig_v2" : [
"b53fb1819cfb4f1083af61a3"
],
"BurninBoxConfig_v3" : [
"4b08ac9cbd124654ada6198f"
],
"BurninBoxConfig_v4" : [
"4b08ac9cbd124654ada6198f"
],
"BurninBoxConfig_v5" : [
"4b08ac9cbd124654ada6198f"
],
"BurninBoxConfig_v6" : [
"4b08ac9cbd124654ada6198f"
],
"BurninBoxConfig_v7" : [
"4b08ac9cbd124654ada6198f"
],
"BurninBoxConfig_v8" : [
"4b08ac9cbd124654ada6198f"
],
"BurninBoxConfig_v9" : [
"4b08ac9cbd124654ada6198f"
],
"BurninBoxConfig_v10" : [
"4b08ac9cbd124654ada6198f"
],
"BurninBoxConfig_v11" : [
"4b08ac9cbd124654ada6198f"
],
"BurninBoxConfig_v12" : [
"4b08ac9cbd124654ada6198f"
],
"BurninBoxConfig_v13" : [
"4b08ac9cbd124654ada6198f"
],
"BurninBoxConfig_v14" : [
"4b08ac9cbd124654ada6198f"
],
"BurninBoxConfig_v15" : [
"4b08ac9cbd124654ada6198f"
],
"BurninBoxConfig_v16" : [
"4b08ac9cbd124654ada6198f"
],
"BurninBoxConfig_v17" : [
"4b08ac9cbd124654ada6198f"
],
"BurninBoxConfig_v18" : [
"4b08ac9cbd124654ada6198f"
],
"BurninBoxConfig_v19" : [
"4b08ac9cbd124654ada6198f"
],
"BurninBoxConfig_v20" : [
"4b08ac9cbd124654ada6198f"
],
"BurninBoxConfig_v21" : [
"4b08ac9cbd124654ada6198f"
],
"BurninBoxConfig_v22" : [
"4b08ac9cbd124654ada6198f"
],
"BurninBoxConfig_v23" : [
"4b08ac9cbd124654ada6198f"
],
"BurninBoxConfig_v24" : [
"4b08ac9cbd124654ada6198f"
],
"BurninBoxConfig_v25" : [
"4b08ac9cbd124654ada6198f"
],
"BurninBoxConfig_v26" : [
"4b08ac9cbd124654ada6198f"
],
"BurninBoxConfig_v27" : [
"4b08ac9cbd124654ada6198f"
],
"BurninBoxConfig_v28" : [
"dbaaee103d5f48018a1401c6"
],
"BurninBoxConfig_v29" : [
"dbaaee103d5f48018a1401c6"
],
"BurninBoxConfig_v30" : [
"dbaaee103d5f48018a1401c6"
],
"BurninBoxConfig_v31" : [
"dbaaee103d5f48018a1401c6"
],
"BurninBoxConfig_v32" : [
"dbaaee103d5f48018a1401c6"
],
"BurninBoxConfig_v33" : [
"dbaaee103d5f48018a1401c6"
],
"BurninBoxConfig_v34" : [
"dbaaee103d5f48018a1401c6"
],
"BurninBoxConfig_v35" : [
"dbaaee103d5f48018a1401c6"
],
"BurninBoxConfig_v36" : [
"dbaaee103d5f48018a1401c6"
],
"BurninBoxConfiguration_v0" : [
"dbaaee103d5f48018a1401c6"
],
"BurninBoxConfiguration_v1" : [
"dbaaee103d5f48018a1401c6"
],
"BurninBoxConfiguration_v2" : [
"dbaaee103d5f48018a1401c6"
],
"BurninBoxConfiguration_v3" : [
"dbaaee103d5f48018a1401c6"
],
"BurninBoxConfiguration_v4" : [
"dbaaee103d5f48018a1401c6"
],
"BurninBoxConfiguration_v5" : [
"dbaaee103d5f48018a1401c6"
],
"BurninBoxConfiguration_v6" : [
"dbaaee103d5f48018a1401c6"
],
"BurninBoxConfiguration_v7" : [
"dbaaee103d5f48018a1401c6"
],
"BurninBoxConfiguration_v8" : [
"dbaaee103d5f48018a1401c6"
],
"BurninBoxConfiguration_v9" : [
"dbaaee103d5f48018a1401c6"
],
"BurninBoxConfiguration_v10" : [
"dbaaee103d5f48018a1401c6"
],
"BurninBoxConfiguration_v11" : [
"dbaaee103d5f48018a1401c6"
],
"BurninBoxConfiguration_v12" : [
"dbaaee103d5f48018a1401c6"
],
"BurninBoxConfiguration_v13" : [
"dbaaee103d5f48018a1401c6"
],
"BurninBoxConfiguration_v14" : [
"dbaaee103d5f48018a1401c6"
],
"BurninBoxConfiguration_v15" : [
"dbaaee103d5f48018a1401c6"
],
"BurninBoxConfiguration_v16" : [
"dbaaee103d5f48018a1401c6"
],
"BurninBoxConfiguration_v17" : [
"dbaaee103d5f48018a1401c6"
],
"BurninBoxConfiguration_v18" : [
"dbaaee103d5f48018a1401c6"
],
"BurninBoxConfiguration_v19" : [
"dbaaee103d5f48018a1401c6"
],
"BurninBoxConfiguration_v20" : [
"dbaaee103d5f48018a1401c6"
],
"BurninBoxConfiguration_v21" : [
"dbaaee103d5f48018a1401c6"
],
"BurninBoxConfiguration_v22" : [
"dbaaee103d5f48018a1401c6"
],
"BurninBoxConfiguration_v23" : [
"dbaaee103d5f48018a1401c6"
],
"BurninBoxConfiguration_v24" : [
"dbaaee103d5f48018a1401c6"
],
"BurninBoxConfiguration_v25" : [
"dbaaee103d5f48018a1401c6"
],
"BurninBoxConfiguration_v26" : [
"dbaaee103d5f48018a1401c6"
],
"BurninBoxConfiguration_v27" : [
"dbaaee103d5f48018a1401c6"
],
"BurninBoxConfiguration_v28" : [
"dbaaee103d5f48018a1401c6"
],
"BurninBoxConfiguration_v29" : [
"dbaaee103d5f48018a1401c6"
],
"BurninBoxConfiguration_v30" : [
"dbaaee103d5f48018a1401c6"
],
"BurninBoxConfiguration_v31" : [
"dbaaee103d5f48018a1401c6"
],
"BurninBoxConfiguration_v32" : [
"dbaaee103d5f48018a1401c6"
],
"BurninBoxConfiguration_v33" : [
"dbaaee103d5f48018a1401c6"
],
"BurninBoxConfiguration_v34" : [
"dbaaee103d5f48018a1401c6"
],
"BurninBoxConfiguration_v35" : [
"dbaaee103d5f48018a1401c6"
],
"BurninBoxConfiguration_v36" : [
"dbaaee103d5f48018a1401c6"
],
"BurninBoxConfiguration_v37" : [
"dbaaee103d5f48018a1401c6"
],
"BurninBoxConfiguration_v38" : [
"dbaaee103d5f48018a1401c6"
],
"BurninBoxConfiguration_v39" : [
"dbaaee103d5f48018a1401c6"
],
"BurninBoxConfiguration_v40" : [
"dbaaee103d5f48018a1401c6"
],
"BurninBoxConfiguration_v41" : [
"dbaaee103d5f48018a1401c6"
],
"BurninBoxConfiguration_v42" : [
"dbaaee103d5f48018a1401c6"
],
"BurninBoxConfiguration_v43" : [
"dbaaee103d5f48018a1401c6"
],
"BurninBoxConfiguration_v44" : [
"dbaaee103d5f48018a1401c6"
],
"BurninBoxConfiguration_v45" : [
"dbaaee103d5f48018a1401c6"
],
"BurninBoxConfiguration_v46" : [
"dbaaee103d5f48018a1401c6"
],
"BurninBoxConfiguration_v47" : [
"dbaaee103d5f48018a1401c6"
],
"BurninBoxConfiguration_v48" : [
"dbaaee103d5f48018a1401c6"
],
"BurninBoxConfiguration_v49" : [
"dbaaee103d5f48018a1401c6"
],
"BurninBoxConfiguration_v50" : [
"dbaaee103d5f48018a1401c6"
],
"BurninBoxConfiguration_v51" : [
"dbaaee103d5f48018a1401c6"
],
"BurninBoxConfiguration_v52" : [
"dbaaee103d5f48018a1401c6"
],
"BurninBoxConfiguration_v53" : [
"dbaaee103d5f48018a1401c6"
],
"BurninBoxConfiguration_v54" : [
"dbaaee103d5f48018a1401c6"
],
"BurninBoxConfiguration_v55" : [
"dbaaee103d5f48018a1401c6"
],
"BurninBoxConfiguration_v56" : [
"dbaaee103d5f48018a1401c6"
],
"BurninBoxConfiguration_v57" : [
"dbaaee103d5f48018a1401c6"
],
"BurninBoxConfiguration_v58" : [
"dbaaee103d5f48018a1401c6"
],
"BurninBoxConfiguration_v59" : [
"dbaaee103d5f48018a1401c6"
],
"BurninBoxConfiguration_v60" : [
"dbaaee103d5f48018a1401c6"
],
"BurninBoxConfiguration_v61" : [
"dbaaee103d5f48018a1401c6"
],
"BurninBoxConfiguration_v62" : [
"dbaaee103d5f48018a1401c6"
],
"BurninBoxConfiguration_v63" : [
"dbaaee103d5f48018a1401c6"
],
"BurninBoxConfiguration_v64" : [
"dbaaee103d5f48018a1401c6"
],
"BurninBoxConfiguration_v65" : [
"dbaaee103d5f48018a1401c6"
],
"BurninBoxConfiguration_v66" : [
"dbaaee103d5f48018a1401c6"
],
"BurninBoxConfiguration_v67" : [
"dbaaee103d5f48018a1401c6"
],
"BurninBoxConfiguration_v68" : [
"dbaaee103d5f48018a1401c6"
],
"BurninBoxConfiguration_v69" : [
"dbaaee103d5f48018a1401c6"
],
"BurninBoxConfiguration_v70" : [
"dbaaee103d5f48018a1401c6"
],
"BurninBoxConfiguration_v71" : [
"dbaaee103d5f48018a1401c6"
],
"BurninBoxConfiguration_v72" : [
"dbaaee103d5f48018a1401c6"
],
"BurninBoxConfiguration_v73" : [
"dbaaee103d5f48018a1401c6"
],
"BurninBoxConfiguration_v74" : [
"dbaaee103d5f48018a1401c6"
],
"BurninBoxConfiguration_v75" : [
"dbaaee103d5f48018a1401c6"
],
"BurninBoxConfiguration_v76" : [
"dbaaee103d5f48018a1401c6"
],
"BurninBoxConfiguration_v77" : [
"dbaaee103d5f48018a1401c6"
],
"BurninBoxConfiguration_v78" : [
"dbaaee103d5f48018a1401c6"
],
"BurninBoxConfiguration_v79" : [
"dbaaee103d5f48018a1401c6"
],
"BurninBoxConfiguration_v80" : [
"dbaaee103d5f48018a1401c6"
],
"BurninBoxConfiguration_v81" : [
"dbaaee103d5f48018a1401c6"
],
"BurninBoxConfiguration_v82" : [
"dbaaee103d5f48018a1401c6"
],
"BurninBoxConfiguration_v83" : [
"dbaaee103d5f48018a1401c6"
],
"BurninBoxConfiguration_v84" : [
"dbaaee103d5f48018a1401c6"
],
"BurninBoxConfiguration_v85" : [
"dbaaee103d5f48018a1401c6"
],
"BurninBoxConfiguration_v86" : [
"dbaaee103d5f48018a1401c6"
],
"BurninBoxConfiguration_v87" : [
"dbaaee103d5f48018a1401c6"
],
"BurninBoxConfiguration_v88" : [
"dbaaee103d5f48018a1401c6"
],
"BurninBoxConfiguration_v89" : [
"dbaaee103d5f48018a1401c6"
],
"BurninBoxConfiguration_v90" : [
"dbaaee103d5f48018a1401c6"
],
"BurninBoxConfiguration_v91" : [
"dbaaee103d5f48018a1401c6"
],
"BurninBoxConfiguration_v92" : [
"dbaaee103d5f48018a1401c6"
],
"BurninBoxConfiguration_v93" : [
"dbaaee103d5f48018a1401c6"
],
"BurninBoxConfiguration_v94" : [
"dbaaee103d5f48018a1401c6"
],
"BurninBoxConfiguration_v95" : [
"dbaaee103d5f48018a1401c6"
],
"BurninBoxConfiguration_v96" : [
"dbaaee103d5f48018a1401c6"
],
"BurninBoxConfiguration_v97" : [
"dbaaee103d5f48018a1401c6"
]
},
"entities.name" : {
"OTSROOT" : [
"4b08ac9cbd124654ada6198f",
"b53fb1819cfb4f1083af61a3",
"dbaaee103d5f48018a1401c6"
]
},
"aliases.active.name" : {

},
"runs.name" : {

},
"configurations.assigned" : {
"notprovided" : [
"2018-09-06T17:34:13.824-0500",
"2018-09-11T09:59:55.567-0500",
"2019-07-24T14:48:40.021-0500"
],
"BurninBoxConfig_v0" : [
"2018-09-06T17:34:14.387-0500"
],
"BurninBoxConfig_v1" : [
"2018-09-10T10:45:50.913-0500"
],
"BurninBoxConfig_v2" : [
"2018-09-10T11:24:18.317-0500"
],
"BurninBoxConfig_v3" : [
"2018-09-11T09:59:55.927-0500"
],
"BurninBoxConfig_v4" : [
"2018-09-11T10:01:19.023-0500"
],
"BurninBoxConfig_v5" : [
"2018-09-11T10:11:15.561-0500"
],
"BurninBoxConfig_v6" : [
"2018-09-12T12:16:43.292-0500"
],
"BurninBoxConfig_v7" : [
"2018-09-17T11:12:08.922-0500"
],
"BurninBoxConfig_v8" : [
"2018-09-17T13:53:32.963-0500"
],
"BurninBoxConfig_v9" : [
"2018-09-17T14:03:57.699-0500"
],
"BurninBoxConfig_v10" : [
"2018-09-18T15:31:02.029-0500"
],
"BurninBoxConfig_v11" : [
"2018-09-19T09:27:01.777-0500"
],
"BurninBoxConfig_v12" : [
"2018-09-19T10:08:01.604-0500"
],
"BurninBoxConfig_v13" : [
"2018-09-19T10:23:21.543-0500"
],
"BurninBoxConfig_v14" : [
"2018-09-19T11:22:20.908-0500"
],
"BurninBoxConfig_v15" : [
"2018-09-19T12:26:54.786-0500"
],
"BurninBoxConfig_v16" : [
"2018-09-20T14:22:26.877-0500"
],
"BurninBoxConfig_v17" : [
"2018-09-20T15:42:02.677-0500"
],
"BurninBoxConfig_v18" : [
"2018-09-21T11:16:28.683-0500"
],
"BurninBoxConfig_v19" : [
"2018-09-21T13:39:24.816-0500"
],
"BurninBoxConfig_v20" : [
"2018-09-21T13:39:48.714-0500"
],
"BurninBoxConfig_v21" : [
"2019-02-28T12:04:25.477-0600"
],
"BurninBoxConfig_v22" : [
"2019-02-28T12:05:07.896-0600"
],
"BurninBoxConfig_v23" : [
"2019-02-28T13:57:09.504-0600"
],
"BurninBoxConfig_v24" : [
"2019-07-19T15:24:15.597-0500"
],
"BurninBoxConfig_v25" : [
"2019-07-19T15:25:10.731-0500"
],
"BurninBoxConfig_v26" : [
"2019-07-24T14:34:10.192-0500"
],
"BurninBoxConfig_v27" : [
"2019-07-24T14:47:23.412-0500"
],
"BurninBoxConfig_v28" : [
"2019-07-24T14:48:40.893-0500"
],
"BurninBoxConfig_v29" : [
"2020-06-29T10:55:10.418-0500"
],
"BurninBoxConfig_v30" : [
"2020-06-29T11:05:39.696-0500"
],
"BurninBoxConfig_v31" : [
"2020-06-29T11:28:21.377-0500"
],
"BurninBoxConfig_v32" : [
"2020-07-24T10:58:17.607-0500"
],
"BurninBoxConfig_v33" : [
"2020-07-24T11:00:07.244-0500"
],
"BurninBoxConfig_v34" : [
"2020-07-24T11:56:05.957-0500"
],
"BurninBoxConfig_v35" : [
"2020-07-24T12:12:08.980-0500"
],
"BurninBoxConfig_v36" : [
"2020-07-24T12:16:35.475-0500"
],
"BurninBoxConfiguration_v0" : [
"2020-07-29T15:59:40.485-0500"
],
"BurninBoxConfiguration_v1" : [
"2020-07-30T11:42:27.115-0500"
],
"BurninBoxConfiguration_v2" : [
"2020-07-30T12:05:12.489-0500"
],
"BurninBoxConfiguration_v3" : [
"2020-09-02T11:30:04.225-0500"
],
"BurninBoxConfiguration_v4" : [
"2020-09-02T11:31:32.044-0500"
],
"BurninBoxConfiguration_v5" : [
"2020-09-02T15:08:50.954-0500"
],
"BurninBoxConfiguration_v6" : [
"2020-09-02T16:01:05.718-0500"
],
"BurninBoxConfiguration_v7" : [
"2020-09-02T16:05:19.157-0500"
],
"BurninBoxConfiguration_v8" : [
"2020-10-05T17:05:55.196-0500"
],
"BurninBoxConfiguration_v9" : [
"2020-10-05T17:09:48.218-0500"
],
"BurninBoxConfiguration_v10" : [
"2020-10-05T17:11:02.089-0500"
],
"BurninBoxConfiguration_v11" : [
"2020-10-05T17:39:03.531-0500"
],
"BurninBoxConfiguration_v12" : [
"2020-10-05T17:43:05.772-0500"
],
"BurninBoxConfiguration_v13" : [
"2020-10-09T14:43:39.715-0500"
],
"BurninBoxConfiguration_v14" : [
"2020-10-09T15:30:46.262-0500"
],
"BurninBoxConfiguration_v15" : [
"2020-10-12T10:14:43.165-0500"
],
"BurninBoxConfiguration_v16" : [
"2020-10-12T15:33:08.738-0500"
],
"BurninBoxConfiguration_v17" : [
"2020-10-19T16:16:02.239-0500"
],
"BurninBoxConfiguration_v18" : [
"2020-10-23T11:00:20.062-0500"
],
"BurninBoxConfiguration_v19" : [
"2020-10-26T11:51:21.035-0500"
],
"BurninBoxConfiguration_v20" : [
"2020-10-26T11:51:42.658-0500"
],
"BurninBoxConfiguration_v21" : [
"2020-10-26T11:56:42.138-0500"
],
"BurninBoxConfiguration_v22" : [
"2020-10-26T14:34:34.036-0500"
],
"BurninBoxConfiguration_v23" : [
"2020-10-26T14:53:00.989-0500"
],
"BurninBoxConfiguration_v24" : [
"2020-10-26T15:02:46.230-0500"
],
"BurninBoxConfiguration_v25" : [
"2020-10-27T17:42:10.041-0500"
],
"BurninBoxConfiguration_v26" : [
"2020-10-29T11:52:32.195-0500"
],
"BurninBoxConfiguration_v27" : [
"2020-10-29T11:54:25.990-0500"
],
"BurninBoxConfiguration_v28" : [
"2020-10-29T13:30:23.953-0500"
],
"BurninBoxConfiguration_v29" : [
"2020-10-29T13:45:55.389-0500"
],
"BurninBoxConfiguration_v30" : [
"2020-10-29T13:46:37.654-0500"
],
"BurninBoxConfiguration_v31" : [
"2020-10-29T13:48:02.296-0500"
],
"BurninBoxConfiguration_v32" : [
"2020-10-29T14:39:28.293-0500"
],
"BurninBoxConfiguration_v33" : [
"2021-06-30T16:17:51.303-0500"
],
"BurninBoxConfiguration_v34" : [
"2021-06-30T16:23:47.632-0500"
],
"BurninBoxConfiguration_v35" : [
"2021-07-08T14:06:13.577-0500"
],
"BurninBoxConfiguration_v36" : [
"2021-07-08T14:16:57.767-0500"
],
"BurninBoxConfiguration_v37" : [
"2021-07-08T16:20:44.294-0500"
],
"BurninBoxConfiguration_v38" : [
"2021-07-09T11:47:13.479-0500"
],
"BurninBoxConfiguration_v39" : [
"2021-07-09T11:48:45.605-0500"
],
"BurninBoxConfiguration_v40" : [
"2021-07-09T16:06:00.019-0500"
],
"BurninBoxConfiguration_v41" : [
"2021-07-12T11:04:55.039-0500"
],
"BurninBoxConfiguration_v42" : [
"2021-07-13T12:01:30.823-0500"
],
"BurninBoxConfiguration_v43" : [
"2021-07-13T12:22:05.370-0500"
],
"BurninBoxConfiguration_v44" : [
"2021-07-14T13:05:57.911-0500"
],
"BurninBoxConfiguration_v45" : [
"2021-07-14T14:26:04.072-0500"
],
"BurninBoxConfiguration_v46" : [
"2021-07-14T14:46:56.404-0500"
],
"BurninBoxConfiguration_v47" : [
"2021-07-14T15:24:33.216-0500"
],
"BurninBoxConfiguration_v48" : [
"2021-07-14T16:05:28.784-0500"
],
"BurninBoxConfiguration_v49" : [
"2021-07-14T16:15:40.426-0500"
],
"BurninBoxConfiguration_v50" : [
"2021-07-14T16:17:40.291-0500"
],
"BurninBoxConfiguration_v51" : [
"2021-07-15T11:50:33.256-0500"
],
"BurninBoxConfiguration_v52" : [
"2021-07-20T13:45:53.403-0500"
],
"BurninBoxConfiguration_v53" : [
"2021-07-20T16:41:41.571-0500"
],
"BurninBoxConfiguration_v54" : [
"2021-07-20T17:09:26.272-0500"
],
"BurninBoxConfiguration_v55" : [
"2021-07-20T17:28:39.460-0500"
],
"BurninBoxConfiguration_v56" : [
"2021-07-20T17:46:26.809-0500"
],
"BurninBoxConfiguration_v57" : [
"2021-07-21T11:50:01.346-0500"
],
"BurninBoxConfiguration_v58" : [
"2021-07-21T11:58:37.041-0500"
],
"BurninBoxConfiguration_v59" : [
"2021-07-21T11:59:32.761-0500"
],
"BurninBoxConfiguration_v60" : [
"2021-07-22T18:34:59.746-0500"
],
"BurninBoxConfiguration_v61" : [
"2021-07-23T12:33:56.072-0500"
],
"BurninBoxConfiguration_v62" : [
"2021-07-24T00:54:48.881-0500"
],
"BurninBoxConfiguration_v63" : [
"2021-07-24T12:12:50.489-0500"
],
"BurninBoxConfiguration_v64" : [
"2021-07-25T21:07:15.411-0500"
],
"BurninBoxConfiguration_v65" : [
"2021-07-26T07:43:11.276-0500"
],
"BurninBoxConfiguration_v66" : [
"2021-07-26T18:37:11.374-0500"
],
"BurninBoxConfiguration_v67" : [
"2021-07-27T08:25:40.109-0500"
],
"BurninBoxConfiguration_v68" : [
"2021-08-03T11:10:36.498-0500"
],
"BurninBoxConfiguration_v69" : [
"2021-08-04T12:21:56.866-0500"
],
"BurninBoxConfiguration_v70" : [
"2021-09-02T13:43:33.228-0500"
],
"BurninBoxConfiguration_v71" : [
"2021-09-02T14:03:36.073-0500"
],
"BurninBoxConfiguration_v72" : [
"2021-09-23T15:47:04.467-0500"
],
"BurninBoxConfiguration_v73" : [
"2021-09-23T15:47:41.429-0500"
],
"BurninBoxConfiguration_v74" : [
"2021-09-24T15:36:49.326-0500"
],
"BurninBoxConfiguration_v75" : [
"2021-09-24T15:53:22.314-0500"
],
"BurninBoxConfiguration_v76" : [
"2021-09-24T16:04:21.251-0500"
],
"BurninBoxConfiguration_v77" : [
"2021-09-24T16:28:06.093-0500"
],
"BurninBoxConfiguration_v78" : [
"2021-09-27T09:02:55.713-0500"
],
"BurninBoxConfiguration_v79" : [
"2021-09-27T14:22:24.026-0500"
],
"BurninBoxConfiguration_v80" : [
"2021-09-28T09:24:49.894-0500"
],
"BurninBoxConfiguration_v81" : [
"2021-09-30T09:14:50.162-0500"
],
"BurninBoxConfiguration_v82" : [
"2021-10-01T10:56:20.701-0500"
],
"BurninBoxConfiguration_v83" : [
"2021-10-01T11:01:40.347-0500"
],
"BurninBoxConfiguration_v84" : [
"2021-10-06T10:02:30.620-0500"
],
"BurninBoxConfiguration_v85" : [
"2021-10-07T16:32:39.688-0500"
],
"BurninBoxConfiguration_v86" : [
"2021-10-08T14:03:14.497-0500"
],
"BurninBoxConfiguration_v87" : [
"2021-10-11T16:00:55.307-0500"
],
"BurninBoxConfiguration_v88" : [
"2021-10-12T09:07:16.627-0500"
],
"BurninBoxConfiguration_v89" : [
"2021-10-12T11:11:22.337-0500"
],
"BurninBoxConfiguration_v90" : [
"2021-10-14T17:03:15.726-0500"
],
"BurninBoxConfiguration_v91" : [
"2021-10-15T10:48:30.522-0500"
],
"BurninBoxConfiguration_v92" : [
"2021-10-15T15:50:48.338-0500"
],
"BurninBoxConfiguration_v93" : [
"2021-11-03T16:30:19.285-0500"
],
"BurninBoxConfiguration_v94" : [
"2021-11-10T15:11:01.651-0600"
],
"BurninBoxConfiguration_v95" : [
"2022-04-19T14:35:55.826-0400"
],
"BurninBoxConfiguration_v96" : [
"2022-04-20T10:06:04.870-0400"
],
"BurninBoxConfiguration_v97" : [
"2022-04-20T11:23:51.586-0400"
]
}
}