{
"document" : {
"data" : {
"NAME" : "BURNIN_BOX_DQM_HISTOS_CONSUMER_TABLE",
"COMMENT" : "No comment.",
"AUTHOR" : "admin",
"CREATION_TIME" : 1536677995,
"COL_TYPES" : {
"PROCESSOR_UID" : "VARCHAR2",
"FILE_PATH" : "VARCHAR2",
"RADIX_FILE_NAME" : "VARCHAR2",
"SAVE_FILE" : "VARCHAR2",
"COMMENT_DESCRIPTION" : "VARCHAR2",
"AUTHOR" : "VARCHAR2",
"RECORD_INSERTION_TIME" : "TIMESTAMP WITH TIMEZONE"
},
"DATA_SET" : [
{
"PROCESSOR_UID" : "VBBurninBoxDQMHistos",
"FILE_PATH" : "/tmp",
"RADIX_FILE_NAME" : "BurninBoxHistos_",
"SAVE_FILE" : "Yes",
"COMMENT_DESCRIPTION" : "No Comment",
"AUTHOR" : "admin",
"RECORD_INSERTION_TIME" : "1536677995"
}
]
},
"metadata" : {

},
"search" : [

]
},
"comments" : [

],
"origin" : {
"source" : "template",
"name" : "notprovided",
"format" : "json",
"created" : "2018-09-11T09:59:55.566-0500",
"rawdata" : [

]
},
"version" : "1",
"entities" : [
{
"name" : "OTSROOT",
"assigned" : "2018-09-11T09:59:55.567-0500"
}
],
"tables" : [
{
"name" : "notprovided",
"assigned" : "2018-09-11T09:59:55.567-0500"
},
{
"name" : "BurninBoxConfig_v3",
"assigned" : "2018-09-11T09:59:55.927-0500"
},
{
"name" : "BurninBoxConfig_v4",
"assigned" : "2018-09-11T10:01:19.023-0500"
},
{
"name" : "BurninBoxConfig_v5",
"assigned" : "2018-09-11T10:11:15.561-0500"
},
{
"name" : "BurninBoxConfig_v6",
"assigned" : "2018-09-12T12:16:43.292-0500"
},
{
"name" : "BurninBoxConfig_v7",
"assigned" : "2018-09-17T11:12:08.922-0500"
},
{
"name" : "BurninBoxConfig_v8",
"assigned" : "2018-09-17T13:53:32.963-0500"
},
{
"name" : "BurninBoxConfig_v9",
"assigned" : "2018-09-17T14:03:57.699-0500"
},
{
"name" : "BurninBoxConfig_v10",
"assigned" : "2018-09-18T15:31:02.029-0500"
},
{
"name" : "BurninBoxConfig_v11",
"assigned" : "2018-09-19T09:27:01.777-0500"
},
{
"name" : "BurninBoxConfig_v12",
"assigned" : "2018-09-19T10:08:01.604-0500"
},
{
"name" : "BurninBoxConfig_v13",
"assigned" : "2018-09-19T10:23:21.543-0500"
},
{
"name" : "BurninBoxConfig_v14",
"assigned" : "2018-09-19T11:22:20.908-0500"
},
{
"name" : "BurninBoxConfig_v15",
"assigned" : "2018-09-19T12:26:54.786-0500"
},
{
"name" : "BurninBoxConfig_v16",
"assigned" : "2018-09-20T14:22:26.877-0500"
},
{
"name" : "BurninBoxConfig_v17",
"assigned" : "2018-09-20T15:42:02.677-0500"
},
{
"name" : "BurninBoxConfig_v18",
"assigned" : "2018-09-21T11:16:28.683-0500"
},
{
"name" : "BurninBoxConfig_v19",
"assigned" : "2018-09-21T13:39:24.816-0500"
},
{
"name" : "BurninBoxConfig_v20",
"assigned" : "2018-09-21T13:39:48.714-0500"
},
{
"name" : "BurninBoxConfig_v21",
"assigned" : "2019-02-28T12:04:25.477-0600"
},
{
"name" : "BurninBoxConfig_v22",
"assigned" : "2019-02-28T12:05:07.896-0600"
},
{
"name" : "BurninBoxConfig_v23",
"assigned" : "2019-02-28T13:57:09.504-0600"
}
],
"changelog" : "notprovided",
"bookkeeping" : {
"isdeleted" : false,
"isreadonly" : false,
"updates" : [
{
"event" : "addTable",
"timestamp" : "2018-09-11T09:59:55.567-0500",
"value" : {
"name" : "notprovided",
"assigned" : "2018-09-11T09:59:55.567-0500"
}
},
{
"event" : "setVersion",
"timestamp" : "2018-09-11T09:59:55.567-0500",
"value" : {
"name" : "1",
"assigned" : "2018-09-11T09:59:55.567-0500"
}
},
{
"event" : "setCollection",
"timestamp" : "2018-09-11T09:59:55.567-0500",
"value" : {
"name" : "BurninBoxDQMHistosConsumerTable",
"assigned" : "2018-09-11T09:59:55.567-0500"
}
},
{
"event" : "addEntity",
"timestamp" : "2018-09-11T09:59:55.567-0500",
"value" : {
"name" : "OTSROOT",
"assigned" : "2018-09-11T09:59:55.567-0500"
}
},
{
"event" : "addTable",
"timestamp" : "2018-09-11T09:59:55.927-0500",
"value" : {
"name" : "BurninBoxConfig_v3",
"assigned" : "2018-09-11T09:59:55.927-0500"
}
},
{
"event" : "addTable",
"timestamp" : "2018-09-11T10:01:19.023-0500",
"value" : {
"name" : "BurninBoxConfig_v4",
"assigned" : "2018-09-11T10:01:19.023-0500"
}
},
{
"event" : "addTable",
"timestamp" : "2018-09-11T10:11:15.561-0500",
"value" : {
"name" : "BurninBoxConfig_v5",
"assigned" : "2018-09-11T10:11:15.561-0500"
}
},
{
"event" : "addTable",
"timestamp" : "2018-09-12T12:16:43.293-0500",
"value" : {
"name" : "BurninBoxConfig_v6",
"assigned" : "2018-09-12T12:16:43.292-0500"
}
},
{
"event" : "addTable",
"timestamp" : "2018-09-17T11:12:08.922-0500",
"value" : {
"name" : "BurninBoxConfig_v7",
"assigned" : "2018-09-17T11:12:08.922-0500"
}
},
{
"event" : "addTable",
"timestamp" : "2018-09-17T13:53:32.964-0500",
"value" : {
"name" : "BurninBoxConfig_v8",
"assigned" : "2018-09-17T13:53:32.963-0500"
}
},
{
"event" : "addTable",
"timestamp" : "2018-09-17T14:03:57.699-0500",
"value" : {
"name" : "BurninBoxConfig_v9",
"assigned" : "2018-09-17T14:03:57.699-0500"
}
},
{
"event" : "addTable",
"timestamp" : "2018-09-18T15:31:02.029-0500",
"value" : {
"name" : "BurninBoxConfig_v10",
"assigned" : "2018-09-18T15:31:02.029-0500"
}
},
{
"event" : "addTable",
"timestamp" : "2018-09-19T09:27:01.777-0500",
"value" : {
"name" : "BurninBoxConfig_v11",
"assigned" : "2018-09-19T09:27:01.777-0500"
}
},
{
"event" : "addTable",
"timestamp" : "2018-09-19T10:08:01.604-0500",
"value" : {
"name" : "BurninBoxConfig_v12",
"assigned" : "2018-09-19T10:08:01.604-0500"
}
},
{
"event" : "addTable",
"timestamp" : "2018-09-19T10:23:21.543-0500",
"value" : {
"name" : "BurninBoxConfig_v13",
"assigned" : "2018-09-19T10:23:21.543-0500"
}
},
{
"event" : "addTable",
"timestamp" : "2018-09-19T11:22:20.908-0500",
"value" : {
"name" : "BurninBoxConfig_v14",
"assigned" : "2018-09-19T11:22:20.908-0500"
}
},
{
"event" : "addTable",
"timestamp" : "2018-09-19T12:26:54.786-0500",
"value" : {
"name" : "BurninBoxConfig_v15",
"assigned" : "2018-09-19T12:26:54.786-0500"
}
},
{
"event" : "addTable",
"timestamp" : "2018-09-20T14:22:26.877-0500",
"value" : {
"name" : "BurninBoxConfig_v16",
"assigned" : "2018-09-20T14:22:26.877-0500"
}
},
{
"event" : "addTable",
"timestamp" : "2018-09-20T15:42:02.677-0500",
"value" : {
"name" : "BurninBoxConfig_v17",
"assigned" : "2018-09-20T15:42:02.677-0500"
}
},
{
"event" : "addTable",
"timestamp" : "2018-09-21T11:16:28.684-0500",
"value" : {
"name" : "BurninBoxConfig_v18",
"assigned" : "2018-09-21T11:16:28.683-0500"
}
},
{
"event" : "addTable",
"timestamp" : "2018-09-21T13:39:24.816-0500",
"value" : {
"name" : "BurninBoxConfig_v19",
"assigned" : "2018-09-21T13:39:24.816-0500"
}
},
{
"event" : "addTable",
"timestamp" : "2018-09-21T13:39:48.714-0500",
"value" : {
"name" : "BurninBoxConfig_v20",
"assigned" : "2018-09-21T13:39:48.714-0500"
}
},
{
"event" : "addTable",
"timestamp" : "2019-02-28T12:04:25.477-0600",
"value" : {
"name" : "BurninBoxConfig_v21",
"assigned" : "2019-02-28T12:04:25.477-0600"
}
},
{
"event" : "addTable",
"timestamp" : "2019-02-28T12:05:07.896-0600",
"value" : {
"name" : "BurninBoxConfig_v22",
"assigned" : "2019-02-28T12:05:07.896-0600"
}
},
{
"event" : "addTable",
"timestamp" : "2019-02-28T13:57:09.504-0600",
"value" : {
"name" : "BurninBoxConfig_v23",
"assigned" : "2019-02-28T13:57:09.504-0600"
}
},
{
"event" : "addConfiguration",
"timestamp" : "2019-07-19T15:24:15.597-0500",
"value" : {
"name" : "BurninBoxConfig_v24",
"assigned" : "2019-07-19T15:24:15.597-0500"
}
},
{
"event" : "addConfiguration",
"timestamp" : "2019-07-19T15:25:10.731-0500",
"value" : {
"name" : "BurninBoxConfig_v25",
"assigned" : "2019-07-19T15:25:10.731-0500"
}
},
{
"event" : "addConfiguration",
"timestamp" : "2019-07-24T14:34:10.192-0500",
"value" : {
"name" : "BurninBoxConfig_v26",
"assigned" : "2019-07-24T14:34:10.192-0500"
}
},
{
"event" : "addConfiguration",
"timestamp" : "2019-07-24T14:47:23.412-0500",
"value" : {
"name" : "BurninBoxConfig_v27",
"assigned" : "2019-07-24T14:47:23.412-0500"
}
}
],
"created" : "2018-09-11T09:59:55.566-0500"
},
"_id" : {
"$oid" : "4b08ac9cbd124654ada6198f"
},
"collection" : "BurninBoxDQMHistosConsumerTable",
"aliases" : {
"active" : [

],
"history" : [

]
},
"runs" : [

],
"attachments" : [

],
"configtype" : "notprovided",
"configurations" : [
{
"name" : "BurninBoxConfig_v24",
"assigned" : "2019-07-19T15:24:15.597-0500"
},
{
"name" : "BurninBoxConfig_v25",
"assigned" : "2019-07-19T15:25:10.731-0500"
},
{
"name" : "BurninBoxConfig_v26",
"assigned" : "2019-07-24T14:34:10.192-0500"
},
{
"name" : "BurninBoxConfig_v27",
"assigned" : "2019-07-24T14:47:23.412-0500"
}
]
}