{
"ouid" : [
"56651b55224245819647479f"
],
"version" : {
"0" : [
"56651b55224245819647479f"
]
},
"configurations.name" : {
"notprovided" : [
"56651b55224245819647479f"
],
"BurninBoxConfig_v0" : [
"56651b55224245819647479f"
],
"BurninBoxConfig_v1" : [
"56651b55224245819647479f"
],
"BurninBoxConfig_v2" : [
"56651b55224245819647479f"
],
"BurninBoxConfig_v3" : [
"56651b55224245819647479f"
],
"BurninBoxConfig_v4" : [
"56651b55224245819647479f"
],
"BurninBoxConfig_v5" : [
"56651b55224245819647479f"
],
"BurninBoxConfig_v6" : [
"56651b55224245819647479f"
],
"BurninBoxConfig_v7" : [
"56651b55224245819647479f"
],
"BurninBoxConfig_v8" : [
"56651b55224245819647479f"
],
"BurninBoxConfig_v9" : [
"56651b55224245819647479f"
],
"BurninBoxConfig_v10" : [
"56651b55224245819647479f"
],
"BurninBoxConfig_v11" : [
"56651b55224245819647479f"
],
"BurninBoxConfig_v12" : [
"56651b55224245819647479f"
],
"BurninBoxConfig_v13" : [
"56651b55224245819647479f"
],
"BurninBoxConfig_v14" : [
"56651b55224245819647479f"
],
"BurninBoxConfig_v15" : [
"56651b55224245819647479f"
],
"BurninBoxConfig_v16" : [
"56651b55224245819647479f"
],
"BurninBoxConfig_v17" : [
"56651b55224245819647479f"
],
"BurninBoxConfig_v18" : [
"56651b55224245819647479f"
],
"BurninBoxConfig_v19" : [
"56651b55224245819647479f"
],
"BurninBoxConfig_v20" : [
"56651b55224245819647479f"
],
"BurninBoxConfig_v21" : [
"56651b55224245819647479f"
],
"BurninBoxConfig_v22" : [
"56651b55224245819647479f"
],
"BurninBoxConfig_v23" : [
"56651b55224245819647479f"
],
"BurninBoxConfig_v24" : [
"56651b55224245819647479f"
],
"BurninBoxConfig_v25" : [
"56651b55224245819647479f"
]
},
"entities.name" : {
"OTSROOT" : [
"56651b55224245819647479f"
]
},
"aliases.active.name" : {

},
"runs.name" : {

},
"configurations.assigned" : {
"notprovided" : [
"2018-09-06T17:34:13.984-0500"
],
"BurninBoxConfig_v0" : [
"2018-09-06T17:34:14.530-0500"
],
"BurninBoxConfig_v1" : [
"2018-09-10T10:45:51.073-0500"
],
"BurninBoxConfig_v2" : [
"2018-09-10T11:24:18.485-0500"
],
"BurninBoxConfig_v3" : [
"2018-09-11T09:59:56.099-0500"
],
"BurninBoxConfig_v4" : [
"2018-09-11T10:01:19.195-0500"
],
"BurninBoxConfig_v5" : [
"2018-09-11T10:11:15.754-0500"
],
"BurninBoxConfig_v6" : [
"2018-09-12T12:16:43.492-0500"
],
"BurninBoxConfig_v7" : [
"2018-09-17T11:12:09.129-0500"
],
"BurninBoxConfig_v8" : [
"2018-09-17T13:53:33.161-0500"
],
"BurninBoxConfig_v9" : [
"2018-09-17T14:03:57.888-0500"
],
"BurninBoxConfig_v10" : [
"2018-09-18T15:31:02.225-0500"
],
"BurninBoxConfig_v11" : [
"2018-09-19T09:27:01.962-0500"
],
"BurninBoxConfig_v12" : [
"2018-09-19T10:08:01.810-0500"
],
"BurninBoxConfig_v13" : [
"2018-09-19T10:23:21.756-0500"
],
"BurninBoxConfig_v14" : [
"2018-09-19T11:22:21.127-0500"
],
"BurninBoxConfig_v15" : [
"2018-09-19T12:26:54.999-0500"
],
"BurninBoxConfig_v16" : [
"2018-09-20T14:22:27.060-0500"
],
"BurninBoxConfig_v17" : [
"2018-09-20T15:42:02.859-0500"
],
"BurninBoxConfig_v18" : [
"2018-09-21T11:16:28.879-0500"
],
"BurninBoxConfig_v19" : [
"2018-09-21T13:39:25.024-0500"
],
"BurninBoxConfig_v20" : [
"2018-09-21T13:39:48.950-0500"
],
"BurninBoxConfig_v21" : [
"2019-02-28T12:04:25.602-0600"
],
"BurninBoxConfig_v22" : [
"2019-02-28T12:05:08.026-0600"
],
"BurninBoxConfig_v23" : [
"2019-02-28T13:57:09.634-0600"
],
"BurninBoxConfig_v24" : [
"2019-07-19T15:24:15.731-0500"
],
"BurninBoxConfig_v25" : [
"2019-07-19T15:25:10.858-0500"
]
}
}