{
"document" : {
"data" : {
"DesktopIconTable" : "4",
"DesktopWindowParameterTable" : "3",
"GatewaySupervisorTable" : "4",
"MessageFacilityTable" : "3",
"SlowControlsDashboardSupervisorTable" : "3",
"StateMachineTable" : "3",
"TableGroupMetadata" : "4",
"XDAQApplicationPropertyTable" : "3",
"XDAQApplicationTable" : "4",
"XDAQContextTable" : "4"
},
"metadata" : {

},
"search" : [

]
},
"comments" : [

],
"origin" : {
"source" : "template",
"name" : "notprovided",
"format" : "json",
"created" : "2023-11-27T11:36:47.748-0600",
"rawdata" : [

]
},
"version" : "4",
"entities" : [
{
"name" : "OTSROOT",
"assigned" : "2023-11-27T11:36:47.749-0600"
}
],
"configurations" : [
{
"name" : "notprovided",
"assigned" : "2023-11-27T11:36:47.748-0600"
}
],
"changelog" : "notprovided",
"bookkeeping" : {
"isdeleted" : false,
"isreadonly" : false,
"updates" : [
{
"event" : "addConfiguration",
"timestamp" : "2023-11-27T11:36:47.748-0600",
"value" : {
"name" : "notprovided",
"assigned" : "2023-11-27T11:36:47.748-0600"
}
},
{
"event" : "setVersion",
"timestamp" : "2023-11-27T11:36:47.748-0600",
"value" : {
"name" : "4",
"assigned" : "2023-11-27T11:36:47.748-0600"
}
},
{
"event" : "setCollection",
"timestamp" : "2023-11-27T11:36:47.749-0600",
"value" : {
"name" : "GroupCache_DefaultContext",
"assigned" : "2023-11-27T11:36:47.749-0600"
}
},
{
"event" : "addEntity",
"timestamp" : "2023-11-27T11:36:47.749-0600",
"value" : {
"name" : "OTSROOT",
"assigned" : "2023-11-27T11:36:47.749-0600"
}
}
],
"created" : "2023-11-27T11:36:47.748-0600"
},
"_id" : {
"$oid" : "7e21cbc39bf847cc8dfeefc2"
},
"collection" : "GroupCache_DefaultContext",
"aliases" : {
"active" : [

],
"history" : [

]
},
"runs" : [

],
"attachments" : [

],
"configtype" : "notprovided"
}