{
"document" : {
"data" : {
"NAME" : "POWER_SUPPLY_DEVICE_TABLE",
"COMMENT" : "No comment.",
"AUTHOR" : "admin",
"CREATION_TIME" : 1603990464,
"COL_TYPES" : {
"POWER_SUPPLY_GROUP_ID" : "STRING",
"POWER_SUPPLY_DEVICE_UID" : "STRING",
"STATUS" : "STRING",
"LINK_TO_POWER_SUPPLY_TABLE" : "STRING",
"LINK_TO_POWER_SUPPLY_UID" : "STRING",
"COMMENT_DESCRIPTION" : "STRING",
"AUTHOR" : "STRING",
"RECORD_INSERTION_TIME" : "TIMESTAMP WITH TIMEZONE"
},
"DATA_SET" : [
{
"POWER_SUPPLY_GROUP_ID" : "BurninBox",
"POWER_SUPPLY_DEVICE_UID" : "CAENBurninBox",
"STATUS" : "On",
"LINK_TO_POWER_SUPPLY_TABLE" : "CAENPowerSupplyTable",
"LINK_TO_POWER_SUPPLY_UID" : "BurninBox",
"COMMENT_DESCRIPTION" : "No Comment",
"AUTHOR" : "admin",
"RECORD_INSERTION_TIME" : "1603990430"
}
]
},
"metadata" : {

},
"search" : [

]
},
"comments" : [

],
"origin" : {
"source" : "template",
"name" : "notprovided",
"format" : "json",
"created" : "2020-10-29T11:54:24.343-0500",
"rawdata" : [

]
},
"version" : "1",
"entities" : [
{
"name" : "OTSROOT",
"assigned" : "2020-10-29T11:54:24.343-0500"
}
],
"configurations" : [
{
"name" : "notprovided",
"assigned" : "2020-10-29T11:54:24.343-0500"
},
{
"name" : "BurninBoxConfiguration_v27",
"assigned" : "2020-10-29T11:54:26.655-0500"
},
{
"name" : "BurninBoxConfiguration_v28",
"assigned" : "2020-10-29T13:30:24.620-0500"
},
{
"name" : "BurninBoxConfiguration_v29",
"assigned" : "2020-10-29T13:45:56.008-0500"
},
{
"name" : "BurninBoxConfiguration_v30",
"assigned" : "2020-10-29T13:46:38.304-0500"
},
{
"name" : "BurninBoxConfiguration_v31",
"assigned" : "2020-10-29T13:48:02.931-0500"
},
{
"name" : "BurninBoxConfiguration_v32",
"assigned" : "2020-10-29T14:39:28.986-0500"
},
{
"name" : "BurninBoxConfiguration_v33",
"assigned" : "2021-06-30T16:17:51.947-0500"
},
{
"name" : "BurninBoxConfiguration_v34",
"assigned" : "2021-06-30T16:23:48.346-0500"
},
{
"name" : "BurninBoxConfiguration_v35",
"assigned" : "2021-07-08T14:06:14.198-0500"
},
{
"name" : "BurninBoxConfiguration_v36",
"assigned" : "2021-07-08T14:16:58.394-0500"
},
{
"name" : "BurninBoxConfiguration_v37",
"assigned" : "2021-07-08T16:20:44.973-0500"
},
{
"name" : "BurninBoxConfiguration_v38",
"assigned" : "2021-07-09T11:47:14.163-0500"
},
{
"name" : "BurninBoxConfiguration_v39",
"assigned" : "2021-07-09T11:48:46.265-0500"
},
{
"name" : "BurninBoxConfiguration_v40",
"assigned" : "2021-07-09T16:06:00.748-0500"
},
{
"name" : "BurninBoxConfiguration_v41",
"assigned" : "2021-07-12T11:04:55.719-0500"
},
{
"name" : "BurninBoxConfiguration_v42",
"assigned" : "2021-07-13T12:01:31.608-0500"
},
{
"name" : "BurninBoxConfiguration_v43",
"assigned" : "2021-07-13T12:22:06.075-0500"
},
{
"name" : "BurninBoxConfiguration_v44",
"assigned" : "2021-07-14T13:05:58.679-0500"
},
{
"name" : "BurninBoxConfiguration_v45",
"assigned" : "2021-07-14T14:26:04.854-0500"
},
{
"name" : "BurninBoxConfiguration_v46",
"assigned" : "2021-07-14T14:46:57.139-0500"
},
{
"name" : "BurninBoxConfiguration_v47",
"assigned" : "2021-07-14T15:24:34.025-0500"
},
{
"name" : "BurninBoxConfiguration_v48",
"assigned" : "2021-07-14T16:05:29.594-0500"
},
{
"name" : "BurninBoxConfiguration_v49",
"assigned" : "2021-07-14T16:15:41.273-0500"
},
{
"name" : "BurninBoxConfiguration_v50",
"assigned" : "2021-07-14T16:17:41.015-0500"
},
{
"name" : "BurninBoxConfiguration_v51",
"assigned" : "2021-07-15T11:50:34.039-0500"
},
{
"name" : "BurninBoxConfiguration_v52",
"assigned" : "2021-07-20T13:45:54.148-0500"
},
{
"name" : "BurninBoxConfiguration_v53",
"assigned" : "2021-07-20T16:41:42.375-0500"
},
{
"name" : "BurninBoxConfiguration_v54",
"assigned" : "2021-07-20T17:09:27.122-0500"
},
{
"name" : "BurninBoxConfiguration_v55",
"assigned" : "2021-07-20T17:28:40.281-0500"
},
{
"name" : "BurninBoxConfiguration_v56",
"assigned" : "2021-07-20T17:46:27.611-0500"
},
{
"name" : "BurninBoxConfiguration_v57",
"assigned" : "2021-07-21T11:50:02.157-0500"
},
{
"name" : "BurninBoxConfiguration_v58",
"assigned" : "2021-07-21T11:58:37.825-0500"
},
{
"name" : "BurninBoxConfiguration_v59",
"assigned" : "2021-07-21T11:59:33.592-0500"
},
{
"name" : "BurninBoxConfiguration_v60",
"assigned" : "2021-07-22T18:35:00.635-0500"
},
{
"name" : "BurninBoxConfiguration_v61",
"assigned" : "2021-07-23T12:33:56.937-0500"
},
{
"name" : "BurninBoxConfiguration_v62",
"assigned" : "2021-07-24T00:54:49.756-0500"
},
{
"name" : "BurninBoxConfiguration_v63",
"assigned" : "2021-07-24T12:12:51.280-0500"
},
{
"name" : "BurninBoxConfiguration_v64",
"assigned" : "2021-07-25T21:07:16.247-0500"
},
{
"name" : "BurninBoxConfiguration_v65",
"assigned" : "2021-07-26T07:43:12.171-0500"
},
{
"name" : "BurninBoxConfiguration_v66",
"assigned" : "2021-07-26T18:37:12.190-0500"
},
{
"name" : "BurninBoxConfiguration_v67",
"assigned" : "2021-07-27T08:25:40.944-0500"
},
{
"name" : "BurninBoxConfiguration_v68",
"assigned" : "2021-08-03T11:10:37.335-0500"
},
{
"name" : "BurninBoxConfiguration_v69",
"assigned" : "2021-08-04T12:21:57.772-0500"
},
{
"name" : "BurninBoxConfiguration_v70",
"assigned" : "2021-09-02T13:43:34.190-0500"
},
{
"name" : "BurninBoxConfiguration_v71",
"assigned" : "2021-09-02T14:03:37.052-0500"
},
{
"name" : "BurninBoxConfiguration_v72",
"assigned" : "2021-09-23T15:47:05.452-0500"
},
{
"name" : "BurninBoxConfiguration_v73",
"assigned" : "2021-09-23T15:47:42.372-0500"
},
{
"name" : "BurninBoxConfiguration_v74",
"assigned" : "2021-09-24T15:36:50.268-0500"
},
{
"name" : "BurninBoxConfiguration_v75",
"assigned" : "2021-09-24T15:53:23.284-0500"
},
{
"name" : "BurninBoxConfiguration_v76",
"assigned" : "2021-09-24T16:04:22.282-0500"
},
{
"name" : "BurninBoxConfiguration_v77",
"assigned" : "2021-09-24T16:28:07.074-0500"
},
{
"name" : "BurninBoxConfiguration_v78",
"assigned" : "2021-09-27T09:02:56.643-0500"
},
{
"name" : "BurninBoxConfiguration_v79",
"assigned" : "2021-09-27T14:22:24.925-0500"
},
{
"name" : "BurninBoxConfiguration_v80",
"assigned" : "2021-09-28T09:24:50.804-0500"
},
{
"name" : "BurninBoxConfiguration_v81",
"assigned" : "2021-09-30T09:14:51.125-0500"
},
{
"name" : "BurninBoxConfiguration_v82",
"assigned" : "2021-10-01T10:56:21.606-0500"
},
{
"name" : "BurninBoxConfiguration_v83",
"assigned" : "2021-10-01T11:01:41.230-0500"
},
{
"name" : "BurninBoxConfiguration_v84",
"assigned" : "2021-10-06T10:02:31.531-0500"
},
{
"name" : "BurninBoxConfiguration_v85",
"assigned" : "2021-10-07T16:32:40.636-0500"
},
{
"name" : "BurninBoxConfiguration_v86",
"assigned" : "2021-10-08T14:03:15.512-0500"
},
{
"name" : "BurninBoxConfiguration_v87",
"assigned" : "2021-10-11T16:00:56.480-0500"
},
{
"name" : "BurninBoxConfiguration_v88",
"assigned" : "2021-10-12T09:07:17.677-0500"
},
{
"name" : "BurninBoxConfiguration_v89",
"assigned" : "2021-10-12T11:11:23.379-0500"
},
{
"name" : "BurninBoxConfiguration_v90",
"assigned" : "2021-10-14T17:03:16.787-0500"
},
{
"name" : "BurninBoxConfiguration_v91",
"assigned" : "2021-10-15T10:48:31.510-0500"
},
{
"name" : "BurninBoxConfiguration_v92",
"assigned" : "2021-10-15T15:50:49.486-0500"
},
{
"name" : "BurninBoxConfiguration_v93",
"assigned" : "2021-11-03T16:30:20.344-0500"
},
{
"name" : "BurninBoxConfiguration_v94",
"assigned" : "2021-11-10T15:11:02.745-0600"
},
{
"name" : "BurninBoxConfiguration_v95",
"assigned" : "2022-04-19T14:35:56.637-0400"
},
{
"name" : "BurninBoxConfiguration_v96",
"assigned" : "2022-04-20T10:06:05.619-0400"
},
{
"name" : "BurninBoxConfiguration_v97",
"assigned" : "2022-04-20T11:23:52.345-0400"
},
{
"name" : "BurninBoxConfiguration_v98",
"assigned" : "2022-06-03T14:30:16.629-0500"
},
{
"name" : "BurninBoxConfiguration_v99",
"assigned" : "2022-06-03T14:34:09.487-0500"
},
{
"name" : "BurninBoxConfiguration_v100",
"assigned" : "2022-06-07T14:59:59.641-0500"
},
{
"name" : "BurninBoxConfiguration_v101",
"assigned" : "2022-06-07T15:05:53.905-0500"
},
{
"name" : "BurninBoxConfiguration_v102",
"assigned" : "2022-06-07T16:09:17.923-0500"
},
{
"name" : "BurninBoxConfiguration_v103",
"assigned" : "2022-06-10T10:17:26.180-0500"
},
{
"name" : "BurninBoxConfiguration_v104",
"assigned" : "2022-06-10T10:18:22.691-0500"
},
{
"name" : "BurninBoxConfiguration_v105",
"assigned" : "2022-06-13T14:13:01.428-0500"
},
{
"name" : "BurninBoxConfiguration_v106",
"assigned" : "2022-06-13T15:22:18.827-0500"
},
{
"name" : "BurninBoxConfiguration_v107",
"assigned" : "2022-06-21T15:37:14.947-0500"
},
{
"name" : "BurninBoxConfiguration_v108",
"assigned" : "2022-06-21T15:39:37.530-0500"
},
{
"name" : "BurninBoxConfiguration_v109",
"assigned" : "2022-06-30T12:02:31.987-0500"
},
{
"name" : "BurninBoxConfiguration_v110",
"assigned" : "2023-01-19T10:05:43.229-0600"
},
{
"name" : "BurninBoxConfiguration_v111",
"assigned" : "2023-01-19T10:08:20.092-0600"
},
{
"name" : "BurninBoxConfiguration_v112",
"assigned" : "2023-01-19T11:02:45.175-0600"
},
{
"name" : "BurninBoxConfiguration_v113",
"assigned" : "2023-01-20T11:51:31.180-0600"
},
{
"name" : "BurninBoxConfiguration_v114",
"assigned" : "2023-01-30T11:15:46.366-0600"
},
{
"name" : "BurninBoxConfiguration_v115",
"assigned" : "2023-03-01T10:10:34.200-0600"
},
{
"name" : "BurninBoxConfiguration_v116",
"assigned" : "2023-03-07T16:36:51.240-0600"
},
{
"name" : "BurninBoxConfiguration_v117",
"assigned" : "2023-03-09T15:31:32.154-0600"
},
{
"name" : "BurninBoxConfiguration_v118",
"assigned" : "2023-03-15T12:03:56.370-0500"
},
{
"name" : "BurninBoxConfiguration_v119",
"assigned" : "2023-03-16T14:10:41.205-0500"
},
{
"name" : "BurninBoxConfiguration_v120",
"assigned" : "2023-04-04T11:18:54.493-0500"
},
{
"name" : "BurninBoxConfiguration_v121",
"assigned" : "2023-04-04T11:19:17.627-0500"
},
{
"name" : "BurninBoxConfiguration_v122",
"assigned" : "2023-04-04T11:23:01.191-0500"
},
{
"name" : "BurninBoxConfiguration_v123",
"assigned" : "2023-04-04T13:48:52.117-0500"
},
{
"name" : "BurninBoxConfiguration_v124",
"assigned" : "2023-04-04T13:51:59.244-0500"
},
{
"name" : "BurninBoxConfiguration_v125",
"assigned" : "2023-04-04T14:31:00.919-0500"
},
{
"name" : "BurninBoxConfiguration_v126",
"assigned" : "2023-04-04T16:05:04.739-0500"
},
{
"name" : "BurninBoxConfiguration_v127",
"assigned" : "2023-04-07T10:09:32.650-0500"
},
{
"name" : "BurninBoxConfiguration_v128",
"assigned" : "2023-04-07T16:20:29.850-0500"
},
{
"name" : "BurninBoxConfiguration_v129",
"assigned" : "2023-04-14T10:53:44.185-0500"
},
{
"name" : "BurninBoxConfiguration_v130",
"assigned" : "2023-04-14T11:01:24.000-0500"
},
{
"name" : "BurninBoxConfiguration_v131",
"assigned" : "2023-04-14T11:05:26.063-0500"
},
{
"name" : "BurninBoxConfiguration_v132",
"assigned" : "2023-04-14T12:25:11.203-0500"
},
{
"name" : "BurninBoxConfiguration_v133",
"assigned" : "2023-04-14T14:03:27.112-0500"
},
{
"name" : "BurninBoxConfiguration_v134",
"assigned" : "2023-04-14T15:36:49.704-0500"
},
{
"name" : "BurninBoxConfiguration_v135",
"assigned" : "2023-04-14T15:57:04.359-0500"
},
{
"name" : "BurninBoxConfiguration_v136",
"assigned" : "2023-04-14T15:59:01.011-0500"
},
{
"name" : "BurninBoxConfiguration_v137",
"assigned" : "2023-04-14T16:18:32.920-0500"
},
{
"name" : "BurninBoxConfiguration_v138",
"assigned" : "2023-04-14T16:20:12.052-0500"
},
{
"name" : "BurninBoxConfiguration_v139",
"assigned" : "2023-04-17T15:51:49.172-0500"
},
{
"name" : "BurninBoxConfiguration_v140",
"assigned" : "2023-04-18T10:48:02.566-0500"
},
{
"name" : "BurninBoxConfiguration_v141",
"assigned" : "2023-04-18T12:02:41.642-0500"
},
{
"name" : "BurninBoxConfiguration_v142",
"assigned" : "2023-04-18T12:03:57.119-0500"
},
{
"name" : "BurninBoxConfiguration_v143",
"assigned" : "2023-04-18T13:48:32.105-0500"
},
{
"name" : "BurninBoxConfiguration_v144",
"assigned" : "2023-04-18T14:33:55.355-0500"
},
{
"name" : "BurninBoxConfiguration_v145",
"assigned" : "2023-04-18T16:14:31.859-0500"
},
{
"name" : "BurninBoxConfiguration_v146",
"assigned" : "2023-04-18T16:20:21.403-0500"
},
{
"name" : "BurninBoxConfiguration_v147",
"assigned" : "2023-04-21T15:02:48.345-0500"
},
{
"name" : "BurninBoxConfiguration_v148",
"assigned" : "2023-05-09T09:06:44.556-0500"
},
{
"name" : "BurninBoxConfiguration_v149",
"assigned" : "2023-05-11T08:26:02.659-0500"
},
{
"name" : "BurninBoxConfiguration_v150",
"assigned" : "2023-09-28T16:19:08.960+0200"
}
],
"changelog" : "notprovided",
"bookkeeping" : {
"isdeleted" : false,
"isreadonly" : false,
"updates" : [
{
"event" : "addConfiguration",
"timestamp" : "2020-10-29T11:54:24.343-0500",
"value" : {
"name" : "notprovided",
"assigned" : "2020-10-29T11:54:24.343-0500"
}
},
{
"event" : "setVersion",
"timestamp" : "2020-10-29T11:54:24.343-0500",
"value" : {
"name" : "1",
"assigned" : "2020-10-29T11:54:24.343-0500"
}
},
{
"event" : "setCollection",
"timestamp" : "2020-10-29T11:54:24.343-0500",
"value" : {
"name" : "PowerSupplyDeviceTable",
"assigned" : "2020-10-29T11:54:24.343-0500"
}
},
{
"event" : "addEntity",
"timestamp" : "2020-10-29T11:54:24.343-0500",
"value" : {
"name" : "OTSROOT",
"assigned" : "2020-10-29T11:54:24.343-0500"
}
},
{
"event" : "addConfiguration",
"timestamp" : "2020-10-29T11:54:26.655-0500",
"value" : {
"name" : "BurninBoxConfiguration_v27",
"assigned" : "2020-10-29T11:54:26.655-0500"
}
},
{
"event" : "addConfiguration",
"timestamp" : "2020-10-29T13:30:24.620-0500",
"value" : {
"name" : "BurninBoxConfiguration_v28",
"assigned" : "2020-10-29T13:30:24.620-0500"
}
},
{
"event" : "addConfiguration",
"timestamp" : "2020-10-29T13:45:56.008-0500",
"value" : {
"name" : "BurninBoxConfiguration_v29",
"assigned" : "2020-10-29T13:45:56.008-0500"
}
},
{
"event" : "addConfiguration",
"timestamp" : "2020-10-29T13:46:38.304-0500",
"value" : {
"name" : "BurninBoxConfiguration_v30",
"assigned" : "2020-10-29T13:46:38.304-0500"
}
},
{
"event" : "addConfiguration",
"timestamp" : "2020-10-29T13:48:02.931-0500",
"value" : {
"name" : "BurninBoxConfiguration_v31",
"assigned" : "2020-10-29T13:48:02.931-0500"
}
},
{
"event" : "addConfiguration",
"timestamp" : "2020-10-29T14:39:28.986-0500",
"value" : {
"name" : "BurninBoxConfiguration_v32",
"assigned" : "2020-10-29T14:39:28.986-0500"
}
},
{
"event" : "addConfiguration",
"timestamp" : "2021-06-30T16:17:51.947-0500",
"value" : {
"name" : "BurninBoxConfiguration_v33",
"assigned" : "2021-06-30T16:17:51.947-0500"
}
},
{
"event" : "addConfiguration",
"timestamp" : "2021-06-30T16:23:48.346-0500",
"value" : {
"name" : "BurninBoxConfiguration_v34",
"assigned" : "2021-06-30T16:23:48.346-0500"
}
},
{
"event" : "addConfiguration",
"timestamp" : "2021-07-08T14:06:14.198-0500",
"value" : {
"name" : "BurninBoxConfiguration_v35",
"assigned" : "2021-07-08T14:06:14.198-0500"
}
},
{
"event" : "addConfiguration",
"timestamp" : "2021-07-08T14:16:58.394-0500",
"value" : {
"name" : "BurninBoxConfiguration_v36",
"assigned" : "2021-07-08T14:16:58.394-0500"
}
},
{
"event" : "addConfiguration",
"timestamp" : "2021-07-08T16:20:44.973-0500",
"value" : {
"name" : "BurninBoxConfiguration_v37",
"assigned" : "2021-07-08T16:20:44.973-0500"
}
},
{
"event" : "addConfiguration",
"timestamp" : "2021-07-09T11:47:14.163-0500",
"value" : {
"name" : "BurninBoxConfiguration_v38",
"assigned" : "2021-07-09T11:47:14.163-0500"
}
},
{
"event" : "addConfiguration",
"timestamp" : "2021-07-09T11:48:46.265-0500",
"value" : {
"name" : "BurninBoxConfiguration_v39",
"assigned" : "2021-07-09T11:48:46.265-0500"
}
},
{
"event" : "addConfiguration",
"timestamp" : "2021-07-09T16:06:00.748-0500",
"value" : {
"name" : "BurninBoxConfiguration_v40",
"assigned" : "2021-07-09T16:06:00.748-0500"
}
},
{
"event" : "addConfiguration",
"timestamp" : "2021-07-12T11:04:55.719-0500",
"value" : {
"name" : "BurninBoxConfiguration_v41",
"assigned" : "2021-07-12T11:04:55.719-0500"
}
},
{
"event" : "addConfiguration",
"timestamp" : "2021-07-13T12:01:31.608-0500",
"value" : {
"name" : "BurninBoxConfiguration_v42",
"assigned" : "2021-07-13T12:01:31.608-0500"
}
},
{
"event" : "addConfiguration",
"timestamp" : "2021-07-13T12:22:06.075-0500",
"value" : {
"name" : "BurninBoxConfiguration_v43",
"assigned" : "2021-07-13T12:22:06.075-0500"
}
},
{
"event" : "addConfiguration",
"timestamp" : "2021-07-14T13:05:58.679-0500",
"value" : {
"name" : "BurninBoxConfiguration_v44",
"assigned" : "2021-07-14T13:05:58.679-0500"
}
},
{
"event" : "addConfiguration",
"timestamp" : "2021-07-14T14:26:04.854-0500",
"value" : {
"name" : "BurninBoxConfiguration_v45",
"assigned" : "2021-07-14T14:26:04.854-0500"
}
},
{
"event" : "addConfiguration",
"timestamp" : "2021-07-14T14:46:57.139-0500",
"value" : {
"name" : "BurninBoxConfiguration_v46",
"assigned" : "2021-07-14T14:46:57.139-0500"
}
},
{
"event" : "addConfiguration",
"timestamp" : "2021-07-14T15:24:34.025-0500",
"value" : {
"name" : "BurninBoxConfiguration_v47",
"assigned" : "2021-07-14T15:24:34.025-0500"
}
},
{
"event" : "addConfiguration",
"timestamp" : "2021-07-14T16:05:29.594-0500",
"value" : {
"name" : "BurninBoxConfiguration_v48",
"assigned" : "2021-07-14T16:05:29.594-0500"
}
},
{
"event" : "addConfiguration",
"timestamp" : "2021-07-14T16:15:41.273-0500",
"value" : {
"name" : "BurninBoxConfiguration_v49",
"assigned" : "2021-07-14T16:15:41.273-0500"
}
},
{
"event" : "addConfiguration",
"timestamp" : "2021-07-14T16:17:41.015-0500",
"value" : {
"name" : "BurninBoxConfiguration_v50",
"assigned" : "2021-07-14T16:17:41.015-0500"
}
},
{
"event" : "addConfiguration",
"timestamp" : "2021-07-15T11:50:34.039-0500",
"value" : {
"name" : "BurninBoxConfiguration_v51",
"assigned" : "2021-07-15T11:50:34.039-0500"
}
},
{
"event" : "addConfiguration",
"timestamp" : "2021-07-20T13:45:54.148-0500",
"value" : {
"name" : "BurninBoxConfiguration_v52",
"assigned" : "2021-07-20T13:45:54.148-0500"
}
},
{
"event" : "addConfiguration",
"timestamp" : "2021-07-20T16:41:42.375-0500",
"value" : {
"name" : "BurninBoxConfiguration_v53",
"assigned" : "2021-07-20T16:41:42.375-0500"
}
},
{
"event" : "addConfiguration",
"timestamp" : "2021-07-20T17:09:27.122-0500",
"value" : {
"name" : "BurninBoxConfiguration_v54",
"assigned" : "2021-07-20T17:09:27.122-0500"
}
},
{
"event" : "addConfiguration",
"timestamp" : "2021-07-20T17:28:40.281-0500",
"value" : {
"name" : "BurninBoxConfiguration_v55",
"assigned" : "2021-07-20T17:28:40.281-0500"
}
},
{
"event" : "addConfiguration",
"timestamp" : "2021-07-20T17:46:27.611-0500",
"value" : {
"name" : "BurninBoxConfiguration_v56",
"assigned" : "2021-07-20T17:46:27.611-0500"
}
},
{
"event" : "addConfiguration",
"timestamp" : "2021-07-21T11:50:02.157-0500",
"value" : {
"name" : "BurninBoxConfiguration_v57",
"assigned" : "2021-07-21T11:50:02.157-0500"
}
},
{
"event" : "addConfiguration",
"timestamp" : "2021-07-21T11:58:37.825-0500",
"value" : {
"name" : "BurninBoxConfiguration_v58",
"assigned" : "2021-07-21T11:58:37.825-0500"
}
},
{
"event" : "addConfiguration",
"timestamp" : "2021-07-21T11:59:33.592-0500",
"value" : {
"name" : "BurninBoxConfiguration_v59",
"assigned" : "2021-07-21T11:59:33.592-0500"
}
},
{
"event" : "addConfiguration",
"timestamp" : "2021-07-22T18:35:00.635-0500",
"value" : {
"name" : "BurninBoxConfiguration_v60",
"assigned" : "2021-07-22T18:35:00.635-0500"
}
},
{
"event" : "addConfiguration",
"timestamp" : "2021-07-23T12:33:56.937-0500",
"value" : {
"name" : "BurninBoxConfiguration_v61",
"assigned" : "2021-07-23T12:33:56.937-0500"
}
},
{
"event" : "addConfiguration",
"timestamp" : "2021-07-24T00:54:49.756-0500",
"value" : {
"name" : "BurninBoxConfiguration_v62",
"assigned" : "2021-07-24T00:54:49.756-0500"
}
},
{
"event" : "addConfiguration",
"timestamp" : "2021-07-24T12:12:51.280-0500",
"value" : {
"name" : "BurninBoxConfiguration_v63",
"assigned" : "2021-07-24T12:12:51.280-0500"
}
},
{
"event" : "addConfiguration",
"timestamp" : "2021-07-25T21:07:16.247-0500",
"value" : {
"name" : "BurninBoxConfiguration_v64",
"assigned" : "2021-07-25T21:07:16.247-0500"
}
},
{
"event" : "addConfiguration",
"timestamp" : "2021-07-26T07:43:12.171-0500",
"value" : {
"name" : "BurninBoxConfiguration_v65",
"assigned" : "2021-07-26T07:43:12.171-0500"
}
},
{
"event" : "addConfiguration",
"timestamp" : "2021-07-26T18:37:12.190-0500",
"value" : {
"name" : "BurninBoxConfiguration_v66",
"assigned" : "2021-07-26T18:37:12.190-0500"
}
},
{
"event" : "addConfiguration",
"timestamp" : "2021-07-27T08:25:40.944-0500",
"value" : {
"name" : "BurninBoxConfiguration_v67",
"assigned" : "2021-07-27T08:25:40.944-0500"
}
},
{
"event" : "addConfiguration",
"timestamp" : "2021-08-03T11:10:37.335-0500",
"value" : {
"name" : "BurninBoxConfiguration_v68",
"assigned" : "2021-08-03T11:10:37.335-0500"
}
},
{
"event" : "addConfiguration",
"timestamp" : "2021-08-04T12:21:57.772-0500",
"value" : {
"name" : "BurninBoxConfiguration_v69",
"assigned" : "2021-08-04T12:21:57.772-0500"
}
},
{
"event" : "addConfiguration",
"timestamp" : "2021-09-02T13:43:34.190-0500",
"value" : {
"name" : "BurninBoxConfiguration_v70",
"assigned" : "2021-09-02T13:43:34.190-0500"
}
},
{
"event" : "addConfiguration",
"timestamp" : "2021-09-02T14:03:37.052-0500",
"value" : {
"name" : "BurninBoxConfiguration_v71",
"assigned" : "2021-09-02T14:03:37.052-0500"
}
},
{
"event" : "addConfiguration",
"timestamp" : "2021-09-23T15:47:05.452-0500",
"value" : {
"name" : "BurninBoxConfiguration_v72",
"assigned" : "2021-09-23T15:47:05.452-0500"
}
},
{
"event" : "addConfiguration",
"timestamp" : "2021-09-23T15:47:42.372-0500",
"value" : {
"name" : "BurninBoxConfiguration_v73",
"assigned" : "2021-09-23T15:47:42.372-0500"
}
},
{
"event" : "addConfiguration",
"timestamp" : "2021-09-24T15:36:50.268-0500",
"value" : {
"name" : "BurninBoxConfiguration_v74",
"assigned" : "2021-09-24T15:36:50.268-0500"
}
},
{
"event" : "addConfiguration",
"timestamp" : "2021-09-24T15:53:23.284-0500",
"value" : {
"name" : "BurninBoxConfiguration_v75",
"assigned" : "2021-09-24T15:53:23.284-0500"
}
},
{
"event" : "addConfiguration",
"timestamp" : "2021-09-24T16:04:22.282-0500",
"value" : {
"name" : "BurninBoxConfiguration_v76",
"assigned" : "2021-09-24T16:04:22.282-0500"
}
},
{
"event" : "addConfiguration",
"timestamp" : "2021-09-24T16:28:07.074-0500",
"value" : {
"name" : "BurninBoxConfiguration_v77",
"assigned" : "2021-09-24T16:28:07.074-0500"
}
},
{
"event" : "addConfiguration",
"timestamp" : "2021-09-27T09:02:56.643-0500",
"value" : {
"name" : "BurninBoxConfiguration_v78",
"assigned" : "2021-09-27T09:02:56.643-0500"
}
},
{
"event" : "addConfiguration",
"timestamp" : "2021-09-27T14:22:24.925-0500",
"value" : {
"name" : "BurninBoxConfiguration_v79",
"assigned" : "2021-09-27T14:22:24.925-0500"
}
},
{
"event" : "addConfiguration",
"timestamp" : "2021-09-28T09:24:50.804-0500",
"value" : {
"name" : "BurninBoxConfiguration_v80",
"assigned" : "2021-09-28T09:24:50.804-0500"
}
},
{
"event" : "addConfiguration",
"timestamp" : "2021-09-30T09:14:51.125-0500",
"value" : {
"name" : "BurninBoxConfiguration_v81",
"assigned" : "2021-09-30T09:14:51.125-0500"
}
},
{
"event" : "addConfiguration",
"timestamp" : "2021-10-01T10:56:21.606-0500",
"value" : {
"name" : "BurninBoxConfiguration_v82",
"assigned" : "2021-10-01T10:56:21.606-0500"
}
},
{
"event" : "addConfiguration",
"timestamp" : "2021-10-01T11:01:41.230-0500",
"value" : {
"name" : "BurninBoxConfiguration_v83",
"assigned" : "2021-10-01T11:01:41.230-0500"
}
},
{
"event" : "addConfiguration",
"timestamp" : "2021-10-06T10:02:31.531-0500",
"value" : {
"name" : "BurninBoxConfiguration_v84",
"assigned" : "2021-10-06T10:02:31.531-0500"
}
},
{
"event" : "addConfiguration",
"timestamp" : "2021-10-07T16:32:40.636-0500",
"value" : {
"name" : "BurninBoxConfiguration_v85",
"assigned" : "2021-10-07T16:32:40.636-0500"
}
},
{
"event" : "addConfiguration",
"timestamp" : "2021-10-08T14:03:15.512-0500",
"value" : {
"name" : "BurninBoxConfiguration_v86",
"assigned" : "2021-10-08T14:03:15.512-0500"
}
},
{
"event" : "addConfiguration",
"timestamp" : "2021-10-11T16:00:56.480-0500",
"value" : {
"name" : "BurninBoxConfiguration_v87",
"assigned" : "2021-10-11T16:00:56.480-0500"
}
},
{
"event" : "addConfiguration",
"timestamp" : "2021-10-12T09:07:17.677-0500",
"value" : {
"name" : "BurninBoxConfiguration_v88",
"assigned" : "2021-10-12T09:07:17.677-0500"
}
},
{
"event" : "addConfiguration",
"timestamp" : "2021-10-12T11:11:23.379-0500",
"value" : {
"name" : "BurninBoxConfiguration_v89",
"assigned" : "2021-10-12T11:11:23.379-0500"
}
},
{
"event" : "addConfiguration",
"timestamp" : "2021-10-14T17:03:16.787-0500",
"value" : {
"name" : "BurninBoxConfiguration_v90",
"assigned" : "2021-10-14T17:03:16.787-0500"
}
},
{
"event" : "addConfiguration",
"timestamp" : "2021-10-15T10:48:31.510-0500",
"value" : {
"name" : "BurninBoxConfiguration_v91",
"assigned" : "2021-10-15T10:48:31.510-0500"
}
},
{
"event" : "addConfiguration",
"timestamp" : "2021-10-15T15:50:49.487-0500",
"value" : {
"name" : "BurninBoxConfiguration_v92",
"assigned" : "2021-10-15T15:50:49.486-0500"
}
},
{
"event" : "addConfiguration",
"timestamp" : "2021-11-03T16:30:20.344-0500",
"value" : {
"name" : "BurninBoxConfiguration_v93",
"assigned" : "2021-11-03T16:30:20.344-0500"
}
},
{
"event" : "addConfiguration",
"timestamp" : "2021-11-10T15:11:02.745-0600",
"value" : {
"name" : "BurninBoxConfiguration_v94",
"assigned" : "2021-11-10T15:11:02.745-0600"
}
},
{
"event" : "addConfiguration",
"timestamp" : "2022-04-19T14:35:56.637-0400",
"value" : {
"name" : "BurninBoxConfiguration_v95",
"assigned" : "2022-04-19T14:35:56.637-0400"
}
},
{
"event" : "addConfiguration",
"timestamp" : "2022-04-20T10:06:05.619-0400",
"value" : {
"name" : "BurninBoxConfiguration_v96",
"assigned" : "2022-04-20T10:06:05.619-0400"
}
},
{
"event" : "addConfiguration",
"timestamp" : "2022-04-20T11:23:52.345-0400",
"value" : {
"name" : "BurninBoxConfiguration_v97",
"assigned" : "2022-04-20T11:23:52.345-0400"
}
},
{
"event" : "addConfiguration",
"timestamp" : "2022-06-03T14:30:16.629-0500",
"value" : {
"name" : "BurninBoxConfiguration_v98",
"assigned" : "2022-06-03T14:30:16.629-0500"
}
},
{
"event" : "addConfiguration",
"timestamp" : "2022-06-03T14:34:09.487-0500",
"value" : {
"name" : "BurninBoxConfiguration_v99",
"assigned" : "2022-06-03T14:34:09.487-0500"
}
},
{
"event" : "addConfiguration",
"timestamp" : "2022-06-07T14:59:59.641-0500",
"value" : {
"name" : "BurninBoxConfiguration_v100",
"assigned" : "2022-06-07T14:59:59.641-0500"
}
},
{
"event" : "addConfiguration",
"timestamp" : "2022-06-07T15:05:53.905-0500",
"value" : {
"name" : "BurninBoxConfiguration_v101",
"assigned" : "2022-06-07T15:05:53.905-0500"
}
},
{
"event" : "addConfiguration",
"timestamp" : "2022-06-07T16:09:17.923-0500",
"value" : {
"name" : "BurninBoxConfiguration_v102",
"assigned" : "2022-06-07T16:09:17.923-0500"
}
},
{
"event" : "addConfiguration",
"timestamp" : "2022-06-10T10:17:26.180-0500",
"value" : {
"name" : "BurninBoxConfiguration_v103",
"assigned" : "2022-06-10T10:17:26.180-0500"
}
},
{
"event" : "addConfiguration",
"timestamp" : "2022-06-10T10:18:22.691-0500",
"value" : {
"name" : "BurninBoxConfiguration_v104",
"assigned" : "2022-06-10T10:18:22.691-0500"
}
},
{
"event" : "addConfiguration",
"timestamp" : "2022-06-13T14:13:01.428-0500",
"value" : {
"name" : "BurninBoxConfiguration_v105",
"assigned" : "2022-06-13T14:13:01.428-0500"
}
},
{
"event" : "addConfiguration",
"timestamp" : "2022-06-13T15:22:18.827-0500",
"value" : {
"name" : "BurninBoxConfiguration_v106",
"assigned" : "2022-06-13T15:22:18.827-0500"
}
},
{
"event" : "addConfiguration",
"timestamp" : "2022-06-21T15:37:14.947-0500",
"value" : {
"name" : "BurninBoxConfiguration_v107",
"assigned" : "2022-06-21T15:37:14.947-0500"
}
},
{
"event" : "addConfiguration",
"timestamp" : "2022-06-21T15:39:37.530-0500",
"value" : {
"name" : "BurninBoxConfiguration_v108",
"assigned" : "2022-06-21T15:39:37.530-0500"
}
},
{
"event" : "addConfiguration",
"timestamp" : "2022-06-30T12:02:31.987-0500",
"value" : {
"name" : "BurninBoxConfiguration_v109",
"assigned" : "2022-06-30T12:02:31.987-0500"
}
},
{
"event" : "addConfiguration",
"timestamp" : "2023-01-19T10:05:43.229-0600",
"value" : {
"name" : "BurninBoxConfiguration_v110",
"assigned" : "2023-01-19T10:05:43.229-0600"
}
},
{
"event" : "addConfiguration",
"timestamp" : "2023-01-19T10:08:20.092-0600",
"value" : {
"name" : "BurninBoxConfiguration_v111",
"assigned" : "2023-01-19T10:08:20.092-0600"
}
},
{
"event" : "addConfiguration",
"timestamp" : "2023-01-19T11:02:45.175-0600",
"value" : {
"name" : "BurninBoxConfiguration_v112",
"assigned" : "2023-01-19T11:02:45.175-0600"
}
},
{
"event" : "addConfiguration",
"timestamp" : "2023-01-20T11:51:31.181-0600",
"value" : {
"name" : "BurninBoxConfiguration_v113",
"assigned" : "2023-01-20T11:51:31.180-0600"
}
},
{
"event" : "addConfiguration",
"timestamp" : "2023-01-30T11:15:46.366-0600",
"value" : {
"name" : "BurninBoxConfiguration_v114",
"assigned" : "2023-01-30T11:15:46.366-0600"
}
},
{
"event" : "addConfiguration",
"timestamp" : "2023-03-01T10:10:34.201-0600",
"value" : {
"name" : "BurninBoxConfiguration_v115",
"assigned" : "2023-03-01T10:10:34.200-0600"
}
},
{
"event" : "addConfiguration",
"timestamp" : "2023-03-07T16:36:51.240-0600",
"value" : {
"name" : "BurninBoxConfiguration_v116",
"assigned" : "2023-03-07T16:36:51.240-0600"
}
},
{
"event" : "addConfiguration",
"timestamp" : "2023-03-09T15:31:32.154-0600",
"value" : {
"name" : "BurninBoxConfiguration_v117",
"assigned" : "2023-03-09T15:31:32.154-0600"
}
},
{
"event" : "addConfiguration",
"timestamp" : "2023-03-15T12:03:56.370-0500",
"value" : {
"name" : "BurninBoxConfiguration_v118",
"assigned" : "2023-03-15T12:03:56.370-0500"
}
},
{
"event" : "addConfiguration",
"timestamp" : "2023-03-16T14:10:41.205-0500",
"value" : {
"name" : "BurninBoxConfiguration_v119",
"assigned" : "2023-03-16T14:10:41.205-0500"
}
},
{
"event" : "addConfiguration",
"timestamp" : "2023-04-04T11:18:54.493-0500",
"value" : {
"name" : "BurninBoxConfiguration_v120",
"assigned" : "2023-04-04T11:18:54.493-0500"
}
},
{
"event" : "addConfiguration",
"timestamp" : "2023-04-04T11:19:17.627-0500",
"value" : {
"name" : "BurninBoxConfiguration_v121",
"assigned" : "2023-04-04T11:19:17.627-0500"
}
},
{
"event" : "addConfiguration",
"timestamp" : "2023-04-04T11:23:01.191-0500",
"value" : {
"name" : "BurninBoxConfiguration_v122",
"assigned" : "2023-04-04T11:23:01.191-0500"
}
},
{
"event" : "addConfiguration",
"timestamp" : "2023-04-04T13:48:52.117-0500",
"value" : {
"name" : "BurninBoxConfiguration_v123",
"assigned" : "2023-04-04T13:48:52.117-0500"
}
},
{
"event" : "addConfiguration",
"timestamp" : "2023-04-04T13:51:59.244-0500",
"value" : {
"name" : "BurninBoxConfiguration_v124",
"assigned" : "2023-04-04T13:51:59.244-0500"
}
},
{
"event" : "addConfiguration",
"timestamp" : "2023-04-04T14:31:00.919-0500",
"value" : {
"name" : "BurninBoxConfiguration_v125",
"assigned" : "2023-04-04T14:31:00.919-0500"
}
},
{
"event" : "addConfiguration",
"timestamp" : "2023-04-04T16:05:04.739-0500",
"value" : {
"name" : "BurninBoxConfiguration_v126",
"assigned" : "2023-04-04T16:05:04.739-0500"
}
},
{
"event" : "addConfiguration",
"timestamp" : "2023-04-07T10:09:32.650-0500",
"value" : {
"name" : "BurninBoxConfiguration_v127",
"assigned" : "2023-04-07T10:09:32.650-0500"
}
},
{
"event" : "addConfiguration",
"timestamp" : "2023-04-07T16:20:29.850-0500",
"value" : {
"name" : "BurninBoxConfiguration_v128",
"assigned" : "2023-04-07T16:20:29.850-0500"
}
},
{
"event" : "addConfiguration",
"timestamp" : "2023-04-14T10:53:44.185-0500",
"value" : {
"name" : "BurninBoxConfiguration_v129",
"assigned" : "2023-04-14T10:53:44.185-0500"
}
},
{
"event" : "addConfiguration",
"timestamp" : "2023-04-14T11:01:24.000-0500",
"value" : {
"name" : "BurninBoxConfiguration_v130",
"assigned" : "2023-04-14T11:01:24.000-0500"
}
},
{
"event" : "addConfiguration",
"timestamp" : "2023-04-14T11:05:26.063-0500",
"value" : {
"name" : "BurninBoxConfiguration_v131",
"assigned" : "2023-04-14T11:05:26.063-0500"
}
},
{
"event" : "addConfiguration",
"timestamp" : "2023-04-14T12:25:11.203-0500",
"value" : {
"name" : "BurninBoxConfiguration_v132",
"assigned" : "2023-04-14T12:25:11.203-0500"
}
},
{
"event" : "addConfiguration",
"timestamp" : "2023-04-14T14:03:27.112-0500",
"value" : {
"name" : "BurninBoxConfiguration_v133",
"assigned" : "2023-04-14T14:03:27.112-0500"
}
},
{
"event" : "addConfiguration",
"timestamp" : "2023-04-14T15:36:49.704-0500",
"value" : {
"name" : "BurninBoxConfiguration_v134",
"assigned" : "2023-04-14T15:36:49.704-0500"
}
},
{
"event" : "addConfiguration",
"timestamp" : "2023-04-14T15:57:04.359-0500",
"value" : {
"name" : "BurninBoxConfiguration_v135",
"assigned" : "2023-04-14T15:57:04.359-0500"
}
},
{
"event" : "addConfiguration",
"timestamp" : "2023-04-14T15:59:01.011-0500",
"value" : {
"name" : "BurninBoxConfiguration_v136",
"assigned" : "2023-04-14T15:59:01.011-0500"
}
},
{
"event" : "addConfiguration",
"timestamp" : "2023-04-14T16:18:32.920-0500",
"value" : {
"name" : "BurninBoxConfiguration_v137",
"assigned" : "2023-04-14T16:18:32.920-0500"
}
},
{
"event" : "addConfiguration",
"timestamp" : "2023-04-14T16:20:12.052-0500",
"value" : {
"name" : "BurninBoxConfiguration_v138",
"assigned" : "2023-04-14T16:20:12.052-0500"
}
},
{
"event" : "addConfiguration",
"timestamp" : "2023-04-17T15:51:49.172-0500",
"value" : {
"name" : "BurninBoxConfiguration_v139",
"assigned" : "2023-04-17T15:51:49.172-0500"
}
},
{
"event" : "addConfiguration",
"timestamp" : "2023-04-18T10:48:02.566-0500",
"value" : {
"name" : "BurninBoxConfiguration_v140",
"assigned" : "2023-04-18T10:48:02.566-0500"
}
},
{
"event" : "addConfiguration",
"timestamp" : "2023-04-18T12:02:41.642-0500",
"value" : {
"name" : "BurninBoxConfiguration_v141",
"assigned" : "2023-04-18T12:02:41.642-0500"
}
},
{
"event" : "addConfiguration",
"timestamp" : "2023-04-18T12:03:57.119-0500",
"value" : {
"name" : "BurninBoxConfiguration_v142",
"assigned" : "2023-04-18T12:03:57.119-0500"
}
},
{
"event" : "addConfiguration",
"timestamp" : "2023-04-18T13:48:32.105-0500",
"value" : {
"name" : "BurninBoxConfiguration_v143",
"assigned" : "2023-04-18T13:48:32.105-0500"
}
},
{
"event" : "addConfiguration",
"timestamp" : "2023-04-18T14:33:55.355-0500",
"value" : {
"name" : "BurninBoxConfiguration_v144",
"assigned" : "2023-04-18T14:33:55.355-0500"
}
},
{
"event" : "addConfiguration",
"timestamp" : "2023-04-18T16:14:31.860-0500",
"value" : {
"name" : "BurninBoxConfiguration_v145",
"assigned" : "2023-04-18T16:14:31.859-0500"
}
},
{
"event" : "addConfiguration",
"timestamp" : "2023-04-18T16:20:21.403-0500",
"value" : {
"name" : "BurninBoxConfiguration_v146",
"assigned" : "2023-04-18T16:20:21.403-0500"
}
},
{
"event" : "addConfiguration",
"timestamp" : "2023-04-21T15:02:48.345-0500",
"value" : {
"name" : "BurninBoxConfiguration_v147",
"assigned" : "2023-04-21T15:02:48.345-0500"
}
},
{
"event" : "addConfiguration",
"timestamp" : "2023-05-09T09:06:44.557-0500",
"value" : {
"name" : "BurninBoxConfiguration_v148",
"assigned" : "2023-05-09T09:06:44.556-0500"
}
},
{
"event" : "addConfiguration",
"timestamp" : "2023-05-11T08:26:02.659-0500",
"value" : {
"name" : "BurninBoxConfiguration_v149",
"assigned" : "2023-05-11T08:26:02.659-0500"
}
},
{
"event" : "addConfiguration",
"timestamp" : "2023-09-28T16:19:08.960+0200",
"value" : {
"name" : "BurninBoxConfiguration_v150",
"assigned" : "2023-09-28T16:19:08.960+0200"
}
}
],
"created" : "2020-10-29T11:54:24.343-0500"
},
"_id" : {
"$oid" : "5e51228d3e704773b3432ade"
},
"collection" : "PowerSupplyDeviceTable",
"aliases" : {
"active" : [

],
"history" : [

]
},
"runs" : [

],
"attachments" : [

],
"configtype" : "notprovided"
}