{
"document" : {
"data" : {
"NAME" : "GROUP_ALIASES_TABLE",
"COMMENT" : "Default Backbone.",
"AUTHOR" : "admin",
"CREATION_TIME" : 1680636662,
"COL_TYPES" : {
"GROUP_KEY_ALIAS" : "STRING",
"GROUP_NAME" : "STRING",
"GROUP_KEY" : "STRING",
"COMMENT_DESCRIPTION" : "STRING",
"AUTHOR" : "STRING",
"RECORD_INSERTION_TIME" : "TIMESTAMP WITH TIMEZONE"
},
"DATA_SET" : [
{
"GROUP_KEY_ALIAS" : "DefaultContext",
"GROUP_NAME" : "DefaultContext",
"GROUP_KEY" : "75",
"COMMENT_DESCRIPTION" : "This Group Alias was automatically setup by the server.",
"AUTHOR" : "admin",
"RECORD_INSERTION_TIME" : "1678476343"
},
{
"GROUP_KEY_ALIAS" : "BurninBoxConfiguration",
"GROUP_NAME" : "BurninBoxConfiguration",
"GROUP_KEY" : "125",
"COMMENT_DESCRIPTION" : "This Group Alias was automatically setup by the server.",
"AUTHOR" : "admin",
"RECORD_INSERTION_TIME" : "1680636662"
},
{
"GROUP_KEY_ALIAS" : "BurninBoxOnlyContext",
"GROUP_NAME" : "DefaultContext",
"GROUP_KEY" : "43",
"COMMENT_DESCRIPTION" : "This Group Alias was automatically setup by the server.",
"AUTHOR" : "admin",
"RECORD_INSERTION_TIME" : "1632518780"
},
{
"GROUP_KEY_ALIAS" : "BurninBoxOnlyConfiguration",
"GROUP_NAME" : "BurninBoxConfiguration",
"GROUP_KEY" : "108",
"COMMENT_DESCRIPTION" : "This Group Alias was automatically setup by the server.",
"AUTHOR" : "admin",
"RECORD_INSERTION_TIME" : "1655843978"
},
{
"GROUP_KEY_ALIAS" : "TrackerOnlyConfiguration",
"GROUP_NAME" : "BurninBoxConfiguration",
"GROUP_KEY" : "89",
"COMMENT_DESCRIPTION" : "This Group Alias was automatically setup by the server.",
"AUTHOR" : "admin",
"RECORD_INSERTION_TIME" : "1650482925"
},
{
"GROUP_KEY_ALIAS" : "TrackerOnlyContext",
"GROUP_NAME" : "DefaultContext",
"GROUP_KEY" : "43",
"COMMENT_DESCRIPTION" : "This Group Alias was automatically setup by the server.",
"AUTHOR" : "admin",
"RECORD_INSERTION_TIME" : "1636583603"
}
]
},
"metadata" : {

},
"search" : [

]
},
"comments" : [

],
"origin" : {
"source" : "template",
"name" : "notprovided",
"format" : "json",
"created" : "2023-04-04T14:31:02.510-0500",
"rawdata" : [

]
},
"version" : "297",
"entities" : [
{
"name" : "OTSROOT",
"assigned" : "2023-04-04T14:31:02.510-0500"
}
],
"configurations" : [
{
"name" : "notprovided",
"assigned" : "2023-04-04T14:31:02.510-0500"
},
{
"name" : "GroupAliasWizBackbone_v33",
"assigned" : "2023-04-04T14:31:05.694-0500"
}
],
"changelog" : "notprovided",
"bookkeeping" : {
"isdeleted" : false,
"isreadonly" : false,
"updates" : [
{
"event" : "addConfiguration",
"timestamp" : "2023-04-04T14:31:02.510-0500",
"value" : {
"name" : "notprovided",
"assigned" : "2023-04-04T14:31:02.510-0500"
}
},
{
"event" : "setVersion",
"timestamp" : "2023-04-04T14:31:02.510-0500",
"value" : {
"name" : "297",
"assigned" : "2023-04-04T14:31:02.510-0500"
}
},
{
"event" : "setCollection",
"timestamp" : "2023-04-04T14:31:02.510-0500",
"value" : {
"name" : "GroupAliasesTable",
"assigned" : "2023-04-04T14:31:02.510-0500"
}
},
{
"event" : "addEntity",
"timestamp" : "2023-04-04T14:31:02.510-0500",
"value" : {
"name" : "OTSROOT",
"assigned" : "2023-04-04T14:31:02.510-0500"
}
},
{
"event" : "addConfiguration",
"timestamp" : "2023-04-04T14:31:05.694-0500",
"value" : {
"name" : "GroupAliasWizBackbone_v33",
"assigned" : "2023-04-04T14:31:05.694-0500"
}
}
],
"created" : "2023-04-04T14:31:02.510-0500"
},
"_id" : {
"$oid" : "06715087804448b4aebc7e32"
},
"collection" : "GroupAliasesTable",
"aliases" : {
"active" : [

],
"history" : [

]
},
"runs" : [

],
"attachments" : [

],
"configtype" : "notprovided"
}