{
"document" : {
"data" : {
"NAME" : "GROUP_ALIASES_TABLE",
"COMMENT" : "Default Backbone.",
"AUTHOR" : "admin",
"CREATION_TIME" : 1680880173,
"COL_TYPES" : {
"GROUP_KEY_ALIAS" : "STRING",
"GROUP_NAME" : "STRING",
"GROUP_KEY" : "STRING",
"COMMENT_DESCRIPTION" : "STRING",
"AUTHOR" : "STRING",
"RECORD_INSERTION_TIME" : "TIMESTAMP WITH TIMEZONE"
},
"DATA_SET" : [
{
"GROUP_KEY_ALIAS" : "DefaultContext",
"GROUP_NAME" : "DefaultContext",
"GROUP_KEY" : "75",
"COMMENT_DESCRIPTION" : "This Group Alias was automatically setup by the server.",
"AUTHOR" : "admin",
"RECORD_INSERTION_TIME" : "1678476343"
},
{
"GROUP_KEY_ALIAS" : "BurninBoxConfiguration",
"GROUP_NAME" : "BurninBoxConfiguration",
"GROUP_KEY" : "127",
"COMMENT_DESCRIPTION" : "This Group Alias was automatically setup by the server.",
"AUTHOR" : "admin",
"RECORD_INSERTION_TIME" : "1680880173"
},
{
"GROUP_KEY_ALIAS" : "BurninBoxOnlyContext",
"GROUP_NAME" : "DefaultContext",
"GROUP_KEY" : "43",
"COMMENT_DESCRIPTION" : "This Group Alias was automatically setup by the server.",
"AUTHOR" : "admin",
"RECORD_INSERTION_TIME" : "1632518780"
},
{
"GROUP_KEY_ALIAS" : "BurninBoxOnlyConfiguration",
"GROUP_NAME" : "BurninBoxConfiguration",
"GROUP_KEY" : "108",
"COMMENT_DESCRIPTION" : "This Group Alias was automatically setup by the server.",
"AUTHOR" : "admin",
"RECORD_INSERTION_TIME" : "1655843978"
},
{
"GROUP_KEY_ALIAS" : "TrackerOnlyConfiguration",
"GROUP_NAME" : "BurninBoxConfiguration",
"GROUP_KEY" : "89",
"COMMENT_DESCRIPTION" : "This Group Alias was automatically setup by the server.",
"AUTHOR" : "admin",
"RECORD_INSERTION_TIME" : "1650482925"
},
{
"GROUP_KEY_ALIAS" : "TrackerOnlyContext",
"GROUP_NAME" : "DefaultContext",
"GROUP_KEY" : "43",
"COMMENT_DESCRIPTION" : "This Group Alias was automatically setup by the server.",
"AUTHOR" : "admin",
"RECORD_INSERTION_TIME" : "1636583603"
}
]
},
"metadata" : {

},
"search" : [

]
},
"comments" : [

],
"origin" : {
"source" : "template",
"name" : "notprovided",
"format" : "json",
"created" : "2023-04-07T10:09:33.590-0500",
"rawdata" : [

]
},
"version" : "299",
"entities" : [
{
"name" : "OTSROOT",
"assigned" : "2023-04-07T10:09:33.590-0500"
}
],
"configurations" : [
{
"name" : "notprovided",
"assigned" : "2023-04-07T10:09:33.590-0500"
},
{
"name" : "GroupAliasTreeEditWizBackbone_v123",
"assigned" : "2023-04-07T10:09:35.608-0500"
},
{
"name" : "GroupAliasSaveWizBackbone_v5",
"assigned" : "2023-04-10T13:11:15.159-0500"
},
{
"name" : "GroupAliasWizBackbone_v35",
"assigned" : "2023-04-14T09:32:59.056-0500"
}
],
"changelog" : "notprovided",
"bookkeeping" : {
"isdeleted" : false,
"isreadonly" : false,
"updates" : [
{
"event" : "addConfiguration",
"timestamp" : "2023-04-07T10:09:33.590-0500",
"value" : {
"name" : "notprovided",
"assigned" : "2023-04-07T10:09:33.590-0500"
}
},
{
"event" : "setVersion",
"timestamp" : "2023-04-07T10:09:33.590-0500",
"value" : {
"name" : "299",
"assigned" : "2023-04-07T10:09:33.590-0500"
}
},
{
"event" : "setCollection",
"timestamp" : "2023-04-07T10:09:33.590-0500",
"value" : {
"name" : "GroupAliasesTable",
"assigned" : "2023-04-07T10:09:33.590-0500"
}
},
{
"event" : "addEntity",
"timestamp" : "2023-04-07T10:09:33.590-0500",
"value" : {
"name" : "OTSROOT",
"assigned" : "2023-04-07T10:09:33.590-0500"
}
},
{
"event" : "addConfiguration",
"timestamp" : "2023-04-07T10:09:35.608-0500",
"value" : {
"name" : "GroupAliasTreeEditWizBackbone_v123",
"assigned" : "2023-04-07T10:09:35.608-0500"
}
},
{
"event" : "addConfiguration",
"timestamp" : "2023-04-10T13:11:15.159-0500",
"value" : {
"name" : "GroupAliasSaveWizBackbone_v5",
"assigned" : "2023-04-10T13:11:15.159-0500"
}
},
{
"event" : "addConfiguration",
"timestamp" : "2023-04-14T09:32:59.056-0500",
"value" : {
"name" : "GroupAliasWizBackbone_v35",
"assigned" : "2023-04-14T09:32:59.056-0500"
}
}
],
"created" : "2023-04-07T10:09:33.590-0500"
},
"_id" : {
"$oid" : "d58d9d86e5694071a69b7465"
},
"collection" : "GroupAliasesTable",
"aliases" : {
"active" : [

],
"history" : [

]
},
"runs" : [

],
"attachments" : [

],
"configtype" : "notprovided"
}