{
"document" : {
"data" : {
"NAME" : "GROUP_ALIASES_TABLE",
"COMMENT" : "Default Backbone.",
"AUTHOR" : "admin",
"CREATION_TIME" : 1632751445,
"COL_TYPES" : {
"GROUP_KEY_ALIAS" : "STRING",
"GROUP_NAME" : "STRING",
"GROUP_KEY" : "STRING",
"COMMENT_DESCRIPTION" : "STRING",
"AUTHOR" : "STRING",
"RECORD_INSERTION_TIME" : "TIMESTAMP WITH TIMEZONE"
},
"DATA_SET" : [
{
"GROUP_KEY_ALIAS" : "DefaultContext",
"GROUP_NAME" : "DefaultContext",
"GROUP_KEY" : "43",
"COMMENT_DESCRIPTION" : "This Group Alias was automatically setup by the server.",
"AUTHOR" : "admin",
"RECORD_INSERTION_TIME" : "1632516595"
},
{
"GROUP_KEY_ALIAS" : "BurninBoxConfiguration",
"GROUP_NAME" : "BurninBoxConfiguration",
"GROUP_KEY" : "78",
"COMMENT_DESCRIPTION" : "This Group Alias was automatically setup by the server.",
"AUTHOR" : "admin",
"RECORD_INSERTION_TIME" : "1632751377"
},
{
"GROUP_KEY_ALIAS" : "BurninBoxOnlyContext",
"GROUP_NAME" : "DefaultContext",
"GROUP_KEY" : "43",
"COMMENT_DESCRIPTION" : "This Group Alias was automatically setup by the server.",
"AUTHOR" : "admin",
"RECORD_INSERTION_TIME" : "1632518780"
},
{
"GROUP_KEY_ALIAS" : "BurninBoxOnlyConfiguration",
"GROUP_NAME" : "BurninBoxConfiguration",
"GROUP_KEY" : "78",
"COMMENT_DESCRIPTION" : "This Group Alias was automatically setup by the server.",
"AUTHOR" : "admin",
"RECORD_INSERTION_TIME" : "1632751445"
}
]
},
"metadata" : {

},
"search" : [

]
},
"comments" : [

],
"origin" : {
"source" : "template",
"name" : "notprovided",
"format" : "json",
"created" : "2021-09-27T09:04:05.172-0500",
"rawdata" : [

]
},
"version" : "191",
"entities" : [
{
"name" : "OTSROOT",
"assigned" : "2021-09-27T09:04:05.173-0500"
}
],
"configurations" : [
{
"name" : "notprovided",
"assigned" : "2021-09-27T09:04:05.173-0500"
},
{
"name" : "TableEditWizBackbone_v111",
"assigned" : "2021-09-27T09:04:06.711-0500"
}
],
"changelog" : "notprovided",
"bookkeeping" : {
"isdeleted" : false,
"isreadonly" : false,
"updates" : [
{
"event" : "addConfiguration",
"timestamp" : "2021-09-27T09:04:05.173-0500",
"value" : {
"name" : "notprovided",
"assigned" : "2021-09-27T09:04:05.173-0500"
}
},
{
"event" : "setVersion",
"timestamp" : "2021-09-27T09:04:05.173-0500",
"value" : {
"name" : "191",
"assigned" : "2021-09-27T09:04:05.173-0500"
}
},
{
"event" : "setCollection",
"timestamp" : "2021-09-27T09:04:05.173-0500",
"value" : {
"name" : "GroupAliasesTable",
"assigned" : "2021-09-27T09:04:05.173-0500"
}
},
{
"event" : "addEntity",
"timestamp" : "2021-09-27T09:04:05.173-0500",
"value" : {
"name" : "OTSROOT",
"assigned" : "2021-09-27T09:04:05.173-0500"
}
},
{
"event" : "addConfiguration",
"timestamp" : "2021-09-27T09:04:06.711-0500",
"value" : {
"name" : "TableEditWizBackbone_v111",
"assigned" : "2021-09-27T09:04:06.711-0500"
}
}
],
"created" : "2021-09-27T09:04:05.172-0500"
},
"_id" : {
"$oid" : "0ba4aa3d89bf4f93a8444d30"
},
"collection" : "GroupAliasesTable",
"aliases" : {
"active" : [

],
"history" : [

]
},
"runs" : [

],
"attachments" : [

],
"configtype" : "notprovided"
}