{
"document" : {
"data" : {
"NAME" : "GROUP_ALIASES_TABLE",
"COMMENT" : "Default Backbone.",
"AUTHOR" : "admin",
"CREATION_TIME" : 1629405302,
"COL_TYPES" : {
"GROUP_KEY_ALIAS" : "STRING",
"GROUP_NAME" : "STRING",
"GROUP_KEY" : "STRING",
"COMMENT_DESCRIPTION" : "STRING",
"AUTHOR" : "STRING",
"RECORD_INSERTION_TIME" : "TIMESTAMP WITH TIMEZONE"
},
"DATA_SET" : [
{
"GROUP_KEY_ALIAS" : "DefaultContext",
"GROUP_NAME" : "DefaultContext",
"GROUP_KEY" : "43",
"COMMENT_DESCRIPTION" : "This Group Alias was automatically setup by the server.",
"AUTHOR" : "admin",
"RECORD_INSERTION_TIME" : "1626887303"
},
{
"GROUP_KEY_ALIAS" : "BurninBoxConfiguration",
"GROUP_NAME" : "BurninBoxConfiguration",
"GROUP_KEY" : "67",
"COMMENT_DESCRIPTION" : "This Group Alias was automatically setup by the server.",
"AUTHOR" : "admin",
"RECORD_INSERTION_TIME" : "1627392341"
},
{
"GROUP_KEY_ALIAS" : "BurninBoxOnlyContext",
"GROUP_NAME" : "DefaultContext",
"GROUP_KEY" : "44",
"COMMENT_DESCRIPTION" : "This Group Alias was automatically setup by the server.",
"AUTHOR" : "admin",
"RECORD_INSERTION_TIME" : "1628007040"
},
{
"GROUP_KEY_ALIAS" : "BurninBoxOnlyConfiguration",
"GROUP_NAME" : "BurninBoxConfiguration",
"GROUP_KEY" : "73",
"COMMENT_DESCRIPTION" : "This Group Alias was automatically setup by the server.",
"AUTHOR" : "admin",
"RECORD_INSERTION_TIME" : "1629405302"
}
]
},
"metadata" : {

},
"search" : [

]
},
"comments" : [

],
"origin" : {
"source" : "template",
"name" : "notprovided",
"format" : "json",
"created" : "2021-08-19T16:35:02.758-0400",
"rawdata" : [

]
},
"version" : "176",
"entities" : [
{
"name" : "OTSROOT",
"assigned" : "2021-08-19T16:35:02.759-0400"
}
],
"configurations" : [
{
"name" : "notprovided",
"assigned" : "2021-08-19T16:35:02.759-0400"
},
{
"name" : "TableEditWizBackbone_v104",
"assigned" : "2021-08-19T16:35:06.791-0400"
}
],
"changelog" : "notprovided",
"bookkeeping" : {
"isdeleted" : false,
"isreadonly" : false,
"updates" : [
{
"event" : "addConfiguration",
"timestamp" : "2021-08-19T16:35:02.759-0400",
"value" : {
"name" : "notprovided",
"assigned" : "2021-08-19T16:35:02.759-0400"
}
},
{
"event" : "setVersion",
"timestamp" : "2021-08-19T16:35:02.759-0400",
"value" : {
"name" : "176",
"assigned" : "2021-08-19T16:35:02.759-0400"
}
},
{
"event" : "setCollection",
"timestamp" : "2021-08-19T16:35:02.759-0400",
"value" : {
"name" : "GroupAliasesTable",
"assigned" : "2021-08-19T16:35:02.759-0400"
}
},
{
"event" : "addEntity",
"timestamp" : "2021-08-19T16:35:02.759-0400",
"value" : {
"name" : "OTSROOT",
"assigned" : "2021-08-19T16:35:02.759-0400"
}
},
{
"event" : "addConfiguration",
"timestamp" : "2021-08-19T16:35:06.791-0400",
"value" : {
"name" : "TableEditWizBackbone_v104",
"assigned" : "2021-08-19T16:35:06.791-0400"
}
}
],
"created" : "2021-08-19T16:35:02.758-0400"
},
"_id" : {
"$oid" : "334227d710754d77bacbce26"
},
"collection" : "GroupAliasesTable",
"aliases" : {
"active" : [

],
"history" : [

]
},
"runs" : [

],
"attachments" : [

],
"configtype" : "notprovided"
}