{
"ouid" : [
"2f6aa970e35b4bc1a19d0bd0",
"3105a2bb5bee4e8f9cf51bc4",
"5dcfde9d0006481480e18234",
"691fdcab533548f48e5f9f3c",
"6cbf3ebff3604e16bd97174c",
"7f03c0c2af4c4dd5815ca170",
"a910cad8fcba46cfb26ae086",
"e3cb146995c343e6bb92f5c8",
"f31dea1c33554a42b07b829c",
"f9011930593246c889fd121e"
],
"version" : {
"0" : [
"3105a2bb5bee4e8f9cf51bc4"
],
"1" : [
"f31dea1c33554a42b07b829c"
],
"2" : [
"e3cb146995c343e6bb92f5c8"
],
"3" : [
"a910cad8fcba46cfb26ae086"
],
"4" : [
"2f6aa970e35b4bc1a19d0bd0"
],
"5" : [
"6cbf3ebff3604e16bd97174c"
],
"6" : [
"7f03c0c2af4c4dd5815ca170"
],
"7" : [
"691fdcab533548f48e5f9f3c"
],
"8" : [
"5dcfde9d0006481480e18234"
],
"9" : [
"f9011930593246c889fd121e"
]
},
"configurations.name" : {
"notprovided" : [
"2f6aa970e35b4bc1a19d0bd0",
"3105a2bb5bee4e8f9cf51bc4",
"5dcfde9d0006481480e18234",
"691fdcab533548f48e5f9f3c",
"6cbf3ebff3604e16bd97174c",
"7f03c0c2af4c4dd5815ca170",
"a910cad8fcba46cfb26ae086",
"e3cb146995c343e6bb92f5c8",
"f31dea1c33554a42b07b829c",
"f9011930593246c889fd121e"
],
"iterateDefaultGroup_v0" : [
"3105a2bb5bee4e8f9cf51bc4"
],
"iterateDefaultGroup_v1" : [
"f31dea1c33554a42b07b829c"
],
"iterateDefaultGroup_v2" : [
"3105a2bb5bee4e8f9cf51bc4"
],
"iterateDefaultGroup_v3" : [
"e3cb146995c343e6bb92f5c8"
],
"iterateDefaultGroup_v4" : [
"e3cb146995c343e6bb92f5c8"
],
"iterateDefaultGroup_v5" : [
"e3cb146995c343e6bb92f5c8"
],
"iterateDefaultGroup_v6" : [
"a910cad8fcba46cfb26ae086"
],
"iterateDefaultGroup_v7" : [
"a910cad8fcba46cfb26ae086"
],
"iterateDefaultGroup_v8" : [
"a910cad8fcba46cfb26ae086"
],
"iterateDefaultGroup_v9" : [
"a910cad8fcba46cfb26ae086"
],
"iterateDefaultGroup_v10" : [
"a910cad8fcba46cfb26ae086"
],
"iterateDefaultGroup_v11" : [
"a910cad8fcba46cfb26ae086"
],
"iterateDefaultGroup_v12" : [
"a910cad8fcba46cfb26ae086"
],
"iterateDefaultGroup_v13" : [
"2f6aa970e35b4bc1a19d0bd0"
],
"iterateDefaultGroup_v14" : [
"6cbf3ebff3604e16bd97174c"
],
"iterateDefaultGroup_v15" : [
"7f03c0c2af4c4dd5815ca170"
],
"iterateDefaultGroup_v16" : [
"7f03c0c2af4c4dd5815ca170"
],
"iterateDefaultGroup_v17" : [
"7f03c0c2af4c4dd5815ca170"
],
"iterateDefaultGroup_v18" : [
"7f03c0c2af4c4dd5815ca170"
],
"iterateDefaultGroup_v19" : [
"7f03c0c2af4c4dd5815ca170"
],
"iterateDefaultGroup_v20" : [
"7f03c0c2af4c4dd5815ca170"
],
"iterateDefaultGroup_v21" : [
"7f03c0c2af4c4dd5815ca170"
],
"iterateDefaultGroup_v22" : [
"7f03c0c2af4c4dd5815ca170"
],
"iterateDefaultGroup_v23" : [
"7f03c0c2af4c4dd5815ca170"
],
"iterateDefaultGroup_v24" : [
"7f03c0c2af4c4dd5815ca170"
],
"iterateDefaultGroup_v25" : [
"7f03c0c2af4c4dd5815ca170"
],
"iterateDefaultGroup_v26" : [
"7f03c0c2af4c4dd5815ca170"
],
"iterateDefaultGroup_v27" : [
"7f03c0c2af4c4dd5815ca170"
],
"iterateDefaultGroup_v28" : [
"7f03c0c2af4c4dd5815ca170"
],
"iterateDefaultGroup_v29" : [
"7f03c0c2af4c4dd5815ca170"
],
"iterateDefaultGroup_v30" : [
"7f03c0c2af4c4dd5815ca170"
],
"iterateDefaultGroup_v31" : [
"7f03c0c2af4c4dd5815ca170"
],
"iterateDefaultGroup_v32" : [
"7f03c0c2af4c4dd5815ca170"
],
"iterateDefaultGroup_v33" : [
"7f03c0c2af4c4dd5815ca170"
],
"iterateDefaultGroup_v34" : [
"7f03c0c2af4c4dd5815ca170"
],
"iterateDefaultGroup_v35" : [
"7f03c0c2af4c4dd5815ca170"
],
"iterateDefaultGroup_v36" : [
"7f03c0c2af4c4dd5815ca170"
],
"iterateDefaultGroup_v37" : [
"7f03c0c2af4c4dd5815ca170"
],
"iterateDefaultGroup_v38" : [
"7f03c0c2af4c4dd5815ca170"
],
"iterateDefaultGroup_v39" : [
"7f03c0c2af4c4dd5815ca170"
],
"iterateDefaultGroup_v40" : [
"7f03c0c2af4c4dd5815ca170"
],
"iterateDefaultGroup_v41" : [
"7f03c0c2af4c4dd5815ca170"
],
"iterateDefaultGroup_v42" : [
"7f03c0c2af4c4dd5815ca170"
],
"iterateDefaultGroup_v43" : [
"7f03c0c2af4c4dd5815ca170"
],
"iterateDefaultGroup_v44" : [
"7f03c0c2af4c4dd5815ca170"
],
"iterateDefaultGroup_v45" : [
"7f03c0c2af4c4dd5815ca170"
],
"iterateDefaultGroup_v46" : [
"7f03c0c2af4c4dd5815ca170"
],
"iterateDefaultGroup_v47" : [
"7f03c0c2af4c4dd5815ca170"
],
"iterateDefaultGroup_v48" : [
"7f03c0c2af4c4dd5815ca170"
],
"iterateDefaultGroup_v49" : [
"7f03c0c2af4c4dd5815ca170"
],
"iterateDefaultGroup_v50" : [
"7f03c0c2af4c4dd5815ca170"
],
"iterateDefaultGroup_v51" : [
"7f03c0c2af4c4dd5815ca170"
],
"iterateDefaultGroup_v52" : [
"7f03c0c2af4c4dd5815ca170"
],
"iterateDefaultGroup_v53" : [
"7f03c0c2af4c4dd5815ca170"
],
"iterateDefaultGroup_v54" : [
"691fdcab533548f48e5f9f3c"
],
"iterateDefaultGroup_v55" : [
"5dcfde9d0006481480e18234"
],
"iterateDefaultGroup_v56" : [
"691fdcab533548f48e5f9f3c"
],
"iterateDefaultGroup_v57" : [
"f9011930593246c889fd121e"
],
"iterateDefaultGroup_v58" : [
"f9011930593246c889fd121e"
],
"iterateDefaultGroup_v59" : [
"f9011930593246c889fd121e"
],
"iterateDefaultGroup_v60" : [
"f9011930593246c889fd121e"
],
"iterateDefaultGroup_v61" : [
"f9011930593246c889fd121e"
],
"iterateDefaultGroup_v62" : [
"f9011930593246c889fd121e"
],
"iterateDefaultGroup_v63" : [
"f9011930593246c889fd121e"
],
"iterateDefaultGroup_v64" : [
"f9011930593246c889fd121e"
],
"iterateDefaultGroup_v65" : [
"f9011930593246c889fd121e"
],
"iterateDefaultGroup_v66" : [
"f9011930593246c889fd121e"
],
"iterateDefaultGroup_v67" : [
"f9011930593246c889fd121e"
],
"iterateDefaultGroup_v68" : [
"f9011930593246c889fd121e"
],
"iterateDefaultGroup_v69" : [
"f9011930593246c889fd121e"
],
"iterateDefaultGroup_v70" : [
"f9011930593246c889fd121e"
],
"iterateDefaultGroup_v71" : [
"f9011930593246c889fd121e"
],
"iterateDefaultGroup_v72" : [
"f9011930593246c889fd121e"
],
"iterateDefaultGroup_v73" : [
"f9011930593246c889fd121e"
],
"iterateDefaultGroup_v74" : [
"f9011930593246c889fd121e"
],
"iterateDefaultGroup_v75" : [
"f9011930593246c889fd121e"
],
"iterateDefaultGroup_v76" : [
"f9011930593246c889fd121e"
],
"iterateDefaultGroup_v77" : [
"f9011930593246c889fd121e"
],
"iterateDefaultGroup_v78" : [
"f9011930593246c889fd121e"
],
"iterateDefaultGroup_v79" : [
"f9011930593246c889fd121e"
],
"iterateDefaultGroup_v80" : [
"f9011930593246c889fd121e"
],
"iterateDefaultGroup_v81" : [
"f9011930593246c889fd121e"
]
},
"entities.name" : {
"OTSROOT" : [
"2f6aa970e35b4bc1a19d0bd0",
"3105a2bb5bee4e8f9cf51bc4",
"5dcfde9d0006481480e18234",
"691fdcab533548f48e5f9f3c",
"6cbf3ebff3604e16bd97174c",
"7f03c0c2af4c4dd5815ca170",
"a910cad8fcba46cfb26ae086",
"e3cb146995c343e6bb92f5c8",
"f31dea1c33554a42b07b829c",
"f9011930593246c889fd121e"
]
},
"aliases.active.name" : {

},
"runs.name" : {

},
"configurations.assigned" : {
"notprovided" : [
"2018-09-10T09:26:39.134-0500",
"2018-09-10T09:27:19.765-0500",
"2020-07-29T13:52:19.501-0500",
"2020-10-09T16:10:08.781-0500",
"2020-10-26T10:34:08.161-0500",
"2020-10-26T11:12:07.135-0500",
"2020-10-26T13:20:57.437-0500",
"2021-09-02T13:40:31.079-0500",
"2021-09-02T14:33:14.416-0500",
"2021-10-12T11:12:22.315-0500"
],
"iterateDefaultGroup_v0" : [
"2018-09-10T09:26:39.635-0500"
],
"iterateDefaultGroup_v1" : [
"2018-09-10T09:27:20.499-0500"
],
"iterateDefaultGroup_v2" : [
"2020-07-28T16:25:06.071-0500"
],
"iterateDefaultGroup_v3" : [
"2020-07-29T13:52:20.368-0500"
],
"iterateDefaultGroup_v4" : [
"2020-07-29T13:56:47.491-0500"
],
"iterateDefaultGroup_v5" : [
"2020-07-29T15:14:11.741-0500"
],
"iterateDefaultGroup_v6" : [
"2020-10-09T16:10:09.947-0500"
],
"iterateDefaultGroup_v7" : [
"2020-10-09T16:31:31.869-0500"
],
"iterateDefaultGroup_v8" : [
"2020-10-09T16:46:00.556-0500"
],
"iterateDefaultGroup_v9" : [
"2020-10-12T10:30:01.676-0500"
],
"iterateDefaultGroup_v10" : [
"2020-10-12T13:54:18.095-0500"
],
"iterateDefaultGroup_v11" : [
"2020-10-12T15:28:45.671-0500"
],
"iterateDefaultGroup_v12" : [
"2020-10-12T15:33:41.043-0500"
],
"iterateDefaultGroup_v13" : [
"2020-10-26T10:34:09.476-0500"
],
"iterateDefaultGroup_v14" : [
"2020-10-26T11:12:08.528-0500"
],
"iterateDefaultGroup_v15" : [
"2020-10-26T13:20:58.706-0500"
],
"iterateDefaultGroup_v16" : [
"2020-10-26T13:46:31.615-0500"
],
"iterateDefaultGroup_v17" : [
"2020-10-27T17:08:44.238-0500"
],
"iterateDefaultGroup_v18" : [
"2021-06-30T15:46:03.951-0500"
],
"iterateDefaultGroup_v19" : [
"2021-07-12T11:48:21.556-0500"
],
"iterateDefaultGroup_v20" : [
"2021-07-12T13:38:44.689-0500"
],
"iterateDefaultGroup_v21" : [
"2021-07-12T13:40:39.637-0500"
],
"iterateDefaultGroup_v22" : [
"2021-07-14T16:20:56.507-0500"
],
"iterateDefaultGroup_v23" : [
"2021-07-20T15:29:51.129-0500"
],
"iterateDefaultGroup_v24" : [
"2021-07-22T18:34:18.876-0500"
],
"iterateDefaultGroup_v25" : [
"2021-07-23T12:39:38.208-0500"
],
"iterateDefaultGroup_v26" : [
"2021-07-23T12:45:35.652-0500"
],
"iterateDefaultGroup_v27" : [
"2021-07-23T13:08:43.336-0500"
],
"iterateDefaultGroup_v28" : [
"2021-07-23T13:16:29.909-0500"
],
"iterateDefaultGroup_v29" : [
"2021-07-23T14:16:53.659-0500"
],
"iterateDefaultGroup_v30" : [
"2021-07-28T08:44:04.629-0500"
],
"iterateDefaultGroup_v31" : [
"2021-07-28T09:04:35.411-0500"
],
"iterateDefaultGroup_v32" : [
"2021-07-28T09:08:06.220-0500"
],
"iterateDefaultGroup_v33" : [
"2021-07-28T09:09:00.212-0500"
],
"iterateDefaultGroup_v34" : [
"2021-07-28T09:11:42.294-0500"
],
"iterateDefaultGroup_v35" : [
"2021-07-28T10:45:28.302-0500"
],
"iterateDefaultGroup_v36" : [
"2021-07-28T11:09:41.481-0500"
],
"iterateDefaultGroup_v37" : [
"2021-07-28T11:56:31.878-0500"
],
"iterateDefaultGroup_v38" : [
"2021-07-28T13:37:16.370-0500"
],
"iterateDefaultGroup_v39" : [
"2021-07-28T14:34:06.595-0500"
],
"iterateDefaultGroup_v40" : [
"2021-07-28T14:42:29.898-0500"
],
"iterateDefaultGroup_v41" : [
"2021-07-28T14:47:06.873-0500"
],
"iterateDefaultGroup_v42" : [
"2021-07-28T14:48:23.248-0500"
],
"iterateDefaultGroup_v43" : [
"2021-07-28T14:48:51.176-0500"
],
"iterateDefaultGroup_v44" : [
"2021-07-28T14:51:22.619-0500"
],
"iterateDefaultGroup_v45" : [
"2021-07-28T15:03:29.557-0500"
],
"iterateDefaultGroup_v46" : [
"2021-07-28T15:11:18.426-0500"
],
"iterateDefaultGroup_v47" : [
"2021-07-28T15:13:39.878-0500"
],
"iterateDefaultGroup_v48" : [
"2021-07-28T15:30:21.006-0500"
],
"iterateDefaultGroup_v49" : [
"2021-07-28T15:42:30.259-0500"
],
"iterateDefaultGroup_v50" : [
"2021-07-28T15:54:18.191-0500"
],
"iterateDefaultGroup_v51" : [
"2021-07-28T16:06:51.000-0500"
],
"iterateDefaultGroup_v52" : [
"2021-07-28T16:13:47.041-0500"
],
"iterateDefaultGroup_v53" : [
"2021-07-28T16:15:01.181-0500"
],
"iterateDefaultGroup_v54" : [
"2021-09-02T13:40:33.405-0500"
],
"iterateDefaultGroup_v55" : [
"2021-09-02T14:33:16.384-0500"
],
"iterateDefaultGroup_v56" : [
"2021-09-02T14:42:08.887-0500"
],
"iterateDefaultGroup_v57" : [
"2021-10-12T11:12:24.691-0500"
],
"iterateDefaultGroup_v58" : [
"2021-10-12T16:34:03.397-0500"
],
"iterateDefaultGroup_v59" : [
"2021-10-13T18:15:37.108-0500"
],
"iterateDefaultGroup_v60" : [
"2021-10-15T15:39:58.649-0500"
],
"iterateDefaultGroup_v61" : [
"2023-03-10T15:26:53.483-0600"
],
"iterateDefaultGroup_v62" : [
"2023-03-15T09:42:48.921-0500"
],
"iterateDefaultGroup_v63" : [
"2023-03-16T13:47:44.005-0500"
],
"iterateDefaultGroup_v64" : [
"2023-03-16T14:10:02.762-0500"
],
"iterateDefaultGroup_v65" : [
"2023-04-04T11:27:07.254-0500"
],
"iterateDefaultGroup_v66" : [
"2023-04-07T12:13:38.928-0500"
],
"iterateDefaultGroup_v67" : [
"2023-04-07T13:50:52.331-0500"
],
"iterateDefaultGroup_v68" : [
"2023-04-07T13:53:26.984-0500"
],
"iterateDefaultGroup_v69" : [
"2023-04-07T13:58:49.103-0500"
],
"iterateDefaultGroup_v70" : [
"2023-04-07T14:10:01.535-0500"
],
"iterateDefaultGroup_v71" : [
"2023-04-07T14:33:16.586-0500"
],
"iterateDefaultGroup_v72" : [
"2023-04-07T14:47:41.036-0500"
],
"iterateDefaultGroup_v73" : [
"2023-04-07T15:12:10.329-0500"
],
"iterateDefaultGroup_v74" : [
"2023-04-07T15:32:05.129-0500"
],
"iterateDefaultGroup_v75" : [
"2023-04-07T16:23:30.225-0500"
],
"iterateDefaultGroup_v76" : [
"2023-04-10T13:12:20.942-0500"
],
"iterateDefaultGroup_v77" : [
"2023-04-10T14:03:47.217-0500"
],
"iterateDefaultGroup_v78" : [
"2023-04-13T17:40:21.772-0500"
],
"iterateDefaultGroup_v79" : [
"2023-04-13T17:42:56.861-0500"
],
"iterateDefaultGroup_v80" : [
"2023-04-14T09:32:22.288-0500"
],
"iterateDefaultGroup_v81" : [
"2023-04-14T16:25:20.848-0500"
]
}
}