{
"document" : {
"data" : {
"NAME" : "TABLE_GROUP_METADATA",
"COMMENT" : "",
"AUTHOR" : "",
"CREATION_TIME" : 1528236848,
"COL_TYPES" : {
"UNUSED_UID" : "NUMBER",
"GROUP_ALIASES" : "STRING",
"COMMENT_DESCRIPTION" : "STRING",
"AUTHOR" : "STRING",
"GROUP_CREATION_TIME" : "TIMESTAMP WITH TIMEZONE"
},
"DATA_SET" : [
{
"UNUSED_UID" : "0",
"GROUP_ALIASES" : "",
"COMMENT_DESCRIPTION" : "",
"AUTHOR" : "admin",
"GROUP_CREATION_TIME" : "1633114916"
}
]
},
"metadata" : {

},
"search" : [

]
},
"comments" : [

],
"origin" : {
"source" : "template",
"name" : "notprovided",
"format" : "json",
"created" : "2021-10-01T14:01:56.699-0500",
"rawdata" : [

]
},
"version" : "431",
"entities" : [
{
"name" : "OTSROOT",
"assigned" : "2021-10-01T14:01:56.699-0500"
}
],
"configurations" : [
{
"name" : "notprovided",
"assigned" : "2021-10-01T14:01:56.699-0500"
},
{
"name" : "GroupAliasTreeEditWizBackbone_v89",
"assigned" : "2021-10-01T14:01:56.834-0500"
}
],
"changelog" : "notprovided",
"bookkeeping" : {
"isdeleted" : false,
"isreadonly" : false,
"updates" : [
{
"event" : "addConfiguration",
"timestamp" : "2021-10-01T14:01:56.699-0500",
"value" : {
"name" : "notprovided",
"assigned" : "2021-10-01T14:01:56.699-0500"
}
},
{
"event" : "setVersion",
"timestamp" : "2021-10-01T14:01:56.699-0500",
"value" : {
"name" : "431",
"assigned" : "2021-10-01T14:01:56.699-0500"
}
},
{
"event" : "setCollection",
"timestamp" : "2021-10-01T14:01:56.699-0500",
"value" : {
"name" : "TableGroupMetadata",
"assigned" : "2021-10-01T14:01:56.699-0500"
}
},
{
"event" : "addEntity",
"timestamp" : "2021-10-01T14:01:56.699-0500",
"value" : {
"name" : "OTSROOT",
"assigned" : "2021-10-01T14:01:56.699-0500"
}
},
{
"event" : "addConfiguration",
"timestamp" : "2021-10-01T14:01:56.834-0500",
"value" : {
"name" : "GroupAliasTreeEditWizBackbone_v89",
"assigned" : "2021-10-01T14:01:56.834-0500"
}
}
],
"created" : "2021-10-01T14:01:56.699-0500"
},
"_id" : {
"$oid" : "035c800ad1f84b8181419622"
},
"collection" : "TableGroupMetadata",
"aliases" : {
"active" : [

],
"history" : [

]
},
"runs" : [

],
"attachments" : [

],
"configtype" : "notprovided"
}