{
"document" : {
"data" : {
"NAME" : "BURNIN_BOX_CYCLE_TABLE",
"COMMENT" : "No comment.",
"AUTHOR" : "admin",
"CREATION_TIME" : 1599080430,
"COL_TYPES" : {
"BURNIN_BOX_CYCLE_GROUP_ID" : "STRING",
"TARGET_ID" : "STRING",
"STATUS" : "STRING",
"TEMPERATURE" : "NUMBER",
"TIME_AT_TARGET" : "NUMBER",
"COMMENT_DESCRIPTION" : "STRING",
"AUTHOR" : "STRING",
"RECORD_INSERTION_TIME" : "TIMESTAMP WITH TIMEZONE"
},
"DATA_SET" : [
{
"BURNIN_BOX_CYCLE_GROUP_ID" : "ModuleTestingCycle",
"TARGET_ID" : "Temperature1",
"STATUS" : "On",
"TEMPERATURE" : "-5",
"TIME_AT_TARGET" : "-1",
"COMMENT_DESCRIPTION" : "No Comment",
"AUTHOR" : "admin",
"RECORD_INSERTION_TIME" : "1599080430"
},
{
"BURNIN_BOX_CYCLE_GROUP_ID" : "ModuleTestingCycle",
"TARGET_ID" : "TemperatureStop",
"STATUS" : "On",
"TEMPERATURE" : "-5",
"TIME_AT_TARGET" : "0",
"COMMENT_DESCRIPTION" : "No Comment",
"AUTHOR" : "admin",
"RECORD_INSERTION_TIME" : "1599080430"
}
]
},
"metadata" : {

},
"search" : [

]
},
"comments" : [

],
"origin" : {
"source" : "template",
"name" : "notprovided",
"format" : "json",
"created" : "2020-09-02T16:00:30.993-0500",
"rawdata" : [

]
},
"version" : "0",
"entities" : [
{
"name" : "OTSROOT",
"assigned" : "2020-09-02T16:00:30.994-0500"
}
],
"configurations" : [
{
"name" : "notprovided",
"assigned" : "2020-09-02T16:00:30.994-0500"
},
{
"name" : "BurninBoxConfiguration_v6",
"assigned" : "2020-09-02T16:01:05.683-0500"
},
{
"name" : "BurninBoxConfiguration_v7",
"assigned" : "2020-09-02T16:05:19.123-0500"
}
],
"changelog" : "notprovided",
"bookkeeping" : {
"isdeleted" : false,
"isreadonly" : false,
"updates" : [
{
"event" : "addConfiguration",
"timestamp" : "2020-09-02T16:00:30.994-0500",
"value" : {
"name" : "notprovided",
"assigned" : "2020-09-02T16:00:30.994-0500"
}
},
{
"event" : "setVersion",
"timestamp" : "2020-09-02T16:00:30.994-0500",
"value" : {
"name" : "0",
"assigned" : "2020-09-02T16:00:30.994-0500"
}
},
{
"event" : "setCollection",
"timestamp" : "2020-09-02T16:00:30.994-0500",
"value" : {
"name" : "BurninBoxCycleTable",
"assigned" : "2020-09-02T16:00:30.994-0500"
}
},
{
"event" : "addEntity",
"timestamp" : "2020-09-02T16:00:30.994-0500",
"value" : {
"name" : "OTSROOT",
"assigned" : "2020-09-02T16:00:30.994-0500"
}
},
{
"event" : "addConfiguration",
"timestamp" : "2020-09-02T16:01:05.683-0500",
"value" : {
"name" : "BurninBoxConfiguration_v6",
"assigned" : "2020-09-02T16:01:05.683-0500"
}
},
{
"event" : "addConfiguration",
"timestamp" : "2020-09-02T16:05:19.123-0500",
"value" : {
"name" : "BurninBoxConfiguration_v7",
"assigned" : "2020-09-02T16:05:19.123-0500"
}
}
],
"created" : "2020-09-02T16:00:30.994-0500"
},
"_id" : {
"$oid" : "df7a2ed673df4799b31c477f"
},
"collection" : "BurninBoxCycleTable",
"aliases" : {
"active" : [

],
"history" : [

]
},
"runs" : [

],
"attachments" : [

],
"configtype" : "notprovided"
}