{
"document" : {
"data" : {
"NAME" : "GATEWAY_SUPERVISOR_TABLE",
"COMMENT" : "State Machine group link.",
"AUTHOR" : "admin",
"CREATION_TIME" : 1593446365,
"COL_TYPES" : {
"SUPERVISOR_UID" : "STRING",
"NUMBER_OF_STATE_MACHINE_BROADCAST_THREADS" : "NUMBER",
"LINK_TO_STATE_MACHINE_TABLE" : "STRING",
"STATE_MACHINE_GROUP_ID" : "STRING",
"ENABLE_APPLICATION_STATUS_MONITORING" : "STRING",
"ENABLE_STATE_CHANGES_OVER_UDP" : "STRING",
"IP_ADDRESS_FOR_STATE_CHANGES_OVER_UDP" : "STRING",
"PORT_FOR_STATE_CHANGES_OVER_UDP" : "NUMBER",
"ENABLE_ACK_FOR_STATE_CHANGES_OVER_UDP" : "STRING",
"COMMENT_DESCRIPTION" : "STRING",
"AUTHOR" : "STRING",
"RECORD_INSERTION_TIME" : "TIMESTAMP WITH TIMEZONE"
},
"DATA_SET" : [
{
"SUPERVISOR_UID" : "Supervisor0",
"NUMBER_OF_STATE_MACHINE_BROADCAST_THREADS" : "0",
"LINK_TO_STATE_MACHINE_TABLE" : "StateMachineTable",
"STATE_MACHINE_GROUP_ID" : "Supervisor0_FSMs",
"ENABLE_APPLICATION_STATUS_MONITORING" : "No",
"ENABLE_STATE_CHANGES_OVER_UDP" : "No",
"IP_ADDRESS_FOR_STATE_CHANGES_OVER_UDP" : "127.0.0.1",
"PORT_FOR_STATE_CHANGES_OVER_UDP" : "5001",
"ENABLE_ACK_FOR_STATE_CHANGES_OVER_UDP" : "No",
"COMMENT_DESCRIPTION" : "Link to a group of state machines.",
"AUTHOR" : "admin",
"RECORD_INSERTION_TIME" : "1593446365"
}
]
},
"metadata" : {

},
"search" : [

]
},
"comments" : [

],
"origin" : {
"source" : "template",
"name" : "notprovided",
"format" : "json",
"created" : "2020-06-29T10:59:25.038-0500",
"rawdata" : [

]
},
"version" : "2",
"entities" : [
{
"name" : "OTSROOT",
"assigned" : "2020-06-29T10:59:25.039-0500"
}
],
"configurations" : [
{
"name" : "notprovided",
"assigned" : "2020-06-29T10:59:25.038-0500"
},
{
"name" : "DefaultContext_v5",
"assigned" : "2020-06-29T11:00:05.220-0500"
},
{
"name" : "DefaultContext_v6",
"assigned" : "2020-07-29T16:01:22.318-0500"
},
{
"name" : "DefaultContext_v7",
"assigned" : "2020-07-29T16:34:42.672-0500"
},
{
"name" : "DefaultContext_v8",
"assigned" : "2020-07-29T16:39:53.514-0500"
},
{
"name" : "DefaultContext_v9",
"assigned" : "2020-07-29T16:40:44.130-0500"
},
{
"name" : "DefaultContext_v10",
"assigned" : "2020-07-29T16:45:01.420-0500"
},
{
"name" : "DefaultContext_v11",
"assigned" : "2020-07-29T16:49:16.225-0500"
},
{
"name" : "DefaultContext_v12",
"assigned" : "2020-09-02T15:22:09.384-0500"
},
{
"name" : "DefaultContext_v13",
"assigned" : "2020-10-05T17:04:58.123-0500"
}
],
"changelog" : "notprovided",
"bookkeeping" : {
"isdeleted" : false,
"isreadonly" : false,
"updates" : [
{
"event" : "addConfiguration",
"timestamp" : "2020-06-29T10:59:25.038-0500",
"value" : {
"name" : "notprovided",
"assigned" : "2020-06-29T10:59:25.038-0500"
}
},
{
"event" : "setVersion",
"timestamp" : "2020-06-29T10:59:25.039-0500",
"value" : {
"name" : "2",
"assigned" : "2020-06-29T10:59:25.039-0500"
}
},
{
"event" : "setCollection",
"timestamp" : "2020-06-29T10:59:25.039-0500",
"value" : {
"name" : "GatewaySupervisorTable",
"assigned" : "2020-06-29T10:59:25.039-0500"
}
},
{
"event" : "addEntity",
"timestamp" : "2020-06-29T10:59:25.039-0500",
"value" : {
"name" : "OTSROOT",
"assigned" : "2020-06-29T10:59:25.039-0500"
}
},
{
"event" : "addConfiguration",
"timestamp" : "2020-06-29T11:00:05.220-0500",
"value" : {
"name" : "DefaultContext_v5",
"assigned" : "2020-06-29T11:00:05.220-0500"
}
},
{
"event" : "addConfiguration",
"timestamp" : "2020-07-29T16:01:22.318-0500",
"value" : {
"name" : "DefaultContext_v6",
"assigned" : "2020-07-29T16:01:22.318-0500"
}
},
{
"event" : "addConfiguration",
"timestamp" : "2020-07-29T16:34:42.672-0500",
"value" : {
"name" : "DefaultContext_v7",
"assigned" : "2020-07-29T16:34:42.672-0500"
}
},
{
"event" : "addConfiguration",
"timestamp" : "2020-07-29T16:39:53.514-0500",
"value" : {
"name" : "DefaultContext_v8",
"assigned" : "2020-07-29T16:39:53.514-0500"
}
},
{
"event" : "addConfiguration",
"timestamp" : "2020-07-29T16:40:44.130-0500",
"value" : {
"name" : "DefaultContext_v9",
"assigned" : "2020-07-29T16:40:44.130-0500"
}
},
{
"event" : "addConfiguration",
"timestamp" : "2020-07-29T16:45:01.420-0500",
"value" : {
"name" : "DefaultContext_v10",
"assigned" : "2020-07-29T16:45:01.420-0500"
}
},
{
"event" : "addConfiguration",
"timestamp" : "2020-07-29T16:49:16.225-0500",
"value" : {
"name" : "DefaultContext_v11",
"assigned" : "2020-07-29T16:49:16.225-0500"
}
},
{
"event" : "addConfiguration",
"timestamp" : "2020-09-02T15:22:09.384-0500",
"value" : {
"name" : "DefaultContext_v12",
"assigned" : "2020-09-02T15:22:09.384-0500"
}
},
{
"event" : "addConfiguration",
"timestamp" : "2020-10-05T17:04:58.123-0500",
"value" : {
"name" : "DefaultContext_v13",
"assigned" : "2020-10-05T17:04:58.123-0500"
}
}
],
"created" : "2020-06-29T10:59:25.038-0500"
},
"_id" : {
"$oid" : "4d4f3b72a03a48109efbaaa6"
},
"collection" : "GatewaySupervisorTable",
"aliases" : {
"active" : [

],
"history" : [

]
},
"runs" : [

],
"attachments" : [

],
"configtype" : "notprovided"
}