{
"document" : {
"data" : {
"NAME" : "GATEWAY_SUPERVISOR_TABLE",
"COMMENT" : "State Machine group link.",
"AUTHOR" : "admin",
"CREATION_TIME" : 1483025278,
"COL_TYPES" : {
"SUPERVISOR_UID" : "VARCHAR2",
"LINK_TO_STATE_MACHINE_TABLE" : "VARCHAR2",
"STATE_MACHINE_GROUP_ID" : "VARCHAR2",
"ENABLE_STATE_CHANGES_OVER_UDP" : "VARCHAR2",
"IP_ADDRESS_FOR_STATE_CHANGES_OVER_UDP" : "VARCHAR2",
"PORT_FOR_STATE_CHANGES_OVER_UDP" : "NUMBER",
"ENABLE_ACK_FOR_STATE_CHANGES_OVER_UDP" : "VARCHAR2",
"ENABLE_ARTDAQ_COMMANDER_PLUGIN" : "VARCHAR2",
"ARTDAQ_COMMANDER_PLUGIN_TYPE" : "VARCHAR2",
"ARTDAQ_COMMANDER_ID" : "NUMBER",
"COMMENT_DESCRIPTION" : "VARCHAR2",
"AUTHOR" : "VARCHAR2",
"RECORD_INSERTION_TIME" : "TIMESTAMP WITH TIMEZONE"
},
"DATA_SET" : [
{
"SUPERVISOR_UID" : "Supervisor0",
"LINK_TO_STATE_MACHINE_TABLE" : "StateMachineTable",
"STATE_MACHINE_GROUP_ID" : "Supervisor0_FSMs",
"ENABLE_STATE_CHANGES_OVER_UDP" : "No",
"IP_ADDRESS_FOR_STATE_CHANGES_OVER_UDP" : "DEFAULT",
"PORT_FOR_STATE_CHANGES_OVER_UDP" : "0",
"ENABLE_ACK_FOR_STATE_CHANGES_OVER_UDP" : "No",
"ENABLE_ARTDAQ_COMMANDER_PLUGIN" : "No",
"ARTDAQ_COMMANDER_PLUGIN_TYPE" : "DEFAULT",
"ARTDAQ_COMMANDER_ID" : "0",
"COMMENT_DESCRIPTION" : "Link to a group of state machines.",
"AUTHOR" : "admin",
"RECORD_INSERTION_TIME" : "1483025278"
}
]
},
"metadata" : {

},
"search" : [

]
},
"comments" : [

],
"origin" : {
"source" : "template",
"name" : "notprovided",
"format" : "json",
"created" : "2018-09-06T17:34:15.042-0500",
"rawdata" : [

]
},
"version" : "1",
"entities" : [
{
"name" : "OTSROOT",
"assigned" : "2018-09-06T17:34:15.045-0500"
}
],
"tables" : [
{
"name" : "notprovided",
"assigned" : "2018-09-06T17:34:15.044-0500"
},
{
"name" : "DefaultContext_v1",
"assigned" : "2018-09-06T17:34:15.457-0500"
},
{
"name" : "DefaultContext_v2",
"assigned" : "2018-09-10T09:24:24.155-0500"
},
{
"name" : "DefaultContext_v3",
"assigned" : "2018-09-11T10:00:20.466-0500"
}
],
"changelog" : "notprovided",
"bookkeeping" : {
"isdeleted" : false,
"isreadonly" : false,
"updates" : [
{
"event" : "addTable",
"timestamp" : "2018-09-06T17:34:15.044-0500",
"value" : {
"name" : "notprovided",
"assigned" : "2018-09-06T17:34:15.044-0500"
}
},
{
"event" : "setVersion",
"timestamp" : "2018-09-06T17:34:15.044-0500",
"value" : {
"name" : "1",
"assigned" : "2018-09-06T17:34:15.044-0500"
}
},
{
"event" : "setCollection",
"timestamp" : "2018-09-06T17:34:15.045-0500",
"value" : {
"name" : "GatewaySupervisorTable",
"assigned" : "2018-09-06T17:34:15.045-0500"
}
},
{
"event" : "addEntity",
"timestamp" : "2018-09-06T17:34:15.045-0500",
"value" : {
"name" : "OTSROOT",
"assigned" : "2018-09-06T17:34:15.045-0500"
}
},
{
"event" : "addTable",
"timestamp" : "2018-09-06T17:34:15.457-0500",
"value" : {
"name" : "DefaultContext_v1",
"assigned" : "2018-09-06T17:34:15.457-0500"
}
},
{
"event" : "addTable",
"timestamp" : "2018-09-10T09:24:24.155-0500",
"value" : {
"name" : "DefaultContext_v2",
"assigned" : "2018-09-10T09:24:24.155-0500"
}
},
{
"event" : "addTable",
"timestamp" : "2018-09-11T10:00:20.466-0500",
"value" : {
"name" : "DefaultContext_v3",
"assigned" : "2018-09-11T10:00:20.466-0500"
}
},
{
"event" : "addConfiguration",
"timestamp" : "2019-10-22T14:55:21.232-0500",
"value" : {
"name" : "DefaultContext_v4",
"assigned" : "2019-10-22T14:55:21.232-0500"
}
}
],
"created" : "2018-09-06T17:34:15.042-0500"
},
"_id" : {
"$oid" : "724d688b10b643b79d96e4f4"
},
"collection" : "GatewaySupervisorTable",
"aliases" : {
"active" : [

],
"history" : [

]
},
"runs" : [

],
"attachments" : [

],
"configtype" : "notprovided",
"configurations" : [
{
"name" : "DefaultContext_v4",
"assigned" : "2019-10-22T14:55:21.232-0500"
}
]
}