{
"ouid" : [
"0745cb69bb2244fca091653f",
"0a3fcad1f8874937bc590fd4",
"1411319bd91c436b9c01c3c8",
"14cac31d2b0b461b986f9d77",
"16c12bcaef4c4790ad595588",
"3a05f7bb091342fb80e062c1",
"3f2cdf1c089b46df94d9c404",
"46fbe3c3a57a49c98109c572",
"4bb6030489cb425c841fc60d",
"4c3da973b588478f920ce919",
"53337bba339d417d95f179fe",
"5a054ecf2bfc42468fdf1f16",
"609efc43b8ec4a1da8815488",
"64569cdff51240e9bbee559d",
"6ee01778dbe446179091eabc",
"751967def9f94252ab905733",
"78d0450ea8594a2185a5d07c",
"7c9662bda3ab41fb8c40cfa6",
"8041012ec9f943baae072152",
"9d99cc1961bb4988a6f9e16a",
"9ec50e1ceb6c49ad9e616868",
"b7a71cca56d44c7bbe31a9e3",
"c23066bb34db4c2e87d61d1a",
"c6a7b619474e468b9677edc3",
"c73fc5ce9dea4629b4d65c1a",
"d4f92bc5657b40a3bcd135c2",
"e896a13c60114fbdb7f01610",
"f16d4285ab394b57a4ec0641",
"f2e3fb18007447b38b398915"
],
"version" : {
"0" : [
"46fbe3c3a57a49c98109c572"
],
"1" : [
"7c9662bda3ab41fb8c40cfa6"
],
"2" : [
"4bb6030489cb425c841fc60d"
],
"3" : [
"78d0450ea8594a2185a5d07c"
],
"4" : [
"3f2cdf1c089b46df94d9c404"
],
"5" : [
"6ee01778dbe446179091eabc"
],
"6" : [
"c73fc5ce9dea4629b4d65c1a"
],
"7" : [
"4c3da973b588478f920ce919"
],
"8" : [
"c23066bb34db4c2e87d61d1a"
],
"9" : [
"8041012ec9f943baae072152"
],
"10" : [
"9ec50e1ceb6c49ad9e616868"
],
"11" : [
"9d99cc1961bb4988a6f9e16a"
],
"12" : [
"1411319bd91c436b9c01c3c8"
],
"13" : [
"f16d4285ab394b57a4ec0641"
],
"14" : [
"3a05f7bb091342fb80e062c1"
],
"15" : [
"e896a13c60114fbdb7f01610"
],
"16" : [
"d4f92bc5657b40a3bcd135c2"
],
"17" : [
"0a3fcad1f8874937bc590fd4"
],
"18" : [
"0745cb69bb2244fca091653f"
],
"19" : [
"751967def9f94252ab905733"
],
"20" : [
"c6a7b619474e468b9677edc3"
],
"21" : [
"16c12bcaef4c4790ad595588"
],
"22" : [
"64569cdff51240e9bbee559d"
],
"23" : [
"b7a71cca56d44c7bbe31a9e3"
],
"24" : [
"f2e3fb18007447b38b398915"
],
"25" : [
"14cac31d2b0b461b986f9d77"
],
"26" : [
"53337bba339d417d95f179fe"
],
"27" : [
"609efc43b8ec4a1da8815488"
],
"28" : [
"5a054ecf2bfc42468fdf1f16"
]
},
"configurations.name" : {
"notprovided" : [
"0745cb69bb2244fca091653f",
"0a3fcad1f8874937bc590fd4",
"1411319bd91c436b9c01c3c8",
"14cac31d2b0b461b986f9d77",
"16c12bcaef4c4790ad595588",
"3a05f7bb091342fb80e062c1",
"3f2cdf1c089b46df94d9c404",
"46fbe3c3a57a49c98109c572",
"4bb6030489cb425c841fc60d",
"4c3da973b588478f920ce919",
"53337bba339d417d95f179fe",
"5a054ecf2bfc42468fdf1f16",
"609efc43b8ec4a1da8815488",
"64569cdff51240e9bbee559d",
"6ee01778dbe446179091eabc",
"751967def9f94252ab905733",
"78d0450ea8594a2185a5d07c",
"7c9662bda3ab41fb8c40cfa6",
"8041012ec9f943baae072152",
"9d99cc1961bb4988a6f9e16a",
"9ec50e1ceb6c49ad9e616868",
"b7a71cca56d44c7bbe31a9e3",
"c23066bb34db4c2e87d61d1a",
"c6a7b619474e468b9677edc3",
"c73fc5ce9dea4629b4d65c1a",
"d4f92bc5657b40a3bcd135c2",
"e896a13c60114fbdb7f01610",
"f16d4285ab394b57a4ec0641",
"f2e3fb18007447b38b398915"
],
"iterateDefaultGroup_v0" : [
"46fbe3c3a57a49c98109c572"
],
"iterateDefaultGroup_v1" : [
"46fbe3c3a57a49c98109c572"
],
"iterateDefaultGroup_v2" : [
"46fbe3c3a57a49c98109c572"
],
"iterateDefaultGroup_v3" : [
"46fbe3c3a57a49c98109c572"
],
"iterateDefaultGroup_v4" : [
"7c9662bda3ab41fb8c40cfa6"
],
"iterateDefaultGroup_v5" : [
"4bb6030489cb425c841fc60d"
],
"iterateDefaultGroup_v6" : [
"78d0450ea8594a2185a5d07c"
],
"iterateDefaultGroup_v7" : [
"3f2cdf1c089b46df94d9c404"
],
"iterateDefaultGroup_v8" : [
"6ee01778dbe446179091eabc"
],
"iterateDefaultGroup_v9" : [
"6ee01778dbe446179091eabc"
],
"iterateDefaultGroup_v10" : [
"6ee01778dbe446179091eabc"
],
"iterateDefaultGroup_v11" : [
"6ee01778dbe446179091eabc"
],
"iterateDefaultGroup_v12" : [
"6ee01778dbe446179091eabc"
],
"iterateDefaultGroup_v13" : [
"6ee01778dbe446179091eabc"
],
"iterateDefaultGroup_v14" : [
"c73fc5ce9dea4629b4d65c1a"
],
"iterateDefaultGroup_v15" : [
"4c3da973b588478f920ce919"
],
"iterateDefaultGroup_v16" : [
"4c3da973b588478f920ce919"
],
"iterateDefaultGroup_v17" : [
"4c3da973b588478f920ce919"
],
"iterateDefaultGroup_v18" : [
"c23066bb34db4c2e87d61d1a"
],
"iterateDefaultGroup_v19" : [
"8041012ec9f943baae072152"
],
"iterateDefaultGroup_v20" : [
"8041012ec9f943baae072152"
],
"iterateDefaultGroup_v21" : [
"8041012ec9f943baae072152"
],
"iterateDefaultGroup_v22" : [
"8041012ec9f943baae072152"
],
"iterateDefaultGroup_v23" : [
"8041012ec9f943baae072152"
],
"iterateDefaultGroup_v24" : [
"8041012ec9f943baae072152"
],
"iterateDefaultGroup_v25" : [
"8041012ec9f943baae072152"
],
"iterateDefaultGroup_v26" : [
"9ec50e1ceb6c49ad9e616868"
],
"iterateDefaultGroup_v27" : [
"9ec50e1ceb6c49ad9e616868"
],
"iterateDefaultGroup_v28" : [
"9ec50e1ceb6c49ad9e616868"
],
"iterateDefaultGroup_v29" : [
"9ec50e1ceb6c49ad9e616868"
],
"iterateDefaultGroup_v30" : [
"9ec50e1ceb6c49ad9e616868"
],
"iterateDefaultGroup_v31" : [
"9ec50e1ceb6c49ad9e616868"
],
"iterateDefaultGroup_v32" : [
"9ec50e1ceb6c49ad9e616868"
],
"iterateDefaultGroup_v33" : [
"9ec50e1ceb6c49ad9e616868"
],
"iterateDefaultGroup_v34" : [
"9d99cc1961bb4988a6f9e16a"
],
"iterateDefaultGroup_v35" : [
"1411319bd91c436b9c01c3c8"
],
"iterateDefaultGroup_v36" : [
"f16d4285ab394b57a4ec0641"
],
"iterateDefaultGroup_v37" : [
"9d99cc1961bb4988a6f9e16a"
],
"iterateDefaultGroup_v38" : [
"9d99cc1961bb4988a6f9e16a"
],
"iterateDefaultGroup_v39" : [
"9d99cc1961bb4988a6f9e16a"
],
"iterateDefaultGroup_v40" : [
"9d99cc1961bb4988a6f9e16a"
],
"iterateDefaultGroup_v41" : [
"9d99cc1961bb4988a6f9e16a"
],
"iterateDefaultGroup_v42" : [
"3a05f7bb091342fb80e062c1"
],
"iterateDefaultGroup_v43" : [
"e896a13c60114fbdb7f01610"
],
"iterateDefaultGroup_v44" : [
"d4f92bc5657b40a3bcd135c2"
],
"iterateDefaultGroup_v45" : [
"0a3fcad1f8874937bc590fd4"
],
"iterateDefaultGroup_v46" : [
"0a3fcad1f8874937bc590fd4"
],
"iterateDefaultGroup_v47" : [
"0745cb69bb2244fca091653f"
],
"iterateDefaultGroup_v48" : [
"751967def9f94252ab905733"
],
"iterateDefaultGroup_v49" : [
"c6a7b619474e468b9677edc3"
],
"iterateDefaultGroup_v50" : [
"16c12bcaef4c4790ad595588"
],
"iterateDefaultGroup_v51" : [
"64569cdff51240e9bbee559d"
],
"iterateDefaultGroup_v52" : [
"64569cdff51240e9bbee559d"
],
"iterateDefaultGroup_v53" : [
"16c12bcaef4c4790ad595588"
],
"iterateDefaultGroup_v54" : [
"b7a71cca56d44c7bbe31a9e3"
],
"iterateDefaultGroup_v55" : [
"b7a71cca56d44c7bbe31a9e3"
],
"iterateDefaultGroup_v56" : [
"f2e3fb18007447b38b398915"
],
"iterateDefaultGroup_v57" : [
"14cac31d2b0b461b986f9d77"
],
"iterateDefaultGroup_v58" : [
"53337bba339d417d95f179fe"
],
"iterateDefaultGroup_v59" : [
"609efc43b8ec4a1da8815488"
],
"iterateDefaultGroup_v60" : [
"5a054ecf2bfc42468fdf1f16"
]
},
"entities.name" : {
"OTSROOT" : [
"0745cb69bb2244fca091653f",
"0a3fcad1f8874937bc590fd4",
"1411319bd91c436b9c01c3c8",
"14cac31d2b0b461b986f9d77",
"16c12bcaef4c4790ad595588",
"3a05f7bb091342fb80e062c1",
"3f2cdf1c089b46df94d9c404",
"46fbe3c3a57a49c98109c572",
"4bb6030489cb425c841fc60d",
"4c3da973b588478f920ce919",
"53337bba339d417d95f179fe",
"5a054ecf2bfc42468fdf1f16",
"609efc43b8ec4a1da8815488",
"64569cdff51240e9bbee559d",
"6ee01778dbe446179091eabc",
"751967def9f94252ab905733",
"78d0450ea8594a2185a5d07c",
"7c9662bda3ab41fb8c40cfa6",
"8041012ec9f943baae072152",
"9d99cc1961bb4988a6f9e16a",
"9ec50e1ceb6c49ad9e616868",
"b7a71cca56d44c7bbe31a9e3",
"c23066bb34db4c2e87d61d1a",
"c6a7b619474e468b9677edc3",
"c73fc5ce9dea4629b4d65c1a",
"d4f92bc5657b40a3bcd135c2",
"e896a13c60114fbdb7f01610",
"f16d4285ab394b57a4ec0641",
"f2e3fb18007447b38b398915"
]
},
"aliases.active.name" : {

},
"runs.name" : {

},
"configurations.assigned" : {
"notprovided" : [
"2018-09-10T09:26:39.409-0500",
"2020-07-29T13:56:46.586-0500",
"2020-07-29T15:14:10.884-0500",
"2020-10-09T16:10:08.837-0500",
"2020-10-09T16:31:30.762-0500",
"2020-10-09T16:45:59.408-0500",
"2020-10-26T11:12:07.296-0500",
"2020-10-26T13:20:57.558-0500",
"2021-06-30T15:46:02.580-0500",
"2021-07-12T11:48:20.097-0500",
"2021-07-23T12:45:33.729-0500",
"2021-07-28T09:11:40.381-0500",
"2021-07-28T10:45:26.404-0500",
"2021-07-28T11:09:39.587-0500",
"2021-07-28T14:48:21.291-0500",
"2021-07-28T14:48:49.167-0500",
"2021-07-28T14:51:20.782-0500",
"2021-07-28T15:03:27.736-0500",
"2021-07-28T15:13:37.933-0500",
"2021-07-28T15:30:19.087-0500",
"2021-07-28T15:42:28.337-0500",
"2021-07-28T15:54:15.905-0500",
"2021-07-28T16:06:49.057-0500",
"2021-09-02T13:40:31.321-0500",
"2021-09-02T14:42:06.864-0500",
"2021-10-12T11:12:22.472-0500",
"2021-10-12T16:34:01.326-0500",
"2021-10-13T18:15:34.623-0500",
"2021-10-15T15:39:56.345-0500"
],
"iterateDefaultGroup_v0" : [
"2018-09-10T09:26:39.936-0500"
],
"iterateDefaultGroup_v1" : [
"2018-09-10T09:27:20.813-0500"
],
"iterateDefaultGroup_v2" : [
"2020-07-28T16:25:06.432-0500"
],
"iterateDefaultGroup_v3" : [
"2020-07-29T13:52:20.752-0500"
],
"iterateDefaultGroup_v4" : [
"2020-07-29T13:56:47.892-0500"
],
"iterateDefaultGroup_v5" : [
"2020-07-29T15:14:12.125-0500"
],
"iterateDefaultGroup_v6" : [
"2020-10-09T16:10:10.349-0500"
],
"iterateDefaultGroup_v7" : [
"2020-10-09T16:31:32.295-0500"
],
"iterateDefaultGroup_v8" : [
"2020-10-09T16:46:00.954-0500"
],
"iterateDefaultGroup_v9" : [
"2020-10-12T10:30:02.086-0500"
],
"iterateDefaultGroup_v10" : [
"2020-10-12T13:54:18.509-0500"
],
"iterateDefaultGroup_v11" : [
"2020-10-12T15:28:46.103-0500"
],
"iterateDefaultGroup_v12" : [
"2020-10-12T15:33:41.467-0500"
],
"iterateDefaultGroup_v13" : [
"2020-10-26T10:34:09.919-0500"
],
"iterateDefaultGroup_v14" : [
"2020-10-26T11:12:09.005-0500"
],
"iterateDefaultGroup_v15" : [
"2020-10-26T13:20:59.137-0500"
],
"iterateDefaultGroup_v16" : [
"2020-10-26T13:46:32.094-0500"
],
"iterateDefaultGroup_v17" : [
"2020-10-27T17:08:44.717-0500"
],
"iterateDefaultGroup_v18" : [
"2021-06-30T15:46:04.476-0500"
],
"iterateDefaultGroup_v19" : [
"2021-07-12T11:48:22.114-0500"
],
"iterateDefaultGroup_v20" : [
"2021-07-12T13:38:45.251-0500"
],
"iterateDefaultGroup_v21" : [
"2021-07-12T13:40:40.169-0500"
],
"iterateDefaultGroup_v22" : [
"2021-07-14T16:20:56.990-0500"
],
"iterateDefaultGroup_v23" : [
"2021-07-20T15:29:51.679-0500"
],
"iterateDefaultGroup_v24" : [
"2021-07-22T18:34:19.426-0500"
],
"iterateDefaultGroup_v25" : [
"2021-07-23T12:39:38.770-0500"
],
"iterateDefaultGroup_v26" : [
"2021-07-23T12:45:36.151-0500"
],
"iterateDefaultGroup_v27" : [
"2021-07-23T13:08:43.943-0500"
],
"iterateDefaultGroup_v28" : [
"2021-07-23T13:16:30.480-0500"
],
"iterateDefaultGroup_v29" : [
"2021-07-23T14:16:54.222-0500"
],
"iterateDefaultGroup_v30" : [
"2021-07-28T08:44:05.250-0500"
],
"iterateDefaultGroup_v31" : [
"2021-07-28T09:04:35.963-0500"
],
"iterateDefaultGroup_v32" : [
"2021-07-28T09:08:06.783-0500"
],
"iterateDefaultGroup_v33" : [
"2021-07-28T09:09:00.788-0500"
],
"iterateDefaultGroup_v34" : [
"2021-07-28T09:11:42.832-0500"
],
"iterateDefaultGroup_v35" : [
"2021-07-28T10:45:28.838-0500"
],
"iterateDefaultGroup_v36" : [
"2021-07-28T11:09:42.121-0500"
],
"iterateDefaultGroup_v37" : [
"2021-07-28T11:56:32.454-0500"
],
"iterateDefaultGroup_v38" : [
"2021-07-28T13:37:17.115-0500"
],
"iterateDefaultGroup_v39" : [
"2021-07-28T14:34:07.194-0500"
],
"iterateDefaultGroup_v40" : [
"2021-07-28T14:42:30.532-0500"
],
"iterateDefaultGroup_v41" : [
"2021-07-28T14:47:07.536-0500"
],
"iterateDefaultGroup_v42" : [
"2021-07-28T14:48:23.956-0500"
],
"iterateDefaultGroup_v43" : [
"2021-07-28T14:48:51.863-0500"
],
"iterateDefaultGroup_v44" : [
"2021-07-28T14:51:23.291-0500"
],
"iterateDefaultGroup_v45" : [
"2021-07-28T15:03:30.159-0500"
],
"iterateDefaultGroup_v46" : [
"2021-07-28T15:11:19.000-0500"
],
"iterateDefaultGroup_v47" : [
"2021-07-28T15:13:40.490-0500"
],
"iterateDefaultGroup_v48" : [
"2021-07-28T15:30:21.614-0500"
],
"iterateDefaultGroup_v49" : [
"2021-07-28T15:42:30.887-0500"
],
"iterateDefaultGroup_v50" : [
"2021-07-28T15:54:18.790-0500"
],
"iterateDefaultGroup_v51" : [
"2021-07-28T16:06:51.682-0500"
],
"iterateDefaultGroup_v52" : [
"2021-07-28T16:13:47.625-0500"
],
"iterateDefaultGroup_v53" : [
"2021-07-28T16:15:01.937-0500"
],
"iterateDefaultGroup_v54" : [
"2021-09-02T13:40:34.037-0500"
],
"iterateDefaultGroup_v55" : [
"2021-09-02T14:33:17.052-0500"
],
"iterateDefaultGroup_v56" : [
"2021-09-02T14:42:09.554-0500"
],
"iterateDefaultGroup_v57" : [
"2021-10-12T11:12:25.354-0500"
],
"iterateDefaultGroup_v58" : [
"2021-10-12T16:34:04.085-0500"
],
"iterateDefaultGroup_v59" : [
"2021-10-13T18:15:37.817-0500"
],
"iterateDefaultGroup_v60" : [
"2021-10-15T15:39:59.413-0500"
]
}
}