{
"document" : {
"data" : {
"NAME" : "GROUP_ALIASES_TABLE",
"COMMENT" : "Default Backbone.",
"AUTHOR" : "admin",
"CREATION_TIME" : 1633993044,
"COL_TYPES" : {
"GROUP_KEY_ALIAS" : "STRING",
"GROUP_NAME" : "STRING",
"GROUP_KEY" : "STRING",
"COMMENT_DESCRIPTION" : "STRING",
"AUTHOR" : "STRING",
"RECORD_INSERTION_TIME" : "TIMESTAMP WITH TIMEZONE"
},
"DATA_SET" : [
{
"GROUP_KEY_ALIAS" : "DefaultContext",
"GROUP_NAME" : "DefaultContext",
"GROUP_KEY" : "43",
"COMMENT_DESCRIPTION" : "This Group Alias was automatically setup by the server.",
"AUTHOR" : "admin",
"RECORD_INSERTION_TIME" : "1632516595"
},
{
"GROUP_KEY_ALIAS" : "BurninBoxConfiguration",
"GROUP_NAME" : "BurninBoxConfiguration",
"GROUP_KEY" : "87",
"COMMENT_DESCRIPTION" : "This Group Alias was automatically setup by the server.",
"AUTHOR" : "admin",
"RECORD_INSERTION_TIME" : "1633986057"
},
{
"GROUP_KEY_ALIAS" : "BurninBoxOnlyContext",
"GROUP_NAME" : "DefaultContext",
"GROUP_KEY" : "43",
"COMMENT_DESCRIPTION" : "This Group Alias was automatically setup by the server.",
"AUTHOR" : "admin",
"RECORD_INSERTION_TIME" : "1632518780"
},
{
"GROUP_KEY_ALIAS" : "BurninBoxOnlyConfiguration",
"GROUP_NAME" : "BurninBoxConfiguration",
"GROUP_KEY" : "87",
"COMMENT_DESCRIPTION" : "This Group Alias was automatically setup by the server.",
"AUTHOR" : "admin",
"RECORD_INSERTION_TIME" : "1633993044"
}
]
},
"metadata" : {

},
"search" : [

]
},
"comments" : [

],
"origin" : {
"source" : "template",
"name" : "notprovided",
"format" : "json",
"created" : "2021-10-11T17:57:24.752-0500",
"rawdata" : [

]
},
"version" : "211",
"entities" : [
{
"name" : "OTSROOT",
"assigned" : "2021-10-11T17:57:24.753-0500"
}
],
"configurations" : [
{
"name" : "notprovided",
"assigned" : "2021-10-11T17:57:24.753-0500"
},
{
"name" : "TableEditWizBackbone_v126",
"assigned" : "2021-10-11T17:57:26.410-0500"
}
],
"changelog" : "notprovided",
"bookkeeping" : {
"isdeleted" : false,
"isreadonly" : false,
"updates" : [
{
"event" : "addConfiguration",
"timestamp" : "2021-10-11T17:57:24.753-0500",
"value" : {
"name" : "notprovided",
"assigned" : "2021-10-11T17:57:24.753-0500"
}
},
{
"event" : "setVersion",
"timestamp" : "2021-10-11T17:57:24.753-0500",
"value" : {
"name" : "211",
"assigned" : "2021-10-11T17:57:24.753-0500"
}
},
{
"event" : "setCollection",
"timestamp" : "2021-10-11T17:57:24.753-0500",
"value" : {
"name" : "GroupAliasesTable",
"assigned" : "2021-10-11T17:57:24.753-0500"
}
},
{
"event" : "addEntity",
"timestamp" : "2021-10-11T17:57:24.753-0500",
"value" : {
"name" : "OTSROOT",
"assigned" : "2021-10-11T17:57:24.753-0500"
}
},
{
"event" : "addConfiguration",
"timestamp" : "2021-10-11T17:57:26.410-0500",
"value" : {
"name" : "TableEditWizBackbone_v126",
"assigned" : "2021-10-11T17:57:26.410-0500"
}
}
],
"created" : "2021-10-11T17:57:24.752-0500"
},
"_id" : {
"$oid" : "9f2bc23542de45ec839d5f17"
},
"collection" : "GroupAliasesTable",
"aliases" : {
"active" : [

],
"history" : [

]
},
"runs" : [

],
"attachments" : [

],
"configtype" : "notprovided"
}