{
"document" : {
"data" : {
"NAME" : "GROUP_ALIASES_TABLE",
"COMMENT" : "Default Backbone.",
"AUTHOR" : "admin",
"CREATION_TIME" : 1571774121,
"COL_TYPES" : {
"GROUP_KEY_ALIAS" : "VARCHAR2",
"GROUP_NAME" : "VARCHAR2",
"GROUP_KEY" : "VARCHAR2",
"COMMENT_DESCRIPTION" : "VARCHAR2",
"AUTHOR" : "VARCHAR2",
"RECORD_INSERTION_TIME" : "TIMESTAMP WITH TIMEZONE"
},
"DATA_SET" : [
{
"GROUP_KEY_ALIAS" : "DefaultContext",
"GROUP_NAME" : "DefaultContext",
"GROUP_KEY" : "4",
"COMMENT_DESCRIPTION" : "This Group Alias was automatically setup by the server.",
"AUTHOR" : "admin",
"RECORD_INSERTION_TIME" : "1571774121"
},
{
"GROUP_KEY_ALIAS" : "BurninBoxConfig",
"GROUP_NAME" : "BurninBoxConfig",
"GROUP_KEY" : "28",
"COMMENT_DESCRIPTION" : "This Group Alias was automatically setup by the server.",
"AUTHOR" : "admin",
"RECORD_INSERTION_TIME" : "1563997721"
}
]
},
"metadata" : {

},
"search" : [

]
},
"comments" : [

],
"origin" : {
"source" : "template",
"name" : "notprovided",
"format" : "json",
"created" : "2019-10-22T14:55:21.566-0500",
"rawdata" : [

]
},
"version" : "36",
"entities" : [
{
"name" : "OTSROOT",
"assigned" : "2019-10-22T14:55:21.566-0500"
}
],
"configurations" : [
{
"name" : "notprovided",
"assigned" : "2019-10-22T14:55:21.566-0500"
},
{
"name" : "TableEditWizBackbone_v29",
"assigned" : "2019-10-22T14:55:22.482-0500"
}
],
"changelog" : "notprovided",
"bookkeeping" : {
"isdeleted" : false,
"isreadonly" : false,
"updates" : [
{
"event" : "addConfiguration",
"timestamp" : "2019-10-22T14:55:21.566-0500",
"value" : {
"name" : "notprovided",
"assigned" : "2019-10-22T14:55:21.566-0500"
}
},
{
"event" : "setVersion",
"timestamp" : "2019-10-22T14:55:21.566-0500",
"value" : {
"name" : "36",
"assigned" : "2019-10-22T14:55:21.566-0500"
}
},
{
"event" : "setCollection",
"timestamp" : "2019-10-22T14:55:21.566-0500",
"value" : {
"name" : "GroupAliasesTable",
"assigned" : "2019-10-22T14:55:21.566-0500"
}
},
{
"event" : "addEntity",
"timestamp" : "2019-10-22T14:55:21.566-0500",
"value" : {
"name" : "OTSROOT",
"assigned" : "2019-10-22T14:55:21.566-0500"
}
},
{
"event" : "addConfiguration",
"timestamp" : "2019-10-22T14:55:22.482-0500",
"value" : {
"name" : "TableEditWizBackbone_v29",
"assigned" : "2019-10-22T14:55:22.482-0500"
}
}
],
"created" : "2019-10-22T14:55:21.566-0500"
},
"_id" : {
"$oid" : "a9d2f7a86e4543378f168999"
},
"collection" : "GroupAliasesTable",
"aliases" : {
"active" : [

],
"history" : [

]
},
"runs" : [

],
"attachments" : [

],
"configtype" : "notprovided"
}