{
"ouid" : [
"084d011a33a648ad9694f0af",
"0b327094a76841a3be42065e",
"0f6634e1ba884a07a31f72b8",
"8f570ce9db554e24b591a031",
"c9cf7456bb074c7185e819f4"
],
"version" : {
"0" : [
"8f570ce9db554e24b591a031"
],
"1" : [
"c9cf7456bb074c7185e819f4"
],
"2" : [
"0b327094a76841a3be42065e"
],
"3" : [
"0f6634e1ba884a07a31f72b8"
],
"4" : [
"084d011a33a648ad9694f0af"
]
},
"configurations.name" : {
"notprovided" : [
"084d011a33a648ad9694f0af",
"0b327094a76841a3be42065e",
"0f6634e1ba884a07a31f72b8",
"8f570ce9db554e24b591a031",
"c9cf7456bb074c7185e819f4"
],
"iterateDefaultGroup_v0" : [
"8f570ce9db554e24b591a031"
],
"iterateDefaultGroup_v1" : [
"c9cf7456bb074c7185e819f4"
],
"iterateDefaultGroup_v2" : [
"8f570ce9db554e24b591a031"
],
"iterateDefaultGroup_v3" : [
"0b327094a76841a3be42065e"
],
"iterateDefaultGroup_v4" : [
"0b327094a76841a3be42065e"
],
"iterateDefaultGroup_v5" : [
"0b327094a76841a3be42065e"
],
"iterateDefaultGroup_v6" : [
"0b327094a76841a3be42065e"
],
"iterateDefaultGroup_v7" : [
"0b327094a76841a3be42065e"
],
"iterateDefaultGroup_v8" : [
"0b327094a76841a3be42065e"
],
"iterateDefaultGroup_v9" : [
"0b327094a76841a3be42065e"
],
"iterateDefaultGroup_v10" : [
"0b327094a76841a3be42065e"
],
"iterateDefaultGroup_v11" : [
"0b327094a76841a3be42065e"
],
"iterateDefaultGroup_v12" : [
"0b327094a76841a3be42065e"
],
"iterateDefaultGroup_v13" : [
"0f6634e1ba884a07a31f72b8"
],
"iterateDefaultGroup_v14" : [
"0f6634e1ba884a07a31f72b8"
],
"iterateDefaultGroup_v15" : [
"0f6634e1ba884a07a31f72b8"
],
"iterateDefaultGroup_v16" : [
"0f6634e1ba884a07a31f72b8"
],
"iterateDefaultGroup_v17" : [
"0f6634e1ba884a07a31f72b8"
],
"iterateDefaultGroup_v18" : [
"0f6634e1ba884a07a31f72b8"
],
"iterateDefaultGroup_v19" : [
"0f6634e1ba884a07a31f72b8"
],
"iterateDefaultGroup_v20" : [
"0f6634e1ba884a07a31f72b8"
],
"iterateDefaultGroup_v21" : [
"0f6634e1ba884a07a31f72b8"
],
"iterateDefaultGroup_v22" : [
"0f6634e1ba884a07a31f72b8"
],
"iterateDefaultGroup_v23" : [
"0f6634e1ba884a07a31f72b8"
],
"iterateDefaultGroup_v24" : [
"0f6634e1ba884a07a31f72b8"
],
"iterateDefaultGroup_v25" : [
"0f6634e1ba884a07a31f72b8"
],
"iterateDefaultGroup_v26" : [
"0f6634e1ba884a07a31f72b8"
],
"iterateDefaultGroup_v27" : [
"0f6634e1ba884a07a31f72b8"
],
"iterateDefaultGroup_v28" : [
"0f6634e1ba884a07a31f72b8"
],
"iterateDefaultGroup_v29" : [
"0f6634e1ba884a07a31f72b8"
],
"iterateDefaultGroup_v30" : [
"0f6634e1ba884a07a31f72b8"
],
"iterateDefaultGroup_v31" : [
"0f6634e1ba884a07a31f72b8"
],
"iterateDefaultGroup_v32" : [
"0f6634e1ba884a07a31f72b8"
],
"iterateDefaultGroup_v33" : [
"0f6634e1ba884a07a31f72b8"
],
"iterateDefaultGroup_v34" : [
"0f6634e1ba884a07a31f72b8"
],
"iterateDefaultGroup_v35" : [
"0f6634e1ba884a07a31f72b8"
],
"iterateDefaultGroup_v36" : [
"0f6634e1ba884a07a31f72b8"
],
"iterateDefaultGroup_v37" : [
"0f6634e1ba884a07a31f72b8"
],
"iterateDefaultGroup_v38" : [
"0f6634e1ba884a07a31f72b8"
],
"iterateDefaultGroup_v39" : [
"0f6634e1ba884a07a31f72b8"
],
"iterateDefaultGroup_v40" : [
"0f6634e1ba884a07a31f72b8"
],
"iterateDefaultGroup_v41" : [
"0f6634e1ba884a07a31f72b8"
],
"iterateDefaultGroup_v42" : [
"0f6634e1ba884a07a31f72b8"
],
"iterateDefaultGroup_v43" : [
"0f6634e1ba884a07a31f72b8"
],
"iterateDefaultGroup_v44" : [
"0f6634e1ba884a07a31f72b8"
],
"iterateDefaultGroup_v45" : [
"0f6634e1ba884a07a31f72b8"
],
"iterateDefaultGroup_v46" : [
"0f6634e1ba884a07a31f72b8"
],
"iterateDefaultGroup_v47" : [
"0f6634e1ba884a07a31f72b8"
],
"iterateDefaultGroup_v48" : [
"0f6634e1ba884a07a31f72b8"
],
"iterateDefaultGroup_v49" : [
"0f6634e1ba884a07a31f72b8"
],
"iterateDefaultGroup_v50" : [
"0f6634e1ba884a07a31f72b8"
],
"iterateDefaultGroup_v51" : [
"0f6634e1ba884a07a31f72b8"
],
"iterateDefaultGroup_v52" : [
"0f6634e1ba884a07a31f72b8"
],
"iterateDefaultGroup_v53" : [
"0f6634e1ba884a07a31f72b8"
],
"iterateDefaultGroup_v54" : [
"084d011a33a648ad9694f0af"
],
"iterateDefaultGroup_v55" : [
"084d011a33a648ad9694f0af"
],
"iterateDefaultGroup_v56" : [
"084d011a33a648ad9694f0af"
],
"iterateDefaultGroup_v57" : [
"084d011a33a648ad9694f0af"
],
"iterateDefaultGroup_v58" : [
"084d011a33a648ad9694f0af"
],
"iterateDefaultGroup_v59" : [
"084d011a33a648ad9694f0af"
],
"iterateDefaultGroup_v60" : [
"084d011a33a648ad9694f0af"
]
},
"entities.name" : {
"OTSROOT" : [
"084d011a33a648ad9694f0af",
"0b327094a76841a3be42065e",
"0f6634e1ba884a07a31f72b8",
"8f570ce9db554e24b591a031",
"c9cf7456bb074c7185e819f4"
]
},
"aliases.active.name" : {

},
"runs.name" : {

},
"configurations.assigned" : {
"notprovided" : [
"2018-09-10T09:26:39.029-0500",
"2018-09-10T09:27:19.696-0500",
"2020-07-29T13:52:19.295-0500",
"2020-10-26T10:34:08.122-0500",
"2021-09-02T13:40:30.985-0500"
],
"iterateDefaultGroup_v0" : [
"2018-09-10T09:26:39.524-0500"
],
"iterateDefaultGroup_v1" : [
"2018-09-10T09:27:20.386-0500"
],
"iterateDefaultGroup_v2" : [
"2020-07-28T16:25:05.964-0500"
],
"iterateDefaultGroup_v3" : [
"2020-07-29T13:52:20.254-0500"
],
"iterateDefaultGroup_v4" : [
"2020-07-29T13:56:47.374-0500"
],
"iterateDefaultGroup_v5" : [
"2020-07-29T15:14:11.633-0500"
],
"iterateDefaultGroup_v6" : [
"2020-10-09T16:10:09.827-0500"
],
"iterateDefaultGroup_v7" : [
"2020-10-09T16:31:31.751-0500"
],
"iterateDefaultGroup_v8" : [
"2020-10-09T16:46:00.441-0500"
],
"iterateDefaultGroup_v9" : [
"2020-10-12T10:30:01.556-0500"
],
"iterateDefaultGroup_v10" : [
"2020-10-12T13:54:17.959-0500"
],
"iterateDefaultGroup_v11" : [
"2020-10-12T15:28:45.546-0500"
],
"iterateDefaultGroup_v12" : [
"2020-10-12T15:33:40.884-0500"
],
"iterateDefaultGroup_v13" : [
"2020-10-26T10:34:09.337-0500"
],
"iterateDefaultGroup_v14" : [
"2020-10-26T11:12:08.386-0500"
],
"iterateDefaultGroup_v15" : [
"2020-10-26T13:20:58.570-0500"
],
"iterateDefaultGroup_v16" : [
"2020-10-26T13:46:31.482-0500"
],
"iterateDefaultGroup_v17" : [
"2020-10-27T17:08:44.090-0500"
],
"iterateDefaultGroup_v18" : [
"2021-06-30T15:46:03.799-0500"
],
"iterateDefaultGroup_v19" : [
"2021-07-12T11:48:21.404-0500"
],
"iterateDefaultGroup_v20" : [
"2021-07-12T13:38:44.518-0500"
],
"iterateDefaultGroup_v21" : [
"2021-07-12T13:40:39.478-0500"
],
"iterateDefaultGroup_v22" : [
"2021-07-14T16:20:56.335-0500"
],
"iterateDefaultGroup_v23" : [
"2021-07-20T15:29:50.957-0500"
],
"iterateDefaultGroup_v24" : [
"2021-07-22T18:34:18.720-0500"
],
"iterateDefaultGroup_v25" : [
"2021-07-23T12:39:38.037-0500"
],
"iterateDefaultGroup_v26" : [
"2021-07-23T12:45:35.510-0500"
],
"iterateDefaultGroup_v27" : [
"2021-07-23T13:08:43.184-0500"
],
"iterateDefaultGroup_v28" : [
"2021-07-23T13:16:29.738-0500"
],
"iterateDefaultGroup_v29" : [
"2021-07-23T14:16:53.478-0500"
],
"iterateDefaultGroup_v30" : [
"2021-07-28T08:44:04.439-0500"
],
"iterateDefaultGroup_v31" : [
"2021-07-28T09:04:35.247-0500"
],
"iterateDefaultGroup_v32" : [
"2021-07-28T09:08:06.032-0500"
],
"iterateDefaultGroup_v33" : [
"2021-07-28T09:09:00.025-0500"
],
"iterateDefaultGroup_v34" : [
"2021-07-28T09:11:42.077-0500"
],
"iterateDefaultGroup_v35" : [
"2021-07-28T10:45:28.125-0500"
],
"iterateDefaultGroup_v36" : [
"2021-07-28T11:09:41.301-0500"
],
"iterateDefaultGroup_v37" : [
"2021-07-28T11:56:31.698-0500"
],
"iterateDefaultGroup_v38" : [
"2021-07-28T13:37:16.144-0500"
],
"iterateDefaultGroup_v39" : [
"2021-07-28T14:34:06.393-0500"
],
"iterateDefaultGroup_v40" : [
"2021-07-28T14:42:29.669-0500"
],
"iterateDefaultGroup_v41" : [
"2021-07-28T14:47:06.667-0500"
],
"iterateDefaultGroup_v42" : [
"2021-07-28T14:48:23.044-0500"
],
"iterateDefaultGroup_v43" : [
"2021-07-28T14:48:50.984-0500"
],
"iterateDefaultGroup_v44" : [
"2021-07-28T14:51:22.474-0500"
],
"iterateDefaultGroup_v45" : [
"2021-07-28T15:03:29.370-0500"
],
"iterateDefaultGroup_v46" : [
"2021-07-28T15:11:18.235-0500"
],
"iterateDefaultGroup_v47" : [
"2021-07-28T15:13:39.663-0500"
],
"iterateDefaultGroup_v48" : [
"2021-07-28T15:30:20.825-0500"
],
"iterateDefaultGroup_v49" : [
"2021-07-28T15:42:30.047-0500"
],
"iterateDefaultGroup_v50" : [
"2021-07-28T15:54:17.998-0500"
],
"iterateDefaultGroup_v51" : [
"2021-07-28T16:06:50.787-0500"
],
"iterateDefaultGroup_v52" : [
"2021-07-28T16:13:46.832-0500"
],
"iterateDefaultGroup_v53" : [
"2021-07-28T16:15:00.972-0500"
],
"iterateDefaultGroup_v54" : [
"2021-09-02T13:40:33.223-0500"
],
"iterateDefaultGroup_v55" : [
"2021-09-02T14:33:16.195-0500"
],
"iterateDefaultGroup_v56" : [
"2021-09-02T14:42:08.691-0500"
],
"iterateDefaultGroup_v57" : [
"2021-10-12T11:12:24.485-0500"
],
"iterateDefaultGroup_v58" : [
"2021-10-12T16:34:03.222-0500"
],
"iterateDefaultGroup_v59" : [
"2021-10-13T18:15:36.915-0500"
],
"iterateDefaultGroup_v60" : [
"2021-10-15T15:39:58.437-0500"
]
}
}