{
"document" : {
"data" : {
"NAME" : "DQM_MIDDLEWARE_HISTOS_CONSUMER_TABLE",
"COMMENT" : "No comment.",
"AUTHOR" : "admin",
"CREATION_TIME" : 1625849011,
"COL_TYPES" : {
"PROCESSOR_UID" : "STRING",
"FILE_PATH" : "STRING",
"RADIX_FILE_NAME" : "STRING",
"SAVE_FILE" : "STRING",
"CALIBRATION_NAME" : "STRING",
"CONFIGURATION_DIR" : "STRING",
"CONFIGURATION_NAME" : "STRING",
"COMMENT_DESCRIPTION" : "STRING",
"AUTHOR" : "STRING",
"RECORD_INSERTION_TIME" : "TIMESTAMP WITH TIMEZONE"
},
"DATA_SET" : [
{
"PROCESSOR_UID" : "VBTrackerDQMHistos",
"FILE_PATH" : "${OTSDAQ_DATA}/TrackerHistos",
"RADIX_FILE_NAME" : "TrackerHistos_",
"SAVE_FILE" : "Yes",
"CALIBRATION_NAME" : "calibrationandpedenoise",
"CONFIGURATION_DIR" : "${PH2ACF_BASE_DIR}/settings",
"CONFIGURATION_NAME" : "D19CDescription_OpticalReadout.xml",
"COMMENT_DESCRIPTION" : "No Comment",
"AUTHOR" : "admin",
"RECORD_INSERTION_TIME" : "1625849011"
}
]
},
"metadata" : {

},
"search" : [

]
},
"comments" : [

],
"origin" : {
"source" : "template",
"name" : "notprovided",
"format" : "json",
"created" : "2021-07-09T11:43:31.484-0500",
"rawdata" : [

]
},
"version" : "1",
"entities" : [
{
"name" : "OTSROOT",
"assigned" : "2021-07-09T11:43:31.486-0500"
}
],
"configurations" : [
{
"name" : "notprovided",
"assigned" : "2021-07-09T11:43:31.485-0500"
},
{
"name" : "BurninBoxConfiguration_v38",
"assigned" : "2021-07-09T11:47:13.666-0500"
},
{
"name" : "BurninBoxConfiguration_v39",
"assigned" : "2021-07-09T11:48:45.801-0500"
},
{
"name" : "BurninBoxConfiguration_v40",
"assigned" : "2021-07-09T16:06:00.239-0500"
},
{
"name" : "BurninBoxConfiguration_v41",
"assigned" : "2021-07-12T11:04:55.216-0500"
},
{
"name" : "BurninBoxConfiguration_v42",
"assigned" : "2021-07-13T12:01:31.043-0500"
},
{
"name" : "BurninBoxConfiguration_v43",
"assigned" : "2021-07-13T12:22:05.571-0500"
},
{
"name" : "BurninBoxConfiguration_v44",
"assigned" : "2021-07-14T13:05:58.147-0500"
},
{
"name" : "BurninBoxConfiguration_v45",
"assigned" : "2021-07-14T14:26:04.304-0500"
},
{
"name" : "BurninBoxConfiguration_v46",
"assigned" : "2021-07-14T14:46:56.631-0500"
},
{
"name" : "BurninBoxConfiguration_v47",
"assigned" : "2021-07-14T15:24:33.447-0500"
},
{
"name" : "BurninBoxConfiguration_v48",
"assigned" : "2021-07-14T16:05:29.029-0500"
},
{
"name" : "BurninBoxConfiguration_v49",
"assigned" : "2021-07-14T16:15:40.653-0500"
},
{
"name" : "BurninBoxConfiguration_v50",
"assigned" : "2021-07-14T16:17:40.507-0500"
},
{
"name" : "BurninBoxConfiguration_v51",
"assigned" : "2021-07-15T11:50:33.474-0500"
},
{
"name" : "BurninBoxConfiguration_v52",
"assigned" : "2021-07-20T13:45:53.631-0500"
},
{
"name" : "BurninBoxConfiguration_v53",
"assigned" : "2021-07-20T16:41:41.806-0500"
},
{
"name" : "BurninBoxConfiguration_v54",
"assigned" : "2021-07-20T17:09:26.506-0500"
},
{
"name" : "BurninBoxConfiguration_v55",
"assigned" : "2021-07-20T17:28:39.700-0500"
},
{
"name" : "BurninBoxConfiguration_v56",
"assigned" : "2021-07-20T17:46:27.029-0500"
},
{
"name" : "BurninBoxConfiguration_v57",
"assigned" : "2021-07-21T11:50:01.606-0500"
},
{
"name" : "BurninBoxConfiguration_v58",
"assigned" : "2021-07-21T11:58:37.255-0500"
},
{
"name" : "BurninBoxConfiguration_v59",
"assigned" : "2021-07-21T11:59:32.996-0500"
},
{
"name" : "BurninBoxConfiguration_v60",
"assigned" : "2021-07-22T18:34:59.995-0500"
},
{
"name" : "BurninBoxConfiguration_v61",
"assigned" : "2021-07-23T12:33:56.336-0500"
},
{
"name" : "BurninBoxConfiguration_v62",
"assigned" : "2021-07-24T00:54:49.139-0500"
},
{
"name" : "BurninBoxConfiguration_v63",
"assigned" : "2021-07-24T12:12:50.710-0500"
},
{
"name" : "BurninBoxConfiguration_v64",
"assigned" : "2021-07-25T21:07:15.656-0500"
},
{
"name" : "BurninBoxConfiguration_v65",
"assigned" : "2021-07-26T07:43:11.542-0500"
},
{
"name" : "BurninBoxConfiguration_v66",
"assigned" : "2021-07-26T18:37:11.623-0500"
},
{
"name" : "BurninBoxConfiguration_v67",
"assigned" : "2021-07-27T08:25:40.323-0500"
},
{
"name" : "BurninBoxConfiguration_v68",
"assigned" : "2021-08-03T11:10:36.777-0500"
},
{
"name" : "BurninBoxConfiguration_v69",
"assigned" : "2021-08-04T12:21:57.121-0500"
},
{
"name" : "BurninBoxConfiguration_v70",
"assigned" : "2021-09-02T13:43:33.518-0500"
},
{
"name" : "BurninBoxConfiguration_v71",
"assigned" : "2021-09-02T14:03:36.361-0500"
},
{
"name" : "BurninBoxConfiguration_v72",
"assigned" : "2021-09-23T15:47:04.737-0500"
},
{
"name" : "BurninBoxConfiguration_v73",
"assigned" : "2021-09-23T15:47:41.733-0500"
},
{
"name" : "BurninBoxConfiguration_v74",
"assigned" : "2021-09-24T15:36:49.619-0500"
},
{
"name" : "BurninBoxConfiguration_v75",
"assigned" : "2021-09-24T15:53:22.606-0500"
},
{
"name" : "BurninBoxConfiguration_v76",
"assigned" : "2021-09-24T16:04:21.555-0500"
},
{
"name" : "BurninBoxConfiguration_v77",
"assigned" : "2021-09-24T16:28:06.379-0500"
},
{
"name" : "BurninBoxConfiguration_v78",
"assigned" : "2021-09-27T09:02:55.990-0500"
},
{
"name" : "BurninBoxConfiguration_v79",
"assigned" : "2021-09-27T14:22:24.302-0500"
},
{
"name" : "BurninBoxConfiguration_v80",
"assigned" : "2021-09-28T09:24:50.157-0500"
},
{
"name" : "BurninBoxConfiguration_v81",
"assigned" : "2021-09-30T09:14:50.460-0500"
},
{
"name" : "BurninBoxConfiguration_v82",
"assigned" : "2021-10-01T10:56:20.973-0500"
},
{
"name" : "BurninBoxConfiguration_v83",
"assigned" : "2021-10-01T11:01:40.590-0500"
},
{
"name" : "BurninBoxConfiguration_v84",
"assigned" : "2021-10-06T10:02:30.860-0500"
},
{
"name" : "BurninBoxConfiguration_v85",
"assigned" : "2021-10-07T16:32:39.975-0500"
},
{
"name" : "BurninBoxConfiguration_v86",
"assigned" : "2021-10-08T14:03:14.808-0500"
},
{
"name" : "BurninBoxConfiguration_v87",
"assigned" : "2021-10-11T16:00:55.650-0500"
},
{
"name" : "BurninBoxConfiguration_v88",
"assigned" : "2021-10-12T09:07:16.952-0500"
},
{
"name" : "BurninBoxConfiguration_v89",
"assigned" : "2021-10-12T11:11:22.642-0500"
},
{
"name" : "BurninBoxConfiguration_v90",
"assigned" : "2021-10-14T17:03:16.036-0500"
},
{
"name" : "BurninBoxConfiguration_v91",
"assigned" : "2021-10-15T10:48:30.829-0500"
},
{
"name" : "BurninBoxConfiguration_v92",
"assigned" : "2021-10-15T15:50:48.690-0500"
},
{
"name" : "BurninBoxConfiguration_v93",
"assigned" : "2021-11-03T16:30:19.601-0500"
},
{
"name" : "BurninBoxConfiguration_v94",
"assigned" : "2021-11-10T15:11:01.992-0600"
},
{
"name" : "BurninBoxConfiguration_v95",
"assigned" : "2022-04-19T14:35:56.059-0400"
},
{
"name" : "BurninBoxConfiguration_v96",
"assigned" : "2022-04-20T10:06:05.085-0400"
},
{
"name" : "BurninBoxConfiguration_v97",
"assigned" : "2022-04-20T11:23:51.804-0400"
},
{
"name" : "BurninBoxConfiguration_v98",
"assigned" : "2022-06-03T14:30:15.908-0500"
},
{
"name" : "BurninBoxConfiguration_v99",
"assigned" : "2022-06-03T14:34:08.787-0500"
},
{
"name" : "BurninBoxConfiguration_v100",
"assigned" : "2022-06-07T14:59:58.913-0500"
},
{
"name" : "BurninBoxConfiguration_v101",
"assigned" : "2022-06-07T15:05:53.148-0500"
},
{
"name" : "BurninBoxConfiguration_v102",
"assigned" : "2022-06-07T16:09:17.119-0500"
},
{
"name" : "BurninBoxConfiguration_v103",
"assigned" : "2022-06-10T10:17:25.471-0500"
},
{
"name" : "BurninBoxConfiguration_v104",
"assigned" : "2022-06-10T10:18:21.904-0500"
},
{
"name" : "BurninBoxConfiguration_v105",
"assigned" : "2022-06-13T14:13:00.688-0500"
},
{
"name" : "BurninBoxConfiguration_v106",
"assigned" : "2022-06-13T15:22:18.031-0500"
},
{
"name" : "BurninBoxConfiguration_v107",
"assigned" : "2022-06-21T15:37:14.183-0500"
},
{
"name" : "BurninBoxConfiguration_v108",
"assigned" : "2022-06-21T15:39:36.772-0500"
},
{
"name" : "BurninBoxConfiguration_v109",
"assigned" : "2022-06-30T12:02:31.188-0500"
},
{
"name" : "BurninBoxConfiguration_v110",
"assigned" : "2023-01-19T10:05:42.606-0600"
},
{
"name" : "BurninBoxConfiguration_v111",
"assigned" : "2023-01-19T10:08:19.278-0600"
}
],
"changelog" : "notprovided",
"bookkeeping" : {
"isdeleted" : false,
"isreadonly" : false,
"updates" : [
{
"event" : "addConfiguration",
"timestamp" : "2021-07-09T11:43:31.485-0500",
"value" : {
"name" : "notprovided",
"assigned" : "2021-07-09T11:43:31.485-0500"
}
},
{
"event" : "setVersion",
"timestamp" : "2021-07-09T11:43:31.486-0500",
"value" : {
"name" : "1",
"assigned" : "2021-07-09T11:43:31.486-0500"
}
},
{
"event" : "setCollection",
"timestamp" : "2021-07-09T11:43:31.486-0500",
"value" : {
"name" : "DQMMiddlewareHistosConsumerTable",
"assigned" : "2021-07-09T11:43:31.486-0500"
}
},
{
"event" : "addEntity",
"timestamp" : "2021-07-09T11:43:31.486-0500",
"value" : {
"name" : "OTSROOT",
"assigned" : "2021-07-09T11:43:31.486-0500"
}
},
{
"event" : "addConfiguration",
"timestamp" : "2021-07-09T11:47:13.666-0500",
"value" : {
"name" : "BurninBoxConfiguration_v38",
"assigned" : "2021-07-09T11:47:13.666-0500"
}
},
{
"event" : "addConfiguration",
"timestamp" : "2021-07-09T11:48:45.801-0500",
"value" : {
"name" : "BurninBoxConfiguration_v39",
"assigned" : "2021-07-09T11:48:45.801-0500"
}
},
{
"event" : "addConfiguration",
"timestamp" : "2021-07-09T16:06:00.239-0500",
"value" : {
"name" : "BurninBoxConfiguration_v40",
"assigned" : "2021-07-09T16:06:00.239-0500"
}
},
{
"event" : "addConfiguration",
"timestamp" : "2021-07-12T11:04:55.217-0500",
"value" : {
"name" : "BurninBoxConfiguration_v41",
"assigned" : "2021-07-12T11:04:55.216-0500"
}
},
{
"event" : "addConfiguration",
"timestamp" : "2021-07-13T12:01:31.043-0500",
"value" : {
"name" : "BurninBoxConfiguration_v42",
"assigned" : "2021-07-13T12:01:31.043-0500"
}
},
{
"event" : "addConfiguration",
"timestamp" : "2021-07-13T12:22:05.571-0500",
"value" : {
"name" : "BurninBoxConfiguration_v43",
"assigned" : "2021-07-13T12:22:05.571-0500"
}
},
{
"event" : "addConfiguration",
"timestamp" : "2021-07-14T13:05:58.147-0500",
"value" : {
"name" : "BurninBoxConfiguration_v44",
"assigned" : "2021-07-14T13:05:58.147-0500"
}
},
{
"event" : "addConfiguration",
"timestamp" : "2021-07-14T14:26:04.304-0500",
"value" : {
"name" : "BurninBoxConfiguration_v45",
"assigned" : "2021-07-14T14:26:04.304-0500"
}
},
{
"event" : "addConfiguration",
"timestamp" : "2021-07-14T14:46:56.631-0500",
"value" : {
"name" : "BurninBoxConfiguration_v46",
"assigned" : "2021-07-14T14:46:56.631-0500"
}
},
{
"event" : "addConfiguration",
"timestamp" : "2021-07-14T15:24:33.447-0500",
"value" : {
"name" : "BurninBoxConfiguration_v47",
"assigned" : "2021-07-14T15:24:33.447-0500"
}
},
{
"event" : "addConfiguration",
"timestamp" : "2021-07-14T16:05:29.029-0500",
"value" : {
"name" : "BurninBoxConfiguration_v48",
"assigned" : "2021-07-14T16:05:29.029-0500"
}
},
{
"event" : "addConfiguration",
"timestamp" : "2021-07-14T16:15:40.653-0500",
"value" : {
"name" : "BurninBoxConfiguration_v49",
"assigned" : "2021-07-14T16:15:40.653-0500"
}
},
{
"event" : "addConfiguration",
"timestamp" : "2021-07-14T16:17:40.507-0500",
"value" : {
"name" : "BurninBoxConfiguration_v50",
"assigned" : "2021-07-14T16:17:40.507-0500"
}
},
{
"event" : "addConfiguration",
"timestamp" : "2021-07-15T11:50:33.474-0500",
"value" : {
"name" : "BurninBoxConfiguration_v51",
"assigned" : "2021-07-15T11:50:33.474-0500"
}
},
{
"event" : "addConfiguration",
"timestamp" : "2021-07-20T13:45:53.631-0500",
"value" : {
"name" : "BurninBoxConfiguration_v52",
"assigned" : "2021-07-20T13:45:53.631-0500"
}
},
{
"event" : "addConfiguration",
"timestamp" : "2021-07-20T16:41:41.806-0500",
"value" : {
"name" : "BurninBoxConfiguration_v53",
"assigned" : "2021-07-20T16:41:41.806-0500"
}
},
{
"event" : "addConfiguration",
"timestamp" : "2021-07-20T17:09:26.506-0500",
"value" : {
"name" : "BurninBoxConfiguration_v54",
"assigned" : "2021-07-20T17:09:26.506-0500"
}
},
{
"event" : "addConfiguration",
"timestamp" : "2021-07-20T17:28:39.700-0500",
"value" : {
"name" : "BurninBoxConfiguration_v55",
"assigned" : "2021-07-20T17:28:39.700-0500"
}
},
{
"event" : "addConfiguration",
"timestamp" : "2021-07-20T17:46:27.029-0500",
"value" : {
"name" : "BurninBoxConfiguration_v56",
"assigned" : "2021-07-20T17:46:27.029-0500"
}
},
{
"event" : "addConfiguration",
"timestamp" : "2021-07-21T11:50:01.606-0500",
"value" : {
"name" : "BurninBoxConfiguration_v57",
"assigned" : "2021-07-21T11:50:01.606-0500"
}
},
{
"event" : "addConfiguration",
"timestamp" : "2021-07-21T11:58:37.255-0500",
"value" : {
"name" : "BurninBoxConfiguration_v58",
"assigned" : "2021-07-21T11:58:37.255-0500"
}
},
{
"event" : "addConfiguration",
"timestamp" : "2021-07-21T11:59:32.996-0500",
"value" : {
"name" : "BurninBoxConfiguration_v59",
"assigned" : "2021-07-21T11:59:32.996-0500"
}
},
{
"event" : "addConfiguration",
"timestamp" : "2021-07-22T18:34:59.995-0500",
"value" : {
"name" : "BurninBoxConfiguration_v60",
"assigned" : "2021-07-22T18:34:59.995-0500"
}
},
{
"event" : "addConfiguration",
"timestamp" : "2021-07-23T12:33:56.336-0500",
"value" : {
"name" : "BurninBoxConfiguration_v61",
"assigned" : "2021-07-23T12:33:56.336-0500"
}
},
{
"event" : "addConfiguration",
"timestamp" : "2021-07-24T00:54:49.139-0500",
"value" : {
"name" : "BurninBoxConfiguration_v62",
"assigned" : "2021-07-24T00:54:49.139-0500"
}
},
{
"event" : "addConfiguration",
"timestamp" : "2021-07-24T12:12:50.710-0500",
"value" : {
"name" : "BurninBoxConfiguration_v63",
"assigned" : "2021-07-24T12:12:50.710-0500"
}
},
{
"event" : "addConfiguration",
"timestamp" : "2021-07-25T21:07:15.656-0500",
"value" : {
"name" : "BurninBoxConfiguration_v64",
"assigned" : "2021-07-25T21:07:15.656-0500"
}
},
{
"event" : "addConfiguration",
"timestamp" : "2021-07-26T07:43:11.542-0500",
"value" : {
"name" : "BurninBoxConfiguration_v65",
"assigned" : "2021-07-26T07:43:11.542-0500"
}
},
{
"event" : "addConfiguration",
"timestamp" : "2021-07-26T18:37:11.623-0500",
"value" : {
"name" : "BurninBoxConfiguration_v66",
"assigned" : "2021-07-26T18:37:11.623-0500"
}
},
{
"event" : "addConfiguration",
"timestamp" : "2021-07-27T08:25:40.324-0500",
"value" : {
"name" : "BurninBoxConfiguration_v67",
"assigned" : "2021-07-27T08:25:40.323-0500"
}
},
{
"event" : "addConfiguration",
"timestamp" : "2021-08-03T11:10:36.777-0500",
"value" : {
"name" : "BurninBoxConfiguration_v68",
"assigned" : "2021-08-03T11:10:36.777-0500"
}
},
{
"event" : "addConfiguration",
"timestamp" : "2021-08-04T12:21:57.121-0500",
"value" : {
"name" : "BurninBoxConfiguration_v69",
"assigned" : "2021-08-04T12:21:57.121-0500"
}
},
{
"event" : "addConfiguration",
"timestamp" : "2021-09-02T13:43:33.518-0500",
"value" : {
"name" : "BurninBoxConfiguration_v70",
"assigned" : "2021-09-02T13:43:33.518-0500"
}
},
{
"event" : "addConfiguration",
"timestamp" : "2021-09-02T14:03:36.361-0500",
"value" : {
"name" : "BurninBoxConfiguration_v71",
"assigned" : "2021-09-02T14:03:36.361-0500"
}
},
{
"event" : "addConfiguration",
"timestamp" : "2021-09-23T15:47:04.737-0500",
"value" : {
"name" : "BurninBoxConfiguration_v72",
"assigned" : "2021-09-23T15:47:04.737-0500"
}
},
{
"event" : "addConfiguration",
"timestamp" : "2021-09-23T15:47:41.733-0500",
"value" : {
"name" : "BurninBoxConfiguration_v73",
"assigned" : "2021-09-23T15:47:41.733-0500"
}
},
{
"event" : "addConfiguration",
"timestamp" : "2021-09-24T15:36:49.619-0500",
"value" : {
"name" : "BurninBoxConfiguration_v74",
"assigned" : "2021-09-24T15:36:49.619-0500"
}
},
{
"event" : "addConfiguration",
"timestamp" : "2021-09-24T15:53:22.606-0500",
"value" : {
"name" : "BurninBoxConfiguration_v75",
"assigned" : "2021-09-24T15:53:22.606-0500"
}
},
{
"event" : "addConfiguration",
"timestamp" : "2021-09-24T16:04:21.555-0500",
"value" : {
"name" : "BurninBoxConfiguration_v76",
"assigned" : "2021-09-24T16:04:21.555-0500"
}
},
{
"event" : "addConfiguration",
"timestamp" : "2021-09-24T16:28:06.379-0500",
"value" : {
"name" : "BurninBoxConfiguration_v77",
"assigned" : "2021-09-24T16:28:06.379-0500"
}
},
{
"event" : "addConfiguration",
"timestamp" : "2021-09-27T09:02:55.990-0500",
"value" : {
"name" : "BurninBoxConfiguration_v78",
"assigned" : "2021-09-27T09:02:55.990-0500"
}
},
{
"event" : "addConfiguration",
"timestamp" : "2021-09-27T14:22:24.302-0500",
"value" : {
"name" : "BurninBoxConfiguration_v79",
"assigned" : "2021-09-27T14:22:24.302-0500"
}
},
{
"event" : "addConfiguration",
"timestamp" : "2021-09-28T09:24:50.157-0500",
"value" : {
"name" : "BurninBoxConfiguration_v80",
"assigned" : "2021-09-28T09:24:50.157-0500"
}
},
{
"event" : "addConfiguration",
"timestamp" : "2021-09-30T09:14:50.460-0500",
"value" : {
"name" : "BurninBoxConfiguration_v81",
"assigned" : "2021-09-30T09:14:50.460-0500"
}
},
{
"event" : "addConfiguration",
"timestamp" : "2021-10-01T10:56:20.973-0500",
"value" : {
"name" : "BurninBoxConfiguration_v82",
"assigned" : "2021-10-01T10:56:20.973-0500"
}
},
{
"event" : "addConfiguration",
"timestamp" : "2021-10-01T11:01:40.590-0500",
"value" : {
"name" : "BurninBoxConfiguration_v83",
"assigned" : "2021-10-01T11:01:40.590-0500"
}
},
{
"event" : "addConfiguration",
"timestamp" : "2021-10-06T10:02:30.860-0500",
"value" : {
"name" : "BurninBoxConfiguration_v84",
"assigned" : "2021-10-06T10:02:30.860-0500"
}
},
{
"event" : "addConfiguration",
"timestamp" : "2021-10-07T16:32:39.975-0500",
"value" : {
"name" : "BurninBoxConfiguration_v85",
"assigned" : "2021-10-07T16:32:39.975-0500"
}
},
{
"event" : "addConfiguration",
"timestamp" : "2021-10-08T14:03:14.808-0500",
"value" : {
"name" : "BurninBoxConfiguration_v86",
"assigned" : "2021-10-08T14:03:14.808-0500"
}
},
{
"event" : "addConfiguration",
"timestamp" : "2021-10-11T16:00:55.650-0500",
"value" : {
"name" : "BurninBoxConfiguration_v87",
"assigned" : "2021-10-11T16:00:55.650-0500"
}
},
{
"event" : "addConfiguration",
"timestamp" : "2021-10-12T09:07:16.952-0500",
"value" : {
"name" : "BurninBoxConfiguration_v88",
"assigned" : "2021-10-12T09:07:16.952-0500"
}
},
{
"event" : "addConfiguration",
"timestamp" : "2021-10-12T11:11:22.642-0500",
"value" : {
"name" : "BurninBoxConfiguration_v89",
"assigned" : "2021-10-12T11:11:22.642-0500"
}
},
{
"event" : "addConfiguration",
"timestamp" : "2021-10-14T17:03:16.036-0500",
"value" : {
"name" : "BurninBoxConfiguration_v90",
"assigned" : "2021-10-14T17:03:16.036-0500"
}
},
{
"event" : "addConfiguration",
"timestamp" : "2021-10-15T10:48:30.829-0500",
"value" : {
"name" : "BurninBoxConfiguration_v91",
"assigned" : "2021-10-15T10:48:30.829-0500"
}
},
{
"event" : "addConfiguration",
"timestamp" : "2021-10-15T15:50:48.690-0500",
"value" : {
"name" : "BurninBoxConfiguration_v92",
"assigned" : "2021-10-15T15:50:48.690-0500"
}
},
{
"event" : "addConfiguration",
"timestamp" : "2021-11-03T16:30:19.601-0500",
"value" : {
"name" : "BurninBoxConfiguration_v93",
"assigned" : "2021-11-03T16:30:19.601-0500"
}
},
{
"event" : "addConfiguration",
"timestamp" : "2021-11-10T15:11:01.992-0600",
"value" : {
"name" : "BurninBoxConfiguration_v94",
"assigned" : "2021-11-10T15:11:01.992-0600"
}
},
{
"event" : "addConfiguration",
"timestamp" : "2022-04-19T14:35:56.059-0400",
"value" : {
"name" : "BurninBoxConfiguration_v95",
"assigned" : "2022-04-19T14:35:56.059-0400"
}
},
{
"event" : "addConfiguration",
"timestamp" : "2022-04-20T10:06:05.085-0400",
"value" : {
"name" : "BurninBoxConfiguration_v96",
"assigned" : "2022-04-20T10:06:05.085-0400"
}
},
{
"event" : "addConfiguration",
"timestamp" : "2022-04-20T11:23:51.804-0400",
"value" : {
"name" : "BurninBoxConfiguration_v97",
"assigned" : "2022-04-20T11:23:51.804-0400"
}
},
{
"event" : "addConfiguration",
"timestamp" : "2022-06-03T14:30:15.908-0500",
"value" : {
"name" : "BurninBoxConfiguration_v98",
"assigned" : "2022-06-03T14:30:15.908-0500"
}
},
{
"event" : "addConfiguration",
"timestamp" : "2022-06-03T14:34:08.787-0500",
"value" : {
"name" : "BurninBoxConfiguration_v99",
"assigned" : "2022-06-03T14:34:08.787-0500"
}
},
{
"event" : "addConfiguration",
"timestamp" : "2022-06-07T14:59:58.914-0500",
"value" : {
"name" : "BurninBoxConfiguration_v100",
"assigned" : "2022-06-07T14:59:58.913-0500"
}
},
{
"event" : "addConfiguration",
"timestamp" : "2022-06-07T15:05:53.148-0500",
"value" : {
"name" : "BurninBoxConfiguration_v101",
"assigned" : "2022-06-07T15:05:53.148-0500"
}
},
{
"event" : "addConfiguration",
"timestamp" : "2022-06-07T16:09:17.119-0500",
"value" : {
"name" : "BurninBoxConfiguration_v102",
"assigned" : "2022-06-07T16:09:17.119-0500"
}
},
{
"event" : "addConfiguration",
"timestamp" : "2022-06-10T10:17:25.471-0500",
"value" : {
"name" : "BurninBoxConfiguration_v103",
"assigned" : "2022-06-10T10:17:25.471-0500"
}
},
{
"event" : "addConfiguration",
"timestamp" : "2022-06-10T10:18:21.904-0500",
"value" : {
"name" : "BurninBoxConfiguration_v104",
"assigned" : "2022-06-10T10:18:21.904-0500"
}
},
{
"event" : "addConfiguration",
"timestamp" : "2022-06-13T14:13:00.688-0500",
"value" : {
"name" : "BurninBoxConfiguration_v105",
"assigned" : "2022-06-13T14:13:00.688-0500"
}
},
{
"event" : "addConfiguration",
"timestamp" : "2022-06-13T15:22:18.031-0500",
"value" : {
"name" : "BurninBoxConfiguration_v106",
"assigned" : "2022-06-13T15:22:18.031-0500"
}
},
{
"event" : "addConfiguration",
"timestamp" : "2022-06-21T15:37:14.183-0500",
"value" : {
"name" : "BurninBoxConfiguration_v107",
"assigned" : "2022-06-21T15:37:14.183-0500"
}
},
{
"event" : "addConfiguration",
"timestamp" : "2022-06-21T15:39:36.772-0500",
"value" : {
"name" : "BurninBoxConfiguration_v108",
"assigned" : "2022-06-21T15:39:36.772-0500"
}
},
{
"event" : "addConfiguration",
"timestamp" : "2022-06-30T12:02:31.188-0500",
"value" : {
"name" : "BurninBoxConfiguration_v109",
"assigned" : "2022-06-30T12:02:31.188-0500"
}
},
{
"event" : "addConfiguration",
"timestamp" : "2023-01-19T10:05:42.606-0600",
"value" : {
"name" : "BurninBoxConfiguration_v110",
"assigned" : "2023-01-19T10:05:42.606-0600"
}
},
{
"event" : "addConfiguration",
"timestamp" : "2023-01-19T10:08:19.278-0600",
"value" : {
"name" : "BurninBoxConfiguration_v111",
"assigned" : "2023-01-19T10:08:19.278-0600"
}
}
],
"created" : "2021-07-09T11:43:31.485-0500"
},
"_id" : {
"$oid" : "dbc82e82bdcb4b39b6e6a500"
},
"collection" : "DQMMiddlewareHistosConsumerTable",
"aliases" : {
"active" : [

],
"history" : [

]
},
"runs" : [

],
"attachments" : [

],
"configtype" : "notprovided"
}