{
"ouid" : [
"07dfd1fae81048108f3bd5e2",
"0805c432d55d496f9f9d3109",
"09493353ce654297bf9761be",
"0e8f893fc62c4579b0725f90",
"0f6f316901724f3d9c8b44b0",
"2734d8bae7fb429f8d3efd25",
"83c4c6659524451bbc5b45b2",
"8ca63c96b6264b2cb4b8a55e",
"a6c717349aa74cf1a47b254e",
"c0a5974b5ba145c39be3ebfa",
"c64912b14f07432ea3454c73",
"d75ecca59a3e41729cb9f10d"
],
"version" : {
"0" : [
"c0a5974b5ba145c39be3ebfa"
],
"1" : [
"d75ecca59a3e41729cb9f10d"
],
"2" : [
"83c4c6659524451bbc5b45b2"
],
"3" : [
"0f6f316901724f3d9c8b44b0"
],
"4" : [
"0e8f893fc62c4579b0725f90"
],
"5" : [
"09493353ce654297bf9761be"
],
"6" : [
"a6c717349aa74cf1a47b254e"
],
"7" : [
"2734d8bae7fb429f8d3efd25"
],
"8" : [
"0805c432d55d496f9f9d3109"
],
"9" : [
"c64912b14f07432ea3454c73"
],
"10" : [
"07dfd1fae81048108f3bd5e2"
],
"11" : [
"8ca63c96b6264b2cb4b8a55e"
]
},
"configurations.name" : {
"notprovided" : [
"07dfd1fae81048108f3bd5e2",
"0805c432d55d496f9f9d3109",
"09493353ce654297bf9761be",
"0e8f893fc62c4579b0725f90",
"0f6f316901724f3d9c8b44b0",
"2734d8bae7fb429f8d3efd25",
"83c4c6659524451bbc5b45b2",
"8ca63c96b6264b2cb4b8a55e",
"a6c717349aa74cf1a47b254e",
"c0a5974b5ba145c39be3ebfa",
"c64912b14f07432ea3454c73",
"d75ecca59a3e41729cb9f10d"
],
"BurninBoxConfig_v0" : [
"c0a5974b5ba145c39be3ebfa"
],
"BurninBoxConfig_v1" : [
"c0a5974b5ba145c39be3ebfa"
],
"BurninBoxConfig_v2" : [
"c0a5974b5ba145c39be3ebfa"
],
"BurninBoxConfig_v3" : [
"c0a5974b5ba145c39be3ebfa"
],
"BurninBoxConfig_v4" : [
"c0a5974b5ba145c39be3ebfa"
],
"BurninBoxConfig_v5" : [
"c0a5974b5ba145c39be3ebfa"
],
"BurninBoxConfig_v6" : [
"c0a5974b5ba145c39be3ebfa"
],
"BurninBoxConfig_v7" : [
"c0a5974b5ba145c39be3ebfa"
],
"BurninBoxConfig_v8" : [
"c0a5974b5ba145c39be3ebfa"
],
"BurninBoxConfig_v9" : [
"c0a5974b5ba145c39be3ebfa"
],
"BurninBoxConfig_v10" : [
"c0a5974b5ba145c39be3ebfa"
],
"BurninBoxConfig_v11" : [
"c0a5974b5ba145c39be3ebfa"
],
"BurninBoxConfig_v12" : [
"c0a5974b5ba145c39be3ebfa"
],
"BurninBoxConfig_v13" : [
"c0a5974b5ba145c39be3ebfa"
],
"BurninBoxConfig_v14" : [
"c0a5974b5ba145c39be3ebfa"
],
"BurninBoxConfig_v15" : [
"c0a5974b5ba145c39be3ebfa"
],
"BurninBoxConfig_v16" : [
"c0a5974b5ba145c39be3ebfa"
],
"BurninBoxConfig_v17" : [
"c0a5974b5ba145c39be3ebfa"
],
"BurninBoxConfig_v18" : [
"c0a5974b5ba145c39be3ebfa"
],
"BurninBoxConfig_v19" : [
"c0a5974b5ba145c39be3ebfa"
],
"BurninBoxConfig_v20" : [
"c0a5974b5ba145c39be3ebfa"
],
"BurninBoxConfig_v21" : [
"c0a5974b5ba145c39be3ebfa"
],
"BurninBoxConfig_v22" : [
"c0a5974b5ba145c39be3ebfa"
],
"BurninBoxConfig_v23" : [
"c0a5974b5ba145c39be3ebfa"
],
"BurninBoxConfig_v24" : [
"c0a5974b5ba145c39be3ebfa"
],
"BurninBoxConfig_v25" : [
"c0a5974b5ba145c39be3ebfa"
],
"BurninBoxConfig_v26" : [
"d75ecca59a3e41729cb9f10d"
],
"BurninBoxConfig_v27" : [
"83c4c6659524451bbc5b45b2"
],
"BurninBoxConfig_v28" : [
"83c4c6659524451bbc5b45b2"
],
"BurninBoxConfig_v29" : [
"83c4c6659524451bbc5b45b2"
],
"BurninBoxConfig_v30" : [
"83c4c6659524451bbc5b45b2"
],
"BurninBoxConfig_v31" : [
"83c4c6659524451bbc5b45b2"
],
"BurninBoxConfig_v32" : [
"83c4c6659524451bbc5b45b2"
],
"BurninBoxConfig_v33" : [
"83c4c6659524451bbc5b45b2"
],
"BurninBoxConfig_v34" : [
"83c4c6659524451bbc5b45b2"
],
"BurninBoxConfig_v35" : [
"83c4c6659524451bbc5b45b2"
],
"BurninBoxConfig_v36" : [
"83c4c6659524451bbc5b45b2"
],
"BurninBoxConfiguration_v0" : [
"83c4c6659524451bbc5b45b2"
],
"BurninBoxConfiguration_v1" : [
"83c4c6659524451bbc5b45b2"
],
"BurninBoxConfiguration_v2" : [
"83c4c6659524451bbc5b45b2"
],
"BurninBoxConfiguration_v3" : [
"83c4c6659524451bbc5b45b2"
],
"BurninBoxConfiguration_v4" : [
"83c4c6659524451bbc5b45b2"
],
"BurninBoxConfiguration_v5" : [
"83c4c6659524451bbc5b45b2"
],
"BurninBoxConfiguration_v6" : [
"83c4c6659524451bbc5b45b2"
],
"BurninBoxConfiguration_v7" : [
"83c4c6659524451bbc5b45b2"
],
"BurninBoxConfiguration_v8" : [
"83c4c6659524451bbc5b45b2"
],
"BurninBoxConfiguration_v9" : [
"83c4c6659524451bbc5b45b2"
],
"BurninBoxConfiguration_v10" : [
"83c4c6659524451bbc5b45b2"
],
"BurninBoxConfiguration_v11" : [
"83c4c6659524451bbc5b45b2"
],
"BurninBoxConfiguration_v12" : [
"83c4c6659524451bbc5b45b2"
],
"BurninBoxConfiguration_v13" : [
"83c4c6659524451bbc5b45b2"
],
"BurninBoxConfiguration_v14" : [
"83c4c6659524451bbc5b45b2"
],
"BurninBoxConfiguration_v15" : [
"83c4c6659524451bbc5b45b2"
],
"BurninBoxConfiguration_v16" : [
"83c4c6659524451bbc5b45b2"
],
"BurninBoxConfiguration_v17" : [
"83c4c6659524451bbc5b45b2"
],
"BurninBoxConfiguration_v18" : [
"83c4c6659524451bbc5b45b2"
],
"BurninBoxConfiguration_v19" : [
"83c4c6659524451bbc5b45b2"
],
"BurninBoxConfiguration_v20" : [
"83c4c6659524451bbc5b45b2"
],
"BurninBoxConfiguration_v21" : [
"83c4c6659524451bbc5b45b2"
],
"BurninBoxConfiguration_v22" : [
"83c4c6659524451bbc5b45b2"
],
"BurninBoxConfiguration_v23" : [
"83c4c6659524451bbc5b45b2"
],
"BurninBoxConfiguration_v24" : [
"83c4c6659524451bbc5b45b2"
],
"BurninBoxConfiguration_v25" : [
"83c4c6659524451bbc5b45b2"
],
"BurninBoxConfiguration_v26" : [
"83c4c6659524451bbc5b45b2"
],
"BurninBoxConfiguration_v27" : [
"83c4c6659524451bbc5b45b2"
],
"BurninBoxConfiguration_v28" : [
"0f6f316901724f3d9c8b44b0"
],
"BurninBoxConfiguration_v29" : [
"0e8f893fc62c4579b0725f90"
],
"BurninBoxConfiguration_v30" : [
"0e8f893fc62c4579b0725f90"
],
"BurninBoxConfiguration_v31" : [
"0e8f893fc62c4579b0725f90"
],
"BurninBoxConfiguration_v32" : [
"0e8f893fc62c4579b0725f90"
],
"BurninBoxConfiguration_v33" : [
"0e8f893fc62c4579b0725f90"
],
"BurninBoxConfiguration_v34" : [
"0e8f893fc62c4579b0725f90"
],
"BurninBoxConfiguration_v35" : [
"0e8f893fc62c4579b0725f90"
],
"BurninBoxConfiguration_v36" : [
"09493353ce654297bf9761be"
],
"BurninBoxConfiguration_v37" : [
"0e8f893fc62c4579b0725f90"
],
"BurninBoxConfiguration_v38" : [
"a6c717349aa74cf1a47b254e"
],
"BurninBoxConfiguration_v39" : [
"2734d8bae7fb429f8d3efd25"
],
"BurninBoxConfiguration_v40" : [
"2734d8bae7fb429f8d3efd25"
],
"BurninBoxConfiguration_v41" : [
"2734d8bae7fb429f8d3efd25"
],
"BurninBoxConfiguration_v42" : [
"2734d8bae7fb429f8d3efd25"
],
"BurninBoxConfiguration_v43" : [
"0805c432d55d496f9f9d3109"
],
"BurninBoxConfiguration_v44" : [
"c64912b14f07432ea3454c73"
],
"BurninBoxConfiguration_v45" : [
"07dfd1fae81048108f3bd5e2"
],
"BurninBoxConfiguration_v46" : [
"a6c717349aa74cf1a47b254e"
],
"BurninBoxConfiguration_v47" : [
"07dfd1fae81048108f3bd5e2"
],
"BurninBoxConfiguration_v48" : [
"07dfd1fae81048108f3bd5e2"
],
"BurninBoxConfiguration_v49" : [
"07dfd1fae81048108f3bd5e2"
],
"BurninBoxConfiguration_v50" : [
"2734d8bae7fb429f8d3efd25"
],
"BurninBoxConfiguration_v51" : [
"2734d8bae7fb429f8d3efd25"
],
"BurninBoxConfiguration_v52" : [
"2734d8bae7fb429f8d3efd25"
],
"BurninBoxConfiguration_v53" : [
"2734d8bae7fb429f8d3efd25"
],
"BurninBoxConfiguration_v54" : [
"2734d8bae7fb429f8d3efd25"
],
"BurninBoxConfiguration_v55" : [
"0805c432d55d496f9f9d3109"
],
"BurninBoxConfiguration_v56" : [
"0805c432d55d496f9f9d3109"
],
"BurninBoxConfiguration_v57" : [
"0805c432d55d496f9f9d3109"
],
"BurninBoxConfiguration_v58" : [
"2734d8bae7fb429f8d3efd25"
],
"BurninBoxConfiguration_v59" : [
"2734d8bae7fb429f8d3efd25"
],
"BurninBoxConfiguration_v60" : [
"2734d8bae7fb429f8d3efd25"
],
"BurninBoxConfiguration_v61" : [
"2734d8bae7fb429f8d3efd25"
],
"BurninBoxConfiguration_v62" : [
"2734d8bae7fb429f8d3efd25"
],
"BurninBoxConfiguration_v63" : [
"2734d8bae7fb429f8d3efd25"
],
"BurninBoxConfiguration_v64" : [
"2734d8bae7fb429f8d3efd25"
],
"BurninBoxConfiguration_v65" : [
"2734d8bae7fb429f8d3efd25"
],
"BurninBoxConfiguration_v66" : [
"2734d8bae7fb429f8d3efd25"
],
"BurninBoxConfiguration_v67" : [
"2734d8bae7fb429f8d3efd25"
],
"BurninBoxConfiguration_v68" : [
"a6c717349aa74cf1a47b254e"
],
"BurninBoxConfiguration_v69" : [
"a6c717349aa74cf1a47b254e"
],
"BurninBoxConfiguration_v70" : [
"a6c717349aa74cf1a47b254e"
],
"BurninBoxConfiguration_v71" : [
"a6c717349aa74cf1a47b254e"
],
"BurninBoxConfiguration_v72" : [
"a6c717349aa74cf1a47b254e"
],
"BurninBoxConfiguration_v73" : [
"a6c717349aa74cf1a47b254e"
],
"BurninBoxConfiguration_v74" : [
"07dfd1fae81048108f3bd5e2"
],
"BurninBoxConfiguration_v75" : [
"a6c717349aa74cf1a47b254e"
],
"BurninBoxConfiguration_v76" : [
"2734d8bae7fb429f8d3efd25"
],
"BurninBoxConfiguration_v77" : [
"2734d8bae7fb429f8d3efd25"
],
"BurninBoxConfiguration_v78" : [
"2734d8bae7fb429f8d3efd25"
],
"BurninBoxConfiguration_v79" : [
"2734d8bae7fb429f8d3efd25"
],
"BurninBoxConfiguration_v80" : [
"2734d8bae7fb429f8d3efd25"
],
"BurninBoxConfiguration_v81" : [
"a6c717349aa74cf1a47b254e"
],
"BurninBoxConfiguration_v82" : [
"a6c717349aa74cf1a47b254e"
],
"BurninBoxConfiguration_v83" : [
"2734d8bae7fb429f8d3efd25"
],
"BurninBoxConfiguration_v84" : [
"2734d8bae7fb429f8d3efd25"
],
"BurninBoxConfiguration_v85" : [
"2734d8bae7fb429f8d3efd25"
],
"BurninBoxConfiguration_v86" : [
"2734d8bae7fb429f8d3efd25"
],
"BurninBoxConfiguration_v87" : [
"2734d8bae7fb429f8d3efd25"
],
"BurninBoxConfiguration_v88" : [
"2734d8bae7fb429f8d3efd25"
],
"BurninBoxConfiguration_v89" : [
"2734d8bae7fb429f8d3efd25"
],
"BurninBoxConfiguration_v90" : [
"2734d8bae7fb429f8d3efd25"
],
"BurninBoxConfiguration_v91" : [
"2734d8bae7fb429f8d3efd25"
],
"BurninBoxConfiguration_v92" : [
"2734d8bae7fb429f8d3efd25"
],
"BurninBoxConfiguration_v93" : [
"2734d8bae7fb429f8d3efd25"
],
"BurninBoxConfiguration_v94" : [
"c64912b14f07432ea3454c73"
],
"BurninBoxConfiguration_v95" : [
"2734d8bae7fb429f8d3efd25"
],
"BurninBoxConfiguration_v96" : [
"8ca63c96b6264b2cb4b8a55e"
],
"BurninBoxConfiguration_v97" : [
"a6c717349aa74cf1a47b254e"
]
},
"entities.name" : {
"OTSROOT" : [
"07dfd1fae81048108f3bd5e2",
"0805c432d55d496f9f9d3109",
"09493353ce654297bf9761be",
"0e8f893fc62c4579b0725f90",
"0f6f316901724f3d9c8b44b0",
"2734d8bae7fb429f8d3efd25",
"83c4c6659524451bbc5b45b2",
"8ca63c96b6264b2cb4b8a55e",
"a6c717349aa74cf1a47b254e",
"c0a5974b5ba145c39be3ebfa",
"c64912b14f07432ea3454c73",
"d75ecca59a3e41729cb9f10d"
]
},
"aliases.active.name" : {

},
"runs.name" : {

},
"configurations.assigned" : {
"notprovided" : [
"2018-09-06T17:34:13.938-0500",
"2019-07-24T14:28:47.220-0500",
"2019-07-24T14:41:57.081-0500",
"2020-10-29T13:27:55.715-0500",
"2020-10-29T13:34:51.950-0500",
"2021-07-08T14:16:56.334-0500",
"2021-07-09T11:14:01.924-0500",
"2021-07-09T11:48:44.184-0500",
"2021-07-13T12:22:03.880-0500",
"2021-07-14T13:05:56.367-0500",
"2021-07-14T14:26:02.545-0500",
"2022-04-20T10:06:01.820-0400"
],
"BurninBoxConfig_v0" : [
"2018-09-06T17:34:14.502-0500"
],
"BurninBoxConfig_v1" : [
"2018-09-10T10:45:51.031-0500"
],
"BurninBoxConfig_v2" : [
"2018-09-10T11:24:18.444-0500"
],
"BurninBoxConfig_v3" : [
"2018-09-11T09:59:56.055-0500"
],
"BurninBoxConfig_v4" : [
"2018-09-11T10:01:19.149-0500"
],
"BurninBoxConfig_v5" : [
"2018-09-11T10:11:15.705-0500"
],
"BurninBoxConfig_v6" : [
"2018-09-12T12:16:43.443-0500"
],
"BurninBoxConfig_v7" : [
"2018-09-17T11:12:09.081-0500"
],
"BurninBoxConfig_v8" : [
"2018-09-17T13:53:33.112-0500"
],
"BurninBoxConfig_v9" : [
"2018-09-17T14:03:57.842-0500"
],
"BurninBoxConfig_v10" : [
"2018-09-18T15:31:02.179-0500"
],
"BurninBoxConfig_v11" : [
"2018-09-19T09:27:01.917-0500"
],
"BurninBoxConfig_v12" : [
"2018-09-19T10:08:01.760-0500"
],
"BurninBoxConfig_v13" : [
"2018-09-19T10:23:21.703-0500"
],
"BurninBoxConfig_v14" : [
"2018-09-19T11:22:21.070-0500"
],
"BurninBoxConfig_v15" : [
"2018-09-19T12:26:54.946-0500"
],
"BurninBoxConfig_v16" : [
"2018-09-20T14:22:27.012-0500"
],
"BurninBoxConfig_v17" : [
"2018-09-20T15:42:02.809-0500"
],
"BurninBoxConfig_v18" : [
"2018-09-21T11:16:28.826-0500"
],
"BurninBoxConfig_v19" : [
"2018-09-21T13:39:24.967-0500"
],
"BurninBoxConfig_v20" : [
"2018-09-21T13:39:48.890-0500"
],
"BurninBoxConfig_v21" : [
"2019-02-28T12:04:25.569-0600"
],
"BurninBoxConfig_v22" : [
"2019-02-28T12:05:07.992-0600"
],
"BurninBoxConfig_v23" : [
"2019-02-28T13:57:09.600-0600"
],
"BurninBoxConfig_v24" : [
"2019-07-19T15:24:15.659-0500"
],
"BurninBoxConfig_v25" : [
"2019-07-19T15:25:10.794-0500"
],
"BurninBoxConfig_v26" : [
"2019-07-24T14:34:10.264-0500"
],
"BurninBoxConfig_v27" : [
"2019-07-24T14:47:23.480-0500"
],
"BurninBoxConfig_v28" : [
"2019-07-24T14:48:40.957-0500"
],
"BurninBoxConfig_v29" : [
"2020-06-29T10:55:10.487-0500"
],
"BurninBoxConfig_v30" : [
"2020-06-29T11:05:39.768-0500"
],
"BurninBoxConfig_v31" : [
"2020-06-29T11:28:21.452-0500"
],
"BurninBoxConfig_v32" : [
"2020-07-24T10:58:17.684-0500"
],
"BurninBoxConfig_v33" : [
"2020-07-24T11:00:07.322-0500"
],
"BurninBoxConfig_v34" : [
"2020-07-24T11:56:06.036-0500"
],
"BurninBoxConfig_v35" : [
"2020-07-24T12:12:09.058-0500"
],
"BurninBoxConfig_v36" : [
"2020-07-24T12:16:35.554-0500"
],
"BurninBoxConfiguration_v0" : [
"2020-07-29T15:59:40.565-0500"
],
"BurninBoxConfiguration_v1" : [
"2020-07-30T11:42:27.195-0500"
],
"BurninBoxConfiguration_v2" : [
"2020-07-30T12:05:12.571-0500"
],
"BurninBoxConfiguration_v3" : [
"2020-09-02T11:30:04.300-0500"
],
"BurninBoxConfiguration_v4" : [
"2020-09-02T11:31:32.120-0500"
],
"BurninBoxConfiguration_v5" : [
"2020-09-02T15:08:51.040-0500"
],
"BurninBoxConfiguration_v6" : [
"2020-09-02T16:01:05.795-0500"
],
"BurninBoxConfiguration_v7" : [
"2020-09-02T16:05:19.232-0500"
],
"BurninBoxConfiguration_v8" : [
"2020-10-05T17:05:55.283-0500"
],
"BurninBoxConfiguration_v9" : [
"2020-10-05T17:09:48.318-0500"
],
"BurninBoxConfiguration_v10" : [
"2020-10-05T17:11:02.177-0500"
],
"BurninBoxConfiguration_v11" : [
"2020-10-05T17:39:03.736-0500"
],
"BurninBoxConfiguration_v12" : [
"2020-10-05T17:43:05.967-0500"
],
"BurninBoxConfiguration_v13" : [
"2020-10-09T14:43:39.909-0500"
],
"BurninBoxConfiguration_v14" : [
"2020-10-09T15:30:46.472-0500"
],
"BurninBoxConfiguration_v15" : [
"2020-10-12T10:14:43.369-0500"
],
"BurninBoxConfiguration_v16" : [
"2020-10-12T15:33:08.954-0500"
],
"BurninBoxConfiguration_v17" : [
"2020-10-19T16:16:02.488-0500"
],
"BurninBoxConfiguration_v18" : [
"2020-10-23T11:00:20.300-0500"
],
"BurninBoxConfiguration_v19" : [
"2020-10-26T11:51:21.290-0500"
],
"BurninBoxConfiguration_v20" : [
"2020-10-26T11:51:42.939-0500"
],
"BurninBoxConfiguration_v21" : [
"2020-10-26T11:56:42.389-0500"
],
"BurninBoxConfiguration_v22" : [
"2020-10-26T14:34:34.291-0500"
],
"BurninBoxConfiguration_v23" : [
"2020-10-26T14:53:01.236-0500"
],
"BurninBoxConfiguration_v24" : [
"2020-10-26T15:02:46.490-0500"
],
"BurninBoxConfiguration_v25" : [
"2020-10-27T17:42:10.293-0500"
],
"BurninBoxConfiguration_v26" : [
"2020-10-29T11:52:32.472-0500"
],
"BurninBoxConfiguration_v27" : [
"2020-10-29T11:54:26.249-0500"
],
"BurninBoxConfiguration_v28" : [
"2020-10-29T13:30:24.217-0500"
],
"BurninBoxConfiguration_v29" : [
"2020-10-29T13:45:55.624-0500"
],
"BurninBoxConfiguration_v30" : [
"2020-10-29T13:46:37.905-0500"
],
"BurninBoxConfiguration_v31" : [
"2020-10-29T13:48:02.551-0500"
],
"BurninBoxConfiguration_v32" : [
"2020-10-29T14:39:28.566-0500"
],
"BurninBoxConfiguration_v33" : [
"2021-06-30T16:17:51.566-0500"
],
"BurninBoxConfiguration_v34" : [
"2021-06-30T16:23:47.916-0500"
],
"BurninBoxConfiguration_v35" : [
"2021-07-08T14:06:13.805-0500"
],
"BurninBoxConfiguration_v36" : [
"2021-07-08T14:16:57.994-0500"
],
"BurninBoxConfiguration_v37" : [
"2021-07-08T16:20:44.559-0500"
],
"BurninBoxConfiguration_v38" : [
"2021-07-09T11:47:13.767-0500"
],
"BurninBoxConfiguration_v39" : [
"2021-07-09T11:48:45.897-0500"
],
"BurninBoxConfiguration_v40" : [
"2021-07-09T16:06:00.345-0500"
],
"BurninBoxConfiguration_v41" : [
"2021-07-12T11:04:55.334-0500"
],
"BurninBoxConfiguration_v42" : [
"2021-07-13T12:01:31.154-0500"
],
"BurninBoxConfiguration_v43" : [
"2021-07-13T12:22:05.651-0500"
],
"BurninBoxConfiguration_v44" : [
"2021-07-14T13:05:58.243-0500"
],
"BurninBoxConfiguration_v45" : [
"2021-07-14T14:26:04.403-0500"
],
"BurninBoxConfiguration_v46" : [
"2021-07-14T14:46:56.715-0500"
],
"BurninBoxConfiguration_v47" : [
"2021-07-14T15:24:33.556-0500"
],
"BurninBoxConfiguration_v48" : [
"2021-07-14T16:05:29.155-0500"
],
"BurninBoxConfiguration_v49" : [
"2021-07-14T16:15:40.779-0500"
],
"BurninBoxConfiguration_v50" : [
"2021-07-14T16:17:40.609-0500"
],
"BurninBoxConfiguration_v51" : [
"2021-07-15T11:50:33.592-0500"
],
"BurninBoxConfiguration_v52" : [
"2021-07-20T13:45:53.730-0500"
],
"BurninBoxConfiguration_v53" : [
"2021-07-20T16:41:41.920-0500"
],
"BurninBoxConfiguration_v54" : [
"2021-07-20T17:09:26.631-0500"
],
"BurninBoxConfiguration_v55" : [
"2021-07-20T17:28:39.819-0500"
],
"BurninBoxConfiguration_v56" : [
"2021-07-20T17:46:27.129-0500"
],
"BurninBoxConfiguration_v57" : [
"2021-07-21T11:50:01.723-0500"
],
"BurninBoxConfiguration_v58" : [
"2021-07-21T11:58:37.356-0500"
],
"BurninBoxConfiguration_v59" : [
"2021-07-21T11:59:33.121-0500"
],
"BurninBoxConfiguration_v60" : [
"2021-07-22T18:35:00.112-0500"
],
"BurninBoxConfiguration_v61" : [
"2021-07-23T12:33:56.444-0500"
],
"BurninBoxConfiguration_v62" : [
"2021-07-24T00:54:49.243-0500"
],
"BurninBoxConfiguration_v63" : [
"2021-07-24T12:12:50.839-0500"
],
"BurninBoxConfiguration_v64" : [
"2021-07-25T21:07:15.784-0500"
],
"BurninBoxConfiguration_v65" : [
"2021-07-26T07:43:11.674-0500"
],
"BurninBoxConfiguration_v66" : [
"2021-07-26T18:37:11.731-0500"
],
"BurninBoxConfiguration_v67" : [
"2021-07-27T08:25:40.452-0500"
],
"BurninBoxConfiguration_v68" : [
"2021-08-03T11:10:36.891-0500"
],
"BurninBoxConfiguration_v69" : [
"2021-08-04T12:21:57.218-0500"
],
"BurninBoxConfiguration_v70" : [
"2021-09-02T13:43:33.658-0500"
],
"BurninBoxConfiguration_v71" : [
"2021-09-02T14:03:36.487-0500"
],
"BurninBoxConfiguration_v72" : [
"2021-09-23T15:47:04.875-0500"
],
"BurninBoxConfiguration_v73" : [
"2021-09-23T15:47:41.881-0500"
],
"BurninBoxConfiguration_v74" : [
"2021-09-24T15:36:49.754-0500"
],
"BurninBoxConfiguration_v75" : [
"2021-09-24T15:53:22.736-0500"
],
"BurninBoxConfiguration_v76" : [
"2021-09-24T16:04:21.707-0500"
],
"BurninBoxConfiguration_v77" : [
"2021-09-24T16:28:06.514-0500"
],
"BurninBoxConfiguration_v78" : [
"2021-09-27T09:02:56.133-0500"
],
"BurninBoxConfiguration_v79" : [
"2021-09-27T14:22:24.411-0500"
],
"BurninBoxConfiguration_v80" : [
"2021-09-28T09:24:50.304-0500"
],
"BurninBoxConfiguration_v81" : [
"2021-09-30T09:14:50.594-0500"
],
"BurninBoxConfiguration_v82" : [
"2021-10-01T10:56:21.092-0500"
],
"BurninBoxConfiguration_v83" : [
"2021-10-01T11:01:40.730-0500"
],
"BurninBoxConfiguration_v84" : [
"2021-10-06T10:02:30.968-0500"
],
"BurninBoxConfiguration_v85" : [
"2021-10-07T16:32:40.093-0500"
],
"BurninBoxConfiguration_v86" : [
"2021-10-08T14:03:14.947-0500"
],
"BurninBoxConfiguration_v87" : [
"2021-10-11T16:00:55.808-0500"
],
"BurninBoxConfiguration_v88" : [
"2021-10-12T09:07:17.095-0500"
],
"BurninBoxConfiguration_v89" : [
"2021-10-12T11:11:22.785-0500"
],
"BurninBoxConfiguration_v90" : [
"2021-10-14T17:03:16.186-0500"
],
"BurninBoxConfiguration_v91" : [
"2021-10-15T10:48:30.952-0500"
],
"BurninBoxConfiguration_v92" : [
"2021-10-15T15:50:48.867-0500"
],
"BurninBoxConfiguration_v93" : [
"2021-11-03T16:30:19.742-0500"
],
"BurninBoxConfiguration_v94" : [
"2021-11-10T15:11:02.133-0600"
],
"BurninBoxConfiguration_v95" : [
"2022-04-19T14:35:56.172-0400"
],
"BurninBoxConfiguration_v96" : [
"2022-04-20T10:06:05.189-0400"
],
"BurninBoxConfiguration_v97" : [
"2022-04-20T11:23:51.909-0400"
]
}
}