{
"ouid" : [
"16dac0d44082479a8c15fb6f",
"43aae9ca4af04ed68b24133a",
"59c1abf088e44742b4f67c2b",
"dd16c65b1d69496a87a818fa"
],
"version" : {
"0" : [
"43aae9ca4af04ed68b24133a"
],
"1" : [
"59c1abf088e44742b4f67c2b"
],
"2" : [
"16dac0d44082479a8c15fb6f"
],
"3" : [
"dd16c65b1d69496a87a818fa"
]
},
"configurations.name" : {
"notprovided" : [
"16dac0d44082479a8c15fb6f",
"43aae9ca4af04ed68b24133a",
"59c1abf088e44742b4f67c2b",
"dd16c65b1d69496a87a818fa"
],
"BurninBoxConfiguration_v3" : [
"43aae9ca4af04ed68b24133a"
],
"BurninBoxConfiguration_v4" : [
"43aae9ca4af04ed68b24133a"
],
"BurninBoxConfiguration_v5" : [
"43aae9ca4af04ed68b24133a"
],
"BurninBoxConfiguration_v6" : [
"43aae9ca4af04ed68b24133a"
],
"BurninBoxConfiguration_v7" : [
"59c1abf088e44742b4f67c2b"
],
"BurninBoxConfiguration_v8" : [
"59c1abf088e44742b4f67c2b"
],
"BurninBoxConfiguration_v9" : [
"59c1abf088e44742b4f67c2b"
],
"BurninBoxConfiguration_v10" : [
"59c1abf088e44742b4f67c2b"
],
"BurninBoxConfiguration_v11" : [
"59c1abf088e44742b4f67c2b"
],
"BurninBoxConfiguration_v12" : [
"59c1abf088e44742b4f67c2b"
],
"BurninBoxConfiguration_v13" : [
"16dac0d44082479a8c15fb6f"
],
"BurninBoxConfiguration_v14" : [
"59c1abf088e44742b4f67c2b"
],
"BurninBoxConfiguration_v15" : [
"16dac0d44082479a8c15fb6f"
],
"BurninBoxConfiguration_v16" : [
"16dac0d44082479a8c15fb6f"
],
"BurninBoxConfiguration_v17" : [
"16dac0d44082479a8c15fb6f"
],
"BurninBoxConfiguration_v18" : [
"16dac0d44082479a8c15fb6f"
],
"BurninBoxConfiguration_v19" : [
"16dac0d44082479a8c15fb6f"
],
"BurninBoxConfiguration_v20" : [
"16dac0d44082479a8c15fb6f"
],
"BurninBoxConfiguration_v21" : [
"16dac0d44082479a8c15fb6f"
],
"BurninBoxConfiguration_v22" : [
"16dac0d44082479a8c15fb6f"
],
"BurninBoxConfiguration_v23" : [
"16dac0d44082479a8c15fb6f"
],
"BurninBoxConfiguration_v24" : [
"16dac0d44082479a8c15fb6f"
],
"BurninBoxConfiguration_v25" : [
"16dac0d44082479a8c15fb6f"
],
"BurninBoxConfiguration_v26" : [
"16dac0d44082479a8c15fb6f"
],
"BurninBoxConfiguration_v27" : [
"16dac0d44082479a8c15fb6f"
],
"BurninBoxConfiguration_v28" : [
"dd16c65b1d69496a87a818fa"
],
"BurninBoxConfiguration_v29" : [
"dd16c65b1d69496a87a818fa"
],
"BurninBoxConfiguration_v30" : [
"dd16c65b1d69496a87a818fa"
],
"BurninBoxConfiguration_v31" : [
"dd16c65b1d69496a87a818fa"
],
"BurninBoxConfiguration_v32" : [
"dd16c65b1d69496a87a818fa"
]
},
"entities.name" : {
"OTSROOT" : [
"16dac0d44082479a8c15fb6f",
"43aae9ca4af04ed68b24133a",
"59c1abf088e44742b4f67c2b",
"dd16c65b1d69496a87a818fa"
]
},
"aliases.active.name" : {

},
"runs.name" : {

},
"configurations.assigned" : {
"notprovided" : [
"2020-09-02T11:28:41.319-0500",
"2020-09-02T16:05:18.315-0500",
"2020-10-09T14:43:38.609-0500",
"2020-10-29T13:29:53.364-0500"
],
"BurninBoxConfiguration_v3" : [
"2020-09-02T11:30:04.590-0500"
],
"BurninBoxConfiguration_v4" : [
"2020-09-02T11:31:32.411-0500"
],
"BurninBoxConfiguration_v5" : [
"2020-09-02T15:08:51.375-0500"
],
"BurninBoxConfiguration_v6" : [
"2020-09-02T16:01:06.110-0500"
],
"BurninBoxConfiguration_v7" : [
"2020-09-02T16:05:19.521-0500"
],
"BurninBoxConfiguration_v8" : [
"2020-10-05T17:05:55.617-0500"
],
"BurninBoxConfiguration_v9" : [
"2020-10-05T17:09:48.660-0500"
],
"BurninBoxConfiguration_v10" : [
"2020-10-05T17:11:02.526-0500"
],
"BurninBoxConfiguration_v11" : [
"2020-10-05T17:39:04.171-0500"
],
"BurninBoxConfiguration_v12" : [
"2020-10-05T17:43:06.405-0500"
],
"BurninBoxConfiguration_v13" : [
"2020-10-09T14:43:40.344-0500"
],
"BurninBoxConfiguration_v14" : [
"2020-10-09T15:30:46.945-0500"
],
"BurninBoxConfiguration_v15" : [
"2020-10-12T10:14:43.835-0500"
],
"BurninBoxConfiguration_v16" : [
"2020-10-12T15:33:09.423-0500"
],
"BurninBoxConfiguration_v17" : [
"2020-10-19T16:16:02.972-0500"
],
"BurninBoxConfiguration_v18" : [
"2020-10-23T11:00:20.824-0500"
],
"BurninBoxConfiguration_v19" : [
"2020-10-26T11:51:21.816-0500"
],
"BurninBoxConfiguration_v20" : [
"2020-10-26T11:51:43.503-0500"
],
"BurninBoxConfiguration_v21" : [
"2020-10-26T11:56:42.919-0500"
],
"BurninBoxConfiguration_v22" : [
"2020-10-26T14:34:34.863-0500"
],
"BurninBoxConfiguration_v23" : [
"2020-10-26T14:53:01.774-0500"
],
"BurninBoxConfiguration_v24" : [
"2020-10-26T15:02:47.043-0500"
],
"BurninBoxConfiguration_v25" : [
"2020-10-27T17:42:10.840-0500"
],
"BurninBoxConfiguration_v26" : [
"2020-10-29T11:52:33.074-0500"
],
"BurninBoxConfiguration_v27" : [
"2020-10-29T11:54:26.800-0500"
],
"BurninBoxConfiguration_v28" : [
"2020-10-29T13:30:24.758-0500"
],
"BurninBoxConfiguration_v29" : [
"2020-10-29T13:45:56.156-0500"
],
"BurninBoxConfiguration_v30" : [
"2020-10-29T13:46:38.451-0500"
],
"BurninBoxConfiguration_v31" : [
"2020-10-29T13:48:03.062-0500"
],
"BurninBoxConfiguration_v32" : [
"2020-10-29T14:39:29.145-0500"
]
}
}