{
"ouid" : [
"00a046a4eb05486ea69245f1",
"2493236f798f46738095d879",
"47317f4d3fdc454989b97ee4",
"577dafb0d7ab440eaadb350d",
"61d48dcccfad449c88db90cb",
"7478a6e63a9c4b829f88a838",
"88f4df5077a64c629793852a",
"8d3361401f18464b9959b68e",
"98f4b294cb2243848783fc9f",
"9d7e8d6f6ae34c19b27e23c3",
"9f1184f064c94cb6932111ca",
"a64b873bf6424006a01f4d64",
"a81d1cc7e85744399cd933c1",
"c602eef25e5a43e9a7bb2b48",
"d190c81c7ee14534aedbda40",
"d49004354c204e86a9d81ca2",
"dc607dcc10b8455d91817b88",
"f4ff41f165b94e91bfa76d4c"
],
"version" : {
"1" : [
"00a046a4eb05486ea69245f1"
],
"2" : [
"7478a6e63a9c4b829f88a838"
],
"3" : [
"61d48dcccfad449c88db90cb"
],
"4" : [
"a64b873bf6424006a01f4d64"
],
"5" : [
"f4ff41f165b94e91bfa76d4c"
],
"6" : [
"d190c81c7ee14534aedbda40"
],
"7" : [
"dc607dcc10b8455d91817b88"
],
"8" : [
"2493236f798f46738095d879"
],
"9" : [
"c602eef25e5a43e9a7bb2b48"
],
"10" : [
"9f1184f064c94cb6932111ca"
],
"11" : [
"88f4df5077a64c629793852a"
],
"12" : [
"d49004354c204e86a9d81ca2"
],
"13" : [
"8d3361401f18464b9959b68e"
],
"14" : [
"577dafb0d7ab440eaadb350d"
],
"15" : [
"98f4b294cb2243848783fc9f"
],
"16" : [
"a81d1cc7e85744399cd933c1"
],
"17" : [
"47317f4d3fdc454989b97ee4"
],
"18" : [
"9d7e8d6f6ae34c19b27e23c3"
]
},
"configurations.name" : {
"notprovided" : [
"00a046a4eb05486ea69245f1",
"2493236f798f46738095d879",
"47317f4d3fdc454989b97ee4",
"577dafb0d7ab440eaadb350d",
"61d48dcccfad449c88db90cb",
"7478a6e63a9c4b829f88a838",
"88f4df5077a64c629793852a",
"8d3361401f18464b9959b68e",
"98f4b294cb2243848783fc9f",
"9d7e8d6f6ae34c19b27e23c3",
"9f1184f064c94cb6932111ca",
"a64b873bf6424006a01f4d64",
"a81d1cc7e85744399cd933c1",
"c602eef25e5a43e9a7bb2b48",
"d190c81c7ee14534aedbda40",
"d49004354c204e86a9d81ca2",
"dc607dcc10b8455d91817b88",
"f4ff41f165b94e91bfa76d4c"
],
"DefaultContext_v1" : [
"00a046a4eb05486ea69245f1"
],
"DefaultContext_v2" : [
"7478a6e63a9c4b829f88a838"
],
"DefaultContext_v3" : [
"7478a6e63a9c4b829f88a838"
],
"DefaultContext_v4" : [
"61d48dcccfad449c88db90cb"
],
"DefaultContext_v5" : [
"a64b873bf6424006a01f4d64"
],
"DefaultContext_v6" : [
"a64b873bf6424006a01f4d64"
],
"DefaultContext_v7" : [
"a64b873bf6424006a01f4d64"
],
"DefaultContext_v8" : [
"a64b873bf6424006a01f4d64"
],
"DefaultContext_v9" : [
"a64b873bf6424006a01f4d64"
],
"DefaultContext_v10" : [
"a64b873bf6424006a01f4d64"
],
"DefaultContext_v11" : [
"a64b873bf6424006a01f4d64"
],
"DefaultContext_v12" : [
"a64b873bf6424006a01f4d64"
],
"DefaultContext_v13" : [
"a64b873bf6424006a01f4d64"
],
"DefaultContext_v14" : [
"a64b873bf6424006a01f4d64"
],
"DefaultContext_v15" : [
"a64b873bf6424006a01f4d64"
],
"DefaultContext_v16" : [
"a64b873bf6424006a01f4d64"
],
"DefaultContext_v17" : [
"a64b873bf6424006a01f4d64"
],
"DefaultContext_v18" : [
"a64b873bf6424006a01f4d64"
],
"DefaultContext_v19" : [
"f4ff41f165b94e91bfa76d4c"
],
"DefaultContext_v20" : [
"f4ff41f165b94e91bfa76d4c"
],
"DefaultContext_v21" : [
"f4ff41f165b94e91bfa76d4c"
],
"DefaultContext_v22" : [
"f4ff41f165b94e91bfa76d4c"
],
"DefaultContext_v23" : [
"d190c81c7ee14534aedbda40"
],
"DefaultContext_v24" : [
"d190c81c7ee14534aedbda40"
],
"DefaultContext_v25" : [
"d190c81c7ee14534aedbda40"
],
"DefaultContext_v26" : [
"d190c81c7ee14534aedbda40"
],
"DefaultContext_v27" : [
"f4ff41f165b94e91bfa76d4c"
],
"DefaultContext_v28" : [
"f4ff41f165b94e91bfa76d4c"
],
"DefaultContext_v29" : [
"f4ff41f165b94e91bfa76d4c"
],
"DefaultContext_v30" : [
"f4ff41f165b94e91bfa76d4c"
],
"DefaultContext_v31" : [
"f4ff41f165b94e91bfa76d4c"
],
"DefaultContext_v32" : [
"f4ff41f165b94e91bfa76d4c"
],
"DefaultContext_v33" : [
"f4ff41f165b94e91bfa76d4c"
],
"DefaultContext_v34" : [
"f4ff41f165b94e91bfa76d4c"
],
"DefaultContext_v35" : [
"f4ff41f165b94e91bfa76d4c"
],
"DefaultContext_v36" : [
"f4ff41f165b94e91bfa76d4c"
],
"DefaultContext_v37" : [
"f4ff41f165b94e91bfa76d4c"
],
"DefaultContext_v38" : [
"f4ff41f165b94e91bfa76d4c"
],
"DefaultContext_v39" : [
"f4ff41f165b94e91bfa76d4c"
],
"DefaultContext_v40" : [
"f4ff41f165b94e91bfa76d4c"
],
"DefaultContext_v41" : [
"f4ff41f165b94e91bfa76d4c"
],
"DefaultContext_v42" : [
"f4ff41f165b94e91bfa76d4c"
],
"DefaultContext_v43" : [
"f4ff41f165b94e91bfa76d4c"
],
"DefaultContext_v44" : [
"f4ff41f165b94e91bfa76d4c"
],
"DefaultContext_v45" : [
"f4ff41f165b94e91bfa76d4c"
],
"DefaultContext_v46" : [
"f4ff41f165b94e91bfa76d4c"
],
"DefaultContext_v47" : [
"f4ff41f165b94e91bfa76d4c"
],
"DefaultContext_v48" : [
"f4ff41f165b94e91bfa76d4c"
],
"DefaultContext_v49" : [
"dc607dcc10b8455d91817b88"
],
"DefaultContext_v50" : [
"dc607dcc10b8455d91817b88"
],
"DefaultContext_v51" : [
"dc607dcc10b8455d91817b88"
],
"DefaultContext_v52" : [
"dc607dcc10b8455d91817b88"
],
"DefaultContext_v53" : [
"dc607dcc10b8455d91817b88"
],
"DefaultContext_v54" : [
"2493236f798f46738095d879"
],
"DefaultContext_v55" : [
"c602eef25e5a43e9a7bb2b48"
],
"DefaultContext_v56" : [
"9f1184f064c94cb6932111ca"
],
"DefaultContext_v57" : [
"9f1184f064c94cb6932111ca"
],
"DefaultContext_v58" : [
"9f1184f064c94cb6932111ca"
],
"DefaultContext_v59" : [
"9f1184f064c94cb6932111ca"
],
"DefaultContext_v60" : [
"9f1184f064c94cb6932111ca"
],
"DefaultContext_v61" : [
"88f4df5077a64c629793852a"
],
"DefaultContext_v62" : [
"d49004354c204e86a9d81ca2"
],
"DefaultContext_v63" : [
"8d3361401f18464b9959b68e"
],
"DefaultContext_v64" : [
"577dafb0d7ab440eaadb350d"
],
"DefaultContext_v65" : [
"98f4b294cb2243848783fc9f"
],
"DefaultContext_v66" : [
"a81d1cc7e85744399cd933c1"
],
"DefaultContext_v67" : [
"47317f4d3fdc454989b97ee4"
],
"DefaultContext_v68" : [
"47317f4d3fdc454989b97ee4"
],
"DefaultContext_v69" : [
"47317f4d3fdc454989b97ee4"
],
"DefaultContext_v70" : [
"9d7e8d6f6ae34c19b27e23c3"
],
"DefaultContext_v71" : [
"9d7e8d6f6ae34c19b27e23c3"
],
"DefaultContext_v72" : [
"9d7e8d6f6ae34c19b27e23c3"
],
"DefaultContext_v73" : [
"47317f4d3fdc454989b97ee4"
],
"DefaultContext_v74" : [
"47317f4d3fdc454989b97ee4"
],
"DefaultContext_v75" : [
"47317f4d3fdc454989b97ee4"
]
},
"entities.name" : {
"OTSROOT" : [
"00a046a4eb05486ea69245f1",
"2493236f798f46738095d879",
"47317f4d3fdc454989b97ee4",
"577dafb0d7ab440eaadb350d",
"61d48dcccfad449c88db90cb",
"7478a6e63a9c4b829f88a838",
"88f4df5077a64c629793852a",
"8d3361401f18464b9959b68e",
"98f4b294cb2243848783fc9f",
"9d7e8d6f6ae34c19b27e23c3",
"9f1184f064c94cb6932111ca",
"a64b873bf6424006a01f4d64",
"a81d1cc7e85744399cd933c1",
"c602eef25e5a43e9a7bb2b48",
"d190c81c7ee14534aedbda40",
"d49004354c204e86a9d81ca2",
"dc607dcc10b8455d91817b88",
"f4ff41f165b94e91bfa76d4c"
]
},
"aliases.active.name" : {

},
"runs.name" : {

},
"configurations.assigned" : {
"notprovided" : [
"2018-09-06T17:34:14.848-0500",
"2018-09-10T09:24:23.557-0500",
"2019-10-22T14:54:11.089-0500",
"2020-06-29T10:57:11.490-0500",
"2020-10-09T12:57:05.383-0500",
"2020-10-09T15:32:57.138-0500",
"2022-04-18T12:55:47.567-0400",
"2023-01-23T15:11:55.888-0600",
"2023-01-30T13:43:38.538-0600",
"2023-02-13T14:10:06.152-0600",
"2023-02-16T12:28:59.940-0600",
"2023-02-16T14:02:58.423-0600",
"2023-02-16T14:04:37.561-0600",
"2023-02-16T14:42:24.715-0600",
"2023-02-16T14:49:44.677-0600",
"2023-02-16T14:53:09.533-0600",
"2023-02-16T14:55:40.248-0600",
"2023-02-17T09:06:38.945-0600"
],
"DefaultContext_v1" : [
"2018-09-06T17:34:15.308-0500"
],
"DefaultContext_v2" : [
"2018-09-10T09:24:23.972-0500"
],
"DefaultContext_v3" : [
"2018-09-11T10:00:20.307-0500"
],
"DefaultContext_v4" : [
"2019-10-22T14:55:21.165-0500"
],
"DefaultContext_v5" : [
"2020-06-29T11:00:05.148-0500"
],
"DefaultContext_v6" : [
"2020-07-29T16:01:22.240-0500"
],
"DefaultContext_v7" : [
"2020-07-29T16:34:42.591-0500"
],
"DefaultContext_v8" : [
"2020-07-29T16:39:53.436-0500"
],
"DefaultContext_v9" : [
"2020-07-29T16:40:44.052-0500"
],
"DefaultContext_v10" : [
"2020-07-29T16:45:01.342-0500"
],
"DefaultContext_v11" : [
"2020-07-29T16:49:16.142-0500"
],
"DefaultContext_v12" : [
"2020-09-02T15:22:09.294-0500"
],
"DefaultContext_v13" : [
"2020-10-05T17:04:58.033-0500"
],
"DefaultContext_v14" : [
"2020-10-05T17:07:06.533-0500"
],
"DefaultContext_v15" : [
"2020-10-05T17:43:26.989-0500"
],
"DefaultContext_v16" : [
"2020-10-05T17:51:29.924-0500"
],
"DefaultContext_v17" : [
"2020-10-09T11:58:10.010-0500"
],
"DefaultContext_v18" : [
"2020-10-09T12:53:53.719-0500"
],
"DefaultContext_v19" : [
"2020-10-09T12:57:06.478-0500"
],
"DefaultContext_v20" : [
"2020-10-09T13:00:57.836-0500"
],
"DefaultContext_v21" : [
"2020-10-09T15:30:48.277-0500"
],
"DefaultContext_v22" : [
"2020-10-09T15:32:23.966-0500"
],
"DefaultContext_v23" : [
"2020-10-09T15:32:58.336-0500"
],
"DefaultContext_v24" : [
"2020-10-09T16:47:18.909-0500"
],
"DefaultContext_v25" : [
"2020-10-12T09:37:49.770-0500"
],
"DefaultContext_v26" : [
"2020-10-12T09:41:39.279-0500"
],
"DefaultContext_v27" : [
"2020-10-29T11:54:28.163-0500"
],
"DefaultContext_v28" : [
"2020-10-29T11:54:56.136-0500"
],
"DefaultContext_v29" : [
"2020-10-29T13:33:30.836-0500"
],
"DefaultContext_v30" : [
"2020-11-16T17:04:43.145-0600"
],
"DefaultContext_v31" : [
"2020-11-16T17:07:49.464-0600"
],
"DefaultContext_v32" : [
"2020-11-16T17:10:03.579-0600"
],
"DefaultContext_v33" : [
"2021-07-07T14:45:52.008-0500"
],
"DefaultContext_v34" : [
"2021-07-07T16:02:04.155-0500"
],
"DefaultContext_v35" : [
"2021-07-07T16:05:37.759-0500"
],
"DefaultContext_v36" : [
"2021-07-08T14:00:20.251-0500"
],
"DefaultContext_v37" : [
"2021-07-08T14:16:59.970-0500"
],
"DefaultContext_v38" : [
"2021-07-08T16:21:56.051-0500"
],
"DefaultContext_v39" : [
"2021-07-08T16:24:39.167-0500"
],
"DefaultContext_v40" : [
"2021-07-14T13:02:14.002-0500"
],
"DefaultContext_v41" : [
"2021-07-14T13:03:01.153-0500"
],
"DefaultContext_v42" : [
"2021-07-14T14:39:31.556-0500"
],
"DefaultContext_v43" : [
"2021-07-21T12:08:22.367-0500"
],
"DefaultContext_v44" : [
"2021-08-03T11:10:39.338-0500"
],
"DefaultContext_v45" : [
"2021-09-02T14:08:00.729-0500"
],
"DefaultContext_v46" : [
"2021-09-24T15:36:52.369-0500"
],
"DefaultContext_v47" : [
"2021-09-28T10:22:57.340-0500"
],
"DefaultContext_v48" : [
"2021-11-10T15:11:05.036-0600"
],
"DefaultContext_v49" : [
"2022-04-18T12:56:04.130-0400"
],
"DefaultContext_v50" : [
"2022-04-20T10:06:52.042-0400"
],
"DefaultContext_v51" : [
"2023-01-19T10:05:01.229-0600"
],
"DefaultContext_v52" : [
"2023-01-19T11:02:47.867-0600"
],
"DefaultContext_v53" : [
"2023-01-19T12:09:17.703-0600"
],
"DefaultContext_v54" : [
"2023-01-23T15:11:57.876-0600"
],
"DefaultContext_v55" : [
"2023-01-30T13:43:40.513-0600"
],
"DefaultContext_v56" : [
"2023-02-13T14:11:45.553-0600"
],
"DefaultContext_v57" : [
"2023-02-13T14:13:00.079-0600"
],
"DefaultContext_v58" : [
"2023-02-13T14:20:59.254-0600"
],
"DefaultContext_v59" : [
"2023-02-13T14:33:43.202-0600"
],
"DefaultContext_v60" : [
"2023-02-13T14:58:14.392-0600"
],
"DefaultContext_v61" : [
"2023-02-16T12:29:01.997-0600"
],
"DefaultContext_v62" : [
"2023-02-16T14:03:00.434-0600"
],
"DefaultContext_v63" : [
"2023-02-16T14:04:39.603-0600"
],
"DefaultContext_v64" : [
"2023-02-16T14:42:26.686-0600"
],
"DefaultContext_v65" : [
"2023-02-16T14:49:46.753-0600"
],
"DefaultContext_v66" : [
"2023-02-16T14:53:11.481-0600"
],
"DefaultContext_v67" : [
"2023-02-16T14:55:43.092-0600"
],
"DefaultContext_v68" : [
"2023-02-17T08:58:42.168-0600"
],
"DefaultContext_v69" : [
"2023-02-17T09:04:53.926-0600"
],
"DefaultContext_v70" : [
"2023-02-17T09:06:40.975-0600"
],
"DefaultContext_v71" : [
"2023-02-17T09:07:47.799-0600"
],
"DefaultContext_v72" : [
"2023-02-23T08:41:50.006-0600"
],
"DefaultContext_v73" : [
"2023-02-28T13:19:23.766-0600"
],
"DefaultContext_v74" : [
"2023-02-28T13:20:44.654-0600"
],
"DefaultContext_v75" : [
"2023-03-01T10:10:36.903-0600"
]
}
}