{
"document" : {
"data" : {
"NAME" : "BURNIN_BOX_CYCLE_TABLE",
"COMMENT" : "No comment.",
"AUTHOR" : "admin",
"CREATION_TIME" : 1634312908,
"COL_TYPES" : {
"BURNIN_BOX_CYCLE_GROUP_ID" : "STRING",
"TARGET_ID" : "STRING",
"IN_USE" : "STRING",
"SEQUENCE" : "NUMBER",
"TEMPERATURE" : "NUMBER",
"TIME_AT_TARGET" : "NUMBER",
"COMMENT_DESCRIPTION" : "STRING",
"AUTHOR" : "STRING",
"RECORD_INSERTION_TIME" : "TIMESTAMP WITH TIMEZONE"
},
"DATA_SET" : [
{
"BURNIN_BOX_CYCLE_GROUP_ID" : "ModuleTestingCycle",
"TARGET_ID" : "LowTemperature",
"IN_USE" : "Yes",
"SEQUENCE" : "1",
"TEMPERATURE" : "30",
"TIME_AT_TARGET" : "1200",
"COMMENT_DESCRIPTION" : "No Comment",
"AUTHOR" : "admin",
"RECORD_INSERTION_TIME" : "1634312908"
},
{
"BURNIN_BOX_CYCLE_GROUP_ID" : "ModuleTestingCycle",
"TARGET_ID" : "HighTemperature",
"IN_USE" : "Yes",
"SEQUENCE" : "2",
"TEMPERATURE" : "20",
"TIME_AT_TARGET" : "1800",
"COMMENT_DESCRIPTION" : "No Comment",
"AUTHOR" : "admin",
"RECORD_INSERTION_TIME" : "1630608211"
},
{
"BURNIN_BOX_CYCLE_GROUP_ID" : "ModuleTestingCycle",
"TARGET_ID" : "StopTemperature",
"IN_USE" : "Yes",
"SEQUENCE" : "3",
"TEMPERATURE" : "20",
"TIME_AT_TARGET" : "0",
"COMMENT_DESCRIPTION" : "No Comment",
"AUTHOR" : "admin",
"RECORD_INSERTION_TIME" : "1603731101"
}
]
},
"metadata" : {

},
"search" : [

]
},
"comments" : [

],
"origin" : {
"source" : "template",
"name" : "notprovided",
"format" : "json",
"created" : "2021-10-15T10:48:28.512-0500",
"rawdata" : [

]
},
"version" : "34",
"entities" : [
{
"name" : "OTSROOT",
"assigned" : "2021-10-15T10:48:28.513-0500"
}
],
"configurations" : [
{
"name" : "notprovided",
"assigned" : "2021-10-15T10:48:28.512-0500"
},
{
"name" : "BurninBoxConfiguration_v91",
"assigned" : "2021-10-15T10:48:30.463-0500"
}
],
"changelog" : "notprovided",
"bookkeeping" : {
"isdeleted" : false,
"isreadonly" : false,
"updates" : [
{
"event" : "addConfiguration",
"timestamp" : "2021-10-15T10:48:28.512-0500",
"value" : {
"name" : "notprovided",
"assigned" : "2021-10-15T10:48:28.512-0500"
}
},
{
"event" : "setVersion",
"timestamp" : "2021-10-15T10:48:28.513-0500",
"value" : {
"name" : "34",
"assigned" : "2021-10-15T10:48:28.513-0500"
}
},
{
"event" : "setCollection",
"timestamp" : "2021-10-15T10:48:28.513-0500",
"value" : {
"name" : "BurninBoxCycleTable",
"assigned" : "2021-10-15T10:48:28.513-0500"
}
},
{
"event" : "addEntity",
"timestamp" : "2021-10-15T10:48:28.513-0500",
"value" : {
"name" : "OTSROOT",
"assigned" : "2021-10-15T10:48:28.513-0500"
}
},
{
"event" : "addConfiguration",
"timestamp" : "2021-10-15T10:48:30.463-0500",
"value" : {
"name" : "BurninBoxConfiguration_v91",
"assigned" : "2021-10-15T10:48:30.463-0500"
}
}
],
"created" : "2021-10-15T10:48:28.512-0500"
},
"_id" : {
"$oid" : "592f803a0eed44d4a496f126"
},
"collection" : "BurninBoxCycleTable",
"aliases" : {
"active" : [

],
"history" : [

]
},
"runs" : [

],
"attachments" : [

],
"configtype" : "notprovided"
}