{
"ouid" : [
"01c24654bc0740518a66fca4",
"877d824c02544fd3b82e4128",
"ae7333fd794044748a32c7f4",
"cdf5960664e642f2b7c39ce9"
],
"version" : {
"0" : [
"877d824c02544fd3b82e4128"
],
"1" : [
"cdf5960664e642f2b7c39ce9"
],
"2" : [
"01c24654bc0740518a66fca4"
],
"3" : [
"ae7333fd794044748a32c7f4"
]
},
"configurations.name" : {
"notprovided" : [
"01c24654bc0740518a66fca4",
"877d824c02544fd3b82e4128",
"ae7333fd794044748a32c7f4",
"cdf5960664e642f2b7c39ce9"
],
"BurninBoxConfig_v0" : [
"877d824c02544fd3b82e4128"
],
"BurninBoxConfig_v1" : [
"877d824c02544fd3b82e4128"
],
"BurninBoxConfig_v2" : [
"877d824c02544fd3b82e4128"
],
"BurninBoxConfig_v3" : [
"877d824c02544fd3b82e4128"
],
"BurninBoxConfig_v4" : [
"cdf5960664e642f2b7c39ce9"
],
"BurninBoxConfig_v5" : [
"01c24654bc0740518a66fca4"
],
"BurninBoxConfig_v6" : [
"01c24654bc0740518a66fca4"
],
"BurninBoxConfig_v7" : [
"01c24654bc0740518a66fca4"
],
"BurninBoxConfig_v8" : [
"01c24654bc0740518a66fca4"
],
"BurninBoxConfig_v9" : [
"01c24654bc0740518a66fca4"
],
"BurninBoxConfig_v10" : [
"01c24654bc0740518a66fca4"
],
"BurninBoxConfig_v11" : [
"01c24654bc0740518a66fca4"
],
"BurninBoxConfig_v12" : [
"01c24654bc0740518a66fca4"
],
"BurninBoxConfig_v13" : [
"01c24654bc0740518a66fca4"
],
"BurninBoxConfig_v14" : [
"01c24654bc0740518a66fca4"
],
"BurninBoxConfig_v15" : [
"01c24654bc0740518a66fca4"
],
"BurninBoxConfig_v16" : [
"01c24654bc0740518a66fca4"
],
"BurninBoxConfig_v17" : [
"01c24654bc0740518a66fca4"
],
"BurninBoxConfig_v18" : [
"01c24654bc0740518a66fca4"
],
"BurninBoxConfig_v19" : [
"01c24654bc0740518a66fca4"
],
"BurninBoxConfig_v20" : [
"01c24654bc0740518a66fca4"
],
"BurninBoxConfig_v21" : [
"01c24654bc0740518a66fca4"
],
"BurninBoxConfig_v22" : [
"01c24654bc0740518a66fca4"
],
"BurninBoxConfig_v23" : [
"ae7333fd794044748a32c7f4"
],
"BurninBoxConfig_v24" : [
"ae7333fd794044748a32c7f4"
],
"BurninBoxConfig_v25" : [
"ae7333fd794044748a32c7f4"
],
"BurninBoxConfig_v26" : [
"ae7333fd794044748a32c7f4"
],
"BurninBoxConfig_v27" : [
"ae7333fd794044748a32c7f4"
],
"BurninBoxConfig_v28" : [
"ae7333fd794044748a32c7f4"
],
"BurninBoxConfig_v29" : [
"ae7333fd794044748a32c7f4"
],
"BurninBoxConfig_v30" : [
"ae7333fd794044748a32c7f4"
],
"BurninBoxConfig_v31" : [
"ae7333fd794044748a32c7f4"
],
"BurninBoxConfig_v32" : [
"ae7333fd794044748a32c7f4"
],
"BurninBoxConfig_v33" : [
"ae7333fd794044748a32c7f4"
],
"BurninBoxConfig_v34" : [
"ae7333fd794044748a32c7f4"
],
"BurninBoxConfig_v35" : [
"ae7333fd794044748a32c7f4"
],
"BurninBoxConfig_v36" : [
"ae7333fd794044748a32c7f4"
],
"BurninBoxConfiguration_v0" : [
"ae7333fd794044748a32c7f4"
],
"BurninBoxConfiguration_v1" : [
"ae7333fd794044748a32c7f4"
],
"BurninBoxConfiguration_v2" : [
"ae7333fd794044748a32c7f4"
],
"BurninBoxConfiguration_v5" : [
"ae7333fd794044748a32c7f4"
],
"BurninBoxConfiguration_v6" : [
"ae7333fd794044748a32c7f4"
],
"BurninBoxConfiguration_v7" : [
"ae7333fd794044748a32c7f4"
],
"BurninBoxConfiguration_v8" : [
"ae7333fd794044748a32c7f4"
],
"BurninBoxConfiguration_v9" : [
"ae7333fd794044748a32c7f4"
],
"BurninBoxConfiguration_v10" : [
"ae7333fd794044748a32c7f4"
],
"BurninBoxConfiguration_v11" : [
"ae7333fd794044748a32c7f4"
],
"BurninBoxConfiguration_v12" : [
"ae7333fd794044748a32c7f4"
],
"BurninBoxConfiguration_v13" : [
"ae7333fd794044748a32c7f4"
],
"BurninBoxConfiguration_v14" : [
"ae7333fd794044748a32c7f4"
],
"BurninBoxConfiguration_v15" : [
"ae7333fd794044748a32c7f4"
],
"BurninBoxConfiguration_v16" : [
"ae7333fd794044748a32c7f4"
],
"BurninBoxConfiguration_v17" : [
"ae7333fd794044748a32c7f4"
],
"BurninBoxConfiguration_v18" : [
"ae7333fd794044748a32c7f4"
],
"BurninBoxConfiguration_v19" : [
"ae7333fd794044748a32c7f4"
],
"BurninBoxConfiguration_v20" : [
"ae7333fd794044748a32c7f4"
],
"BurninBoxConfiguration_v21" : [
"ae7333fd794044748a32c7f4"
],
"BurninBoxConfiguration_v22" : [
"ae7333fd794044748a32c7f4"
],
"BurninBoxConfiguration_v23" : [
"ae7333fd794044748a32c7f4"
],
"BurninBoxConfiguration_v24" : [
"ae7333fd794044748a32c7f4"
],
"BurninBoxConfiguration_v25" : [
"ae7333fd794044748a32c7f4"
],
"BurninBoxConfiguration_v26" : [
"ae7333fd794044748a32c7f4"
],
"BurninBoxConfiguration_v27" : [
"ae7333fd794044748a32c7f4"
],
"BurninBoxConfiguration_v28" : [
"ae7333fd794044748a32c7f4"
],
"BurninBoxConfiguration_v29" : [
"ae7333fd794044748a32c7f4"
],
"BurninBoxConfiguration_v30" : [
"ae7333fd794044748a32c7f4"
],
"BurninBoxConfiguration_v31" : [
"ae7333fd794044748a32c7f4"
],
"BurninBoxConfiguration_v32" : [
"ae7333fd794044748a32c7f4"
],
"BurninBoxConfiguration_v33" : [
"ae7333fd794044748a32c7f4"
],
"BurninBoxConfiguration_v34" : [
"ae7333fd794044748a32c7f4"
],
"BurninBoxConfiguration_v35" : [
"ae7333fd794044748a32c7f4"
],
"BurninBoxConfiguration_v36" : [
"ae7333fd794044748a32c7f4"
],
"BurninBoxConfiguration_v37" : [
"ae7333fd794044748a32c7f4"
],
"BurninBoxConfiguration_v38" : [
"ae7333fd794044748a32c7f4"
],
"BurninBoxConfiguration_v39" : [
"ae7333fd794044748a32c7f4"
],
"BurninBoxConfiguration_v40" : [
"ae7333fd794044748a32c7f4"
],
"BurninBoxConfiguration_v41" : [
"ae7333fd794044748a32c7f4"
],
"BurninBoxConfiguration_v42" : [
"ae7333fd794044748a32c7f4"
],
"BurninBoxConfiguration_v43" : [
"ae7333fd794044748a32c7f4"
],
"BurninBoxConfiguration_v44" : [
"ae7333fd794044748a32c7f4"
],
"BurninBoxConfiguration_v45" : [
"ae7333fd794044748a32c7f4"
],
"BurninBoxConfiguration_v46" : [
"ae7333fd794044748a32c7f4"
],
"BurninBoxConfiguration_v47" : [
"ae7333fd794044748a32c7f4"
],
"BurninBoxConfiguration_v48" : [
"ae7333fd794044748a32c7f4"
],
"BurninBoxConfiguration_v49" : [
"ae7333fd794044748a32c7f4"
],
"BurninBoxConfiguration_v50" : [
"ae7333fd794044748a32c7f4"
],
"BurninBoxConfiguration_v51" : [
"ae7333fd794044748a32c7f4"
],
"BurninBoxConfiguration_v52" : [
"ae7333fd794044748a32c7f4"
],
"BurninBoxConfiguration_v53" : [
"ae7333fd794044748a32c7f4"
],
"BurninBoxConfiguration_v54" : [
"ae7333fd794044748a32c7f4"
],
"BurninBoxConfiguration_v55" : [
"ae7333fd794044748a32c7f4"
],
"BurninBoxConfiguration_v56" : [
"ae7333fd794044748a32c7f4"
],
"BurninBoxConfiguration_v57" : [
"ae7333fd794044748a32c7f4"
],
"BurninBoxConfiguration_v58" : [
"ae7333fd794044748a32c7f4"
],
"BurninBoxConfiguration_v59" : [
"ae7333fd794044748a32c7f4"
],
"BurninBoxConfiguration_v60" : [
"ae7333fd794044748a32c7f4"
],
"BurninBoxConfiguration_v61" : [
"ae7333fd794044748a32c7f4"
],
"BurninBoxConfiguration_v62" : [
"ae7333fd794044748a32c7f4"
],
"BurninBoxConfiguration_v63" : [
"ae7333fd794044748a32c7f4"
],
"BurninBoxConfiguration_v64" : [
"ae7333fd794044748a32c7f4"
],
"BurninBoxConfiguration_v65" : [
"ae7333fd794044748a32c7f4"
],
"BurninBoxConfiguration_v66" : [
"ae7333fd794044748a32c7f4"
],
"BurninBoxConfiguration_v67" : [
"ae7333fd794044748a32c7f4"
],
"BurninBoxConfiguration_v68" : [
"ae7333fd794044748a32c7f4"
],
"BurninBoxConfiguration_v69" : [
"ae7333fd794044748a32c7f4"
],
"BurninBoxConfiguration_v70" : [
"ae7333fd794044748a32c7f4"
],
"BurninBoxConfiguration_v71" : [
"ae7333fd794044748a32c7f4"
],
"BurninBoxConfiguration_v72" : [
"ae7333fd794044748a32c7f4"
],
"BurninBoxConfiguration_v73" : [
"ae7333fd794044748a32c7f4"
],
"BurninBoxConfiguration_v74" : [
"ae7333fd794044748a32c7f4"
],
"BurninBoxConfiguration_v75" : [
"ae7333fd794044748a32c7f4"
],
"BurninBoxConfiguration_v76" : [
"ae7333fd794044748a32c7f4"
],
"BurninBoxConfiguration_v77" : [
"ae7333fd794044748a32c7f4"
],
"BurninBoxConfiguration_v78" : [
"ae7333fd794044748a32c7f4"
],
"BurninBoxConfiguration_v79" : [
"ae7333fd794044748a32c7f4"
],
"BurninBoxConfiguration_v80" : [
"ae7333fd794044748a32c7f4"
],
"BurninBoxConfiguration_v81" : [
"ae7333fd794044748a32c7f4"
],
"BurninBoxConfiguration_v82" : [
"ae7333fd794044748a32c7f4"
],
"BurninBoxConfiguration_v83" : [
"ae7333fd794044748a32c7f4"
],
"BurninBoxConfiguration_v84" : [
"ae7333fd794044748a32c7f4"
],
"BurninBoxConfiguration_v85" : [
"ae7333fd794044748a32c7f4"
],
"BurninBoxConfiguration_v86" : [
"ae7333fd794044748a32c7f4"
],
"BurninBoxConfiguration_v87" : [
"ae7333fd794044748a32c7f4"
],
"BurninBoxConfiguration_v88" : [
"ae7333fd794044748a32c7f4"
],
"BurninBoxConfiguration_v89" : [
"ae7333fd794044748a32c7f4"
],
"BurninBoxConfiguration_v90" : [
"ae7333fd794044748a32c7f4"
],
"BurninBoxConfiguration_v91" : [
"ae7333fd794044748a32c7f4"
],
"BurninBoxConfiguration_v92" : [
"ae7333fd794044748a32c7f4"
],
"BurninBoxConfiguration_v93" : [
"ae7333fd794044748a32c7f4"
],
"BurninBoxConfiguration_v94" : [
"ae7333fd794044748a32c7f4"
],
"BurninBoxConfiguration_v95" : [
"ae7333fd794044748a32c7f4"
],
"BurninBoxConfiguration_v96" : [
"ae7333fd794044748a32c7f4"
],
"BurninBoxConfiguration_v97" : [
"ae7333fd794044748a32c7f4"
],
"BurninBoxConfiguration_v98" : [
"ae7333fd794044748a32c7f4"
],
"BurninBoxConfiguration_v99" : [
"ae7333fd794044748a32c7f4"
],
"BurninBoxConfiguration_v100" : [
"ae7333fd794044748a32c7f4"
],
"BurninBoxConfiguration_v101" : [
"ae7333fd794044748a32c7f4"
],
"BurninBoxConfiguration_v102" : [
"ae7333fd794044748a32c7f4"
]
},
"entities.name" : {
"OTSROOT" : [
"01c24654bc0740518a66fca4",
"877d824c02544fd3b82e4128",
"ae7333fd794044748a32c7f4",
"cdf5960664e642f2b7c39ce9"
]
},
"aliases.active.name" : {

},
"runs.name" : {

},
"configurations.assigned" : {
"notprovided" : [
"2018-09-06T17:34:14.251-0500",
"2018-09-11T09:59:16.425-0500",
"2018-09-11T10:11:14.368-0500",
"2019-02-28T13:57:08.285-0600"
],
"BurninBoxConfig_v0" : [
"2018-09-06T17:34:14.737-0500"
],
"BurninBoxConfig_v1" : [
"2018-09-10T10:45:51.311-0500"
],
"BurninBoxConfig_v2" : [
"2018-09-10T11:24:18.726-0500"
],
"BurninBoxConfig_v3" : [
"2018-09-11T09:59:56.341-0500"
],
"BurninBoxConfig_v4" : [
"2018-09-11T10:01:19.428-0500"
],
"BurninBoxConfig_v5" : [
"2018-09-11T10:11:16.038-0500"
],
"BurninBoxConfig_v6" : [
"2018-09-12T12:16:43.786-0500"
],
"BurninBoxConfig_v7" : [
"2018-09-17T11:12:09.448-0500"
],
"BurninBoxConfig_v8" : [
"2018-09-17T13:53:33.471-0500"
],
"BurninBoxConfig_v9" : [
"2018-09-17T14:03:58.137-0500"
],
"BurninBoxConfig_v10" : [
"2018-09-18T15:31:02.488-0500"
],
"BurninBoxConfig_v11" : [
"2018-09-19T09:27:02.216-0500"
],
"BurninBoxConfig_v12" : [
"2018-09-19T10:08:02.120-0500"
],
"BurninBoxConfig_v13" : [
"2018-09-19T10:23:22.051-0500"
],
"BurninBoxConfig_v14" : [
"2018-09-19T11:22:21.442-0500"
],
"BurninBoxConfig_v15" : [
"2018-09-19T12:26:55.292-0500"
],
"BurninBoxConfig_v16" : [
"2018-09-20T14:22:27.331-0500"
],
"BurninBoxConfig_v17" : [
"2018-09-20T15:42:03.146-0500"
],
"BurninBoxConfig_v18" : [
"2018-09-21T11:16:29.219-0500"
],
"BurninBoxConfig_v19" : [
"2018-09-21T13:39:25.369-0500"
],
"BurninBoxConfig_v20" : [
"2018-09-21T13:39:49.294-0500"
],
"BurninBoxConfig_v21" : [
"2019-02-28T12:04:25.789-0600"
],
"BurninBoxConfig_v22" : [
"2019-02-28T12:05:08.226-0600"
],
"BurninBoxConfig_v23" : [
"2019-02-28T13:57:09.830-0600"
],
"BurninBoxConfig_v24" : [
"2019-07-19T15:24:16.032-0500"
],
"BurninBoxConfig_v25" : [
"2019-07-19T15:25:11.042-0500"
],
"BurninBoxConfig_v26" : [
"2019-07-24T14:34:10.546-0500"
],
"BurninBoxConfig_v27" : [
"2019-07-24T14:47:23.781-0500"
],
"BurninBoxConfig_v28" : [
"2019-07-24T14:48:41.267-0500"
],
"BurninBoxConfig_v29" : [
"2020-06-29T10:55:10.795-0500"
],
"BurninBoxConfig_v30" : [
"2020-06-29T11:05:40.059-0500"
],
"BurninBoxConfig_v31" : [
"2020-06-29T11:28:21.750-0500"
],
"BurninBoxConfig_v32" : [
"2020-07-24T10:58:17.993-0500"
],
"BurninBoxConfig_v33" : [
"2020-07-24T11:00:07.637-0500"
],
"BurninBoxConfig_v34" : [
"2020-07-24T11:56:06.349-0500"
],
"BurninBoxConfig_v35" : [
"2020-07-24T12:12:09.365-0500"
],
"BurninBoxConfig_v36" : [
"2020-07-24T12:16:35.868-0500"
],
"BurninBoxConfiguration_v0" : [
"2020-07-29T15:59:40.909-0500"
],
"BurninBoxConfiguration_v1" : [
"2020-07-30T11:42:27.543-0500"
],
"BurninBoxConfiguration_v2" : [
"2020-07-30T12:05:12.933-0500"
],
"BurninBoxConfiguration_v5" : [
"2020-09-02T15:08:51.460-0500"
],
"BurninBoxConfiguration_v6" : [
"2020-09-02T16:01:06.184-0500"
],
"BurninBoxConfiguration_v7" : [
"2020-09-02T16:05:19.596-0500"
],
"BurninBoxConfiguration_v8" : [
"2020-10-05T17:05:55.704-0500"
],
"BurninBoxConfiguration_v9" : [
"2020-10-05T17:09:48.747-0500"
],
"BurninBoxConfiguration_v10" : [
"2020-10-05T17:11:02.615-0500"
],
"BurninBoxConfiguration_v11" : [
"2020-10-05T17:39:04.255-0500"
],
"BurninBoxConfiguration_v12" : [
"2020-10-05T17:43:06.492-0500"
],
"BurninBoxConfiguration_v13" : [
"2020-10-09T14:43:40.427-0500"
],
"BurninBoxConfiguration_v14" : [
"2020-10-09T15:30:47.034-0500"
],
"BurninBoxConfiguration_v15" : [
"2020-10-12T10:14:43.925-0500"
],
"BurninBoxConfiguration_v16" : [
"2020-10-12T15:33:09.516-0500"
],
"BurninBoxConfiguration_v17" : [
"2020-10-19T16:16:03.086-0500"
],
"BurninBoxConfiguration_v18" : [
"2020-10-23T11:00:20.916-0500"
],
"BurninBoxConfiguration_v19" : [
"2020-10-26T11:51:21.920-0500"
],
"BurninBoxConfiguration_v20" : [
"2020-10-26T11:51:43.613-0500"
],
"BurninBoxConfiguration_v21" : [
"2020-10-26T11:56:43.020-0500"
],
"BurninBoxConfiguration_v22" : [
"2020-10-26T14:34:34.976-0500"
],
"BurninBoxConfiguration_v23" : [
"2020-10-26T14:53:01.880-0500"
],
"BurninBoxConfiguration_v24" : [
"2020-10-26T15:02:47.157-0500"
],
"BurninBoxConfiguration_v25" : [
"2020-10-27T17:42:10.943-0500"
],
"BurninBoxConfiguration_v26" : [
"2020-10-29T11:52:33.182-0500"
],
"BurninBoxConfiguration_v27" : [
"2020-10-29T11:54:26.916-0500"
],
"BurninBoxConfiguration_v28" : [
"2020-10-29T13:30:24.864-0500"
],
"BurninBoxConfiguration_v29" : [
"2020-10-29T13:45:56.251-0500"
],
"BurninBoxConfiguration_v30" : [
"2020-10-29T13:46:38.538-0500"
],
"BurninBoxConfiguration_v31" : [
"2020-10-29T13:48:03.165-0500"
],
"BurninBoxConfiguration_v32" : [
"2020-10-29T14:39:29.259-0500"
],
"BurninBoxConfiguration_v33" : [
"2021-06-30T16:17:52.204-0500"
],
"BurninBoxConfiguration_v34" : [
"2021-06-30T16:23:48.609-0500"
],
"BurninBoxConfiguration_v35" : [
"2021-07-08T14:06:14.452-0500"
],
"BurninBoxConfiguration_v36" : [
"2021-07-08T14:16:58.693-0500"
],
"BurninBoxConfiguration_v37" : [
"2021-07-08T16:20:45.244-0500"
],
"BurninBoxConfiguration_v38" : [
"2021-07-09T11:47:14.419-0500"
],
"BurninBoxConfiguration_v39" : [
"2021-07-09T11:48:46.515-0500"
],
"BurninBoxConfiguration_v40" : [
"2021-07-09T16:06:01.010-0500"
],
"BurninBoxConfiguration_v41" : [
"2021-07-12T11:04:55.979-0500"
],
"BurninBoxConfiguration_v42" : [
"2021-07-13T12:01:31.871-0500"
],
"BurninBoxConfiguration_v43" : [
"2021-07-13T12:22:06.360-0500"
],
"BurninBoxConfiguration_v44" : [
"2021-07-14T13:05:58.953-0500"
],
"BurninBoxConfiguration_v45" : [
"2021-07-14T14:26:05.162-0500"
],
"BurninBoxConfiguration_v46" : [
"2021-07-14T14:46:57.448-0500"
],
"BurninBoxConfiguration_v47" : [
"2021-07-14T15:24:34.329-0500"
],
"BurninBoxConfiguration_v48" : [
"2021-07-14T16:05:29.926-0500"
],
"BurninBoxConfiguration_v49" : [
"2021-07-14T16:15:41.625-0500"
],
"BurninBoxConfiguration_v50" : [
"2021-07-14T16:17:41.273-0500"
],
"BurninBoxConfiguration_v51" : [
"2021-07-15T11:50:34.352-0500"
],
"BurninBoxConfiguration_v52" : [
"2021-07-20T13:45:54.394-0500"
],
"BurninBoxConfiguration_v53" : [
"2021-07-20T16:41:42.673-0500"
],
"BurninBoxConfiguration_v54" : [
"2021-07-20T17:09:27.433-0500"
],
"BurninBoxConfiguration_v55" : [
"2021-07-20T17:28:40.604-0500"
],
"BurninBoxConfiguration_v56" : [
"2021-07-20T17:46:27.931-0500"
],
"BurninBoxConfiguration_v57" : [
"2021-07-21T11:50:02.413-0500"
],
"BurninBoxConfiguration_v58" : [
"2021-07-21T11:58:38.096-0500"
],
"BurninBoxConfiguration_v59" : [
"2021-07-21T11:59:33.907-0500"
],
"BurninBoxConfiguration_v60" : [
"2021-07-22T18:35:00.963-0500"
],
"BurninBoxConfiguration_v61" : [
"2021-07-23T12:33:57.230-0500"
],
"BurninBoxConfiguration_v62" : [
"2021-07-24T00:54:50.079-0500"
],
"BurninBoxConfiguration_v63" : [
"2021-07-24T12:12:51.625-0500"
],
"BurninBoxConfiguration_v64" : [
"2021-07-25T21:07:16.572-0500"
],
"BurninBoxConfiguration_v65" : [
"2021-07-26T07:43:12.465-0500"
],
"BurninBoxConfiguration_v66" : [
"2021-07-26T18:37:12.509-0500"
],
"BurninBoxConfiguration_v67" : [
"2021-07-27T08:25:41.262-0500"
],
"BurninBoxConfiguration_v68" : [
"2021-08-03T11:10:37.660-0500"
],
"BurninBoxConfiguration_v69" : [
"2021-08-04T12:21:58.095-0500"
],
"BurninBoxConfiguration_v70" : [
"2021-09-02T13:43:34.518-0500"
],
"BurninBoxConfiguration_v71" : [
"2021-09-02T14:03:37.374-0500"
],
"BurninBoxConfiguration_v72" : [
"2021-09-23T15:47:05.800-0500"
],
"BurninBoxConfiguration_v73" : [
"2021-09-23T15:47:42.729-0500"
],
"BurninBoxConfiguration_v74" : [
"2021-09-24T15:36:50.625-0500"
],
"BurninBoxConfiguration_v75" : [
"2021-09-24T15:53:23.637-0500"
],
"BurninBoxConfiguration_v76" : [
"2021-09-24T16:04:22.678-0500"
],
"BurninBoxConfiguration_v77" : [
"2021-09-24T16:28:07.443-0500"
],
"BurninBoxConfiguration_v78" : [
"2021-09-27T09:02:56.982-0500"
],
"BurninBoxConfiguration_v79" : [
"2021-09-27T14:22:25.260-0500"
],
"BurninBoxConfiguration_v80" : [
"2021-09-28T09:24:51.126-0500"
],
"BurninBoxConfiguration_v81" : [
"2021-09-30T09:14:51.489-0500"
],
"BurninBoxConfiguration_v82" : [
"2021-10-01T10:56:21.915-0500"
],
"BurninBoxConfiguration_v83" : [
"2021-10-01T11:01:41.560-0500"
],
"BurninBoxConfiguration_v84" : [
"2021-10-06T10:02:31.887-0500"
],
"BurninBoxConfiguration_v85" : [
"2021-10-07T16:32:41.009-0500"
],
"BurninBoxConfiguration_v86" : [
"2021-10-08T14:03:15.872-0500"
],
"BurninBoxConfiguration_v87" : [
"2021-10-11T16:00:56.889-0500"
],
"BurninBoxConfiguration_v88" : [
"2021-10-12T09:07:18.026-0500"
],
"BurninBoxConfiguration_v89" : [
"2021-10-12T11:11:23.734-0500"
],
"BurninBoxConfiguration_v90" : [
"2021-10-14T17:03:17.179-0500"
],
"BurninBoxConfiguration_v91" : [
"2021-10-15T10:48:31.864-0500"
],
"BurninBoxConfiguration_v92" : [
"2021-10-15T15:50:49.855-0500"
],
"BurninBoxConfiguration_v93" : [
"2021-11-03T16:30:20.662-0500"
],
"BurninBoxConfiguration_v94" : [
"2021-11-10T15:11:03.141-0600"
],
"BurninBoxConfiguration_v95" : [
"2022-04-19T14:35:56.940-0400"
],
"BurninBoxConfiguration_v96" : [
"2022-04-20T10:06:05.902-0400"
],
"BurninBoxConfiguration_v97" : [
"2022-04-20T11:23:52.632-0400"
],
"BurninBoxConfiguration_v98" : [
"2022-04-22T09:34:10.065-0400"
],
"BurninBoxConfiguration_v99" : [
"2022-07-19T15:18:24.390-0400"
],
"BurninBoxConfiguration_v100" : [
"2022-07-22T10:08:27.611-0400"
],
"BurninBoxConfiguration_v101" : [
"2022-07-25T10:59:58.357-0400"
],
"BurninBoxConfiguration_v102" : [
"2022-07-25T11:05:53.009-0400"
]
}
}