{
"document" : {
"data" : {
"NAME" : "GROUP_ALIASES_TABLE",
"COMMENT" : "Default Backbone.",
"AUTHOR" : "admin",
"CREATION_TIME" : 1551377108,
"COL_TYPES" : {
"GROUP_KEY_ALIAS" : "VARCHAR2",
"GROUP_NAME" : "VARCHAR2",
"GROUP_KEY" : "VARCHAR2",
"COMMENT_DESCRIPTION" : "VARCHAR2",
"AUTHOR" : "VARCHAR2",
"RECORD_INSERTION_TIME" : "TIMESTAMP WITH TIMEZONE"
},
"DATA_SET" : [
{
"GROUP_KEY_ALIAS" : "DefaultContext",
"GROUP_NAME" : "DefaultContext",
"GROUP_KEY" : "3",
"COMMENT_DESCRIPTION" : "This Group Alias was automatically setup by the server.",
"AUTHOR" : "admin",
"RECORD_INSERTION_TIME" : "1536678020"
},
{
"GROUP_KEY_ALIAS" : "BurninBoxConfig",
"GROUP_NAME" : "BurninBoxConfig",
"GROUP_KEY" : "22",
"COMMENT_DESCRIPTION" : "This Group Alias was automatically setup by the server.",
"AUTHOR" : "admin",
"RECORD_INSERTION_TIME" : "1551377108"
}
]
},
"metadata" : {

},
"search" : [

]
},
"comments" : [

],
"origin" : {
"source" : "template",
"name" : "notprovided",
"format" : "json",
"created" : "2019-02-28T12:05:08.449-0600",
"rawdata" : [

]
},
"version" : "27",
"entities" : [
{
"name" : "OTSROOT",
"assigned" : "2019-02-28T12:05:08.450-0600"
}
],
"tables" : [
{
"name" : "notprovided",
"assigned" : "2019-02-28T12:05:08.449-0600"
},
{
"name" : "GroupAliasTreeEditWizBackbone_v3",
"assigned" : "2019-02-28T12:05:08.885-0600"
}
],
"changelog" : "notprovided",
"bookkeeping" : {
"isdeleted" : false,
"isreadonly" : false,
"updates" : [
{
"event" : "addTable",
"timestamp" : "2019-02-28T12:05:08.449-0600",
"value" : {
"name" : "notprovided",
"assigned" : "2019-02-28T12:05:08.449-0600"
}
},
{
"event" : "setVersion",
"timestamp" : "2019-02-28T12:05:08.449-0600",
"value" : {
"name" : "27",
"assigned" : "2019-02-28T12:05:08.449-0600"
}
},
{
"event" : "setCollection",
"timestamp" : "2019-02-28T12:05:08.450-0600",
"value" : {
"name" : "GroupAliasesTable",
"assigned" : "2019-02-28T12:05:08.450-0600"
}
},
{
"event" : "addEntity",
"timestamp" : "2019-02-28T12:05:08.450-0600",
"value" : {
"name" : "OTSROOT",
"assigned" : "2019-02-28T12:05:08.450-0600"
}
},
{
"event" : "addTable",
"timestamp" : "2019-02-28T12:05:08.885-0600",
"value" : {
"name" : "GroupAliasTreeEditWizBackbone_v3",
"assigned" : "2019-02-28T12:05:08.885-0600"
}
}
],
"created" : "2019-02-28T12:05:08.449-0600"
},
"_id" : {
"$oid" : "767650c5f2cc45e2b32730d2"
},
"collection" : "GroupAliasesTable",
"aliases" : {
"active" : [

],
"history" : [

]
},
"runs" : [

],
"attachments" : [

],
"configtype" : "notprovided"
}