{
"document" : {
"data" : {
"NAME" : "GROUP_ALIASES_TABLE",
"COMMENT" : "Default Backbone.",
"AUTHOR" : "admin",
"CREATION_TIME" : 1603990353,
"COL_TYPES" : {
"GROUP_KEY_ALIAS" : "STRING",
"GROUP_NAME" : "STRING",
"GROUP_KEY" : "STRING",
"COMMENT_DESCRIPTION" : "STRING",
"AUTHOR" : "STRING",
"RECORD_INSERTION_TIME" : "TIMESTAMP WITH TIMEZONE"
},
"DATA_SET" : [
{
"GROUP_KEY_ALIAS" : "DefaultContext",
"GROUP_NAME" : "DefaultContext",
"GROUP_KEY" : "21",
"COMMENT_DESCRIPTION" : "This Group Alias was automatically setup by the server.",
"AUTHOR" : "admin",
"RECORD_INSERTION_TIME" : "1603989558"
},
{
"GROUP_KEY_ALIAS" : "BurninBoxConfiguration",
"GROUP_NAME" : "BurninBoxConfiguration",
"GROUP_KEY" : "26",
"COMMENT_DESCRIPTION" : "This Group Alias was automatically setup by the server.",
"AUTHOR" : "admin",
"RECORD_INSERTION_TIME" : "1603990353"
}
]
},
"metadata" : {

},
"search" : [

]
},
"comments" : [

],
"origin" : {
"source" : "template",
"name" : "notprovided",
"format" : "json",
"created" : "2020-10-29T11:52:33.496-0500",
"rawdata" : [

]
},
"version" : "102",
"entities" : [
{
"name" : "OTSROOT",
"assigned" : "2020-10-29T11:52:33.496-0500"
}
],
"configurations" : [
{
"name" : "notprovided",
"assigned" : "2020-10-29T11:52:33.496-0500"
},
{
"name" : "TableEditWizBackbone_v67",
"assigned" : "2020-10-29T11:52:34.466-0500"
}
],
"changelog" : "notprovided",
"bookkeeping" : {
"isdeleted" : false,
"isreadonly" : false,
"updates" : [
{
"event" : "addConfiguration",
"timestamp" : "2020-10-29T11:52:33.496-0500",
"value" : {
"name" : "notprovided",
"assigned" : "2020-10-29T11:52:33.496-0500"
}
},
{
"event" : "setVersion",
"timestamp" : "2020-10-29T11:52:33.496-0500",
"value" : {
"name" : "102",
"assigned" : "2020-10-29T11:52:33.496-0500"
}
},
{
"event" : "setCollection",
"timestamp" : "2020-10-29T11:52:33.496-0500",
"value" : {
"name" : "GroupAliasesTable",
"assigned" : "2020-10-29T11:52:33.496-0500"
}
},
{
"event" : "addEntity",
"timestamp" : "2020-10-29T11:52:33.496-0500",
"value" : {
"name" : "OTSROOT",
"assigned" : "2020-10-29T11:52:33.496-0500"
}
},
{
"event" : "addConfiguration",
"timestamp" : "2020-10-29T11:52:34.466-0500",
"value" : {
"name" : "TableEditWizBackbone_v67",
"assigned" : "2020-10-29T11:52:34.466-0500"
}
}
],
"created" : "2020-10-29T11:52:33.496-0500"
},
"_id" : {
"$oid" : "97557bb2286a4d00beb1d41b"
},
"collection" : "GroupAliasesTable",
"aliases" : {
"active" : [

],
"history" : [

]
},
"runs" : [

],
"attachments" : [

],
"configtype" : "notprovided"
}