{
"document" : {
"data" : {
"NAME" : "GROUP_ALIASES_TABLE",
"COMMENT" : "Default Backbone.",
"AUTHOR" : "admin",
"CREATION_TIME" : 1563996850,
"COL_TYPES" : {
"GROUP_KEY_ALIAS" : "VARCHAR2",
"GROUP_NAME" : "VARCHAR2",
"GROUP_KEY" : "VARCHAR2",
"COMMENT_DESCRIPTION" : "VARCHAR2",
"AUTHOR" : "VARCHAR2",
"RECORD_INSERTION_TIME" : "TIMESTAMP WITH TIMEZONE"
},
"DATA_SET" : [
{
"GROUP_KEY_ALIAS" : "DefaultContext",
"GROUP_NAME" : "DefaultContext",
"GROUP_KEY" : "2",
"COMMENT_DESCRIPTION" : "This Group Alias was automatically setup by the server.",
"AUTHOR" : "admin",
"RECORD_INSERTION_TIME" : "1563392576"
},
{
"GROUP_KEY_ALIAS" : "BurninBoxConfig",
"GROUP_NAME" : "BurninBoxConfig",
"GROUP_KEY" : "26",
"COMMENT_DESCRIPTION" : "This Group Alias was automatically setup by the server.",
"AUTHOR" : "admin",
"RECORD_INSERTION_TIME" : "1563996850"
}
]
},
"metadata" : {

},
"search" : [

]
},
"comments" : [

],
"origin" : {
"source" : "template",
"name" : "notprovided",
"format" : "json",
"created" : "2019-07-24T14:34:10.791-0500",
"rawdata" : [

]
},
"version" : "32",
"entities" : [
{
"name" : "OTSROOT",
"assigned" : "2019-07-24T14:34:10.791-0500"
}
],
"configurations" : [
{
"name" : "notprovided",
"assigned" : "2019-07-24T14:34:10.791-0500"
},
{
"name" : "TableEditWizBackbone_v27",
"assigned" : "2019-07-24T14:34:11.487-0500"
}
],
"changelog" : "notprovided",
"bookkeeping" : {
"isdeleted" : false,
"isreadonly" : false,
"updates" : [
{
"event" : "addConfiguration",
"timestamp" : "2019-07-24T14:34:10.791-0500",
"value" : {
"name" : "notprovided",
"assigned" : "2019-07-24T14:34:10.791-0500"
}
},
{
"event" : "setVersion",
"timestamp" : "2019-07-24T14:34:10.791-0500",
"value" : {
"name" : "32",
"assigned" : "2019-07-24T14:34:10.791-0500"
}
},
{
"event" : "setCollection",
"timestamp" : "2019-07-24T14:34:10.791-0500",
"value" : {
"name" : "GroupAliasesTable",
"assigned" : "2019-07-24T14:34:10.791-0500"
}
},
{
"event" : "addEntity",
"timestamp" : "2019-07-24T14:34:10.791-0500",
"value" : {
"name" : "OTSROOT",
"assigned" : "2019-07-24T14:34:10.791-0500"
}
},
{
"event" : "addConfiguration",
"timestamp" : "2019-07-24T14:34:11.487-0500",
"value" : {
"name" : "TableEditWizBackbone_v27",
"assigned" : "2019-07-24T14:34:11.487-0500"
}
}
],
"created" : "2019-07-24T14:34:10.791-0500"
},
"_id" : {
"$oid" : "b100ca1d84b74a0592745432"
},
"collection" : "GroupAliasesTable",
"aliases" : {
"active" : [

],
"history" : [

]
},
"runs" : [

],
"attachments" : [

],
"configtype" : "notprovided"
}