{
"document" : {
"data" : {
"NAME" : "GROUP_ALIASES_TABLE",
"COMMENT" : "Default Backbone.",
"AUTHOR" : "admin",
"CREATION_TIME" : 1593448101,
"COL_TYPES" : {
"GROUP_KEY_ALIAS" : "STRING",
"GROUP_NAME" : "STRING",
"GROUP_KEY" : "STRING",
"COMMENT_DESCRIPTION" : "STRING",
"AUTHOR" : "STRING",
"RECORD_INSERTION_TIME" : "TIMESTAMP WITH TIMEZONE"
},
"DATA_SET" : [
{
"GROUP_KEY_ALIAS" : "DefaultContext",
"GROUP_NAME" : "DefaultContext",
"GROUP_KEY" : "5",
"COMMENT_DESCRIPTION" : "This Group Alias was automatically setup by the server.",
"AUTHOR" : "admin",
"RECORD_INSERTION_TIME" : "1593446405"
},
{
"GROUP_KEY_ALIAS" : "BurninBoxConfig",
"GROUP_NAME" : "BurninBoxConfig",
"GROUP_KEY" : "31",
"COMMENT_DESCRIPTION" : "This Group Alias was automatically setup by the server.",
"AUTHOR" : "admin",
"RECORD_INSERTION_TIME" : "1593448101"
}
]
},
"metadata" : {

},
"search" : [

]
},
"comments" : [

],
"origin" : {
"source" : "template",
"name" : "notprovided",
"format" : "json",
"created" : "2020-06-29T11:28:21.958-0500",
"rawdata" : [

]
},
"version" : "39",
"entities" : [
{
"name" : "OTSROOT",
"assigned" : "2020-06-29T11:28:21.958-0500"
}
],
"configurations" : [
{
"name" : "notprovided",
"assigned" : "2020-06-29T11:28:21.958-0500"
},
{
"name" : "TableEditWizBackbone_v31",
"assigned" : "2020-06-29T11:28:22.673-0500"
}
],
"changelog" : "notprovided",
"bookkeeping" : {
"isdeleted" : false,
"isreadonly" : false,
"updates" : [
{
"event" : "addConfiguration",
"timestamp" : "2020-06-29T11:28:21.958-0500",
"value" : {
"name" : "notprovided",
"assigned" : "2020-06-29T11:28:21.958-0500"
}
},
{
"event" : "setVersion",
"timestamp" : "2020-06-29T11:28:21.958-0500",
"value" : {
"name" : "39",
"assigned" : "2020-06-29T11:28:21.958-0500"
}
},
{
"event" : "setCollection",
"timestamp" : "2020-06-29T11:28:21.958-0500",
"value" : {
"name" : "GroupAliasesTable",
"assigned" : "2020-06-29T11:28:21.958-0500"
}
},
{
"event" : "addEntity",
"timestamp" : "2020-06-29T11:28:21.958-0500",
"value" : {
"name" : "OTSROOT",
"assigned" : "2020-06-29T11:28:21.958-0500"
}
},
{
"event" : "addConfiguration",
"timestamp" : "2020-06-29T11:28:22.673-0500",
"value" : {
"name" : "TableEditWizBackbone_v31",
"assigned" : "2020-06-29T11:28:22.673-0500"
}
}
],
"created" : "2020-06-29T11:28:21.958-0500"
},
"_id" : {
"$oid" : "b3f4becb77bc41df899db968"
},
"collection" : "GroupAliasesTable",
"aliases" : {
"active" : [

],
"history" : [

]
},
"runs" : [

],
"attachments" : [

],
"configtype" : "notprovided"
}