{
"document" : {
"data" : {
"NAME" : "GROUP_ALIASES_TABLE",
"COMMENT" : "Default Backbone.",
"AUTHOR" : "admin",
"CREATION_TIME" : 1563392576,
"COL_TYPES" : {
"GROUP_KEY_ALIAS" : "VARCHAR2",
"GROUP_NAME" : "VARCHAR2",
"GROUP_KEY" : "VARCHAR2",
"COMMENT_DESCRIPTION" : "VARCHAR2",
"AUTHOR" : "VARCHAR2",
"RECORD_INSERTION_TIME" : "TIMESTAMP WITH TIMEZONE"
},
"DATA_SET" : [
{
"GROUP_KEY_ALIAS" : "DefaultContext",
"GROUP_NAME" : "DefaultContext",
"GROUP_KEY" : "2",
"COMMENT_DESCRIPTION" : "This Group Alias was automatically setup by the server.",
"AUTHOR" : "admin",
"RECORD_INSERTION_TIME" : "1563392576"
},
{
"GROUP_KEY_ALIAS" : "BurninBoxConfig",
"GROUP_NAME" : "BurninBoxConfig",
"GROUP_KEY" : "23",
"COMMENT_DESCRIPTION" : "This Group Alias was automatically setup by the server.",
"AUTHOR" : "admin",
"RECORD_INSERTION_TIME" : "1551383830"
}
]
},
"metadata" : {

},
"search" : [

]
},
"comments" : [

],
"origin" : {
"source" : "template",
"name" : "notprovided",
"format" : "json",
"created" : "2019-07-17T14:42:56.812-0500",
"rawdata" : [

]
},
"version" : "29",
"entities" : [
{
"name" : "OTSROOT",
"assigned" : "2019-07-17T14:42:56.813-0500"
}
],
"configurations" : [
{
"name" : "notprovided",
"assigned" : "2019-07-17T14:42:56.812-0500"
},
{
"name" : "GroupAliasTreeEditWizBackbone_v5",
"assigned" : "2019-07-17T14:42:57.261-0500"
}
],
"changelog" : "notprovided",
"bookkeeping" : {
"isdeleted" : false,
"isreadonly" : false,
"updates" : [
{
"event" : "addConfiguration",
"timestamp" : "2019-07-17T14:42:56.812-0500",
"value" : {
"name" : "notprovided",
"assigned" : "2019-07-17T14:42:56.812-0500"
}
},
{
"event" : "setVersion",
"timestamp" : "2019-07-17T14:42:56.813-0500",
"value" : {
"name" : "29",
"assigned" : "2019-07-17T14:42:56.813-0500"
}
},
{
"event" : "setCollection",
"timestamp" : "2019-07-17T14:42:56.813-0500",
"value" : {
"name" : "GroupAliasesTable",
"assigned" : "2019-07-17T14:42:56.813-0500"
}
},
{
"event" : "addEntity",
"timestamp" : "2019-07-17T14:42:56.813-0500",
"value" : {
"name" : "OTSROOT",
"assigned" : "2019-07-17T14:42:56.813-0500"
}
},
{
"event" : "addConfiguration",
"timestamp" : "2019-07-17T14:42:57.261-0500",
"value" : {
"name" : "GroupAliasTreeEditWizBackbone_v5",
"assigned" : "2019-07-17T14:42:57.261-0500"
}
}
],
"created" : "2019-07-17T14:42:56.812-0500"
},
"_id" : {
"$oid" : "da96299fb5e24bcc9b3c3448"
},
"collection" : "GroupAliasesTable",
"aliases" : {
"active" : [

],
"history" : [

]
},
"runs" : [

],
"attachments" : [

],
"configtype" : "notprovided"
}