{
"document" : {
"data" : {
"NAME" : "",
"COMMENT" : "",
"AUTHOR" : "",
"CREATION_TIME" : 1528236848,
"COL_TYPES" : {
"UNUSED_UID" : "NUMBER",
"GROUP_ALIASES" : "VARCHAR2",
"COMMENT_DESCRIPTION" : "VARCHAR2",
"AUTHOR" : "VARCHAR2",
"GROUP_CREATION_TIME" : "TIMESTAMP WITH TIMEZONE"
},
"DATA_SET" : [
{
"UNUSED_UID" : "0",
"GROUP_ALIASES" : "",
"COMMENT_DESCRIPTION" : "No%20comment.",
"AUTHOR" : "admin",
"GROUP_CREATION_TIME" : "1571774121"
}
]
},
"metadata" : {

},
"search" : [

]
},
"comments" : [

],
"origin" : {
"source" : "template",
"name" : "notprovided",
"format" : "json",
"created" : "2019-10-22T14:55:21.138-0500",
"rawdata" : [

]
},
"version" : "69",
"entities" : [
{
"name" : "OTSROOT",
"assigned" : "2019-10-22T14:55:21.138-0500"
}
],
"configurations" : [
{
"name" : "notprovided",
"assigned" : "2019-10-22T14:55:21.138-0500"
},
{
"name" : "DefaultContext_v4",
"assigned" : "2019-10-22T14:55:21.324-0500"
}
],
"changelog" : "notprovided",
"bookkeeping" : {
"isdeleted" : false,
"isreadonly" : false,
"updates" : [
{
"event" : "addConfiguration",
"timestamp" : "2019-10-22T14:55:21.138-0500",
"value" : {
"name" : "notprovided",
"assigned" : "2019-10-22T14:55:21.138-0500"
}
},
{
"event" : "setVersion",
"timestamp" : "2019-10-22T14:55:21.138-0500",
"value" : {
"name" : "69",
"assigned" : "2019-10-22T14:55:21.138-0500"
}
},
{
"event" : "setCollection",
"timestamp" : "2019-10-22T14:55:21.138-0500",
"value" : {
"name" : "TableGroupMetadata",
"assigned" : "2019-10-22T14:55:21.138-0500"
}
},
{
"event" : "addEntity",
"timestamp" : "2019-10-22T14:55:21.138-0500",
"value" : {
"name" : "OTSROOT",
"assigned" : "2019-10-22T14:55:21.138-0500"
}
},
{
"event" : "addConfiguration",
"timestamp" : "2019-10-22T14:55:21.324-0500",
"value" : {
"name" : "DefaultContext_v4",
"assigned" : "2019-10-22T14:55:21.324-0500"
}
}
],
"created" : "2019-10-22T14:55:21.138-0500"
},
"_id" : {
"$oid" : "c6264c71e0284b6ebc2c2f2a"
},
"collection" : "TableGroupMetadata",
"aliases" : {
"active" : [

],
"history" : [

]
},
"runs" : [

],
"attachments" : [

],
"configtype" : "notprovided"
}