{
"document" : {
"data" : {
"NAME" : "",
"COMMENT" : "",
"AUTHOR" : "",
"CREATION_TIME" : 1528236848,
"COL_TYPES" : {
"UNUSED_UID" : "NUMBER",
"GROUP_ALIASES" : "VARCHAR2",
"COMMENT_DESCRIPTION" : "VARCHAR2",
"AUTHOR" : "VARCHAR2",
"GROUP_CREATION_TIME" : "TIMESTAMP WITH TIMEZONE"
},
"DATA_SET" : [
{
"UNUSED_UID" : "0",
"GROUP_ALIASES" : "",
"COMMENT_DESCRIPTION" : "No%20comment.",
"AUTHOR" : "admin",
"GROUP_CREATION_TIME" : "1536589463"
}
]
},
"metadata" : {

},
"search" : [

]
},
"comments" : [

],
"origin" : {
"source" : "template",
"name" : "notprovided",
"format" : "json",
"created" : "2018-09-10T09:24:23.896-0500",
"rawdata" : [

]
},
"version" : "3",
"entities" : [
{
"name" : "OTSROOT",
"assigned" : "2018-09-10T09:24:23.897-0500"
}
],
"tables" : [
{
"name" : "notprovided",
"assigned" : "2018-09-10T09:24:23.896-0500"
},
{
"name" : "DefaultContext_v2",
"assigned" : "2018-09-10T09:24:23.924-0500"
}
],
"changelog" : "notprovided",
"bookkeeping" : {
"isdeleted" : false,
"isreadonly" : false,
"updates" : [
{
"event" : "addTable",
"timestamp" : "2018-09-10T09:24:23.897-0500",
"value" : {
"name" : "notprovided",
"assigned" : "2018-09-10T09:24:23.896-0500"
}
},
{
"event" : "setVersion",
"timestamp" : "2018-09-10T09:24:23.897-0500",
"value" : {
"name" : "3",
"assigned" : "2018-09-10T09:24:23.897-0500"
}
},
{
"event" : "setCollection",
"timestamp" : "2018-09-10T09:24:23.897-0500",
"value" : {
"name" : "TableGroupMetadata",
"assigned" : "2018-09-10T09:24:23.897-0500"
}
},
{
"event" : "addEntity",
"timestamp" : "2018-09-10T09:24:23.897-0500",
"value" : {
"name" : "OTSROOT",
"assigned" : "2018-09-10T09:24:23.897-0500"
}
},
{
"event" : "addTable",
"timestamp" : "2018-09-10T09:24:23.924-0500",
"value" : {
"name" : "DefaultContext_v2",
"assigned" : "2018-09-10T09:24:23.924-0500"
}
}
],
"created" : "2018-09-10T09:24:23.896-0500"
},
"_id" : {
"$oid" : "30290c4da4f84248b81297c9"
},
"collection" : "TableGroupMetadata",
"aliases" : {
"active" : [

],
"history" : [

]
},
"runs" : [

],
"attachments" : [

],
"configtype" : "notprovided"
}