{
"document" : {
"data" : {
"NAME" : "TCP_DATA_LISTENER_PRODUCER_TABLE",
"COMMENT" : "No comment.",
"AUTHOR" : "admin",
"CREATION_TIME" : 1599064121,
"COL_TYPES" : {
"PROCESSOR_UID" : "STRING",
"BUFFER_SIZE" : "NUMBER",
"SERVER_IP_ADDRESS" : "STRING",
"SERVER_PORT" : "NUMBER",
"DATA_TYPE" : "STRING",
"COMMENT_DESCRIPTION" : "STRING",
"AUTHOR" : "STRING",
"RECORD_INSERTION_TIME" : "TIMESTAMP WITH TIMEZONE"
},
"DATA_SET" : [
{
"PROCESSOR_UID" : "VBListener0",
"BUFFER_SIZE" : "1000",
"SERVER_IP_ADDRESS" : "127.0.0.1",
"SERVER_PORT" : "1900",
"DATA_TYPE" : "Packet",
"COMMENT_DESCRIPTION" : "No Comment",
"AUTHOR" : "admin",
"RECORD_INSERTION_TIME" : "1599064121"
}
]
},
"metadata" : {

},
"search" : [

]
},
"comments" : [

],
"origin" : {
"source" : "template",
"name" : "notprovided",
"format" : "json",
"created" : "2020-09-02T11:28:41.319-0500",
"rawdata" : [

]
},
"version" : "0",
"entities" : [
{
"name" : "OTSROOT",
"assigned" : "2020-09-02T11:28:41.320-0500"
}
],
"configurations" : [
{
"name" : "notprovided",
"assigned" : "2020-09-02T11:28:41.319-0500"
},
{
"name" : "BurninBoxConfiguration_v3",
"assigned" : "2020-09-02T11:30:04.590-0500"
},
{
"name" : "BurninBoxConfiguration_v4",
"assigned" : "2020-09-02T11:31:32.411-0500"
},
{
"name" : "BurninBoxConfiguration_v5",
"assigned" : "2020-09-02T15:08:51.375-0500"
},
{
"name" : "BurninBoxConfiguration_v6",
"assigned" : "2020-09-02T16:01:06.110-0500"
}
],
"changelog" : "notprovided",
"bookkeeping" : {
"isdeleted" : false,
"isreadonly" : false,
"updates" : [
{
"event" : "addConfiguration",
"timestamp" : "2020-09-02T11:28:41.319-0500",
"value" : {
"name" : "notprovided",
"assigned" : "2020-09-02T11:28:41.319-0500"
}
},
{
"event" : "setVersion",
"timestamp" : "2020-09-02T11:28:41.319-0500",
"value" : {
"name" : "0",
"assigned" : "2020-09-02T11:28:41.319-0500"
}
},
{
"event" : "setCollection",
"timestamp" : "2020-09-02T11:28:41.320-0500",
"value" : {
"name" : "TCPDataListenerProducerTable",
"assigned" : "2020-09-02T11:28:41.320-0500"
}
},
{
"event" : "addEntity",
"timestamp" : "2020-09-02T11:28:41.320-0500",
"value" : {
"name" : "OTSROOT",
"assigned" : "2020-09-02T11:28:41.320-0500"
}
},
{
"event" : "addConfiguration",
"timestamp" : "2020-09-02T11:30:04.590-0500",
"value" : {
"name" : "BurninBoxConfiguration_v3",
"assigned" : "2020-09-02T11:30:04.590-0500"
}
},
{
"event" : "addConfiguration",
"timestamp" : "2020-09-02T11:31:32.411-0500",
"value" : {
"name" : "BurninBoxConfiguration_v4",
"assigned" : "2020-09-02T11:31:32.411-0500"
}
},
{
"event" : "addConfiguration",
"timestamp" : "2020-09-02T15:08:51.375-0500",
"value" : {
"name" : "BurninBoxConfiguration_v5",
"assigned" : "2020-09-02T15:08:51.375-0500"
}
},
{
"event" : "addConfiguration",
"timestamp" : "2020-09-02T16:01:06.110-0500",
"value" : {
"name" : "BurninBoxConfiguration_v6",
"assigned" : "2020-09-02T16:01:06.110-0500"
}
}
],
"created" : "2020-09-02T11:28:41.319-0500"
},
"_id" : {
"$oid" : "43aae9ca4af04ed68b24133a"
},
"collection" : "TCPDataListenerProducerTable",
"aliases" : {
"active" : [

],
"history" : [

]
},
"runs" : [

],
"attachments" : [

],
"configtype" : "notprovided"
}