{
"document" : {
"data" : {
"NAME" : "CAEN_POWER_SUPPLY_CHANNEL_TABLE",
"COMMENT" : "No comment.",
"AUTHOR" : "admin",
"CREATION_TIME" : 1632430022,
"COL_TYPES" : {
"POWER_SUPPLY_GROUP_UID" : "STRING",
"CHANNEL_UID" : "STRING",
"SLOT" : "NUMBER",
"CHANNEL" : "NUMBER",
"IN_USE" : "STRING",
"I0SET" : "NUMBER",
"V0SET" : "NUMBER",
"R_UP" : "NUMBER",
"R_DWN" : "NUMBER",
"TRIP" : "NUMBER",
"R_UP_TIME" : "NUMBER",
"R_DW_TIME" : "NUMBER",
"UNV_THR" : "NUMBER",
"OVV_THR" : "NUMBER",
"COMMENT_DESCRIPTION" : "STRING",
"AUTHOR" : "STRING",
"RECORD_INSERTION_TIME" : "TIMESTAMP WITH TIMEZONE"
},
"DATA_SET" : [
{
"POWER_SUPPLY_GROUP_UID" : "BurninBox",
"CHANNEL_UID" : "Module1L_LV",
"SLOT" : "1",
"CHANNEL" : "0",
"IN_USE" : "No",
"I0SET" : "1.5",
"V0SET" : "10",
"R_UP" : "0",
"R_DWN" : "0",
"TRIP" : "10",
"R_UP_TIME" : "100",
"R_DW_TIME" : "100",
"UNV_THR" : "9",
"OVV_THR" : "11",
"COMMENT_DESCRIPTION" : "No Comment",
"AUTHOR" : "admin",
"RECORD_INSERTION_TIME" : "1626818878"
},
{
"POWER_SUPPLY_GROUP_UID" : "BurninBox",
"CHANNEL_UID" : "Module1L_HV",
"SLOT" : "5",
"CHANNEL" : "0",
"IN_USE" : "No",
"I0SET" : "30",
"V0SET" : "300",
"R_UP" : "100",
"R_DWN" : "100",
"TRIP" : "5",
"R_UP_TIME" : "0",
"R_DW_TIME" : "0",
"UNV_THR" : "0",
"OVV_THR" : "0",
"COMMENT_DESCRIPTION" : "No Comment",
"AUTHOR" : "admin",
"RECORD_INSERTION_TIME" : "1626818878"
},
{
"POWER_SUPPLY_GROUP_UID" : "BurninBox",
"CHANNEL_UID" : "Module2L_LV",
"SLOT" : "1",
"CHANNEL" : "1",
"IN_USE" : "No",
"I0SET" : "1.5",
"V0SET" : "10",
"R_UP" : "0",
"R_DWN" : "0",
"TRIP" : "10",
"R_UP_TIME" : "100",
"R_DW_TIME" : "100",
"UNV_THR" : "9",
"OVV_THR" : "11",
"COMMENT_DESCRIPTION" : "No Comment",
"AUTHOR" : "admin",
"RECORD_INSERTION_TIME" : "1632430022"
},
{
"POWER_SUPPLY_GROUP_UID" : "BurninBox",
"CHANNEL_UID" : "Module2L_HV",
"SLOT" : "5",
"CHANNEL" : "1",
"IN_USE" : "No",
"I0SET" : "30",
"V0SET" : "300",
"R_UP" : "100",
"R_DWN" : "100",
"TRIP" : "5",
"R_UP_TIME" : "0",
"R_DW_TIME" : "0",
"UNV_THR" : "0",
"OVV_THR" : "0",
"COMMENT_DESCRIPTION" : "No Comment",
"AUTHOR" : "admin",
"RECORD_INSERTION_TIME" : "1632430022"
},
{
"POWER_SUPPLY_GROUP_UID" : "BurninBox",
"CHANNEL_UID" : "Module3L_LV",
"SLOT" : "1",
"CHANNEL" : "2",
"IN_USE" : "Yes",
"I0SET" : "1.5",
"V0SET" : "10",
"R_UP" : "0",
"R_DWN" : "0",
"TRIP" : "10",
"R_UP_TIME" : "100",
"R_DW_TIME" : "100",
"UNV_THR" : "9",
"OVV_THR" : "11",
"COMMENT_DESCRIPTION" : "No Comment",
"AUTHOR" : "admin",
"RECORD_INSERTION_TIME" : "1632430022"
},
{
"POWER_SUPPLY_GROUP_UID" : "BurninBox",
"CHANNEL_UID" : "Module3L_HV",
"SLOT" : "5",
"CHANNEL" : "2",
"IN_USE" : "Yes",
"I0SET" : "30",
"V0SET" : "300",
"R_UP" : "100",
"R_DWN" : "100",
"TRIP" : "5",
"R_UP_TIME" : "0",
"R_DW_TIME" : "0",
"UNV_THR" : "0",
"OVV_THR" : "0",
"COMMENT_DESCRIPTION" : "No Comment",
"AUTHOR" : "admin",
"RECORD_INSERTION_TIME" : "1632430022"
},
{
"POWER_SUPPLY_GROUP_UID" : "BurninBox",
"CHANNEL_UID" : "Module4L_LV",
"SLOT" : "1",
"CHANNEL" : "3",
"IN_USE" : "No",
"I0SET" : "1.5",
"V0SET" : "10",
"R_UP" : "0",
"R_DWN" : "0",
"TRIP" : "10",
"R_UP_TIME" : "100",
"R_DW_TIME" : "100",
"UNV_THR" : "9",
"OVV_THR" : "11",
"COMMENT_DESCRIPTION" : "No Comment",
"AUTHOR" : "admin",
"RECORD_INSERTION_TIME" : "1626818878"
},
{
"POWER_SUPPLY_GROUP_UID" : "BurninBox",
"CHANNEL_UID" : "Module4L_HV",
"SLOT" : "5",
"CHANNEL" : "3",
"IN_USE" : "No",
"I0SET" : "30",
"V0SET" : "300",
"R_UP" : "100",
"R_DWN" : "100",
"TRIP" : "5",
"R_UP_TIME" : "0",
"R_DW_TIME" : "0",
"UNV_THR" : "0",
"OVV_THR" : "0",
"COMMENT_DESCRIPTION" : "No Comment",
"AUTHOR" : "admin",
"RECORD_INSERTION_TIME" : "1626818878"
},
{
"POWER_SUPPLY_GROUP_UID" : "BurninBox",
"CHANNEL_UID" : "Module5L_LV",
"SLOT" : "1",
"CHANNEL" : "4",
"IN_USE" : "No",
"I0SET" : "1.5",
"V0SET" : "10",
"R_UP" : "0",
"R_DWN" : "0",
"TRIP" : "10",
"R_UP_TIME" : "100",
"R_DW_TIME" : "100",
"UNV_THR" : "9",
"OVV_THR" : "11",
"COMMENT_DESCRIPTION" : "No Comment",
"AUTHOR" : "admin",
"RECORD_INSERTION_TIME" : "1626886771"
},
{
"POWER_SUPPLY_GROUP_UID" : "BurninBox",
"CHANNEL_UID" : "Module5L_HV",
"SLOT" : "5",
"CHANNEL" : "4",
"IN_USE" : "No",
"I0SET" : "30",
"V0SET" : "300",
"R_UP" : "100",
"R_DWN" : "100",
"TRIP" : "5",
"R_UP_TIME" : "0",
"R_DW_TIME" : "0",
"UNV_THR" : "0",
"OVV_THR" : "0",
"COMMENT_DESCRIPTION" : "No Comment",
"AUTHOR" : "admin",
"RECORD_INSERTION_TIME" : "1626886771"
},
{
"POWER_SUPPLY_GROUP_UID" : "BurninBox",
"CHANNEL_UID" : "Module1R_LV",
"SLOT" : "3",
"CHANNEL" : "0",
"IN_USE" : "No",
"I0SET" : "1.5",
"V0SET" : "10",
"R_UP" : "0",
"R_DWN" : "0",
"TRIP" : "10",
"R_UP_TIME" : "100",
"R_DW_TIME" : "100",
"UNV_THR" : "9",
"OVV_THR" : "11",
"COMMENT_DESCRIPTION" : "No Comment",
"AUTHOR" : "admin",
"RECORD_INSERTION_TIME" : "1626818878"
},
{
"POWER_SUPPLY_GROUP_UID" : "BurninBox",
"CHANNEL_UID" : "Module1R_HV",
"SLOT" : "5",
"CHANNEL" : "5",
"IN_USE" : "No",
"I0SET" : "30",
"V0SET" : "300",
"R_UP" : "100",
"R_DWN" : "100",
"TRIP" : "5",
"R_UP_TIME" : "0",
"R_DW_TIME" : "0",
"UNV_THR" : "0",
"OVV_THR" : "0",
"COMMENT_DESCRIPTION" : "No Comment",
"AUTHOR" : "admin",
"RECORD_INSERTION_TIME" : "1626818878"
},
{
"POWER_SUPPLY_GROUP_UID" : "BurninBox",
"CHANNEL_UID" : "Module2R_LV",
"SLOT" : "3",
"CHANNEL" : "1",
"IN_USE" : "No",
"I0SET" : "1.5",
"V0SET" : "10",
"R_UP" : "0",
"R_DWN" : "0",
"TRIP" : "10",
"R_UP_TIME" : "100",
"R_DW_TIME" : "100",
"UNV_THR" : "9",
"OVV_THR" : "11",
"COMMENT_DESCRIPTION" : "No Comment",
"AUTHOR" : "admin",
"RECORD_INSERTION_TIME" : "1626818878"
},
{
"POWER_SUPPLY_GROUP_UID" : "BurninBox",
"CHANNEL_UID" : "Module2R_HV",
"SLOT" : "5",
"CHANNEL" : "6",
"IN_USE" : "No",
"I0SET" : "30",
"V0SET" : "300",
"R_UP" : "100",
"R_DWN" : "100",
"TRIP" : "5",
"R_UP_TIME" : "0",
"R_DW_TIME" : "0",
"UNV_THR" : "0",
"OVV_THR" : "0",
"COMMENT_DESCRIPTION" : "No Comment",
"AUTHOR" : "admin",
"RECORD_INSERTION_TIME" : "1626818878"
},
{
"POWER_SUPPLY_GROUP_UID" : "BurninBox",
"CHANNEL_UID" : "Module3R_LV",
"SLOT" : "3",
"CHANNEL" : "2",
"IN_USE" : "No",
"I0SET" : "1.5",
"V0SET" : "10",
"R_UP" : "0",
"R_DWN" : "0",
"TRIP" : "10",
"R_UP_TIME" : "100",
"R_DW_TIME" : "100",
"UNV_THR" : "9",
"OVV_THR" : "11",
"COMMENT_DESCRIPTION" : "No Comment",
"AUTHOR" : "admin",
"RECORD_INSERTION_TIME" : "1626818878"
},
{
"POWER_SUPPLY_GROUP_UID" : "BurninBox",
"CHANNEL_UID" : "Module3R_HV",
"SLOT" : "5",
"CHANNEL" : "7",
"IN_USE" : "No",
"I0SET" : "30",
"V0SET" : "300",
"R_UP" : "100",
"R_DWN" : "100",
"TRIP" : "5",
"R_UP_TIME" : "0",
"R_DW_TIME" : "0",
"UNV_THR" : "0",
"OVV_THR" : "0",
"COMMENT_DESCRIPTION" : "No Comment",
"AUTHOR" : "admin",
"RECORD_INSERTION_TIME" : "1626818878"
},
{
"POWER_SUPPLY_GROUP_UID" : "BurninBox",
"CHANNEL_UID" : "Module4R_LV",
"SLOT" : "3",
"CHANNEL" : "3",
"IN_USE" : "No",
"I0SET" : "1.5",
"V0SET" : "10",
"R_UP" : "0",
"R_DWN" : "0",
"TRIP" : "10",
"R_UP_TIME" : "100",
"R_DW_TIME" : "100",
"UNV_THR" : "9",
"OVV_THR" : "11",
"COMMENT_DESCRIPTION" : "No Comment",
"AUTHOR" : "admin",
"RECORD_INSERTION_TIME" : "1626818878"
},
{
"POWER_SUPPLY_GROUP_UID" : "BurninBox",
"CHANNEL_UID" : "Module4R_HV",
"SLOT" : "5",
"CHANNEL" : "8",
"IN_USE" : "No",
"I0SET" : "30",
"V0SET" : "300",
"R_UP" : "100",
"R_DWN" : "100",
"TRIP" : "5",
"R_UP_TIME" : "0",
"R_DW_TIME" : "0",
"UNV_THR" : "0",
"OVV_THR" : "0",
"COMMENT_DESCRIPTION" : "No Comment",
"AUTHOR" : "admin",
"RECORD_INSERTION_TIME" : "1626818878"
},
{
"POWER_SUPPLY_GROUP_UID" : "BurninBox",
"CHANNEL_UID" : "Module5R_LV",
"SLOT" : "3",
"CHANNEL" : "4",
"IN_USE" : "No",
"I0SET" : "1.5",
"V0SET" : "10",
"R_UP" : "0",
"R_DWN" : "0",
"TRIP" : "10",
"R_UP_TIME" : "100",
"R_DW_TIME" : "100",
"UNV_THR" : "9",
"OVV_THR" : "11",
"COMMENT_DESCRIPTION" : "No Comment",
"AUTHOR" : "admin",
"RECORD_INSERTION_TIME" : "1626818878"
},
{
"POWER_SUPPLY_GROUP_UID" : "BurninBox",
"CHANNEL_UID" : "Module5R_HV",
"SLOT" : "5",
"CHANNEL" : "9",
"IN_USE" : "No",
"I0SET" : "30",
"V0SET" : "300",
"R_UP" : "100",
"R_DWN" : "100",
"TRIP" : "5",
"R_UP_TIME" : "0",
"R_DW_TIME" : "0",
"UNV_THR" : "0",
"OVV_THR" : "0",
"COMMENT_DESCRIPTION" : "No Comment",
"AUTHOR" : "admin",
"RECORD_INSERTION_TIME" : "1626818878"
}
]
},
"metadata" : {

},
"search" : [

]
},
"comments" : [

],
"origin" : {
"source" : "template",
"name" : "notprovided",
"format" : "json",
"created" : "2021-09-23T15:47:02.612-0500",
"rawdata" : [

]
},
"version" : "11",
"entities" : [
{
"name" : "OTSROOT",
"assigned" : "2021-09-23T15:47:02.613-0500"
}
],
"configurations" : [
{
"name" : "notprovided",
"assigned" : "2021-09-23T15:47:02.613-0500"
},
{
"name" : "BurninBoxConfiguration_v72",
"assigned" : "2021-09-23T15:47:04.548-0500"
},
{
"name" : "BurninBoxConfiguration_v75",
"assigned" : "2021-09-24T15:53:22.381-0500"
},
{
"name" : "BurninBoxConfiguration_v76",
"assigned" : "2021-09-24T16:04:21.329-0500"
},
{
"name" : "BurninBoxConfiguration_v77",
"assigned" : "2021-09-24T16:28:06.157-0500"
},
{
"name" : "BurninBoxConfiguration_v78",
"assigned" : "2021-09-27T09:02:55.792-0500"
},
{
"name" : "BurninBoxConfiguration_v79",
"assigned" : "2021-09-27T14:22:24.114-0500"
},
{
"name" : "BurninBoxConfiguration_v80",
"assigned" : "2021-09-28T09:24:49.966-0500"
},
{
"name" : "BurninBoxConfiguration_v81",
"assigned" : "2021-09-30T09:14:50.255-0500"
},
{
"name" : "BurninBoxConfiguration_v82",
"assigned" : "2021-10-01T10:56:20.770-0500"
},
{
"name" : "BurninBoxConfiguration_v83",
"assigned" : "2021-10-01T11:01:40.407-0500"
},
{
"name" : "BurninBoxConfiguration_v84",
"assigned" : "2021-10-06T10:02:30.685-0500"
},
{
"name" : "BurninBoxConfiguration_v85",
"assigned" : "2021-10-07T16:32:39.770-0500"
},
{
"name" : "BurninBoxConfiguration_v86",
"assigned" : "2021-10-08T14:03:14.578-0500"
},
{
"name" : "BurninBoxConfiguration_v87",
"assigned" : "2021-10-11T16:00:55.400-0500"
},
{
"name" : "BurninBoxConfiguration_v88",
"assigned" : "2021-10-12T09:07:16.712-0500"
},
{
"name" : "BurninBoxConfiguration_v89",
"assigned" : "2021-10-12T11:11:22.402-0500"
},
{
"name" : "BurninBoxConfiguration_v90",
"assigned" : "2021-10-14T17:03:15.816-0500"
},
{
"name" : "BurninBoxConfiguration_v91",
"assigned" : "2021-10-15T10:48:30.605-0500"
},
{
"name" : "BurninBoxConfiguration_v92",
"assigned" : "2021-10-15T15:50:48.425-0500"
},
{
"name" : "BurninBoxConfiguration_v93",
"assigned" : "2021-11-03T16:30:19.366-0500"
},
{
"name" : "BurninBoxConfiguration_v94",
"assigned" : "2021-11-10T15:11:01.725-0600"
},
{
"name" : "BurninBoxConfiguration_v95",
"assigned" : "2022-04-19T14:35:55.886-0400"
},
{
"name" : "BurninBoxConfiguration_v96",
"assigned" : "2022-04-20T10:06:04.926-0400"
},
{
"name" : "BurninBoxConfiguration_v97",
"assigned" : "2022-04-20T11:23:51.643-0400"
}
],
"changelog" : "notprovided",
"bookkeeping" : {
"isdeleted" : false,
"isreadonly" : false,
"updates" : [
{
"event" : "addConfiguration",
"timestamp" : "2021-09-23T15:47:02.613-0500",
"value" : {
"name" : "notprovided",
"assigned" : "2021-09-23T15:47:02.613-0500"
}
},
{
"event" : "setVersion",
"timestamp" : "2021-09-23T15:47:02.613-0500",
"value" : {
"name" : "11",
"assigned" : "2021-09-23T15:47:02.613-0500"
}
},
{
"event" : "setCollection",
"timestamp" : "2021-09-23T15:47:02.613-0500",
"value" : {
"name" : "CAENPowerSupplyChannelTable",
"assigned" : "2021-09-23T15:47:02.613-0500"
}
},
{
"event" : "addEntity",
"timestamp" : "2021-09-23T15:47:02.614-0500",
"value" : {
"name" : "OTSROOT",
"assigned" : "2021-09-23T15:47:02.613-0500"
}
},
{
"event" : "addConfiguration",
"timestamp" : "2021-09-23T15:47:04.548-0500",
"value" : {
"name" : "BurninBoxConfiguration_v72",
"assigned" : "2021-09-23T15:47:04.548-0500"
}
},
{
"event" : "addConfiguration",
"timestamp" : "2021-09-24T15:53:22.381-0500",
"value" : {
"name" : "BurninBoxConfiguration_v75",
"assigned" : "2021-09-24T15:53:22.381-0500"
}
},
{
"event" : "addConfiguration",
"timestamp" : "2021-09-24T16:04:21.329-0500",
"value" : {
"name" : "BurninBoxConfiguration_v76",
"assigned" : "2021-09-24T16:04:21.329-0500"
}
},
{
"event" : "addConfiguration",
"timestamp" : "2021-09-24T16:28:06.157-0500",
"value" : {
"name" : "BurninBoxConfiguration_v77",
"assigned" : "2021-09-24T16:28:06.157-0500"
}
},
{
"event" : "addConfiguration",
"timestamp" : "2021-09-27T09:02:55.792-0500",
"value" : {
"name" : "BurninBoxConfiguration_v78",
"assigned" : "2021-09-27T09:02:55.792-0500"
}
},
{
"event" : "addConfiguration",
"timestamp" : "2021-09-27T14:22:24.114-0500",
"value" : {
"name" : "BurninBoxConfiguration_v79",
"assigned" : "2021-09-27T14:22:24.114-0500"
}
},
{
"event" : "addConfiguration",
"timestamp" : "2021-09-28T09:24:49.966-0500",
"value" : {
"name" : "BurninBoxConfiguration_v80",
"assigned" : "2021-09-28T09:24:49.966-0500"
}
},
{
"event" : "addConfiguration",
"timestamp" : "2021-09-30T09:14:50.255-0500",
"value" : {
"name" : "BurninBoxConfiguration_v81",
"assigned" : "2021-09-30T09:14:50.255-0500"
}
},
{
"event" : "addConfiguration",
"timestamp" : "2021-10-01T10:56:20.770-0500",
"value" : {
"name" : "BurninBoxConfiguration_v82",
"assigned" : "2021-10-01T10:56:20.770-0500"
}
},
{
"event" : "addConfiguration",
"timestamp" : "2021-10-01T11:01:40.407-0500",
"value" : {
"name" : "BurninBoxConfiguration_v83",
"assigned" : "2021-10-01T11:01:40.407-0500"
}
},
{
"event" : "addConfiguration",
"timestamp" : "2021-10-06T10:02:30.685-0500",
"value" : {
"name" : "BurninBoxConfiguration_v84",
"assigned" : "2021-10-06T10:02:30.685-0500"
}
},
{
"event" : "addConfiguration",
"timestamp" : "2021-10-07T16:32:39.770-0500",
"value" : {
"name" : "BurninBoxConfiguration_v85",
"assigned" : "2021-10-07T16:32:39.770-0500"
}
},
{
"event" : "addConfiguration",
"timestamp" : "2021-10-08T14:03:14.578-0500",
"value" : {
"name" : "BurninBoxConfiguration_v86",
"assigned" : "2021-10-08T14:03:14.578-0500"
}
},
{
"event" : "addConfiguration",
"timestamp" : "2021-10-11T16:00:55.400-0500",
"value" : {
"name" : "BurninBoxConfiguration_v87",
"assigned" : "2021-10-11T16:00:55.400-0500"
}
},
{
"event" : "addConfiguration",
"timestamp" : "2021-10-12T09:07:16.712-0500",
"value" : {
"name" : "BurninBoxConfiguration_v88",
"assigned" : "2021-10-12T09:07:16.712-0500"
}
},
{
"event" : "addConfiguration",
"timestamp" : "2021-10-12T11:11:22.402-0500",
"value" : {
"name" : "BurninBoxConfiguration_v89",
"assigned" : "2021-10-12T11:11:22.402-0500"
}
},
{
"event" : "addConfiguration",
"timestamp" : "2021-10-14T17:03:15.816-0500",
"value" : {
"name" : "BurninBoxConfiguration_v90",
"assigned" : "2021-10-14T17:03:15.816-0500"
}
},
{
"event" : "addConfiguration",
"timestamp" : "2021-10-15T10:48:30.605-0500",
"value" : {
"name" : "BurninBoxConfiguration_v91",
"assigned" : "2021-10-15T10:48:30.605-0500"
}
},
{
"event" : "addConfiguration",
"timestamp" : "2021-10-15T15:50:48.425-0500",
"value" : {
"name" : "BurninBoxConfiguration_v92",
"assigned" : "2021-10-15T15:50:48.425-0500"
}
},
{
"event" : "addConfiguration",
"timestamp" : "2021-11-03T16:30:19.366-0500",
"value" : {
"name" : "BurninBoxConfiguration_v93",
"assigned" : "2021-11-03T16:30:19.366-0500"
}
},
{
"event" : "addConfiguration",
"timestamp" : "2021-11-10T15:11:01.725-0600",
"value" : {
"name" : "BurninBoxConfiguration_v94",
"assigned" : "2021-11-10T15:11:01.725-0600"
}
},
{
"event" : "addConfiguration",
"timestamp" : "2022-04-19T14:35:55.886-0400",
"value" : {
"name" : "BurninBoxConfiguration_v95",
"assigned" : "2022-04-19T14:35:55.886-0400"
}
},
{
"event" : "addConfiguration",
"timestamp" : "2022-04-20T10:06:04.926-0400",
"value" : {
"name" : "BurninBoxConfiguration_v96",
"assigned" : "2022-04-20T10:06:04.926-0400"
}
},
{
"event" : "addConfiguration",
"timestamp" : "2022-04-20T11:23:51.643-0400",
"value" : {
"name" : "BurninBoxConfiguration_v97",
"assigned" : "2022-04-20T11:23:51.643-0400"
}
}
],
"created" : "2021-09-23T15:47:02.612-0500"
},
"_id" : {
"$oid" : "09fe977b7eef4114925d76d6"
},
"collection" : "CAENPowerSupplyChannelTable",
"aliases" : {
"active" : [

],
"history" : [

]
},
"runs" : [

],
"attachments" : [

],
"configtype" : "notprovided"
}