{
"document" : {
"data" : {
"NAME" : "CAEN_POWER_SUPPLY_CHANNEL_TABLE",
"COMMENT" : "No comment.",
"AUTHOR" : "admin",
"CREATION_TIME" : 1603990350,
"COL_TYPES" : {
"POWER_SUPPLY_GROUP_UID" : "STRING",
"CHANNEL_UID" : "STRING",
"SLOT" : "NUMBER",
"CHANNEL" : "NUMBER",
"DETECTOR_NAME" : "STRING",
"CHANNEL_TYPE" : "STRING",
"TURN_ON_SEQUENCE" : "NUMBER",
"TURN_OFF_SEQUENCE" : "NUMBER",
"IN_USE" : "STRING",
"I0SET" : "NUMBER",
"V0SET" : "NUMBER",
"R_UP" : "NUMBER",
"R_DWN" : "NUMBER",
"TRIP" : "NUMBER",
"R_UP_TIME" : "NUMBER",
"R_DW_TIME" : "NUMBER",
"UNV_THR" : "NUMBER",
"OVV_THR" : "NUMBER",
"COMMENT_DESCRIPTION" : "STRING",
"AUTHOR" : "STRING",
"RECORD_INSERTION_TIME" : "TIMESTAMP WITH TIMEZONE"
},
"DATA_SET" : [
{
"POWER_SUPPLY_GROUP_UID" : "BurninBox",
"CHANNEL_UID" : "Module1A_LV",
"SLOT" : "1",
"CHANNEL" : "0",
"DETECTOR_NAME" : "Module1A",
"CHANNEL_TYPE" : "LV",
"TURN_ON_SEQUENCE" : "0",
"TURN_OFF_SEQUENCE" : "0",
"IN_USE" : "No",
"I0SET" : "2",
"V0SET" : "10",
"R_UP" : "5",
"R_DWN" : "5",
"TRIP" : "0",
"R_UP_TIME" : "0",
"R_DW_TIME" : "0",
"UNV_THR" : "5",
"OVV_THR" : "15",
"COMMENT_DESCRIPTION" : "No Comment",
"AUTHOR" : "admin",
"RECORD_INSERTION_TIME" : "1603990350"
}
]
},
"metadata" : {

},
"search" : [

]
},
"comments" : [

],
"origin" : {
"source" : "template",
"name" : "notprovided",
"format" : "json",
"created" : "2020-10-29T11:52:30.855-0500",
"rawdata" : [

]
},
"version" : "2",
"entities" : [
{
"name" : "OTSROOT",
"assigned" : "2020-10-29T11:52:30.856-0500"
}
],
"configurations" : [
{
"name" : "notprovided",
"assigned" : "2020-10-29T11:52:30.855-0500"
},
{
"name" : "BurninBoxConfiguration_v26",
"assigned" : "2020-10-29T11:52:32.254-0500"
}
],
"changelog" : "notprovided",
"bookkeeping" : {
"isdeleted" : false,
"isreadonly" : false,
"updates" : [
{
"event" : "addConfiguration",
"timestamp" : "2020-10-29T11:52:30.855-0500",
"value" : {
"name" : "notprovided",
"assigned" : "2020-10-29T11:52:30.855-0500"
}
},
{
"event" : "setVersion",
"timestamp" : "2020-10-29T11:52:30.856-0500",
"value" : {
"name" : "2",
"assigned" : "2020-10-29T11:52:30.856-0500"
}
},
{
"event" : "setCollection",
"timestamp" : "2020-10-29T11:52:30.856-0500",
"value" : {
"name" : "CAENPowerSupplyChannelTable",
"assigned" : "2020-10-29T11:52:30.856-0500"
}
},
{
"event" : "addEntity",
"timestamp" : "2020-10-29T11:52:30.856-0500",
"value" : {
"name" : "OTSROOT",
"assigned" : "2020-10-29T11:52:30.856-0500"
}
},
{
"event" : "addConfiguration",
"timestamp" : "2020-10-29T11:52:32.254-0500",
"value" : {
"name" : "BurninBoxConfiguration_v26",
"assigned" : "2020-10-29T11:52:32.254-0500"
}
}
],
"created" : "2020-10-29T11:52:30.855-0500"
},
"_id" : {
"$oid" : "656898fb8f814f32ac432149"
},
"collection" : "CAENPowerSupplyChannelTable",
"aliases" : {
"active" : [

],
"history" : [

]
},
"runs" : [

],
"attachments" : [

],
"configtype" : "notprovided"
}