{
"ouid" : [
"0836478a160e43cc9a69c4fb",
"5e976fdcb2de4958a7c3ad1c",
"fe874dc01efc4dcf9ead360f"
],
"version" : {
"0" : [
"0836478a160e43cc9a69c4fb"
],
"1" : [
"5e976fdcb2de4958a7c3ad1c"
],
"2" : [
"fe874dc01efc4dcf9ead360f"
]
},
"configurations.name" : {
"notprovided" : [
"0836478a160e43cc9a69c4fb",
"5e976fdcb2de4958a7c3ad1c",
"fe874dc01efc4dcf9ead360f"
],
"BurninBoxConfiguration_v29" : [
"0836478a160e43cc9a69c4fb"
],
"BurninBoxConfiguration_v30" : [
"5e976fdcb2de4958a7c3ad1c"
],
"BurninBoxConfiguration_v31" : [
"5e976fdcb2de4958a7c3ad1c"
],
"BurninBoxConfiguration_v32" : [
"fe874dc01efc4dcf9ead360f"
],
"BurninBoxConfiguration_v33" : [
"fe874dc01efc4dcf9ead360f"
],
"BurninBoxConfiguration_v34" : [
"fe874dc01efc4dcf9ead360f"
],
"BurninBoxConfiguration_v35" : [
"fe874dc01efc4dcf9ead360f"
],
"BurninBoxConfiguration_v36" : [
"fe874dc01efc4dcf9ead360f"
],
"BurninBoxConfiguration_v37" : [
"fe874dc01efc4dcf9ead360f"
],
"BurninBoxConfiguration_v38" : [
"fe874dc01efc4dcf9ead360f"
],
"BurninBoxConfiguration_v39" : [
"fe874dc01efc4dcf9ead360f"
],
"BurninBoxConfiguration_v40" : [
"fe874dc01efc4dcf9ead360f"
],
"BurninBoxConfiguration_v41" : [
"fe874dc01efc4dcf9ead360f"
],
"BurninBoxConfiguration_v42" : [
"fe874dc01efc4dcf9ead360f"
],
"BurninBoxConfiguration_v43" : [
"fe874dc01efc4dcf9ead360f"
],
"BurninBoxConfiguration_v44" : [
"fe874dc01efc4dcf9ead360f"
],
"BurninBoxConfiguration_v45" : [
"fe874dc01efc4dcf9ead360f"
],
"BurninBoxConfiguration_v46" : [
"fe874dc01efc4dcf9ead360f"
],
"BurninBoxConfiguration_v47" : [
"fe874dc01efc4dcf9ead360f"
],
"BurninBoxConfiguration_v48" : [
"fe874dc01efc4dcf9ead360f"
],
"BurninBoxConfiguration_v49" : [
"fe874dc01efc4dcf9ead360f"
],
"BurninBoxConfiguration_v50" : [
"fe874dc01efc4dcf9ead360f"
],
"BurninBoxConfiguration_v51" : [
"fe874dc01efc4dcf9ead360f"
],
"BurninBoxConfiguration_v52" : [
"fe874dc01efc4dcf9ead360f"
],
"BurninBoxConfiguration_v53" : [
"fe874dc01efc4dcf9ead360f"
],
"BurninBoxConfiguration_v54" : [
"fe874dc01efc4dcf9ead360f"
],
"BurninBoxConfiguration_v55" : [
"fe874dc01efc4dcf9ead360f"
],
"BurninBoxConfiguration_v56" : [
"fe874dc01efc4dcf9ead360f"
],
"BurninBoxConfiguration_v57" : [
"fe874dc01efc4dcf9ead360f"
],
"BurninBoxConfiguration_v58" : [
"fe874dc01efc4dcf9ead360f"
],
"BurninBoxConfiguration_v59" : [
"fe874dc01efc4dcf9ead360f"
],
"BurninBoxConfiguration_v60" : [
"fe874dc01efc4dcf9ead360f"
],
"BurninBoxConfiguration_v61" : [
"fe874dc01efc4dcf9ead360f"
],
"BurninBoxConfiguration_v62" : [
"fe874dc01efc4dcf9ead360f"
],
"BurninBoxConfiguration_v63" : [
"fe874dc01efc4dcf9ead360f"
],
"BurninBoxConfiguration_v64" : [
"fe874dc01efc4dcf9ead360f"
],
"BurninBoxConfiguration_v65" : [
"fe874dc01efc4dcf9ead360f"
],
"BurninBoxConfiguration_v66" : [
"fe874dc01efc4dcf9ead360f"
],
"BurninBoxConfiguration_v67" : [
"fe874dc01efc4dcf9ead360f"
],
"BurninBoxConfiguration_v68" : [
"fe874dc01efc4dcf9ead360f"
],
"BurninBoxConfiguration_v69" : [
"fe874dc01efc4dcf9ead360f"
],
"BurninBoxConfiguration_v70" : [
"fe874dc01efc4dcf9ead360f"
],
"BurninBoxConfiguration_v71" : [
"fe874dc01efc4dcf9ead360f"
],
"BurninBoxConfiguration_v72" : [
"fe874dc01efc4dcf9ead360f"
],
"BurninBoxConfiguration_v73" : [
"fe874dc01efc4dcf9ead360f"
],
"BurninBoxConfiguration_v74" : [
"fe874dc01efc4dcf9ead360f"
],
"BurninBoxConfiguration_v75" : [
"fe874dc01efc4dcf9ead360f"
],
"BurninBoxConfiguration_v76" : [
"fe874dc01efc4dcf9ead360f"
],
"BurninBoxConfiguration_v77" : [
"fe874dc01efc4dcf9ead360f"
],
"BurninBoxConfiguration_v78" : [
"fe874dc01efc4dcf9ead360f"
],
"BurninBoxConfiguration_v79" : [
"fe874dc01efc4dcf9ead360f"
],
"BurninBoxConfiguration_v80" : [
"fe874dc01efc4dcf9ead360f"
],
"BurninBoxConfiguration_v81" : [
"fe874dc01efc4dcf9ead360f"
],
"BurninBoxConfiguration_v82" : [
"fe874dc01efc4dcf9ead360f"
],
"BurninBoxConfiguration_v83" : [
"fe874dc01efc4dcf9ead360f"
],
"BurninBoxConfiguration_v84" : [
"fe874dc01efc4dcf9ead360f"
],
"BurninBoxConfiguration_v85" : [
"fe874dc01efc4dcf9ead360f"
],
"BurninBoxConfiguration_v86" : [
"fe874dc01efc4dcf9ead360f"
],
"BurninBoxConfiguration_v87" : [
"fe874dc01efc4dcf9ead360f"
],
"BurninBoxConfiguration_v88" : [
"fe874dc01efc4dcf9ead360f"
],
"BurninBoxConfiguration_v89" : [
"fe874dc01efc4dcf9ead360f"
],
"BurninBoxConfiguration_v90" : [
"fe874dc01efc4dcf9ead360f"
],
"BurninBoxConfiguration_v91" : [
"fe874dc01efc4dcf9ead360f"
],
"BurninBoxConfiguration_v92" : [
"fe874dc01efc4dcf9ead360f"
],
"BurninBoxConfiguration_v93" : [
"fe874dc01efc4dcf9ead360f"
],
"BurninBoxConfiguration_v94" : [
"fe874dc01efc4dcf9ead360f"
],
"BurninBoxConfiguration_v95" : [
"fe874dc01efc4dcf9ead360f"
],
"BurninBoxConfiguration_v96" : [
"fe874dc01efc4dcf9ead360f"
],
"BurninBoxConfiguration_v97" : [
"fe874dc01efc4dcf9ead360f"
]
},
"entities.name" : {
"OTSROOT" : [
"0836478a160e43cc9a69c4fb",
"5e976fdcb2de4958a7c3ad1c",
"fe874dc01efc4dcf9ead360f"
]
},
"aliases.active.name" : {

},
"runs.name" : {

},
"configurations.assigned" : {
"notprovided" : [
"2020-10-29T13:43:53.378-0500",
"2020-10-29T13:46:36.380-0500",
"2020-10-29T14:39:26.925-0500"
],
"BurninBoxConfiguration_v29" : [
"2020-10-29T13:45:55.582-0500"
],
"BurninBoxConfiguration_v30" : [
"2020-10-29T13:46:37.863-0500"
],
"BurninBoxConfiguration_v31" : [
"2020-10-29T13:48:02.498-0500"
],
"BurninBoxConfiguration_v32" : [
"2020-10-29T14:39:28.515-0500"
],
"BurninBoxConfiguration_v33" : [
"2021-06-30T16:17:51.511-0500"
],
"BurninBoxConfiguration_v34" : [
"2021-06-30T16:23:47.863-0500"
],
"BurninBoxConfiguration_v35" : [
"2021-07-08T14:06:13.768-0500"
],
"BurninBoxConfiguration_v36" : [
"2021-07-08T14:16:57.960-0500"
],
"BurninBoxConfiguration_v37" : [
"2021-07-08T16:20:44.515-0500"
],
"BurninBoxConfiguration_v38" : [
"2021-07-09T11:47:13.718-0500"
],
"BurninBoxConfiguration_v39" : [
"2021-07-09T11:48:45.844-0500"
],
"BurninBoxConfiguration_v40" : [
"2021-07-09T16:06:00.292-0500"
],
"BurninBoxConfiguration_v41" : [
"2021-07-12T11:04:55.273-0500"
],
"BurninBoxConfiguration_v42" : [
"2021-07-13T12:01:31.100-0500"
],
"BurninBoxConfiguration_v43" : [
"2021-07-13T12:22:05.612-0500"
],
"BurninBoxConfiguration_v44" : [
"2021-07-14T13:05:58.189-0500"
],
"BurninBoxConfiguration_v45" : [
"2021-07-14T14:26:04.354-0500"
],
"BurninBoxConfiguration_v46" : [
"2021-07-14T14:46:56.673-0500"
],
"BurninBoxConfiguration_v47" : [
"2021-07-14T15:24:33.495-0500"
],
"BurninBoxConfiguration_v48" : [
"2021-07-14T16:05:29.089-0500"
],
"BurninBoxConfiguration_v49" : [
"2021-07-14T16:15:40.712-0500"
],
"BurninBoxConfiguration_v50" : [
"2021-07-14T16:17:40.552-0500"
],
"BurninBoxConfiguration_v51" : [
"2021-07-15T11:50:33.535-0500"
],
"BurninBoxConfiguration_v52" : [
"2021-07-20T13:45:53.680-0500"
],
"BurninBoxConfiguration_v53" : [
"2021-07-20T16:41:41.865-0500"
],
"BurninBoxConfiguration_v54" : [
"2021-07-20T17:09:26.571-0500"
],
"BurninBoxConfiguration_v55" : [
"2021-07-20T17:28:39.761-0500"
],
"BurninBoxConfiguration_v56" : [
"2021-07-20T17:46:27.069-0500"
],
"BurninBoxConfiguration_v57" : [
"2021-07-21T11:50:01.662-0500"
],
"BurninBoxConfiguration_v58" : [
"2021-07-21T11:58:37.308-0500"
],
"BurninBoxConfiguration_v59" : [
"2021-07-21T11:59:33.058-0500"
],
"BurninBoxConfiguration_v60" : [
"2021-07-22T18:35:00.053-0500"
],
"BurninBoxConfiguration_v61" : [
"2021-07-23T12:33:56.392-0500"
],
"BurninBoxConfiguration_v62" : [
"2021-07-24T00:54:49.194-0500"
],
"BurninBoxConfiguration_v63" : [
"2021-07-24T12:12:50.779-0500"
],
"BurninBoxConfiguration_v64" : [
"2021-07-25T21:07:15.716-0500"
],
"BurninBoxConfiguration_v65" : [
"2021-07-26T07:43:11.605-0500"
],
"BurninBoxConfiguration_v66" : [
"2021-07-26T18:37:11.678-0500"
],
"BurninBoxConfiguration_v67" : [
"2021-07-27T08:25:40.389-0500"
],
"BurninBoxConfiguration_v68" : [
"2021-08-03T11:10:36.838-0500"
],
"BurninBoxConfiguration_v69" : [
"2021-08-04T12:21:57.170-0500"
],
"BurninBoxConfiguration_v70" : [
"2021-09-02T13:43:33.580-0500"
],
"BurninBoxConfiguration_v71" : [
"2021-09-02T14:03:36.424-0500"
],
"BurninBoxConfiguration_v72" : [
"2021-09-23T15:47:04.813-0500"
],
"BurninBoxConfiguration_v73" : [
"2021-09-23T15:47:41.806-0500"
],
"BurninBoxConfiguration_v74" : [
"2021-09-24T15:36:49.691-0500"
],
"BurninBoxConfiguration_v75" : [
"2021-09-24T15:53:22.662-0500"
],
"BurninBoxConfiguration_v76" : [
"2021-09-24T16:04:21.635-0500"
],
"BurninBoxConfiguration_v77" : [
"2021-09-24T16:28:06.438-0500"
],
"BurninBoxConfiguration_v78" : [
"2021-09-27T09:02:56.054-0500"
],
"BurninBoxConfiguration_v79" : [
"2021-09-27T14:22:24.359-0500"
],
"BurninBoxConfiguration_v80" : [
"2021-09-28T09:24:50.228-0500"
],
"BurninBoxConfiguration_v81" : [
"2021-09-30T09:14:50.528-0500"
],
"BurninBoxConfiguration_v82" : [
"2021-10-01T10:56:21.033-0500"
],
"BurninBoxConfiguration_v83" : [
"2021-10-01T11:01:40.666-0500"
],
"BurninBoxConfiguration_v84" : [
"2021-10-06T10:02:30.918-0500"
],
"BurninBoxConfiguration_v85" : [
"2021-10-07T16:32:40.040-0500"
],
"BurninBoxConfiguration_v86" : [
"2021-10-08T14:03:14.868-0500"
],
"BurninBoxConfiguration_v87" : [
"2021-10-11T16:00:55.727-0500"
],
"BurninBoxConfiguration_v88" : [
"2021-10-12T09:07:17.025-0500"
],
"BurninBoxConfiguration_v89" : [
"2021-10-12T11:11:22.711-0500"
],
"BurninBoxConfiguration_v90" : [
"2021-10-14T17:03:16.110-0500"
],
"BurninBoxConfiguration_v91" : [
"2021-10-15T10:48:30.890-0500"
],
"BurninBoxConfiguration_v92" : [
"2021-10-15T15:50:48.775-0500"
],
"BurninBoxConfiguration_v93" : [
"2021-11-03T16:30:19.666-0500"
],
"BurninBoxConfiguration_v94" : [
"2021-11-10T15:11:02.067-0600"
],
"BurninBoxConfiguration_v95" : [
"2022-04-19T14:35:56.116-0400"
],
"BurninBoxConfiguration_v96" : [
"2022-04-20T10:06:05.137-0400"
],
"BurninBoxConfiguration_v97" : [
"2022-04-20T11:23:51.857-0400"
]
}
}