{
"ouid" : [
"52124e023d324bc8b1c4d59b",
"c4099916410f4683bdec5640"
],
"version" : {
"1" : [
"52124e023d324bc8b1c4d59b"
],
"2" : [
"c4099916410f4683bdec5640"
]
},
"configurations.name" : {
"notprovided" : [
"52124e023d324bc8b1c4d59b",
"c4099916410f4683bdec5640"
],
"DefaultContext_v1" : [
"52124e023d324bc8b1c4d59b"
],
"DefaultContext_v2" : [
"52124e023d324bc8b1c4d59b"
],
"DefaultContext_v3" : [
"52124e023d324bc8b1c4d59b"
],
"DefaultContext_v4" : [
"52124e023d324bc8b1c4d59b"
],
"DefaultContext_v5" : [
"52124e023d324bc8b1c4d59b"
],
"DefaultContext_v6" : [
"52124e023d324bc8b1c4d59b"
],
"DefaultContext_v7" : [
"52124e023d324bc8b1c4d59b"
],
"DefaultContext_v8" : [
"52124e023d324bc8b1c4d59b"
],
"DefaultContext_v9" : [
"52124e023d324bc8b1c4d59b"
],
"DefaultContext_v10" : [
"52124e023d324bc8b1c4d59b"
],
"DefaultContext_v11" : [
"52124e023d324bc8b1c4d59b"
],
"DefaultContext_v12" : [
"52124e023d324bc8b1c4d59b"
],
"DefaultContext_v13" : [
"52124e023d324bc8b1c4d59b"
],
"DefaultContext_v14" : [
"52124e023d324bc8b1c4d59b"
],
"DefaultContext_v15" : [
"52124e023d324bc8b1c4d59b"
],
"DefaultContext_v16" : [
"52124e023d324bc8b1c4d59b"
],
"DefaultContext_v17" : [
"52124e023d324bc8b1c4d59b"
],
"DefaultContext_v18" : [
"52124e023d324bc8b1c4d59b"
],
"DefaultContext_v19" : [
"52124e023d324bc8b1c4d59b"
],
"DefaultContext_v20" : [
"52124e023d324bc8b1c4d59b"
],
"DefaultContext_v21" : [
"52124e023d324bc8b1c4d59b"
],
"DefaultContext_v22" : [
"52124e023d324bc8b1c4d59b"
],
"DefaultContext_v23" : [
"52124e023d324bc8b1c4d59b"
],
"DefaultContext_v24" : [
"52124e023d324bc8b1c4d59b"
],
"DefaultContext_v25" : [
"52124e023d324bc8b1c4d59b"
],
"DefaultContext_v26" : [
"52124e023d324bc8b1c4d59b"
],
"DefaultContext_v27" : [
"52124e023d324bc8b1c4d59b"
],
"DefaultContext_v28" : [
"52124e023d324bc8b1c4d59b"
],
"DefaultContext_v29" : [
"52124e023d324bc8b1c4d59b"
],
"DefaultContext_v30" : [
"52124e023d324bc8b1c4d59b"
],
"DefaultContext_v31" : [
"52124e023d324bc8b1c4d59b"
],
"DefaultContext_v32" : [
"52124e023d324bc8b1c4d59b"
],
"DefaultContext_v33" : [
"c4099916410f4683bdec5640"
],
"DefaultContext_v34" : [
"c4099916410f4683bdec5640"
],
"DefaultContext_v35" : [
"c4099916410f4683bdec5640"
],
"DefaultContext_v36" : [
"c4099916410f4683bdec5640"
],
"DefaultContext_v37" : [
"c4099916410f4683bdec5640"
],
"DefaultContext_v38" : [
"c4099916410f4683bdec5640"
],
"DefaultContext_v39" : [
"c4099916410f4683bdec5640"
],
"DefaultContext_v40" : [
"c4099916410f4683bdec5640"
],
"DefaultContext_v41" : [
"c4099916410f4683bdec5640"
],
"DefaultContext_v42" : [
"c4099916410f4683bdec5640"
],
"DefaultContext_v43" : [
"c4099916410f4683bdec5640"
],
"DefaultContext_v44" : [
"c4099916410f4683bdec5640"
],
"DefaultContext_v45" : [
"c4099916410f4683bdec5640"
],
"DefaultContext_v46" : [
"c4099916410f4683bdec5640"
],
"DefaultContext_v47" : [
"c4099916410f4683bdec5640"
],
"DefaultContext_v48" : [
"c4099916410f4683bdec5640"
],
"DefaultContext_v49" : [
"c4099916410f4683bdec5640"
],
"DefaultContext_v50" : [
"c4099916410f4683bdec5640"
],
"DefaultContext_v51" : [
"c4099916410f4683bdec5640"
],
"DefaultContext_v52" : [
"c4099916410f4683bdec5640"
],
"DefaultContext_v53" : [
"c4099916410f4683bdec5640"
],
"DefaultContext_v54" : [
"c4099916410f4683bdec5640"
],
"DefaultContext_v55" : [
"c4099916410f4683bdec5640"
],
"DefaultContext_v56" : [
"c4099916410f4683bdec5640"
],
"DefaultContext_v57" : [
"c4099916410f4683bdec5640"
],
"DefaultContext_v58" : [
"c4099916410f4683bdec5640"
],
"DefaultContext_v59" : [
"c4099916410f4683bdec5640"
],
"DefaultContext_v60" : [
"c4099916410f4683bdec5640"
],
"DefaultContext_v61" : [
"c4099916410f4683bdec5640"
],
"DefaultContext_v62" : [
"c4099916410f4683bdec5640"
],
"DefaultContext_v63" : [
"c4099916410f4683bdec5640"
],
"DefaultContext_v64" : [
"c4099916410f4683bdec5640"
],
"DefaultContext_v65" : [
"c4099916410f4683bdec5640"
],
"DefaultContext_v66" : [
"c4099916410f4683bdec5640"
],
"DefaultContext_v67" : [
"c4099916410f4683bdec5640"
],
"DefaultContext_v68" : [
"c4099916410f4683bdec5640"
],
"DefaultContext_v69" : [
"c4099916410f4683bdec5640"
],
"DefaultContext_v70" : [
"c4099916410f4683bdec5640"
],
"DefaultContext_v71" : [
"c4099916410f4683bdec5640"
],
"DefaultContext_v72" : [
"c4099916410f4683bdec5640"
],
"DefaultContext_v73" : [
"c4099916410f4683bdec5640"
],
"DefaultContext_v74" : [
"c4099916410f4683bdec5640"
],
"DefaultContext_v75" : [
"c4099916410f4683bdec5640"
]
},
"entities.name" : {
"OTSROOT" : [
"52124e023d324bc8b1c4d59b",
"c4099916410f4683bdec5640"
]
},
"aliases.active.name" : {

},
"runs.name" : {

},
"configurations.assigned" : {
"notprovided" : [
"2018-09-06T17:34:14.997-0500",
"2021-07-07T14:45:50.868-0500"
],
"DefaultContext_v1" : [
"2018-09-06T17:34:15.417-0500"
],
"DefaultContext_v2" : [
"2018-09-10T09:24:24.113-0500"
],
"DefaultContext_v3" : [
"2018-09-11T10:00:20.428-0500"
],
"DefaultContext_v4" : [
"2019-10-22T14:55:21.292-0500"
],
"DefaultContext_v5" : [
"2020-06-29T11:00:05.319-0500"
],
"DefaultContext_v6" : [
"2020-07-29T16:01:22.429-0500"
],
"DefaultContext_v7" : [
"2020-07-29T16:34:42.789-0500"
],
"DefaultContext_v8" : [
"2020-07-29T16:39:53.625-0500"
],
"DefaultContext_v9" : [
"2020-07-29T16:40:44.241-0500"
],
"DefaultContext_v10" : [
"2020-07-29T16:45:01.530-0500"
],
"DefaultContext_v11" : [
"2020-07-29T16:49:16.343-0500"
],
"DefaultContext_v12" : [
"2020-09-02T15:22:09.511-0500"
],
"DefaultContext_v13" : [
"2020-10-05T17:04:58.248-0500"
],
"DefaultContext_v14" : [
"2020-10-05T17:07:06.757-0500"
],
"DefaultContext_v15" : [
"2020-10-05T17:43:27.192-0500"
],
"DefaultContext_v16" : [
"2020-10-05T17:51:30.137-0500"
],
"DefaultContext_v17" : [
"2020-10-09T11:58:10.237-0500"
],
"DefaultContext_v18" : [
"2020-10-09T12:53:53.949-0500"
],
"DefaultContext_v19" : [
"2020-10-09T12:57:06.708-0500"
],
"DefaultContext_v20" : [
"2020-10-09T13:00:58.041-0500"
],
"DefaultContext_v21" : [
"2020-10-09T15:30:48.489-0500"
],
"DefaultContext_v22" : [
"2020-10-09T15:32:24.167-0500"
],
"DefaultContext_v23" : [
"2020-10-09T15:32:58.537-0500"
],
"DefaultContext_v24" : [
"2020-10-09T16:47:19.119-0500"
],
"DefaultContext_v25" : [
"2020-10-12T09:37:49.988-0500"
],
"DefaultContext_v26" : [
"2020-10-12T09:41:39.499-0500"
],
"DefaultContext_v27" : [
"2020-10-29T11:54:28.410-0500"
],
"DefaultContext_v28" : [
"2020-10-29T11:54:56.389-0500"
],
"DefaultContext_v29" : [
"2020-10-29T13:33:31.102-0500"
],
"DefaultContext_v30" : [
"2020-11-16T17:04:43.397-0600"
],
"DefaultContext_v31" : [
"2020-11-16T17:07:49.738-0600"
],
"DefaultContext_v32" : [
"2020-11-16T17:10:03.884-0600"
],
"DefaultContext_v33" : [
"2021-07-07T14:45:52.293-0500"
],
"DefaultContext_v34" : [
"2021-07-07T16:02:04.403-0500"
],
"DefaultContext_v35" : [
"2021-07-07T16:05:37.966-0500"
],
"DefaultContext_v36" : [
"2021-07-08T14:00:20.493-0500"
],
"DefaultContext_v37" : [
"2021-07-08T14:17:00.198-0500"
],
"DefaultContext_v38" : [
"2021-07-08T16:21:56.303-0500"
],
"DefaultContext_v39" : [
"2021-07-08T16:24:39.457-0500"
],
"DefaultContext_v40" : [
"2021-07-14T13:02:14.246-0500"
],
"DefaultContext_v41" : [
"2021-07-14T13:03:01.390-0500"
],
"DefaultContext_v42" : [
"2021-07-14T14:39:31.854-0500"
],
"DefaultContext_v43" : [
"2021-07-21T12:08:22.669-0500"
],
"DefaultContext_v44" : [
"2021-08-03T11:10:39.642-0500"
],
"DefaultContext_v45" : [
"2021-09-02T14:08:01.019-0500"
],
"DefaultContext_v46" : [
"2021-09-24T15:36:52.663-0500"
],
"DefaultContext_v47" : [
"2021-09-28T10:22:57.696-0500"
],
"DefaultContext_v48" : [
"2021-11-10T15:11:05.393-0600"
],
"DefaultContext_v49" : [
"2022-04-18T12:56:04.381-0400"
],
"DefaultContext_v50" : [
"2022-04-20T10:06:52.296-0400"
],
"DefaultContext_v51" : [
"2023-01-19T10:05:01.638-0600"
],
"DefaultContext_v52" : [
"2023-01-19T11:02:48.237-0600"
],
"DefaultContext_v53" : [
"2023-01-19T12:09:18.138-0600"
],
"DefaultContext_v54" : [
"2023-01-23T15:11:58.249-0600"
],
"DefaultContext_v55" : [
"2023-01-30T13:43:40.950-0600"
],
"DefaultContext_v56" : [
"2023-02-13T14:11:45.966-0600"
],
"DefaultContext_v57" : [
"2023-02-13T14:13:00.470-0600"
],
"DefaultContext_v58" : [
"2023-02-13T14:20:59.664-0600"
],
"DefaultContext_v59" : [
"2023-02-13T14:33:43.574-0600"
],
"DefaultContext_v60" : [
"2023-02-13T14:58:14.809-0600"
],
"DefaultContext_v61" : [
"2023-02-16T12:29:02.436-0600"
],
"DefaultContext_v62" : [
"2023-02-16T14:03:00.891-0600"
],
"DefaultContext_v63" : [
"2023-02-16T14:04:39.964-0600"
],
"DefaultContext_v64" : [
"2023-02-16T14:42:27.093-0600"
],
"DefaultContext_v65" : [
"2023-02-16T14:49:47.109-0600"
],
"DefaultContext_v66" : [
"2023-02-16T14:53:11.849-0600"
],
"DefaultContext_v67" : [
"2023-02-16T14:55:43.436-0600"
],
"DefaultContext_v68" : [
"2023-02-17T08:58:42.598-0600"
],
"DefaultContext_v69" : [
"2023-02-17T09:04:54.377-0600"
],
"DefaultContext_v70" : [
"2023-02-17T09:06:41.406-0600"
],
"DefaultContext_v71" : [
"2023-02-17T09:07:48.244-0600"
],
"DefaultContext_v72" : [
"2023-02-23T08:41:50.435-0600"
],
"DefaultContext_v73" : [
"2023-02-28T13:19:24.166-0600"
],
"DefaultContext_v74" : [
"2023-02-28T13:20:45.091-0600"
],
"DefaultContext_v75" : [
"2023-03-01T10:10:37.224-0600"
]
}
}