{
"document" : {
"data" : {
"NAME" : "GROUP_ALIASES_TABLE",
"COMMENT" : "Default Backbone.",
"AUTHOR" : "admin",
"CREATION_TIME" : 1626821188,
"COL_TYPES" : {
"GROUP_KEY_ALIAS" : "STRING",
"GROUP_NAME" : "STRING",
"GROUP_KEY" : "STRING",
"COMMENT_DESCRIPTION" : "STRING",
"AUTHOR" : "STRING",
"RECORD_INSERTION_TIME" : "TIMESTAMP WITH TIMEZONE"
},
"DATA_SET" : [
{
"GROUP_KEY_ALIAS" : "DefaultContext",
"GROUP_NAME" : "DefaultContext",
"GROUP_KEY" : "38",
"COMMENT_DESCRIPTION" : "This Group Alias was automatically setup by the server.",
"AUTHOR" : "admin",
"RECORD_INSERTION_TIME" : "1626817837"
},
{
"GROUP_KEY_ALIAS" : "BurninBoxConfiguration",
"GROUP_NAME" : "BurninBoxConfiguration",
"GROUP_KEY" : "56",
"COMMENT_DESCRIPTION" : "This Group Alias was automatically setup by the server.",
"AUTHOR" : "admin",
"RECORD_INSERTION_TIME" : "1626821188"
}
]
},
"metadata" : {

},
"search" : [

]
},
"comments" : [

],
"origin" : {
"source" : "template",
"name" : "notprovided",
"format" : "json",
"created" : "2021-07-20T17:46:28.248-0500",
"rawdata" : [

]
},
"version" : "156",
"entities" : [
{
"name" : "OTSROOT",
"assigned" : "2021-07-20T17:46:28.248-0500"
}
],
"configurations" : [
{
"name" : "notprovided",
"assigned" : "2021-07-20T17:46:28.248-0500"
},
{
"name" : "TableEditWizBackbone_v88",
"assigned" : "2021-07-20T17:46:29.595-0500"
}
],
"changelog" : "notprovided",
"bookkeeping" : {
"isdeleted" : false,
"isreadonly" : false,
"updates" : [
{
"event" : "addConfiguration",
"timestamp" : "2021-07-20T17:46:28.248-0500",
"value" : {
"name" : "notprovided",
"assigned" : "2021-07-20T17:46:28.248-0500"
}
},
{
"event" : "setVersion",
"timestamp" : "2021-07-20T17:46:28.248-0500",
"value" : {
"name" : "156",
"assigned" : "2021-07-20T17:46:28.248-0500"
}
},
{
"event" : "setCollection",
"timestamp" : "2021-07-20T17:46:28.248-0500",
"value" : {
"name" : "GroupAliasesTable",
"assigned" : "2021-07-20T17:46:28.248-0500"
}
},
{
"event" : "addEntity",
"timestamp" : "2021-07-20T17:46:28.248-0500",
"value" : {
"name" : "OTSROOT",
"assigned" : "2021-07-20T17:46:28.248-0500"
}
},
{
"event" : "addConfiguration",
"timestamp" : "2021-07-20T17:46:29.595-0500",
"value" : {
"name" : "TableEditWizBackbone_v88",
"assigned" : "2021-07-20T17:46:29.595-0500"
}
}
],
"created" : "2021-07-20T17:46:28.248-0500"
},
"_id" : {
"$oid" : "14cfccbd4ca34220a6839dc2"
},
"collection" : "GroupAliasesTable",
"aliases" : {
"active" : [

],
"history" : [

]
},
"runs" : [

],
"attachments" : [

],
"configtype" : "notprovided"
}