{
"document" : {
"data" : {
"NAME" : "GROUP_ALIASES_TABLE",
"COMMENT" : "Default Backbone.",
"AUTHOR" : "admin",
"CREATION_TIME" : 1653600843,
"COL_TYPES" : {
"GROUP_KEY_ALIAS" : "STRING",
"GROUP_NAME" : "STRING",
"GROUP_KEY" : "STRING",
"COMMENT_DESCRIPTION" : "STRING",
"AUTHOR" : "STRING",
"RECORD_INSERTION_TIME" : "TIMESTAMP WITH TIMEZONE"
},
"DATA_SET" : [
{
"GROUP_KEY_ALIAS" : "DefaultContext",
"GROUP_NAME" : "DefaultContext",
"GROUP_KEY" : "50",
"COMMENT_DESCRIPTION" : "This Group Alias was automatically setup by the server.",
"AUTHOR" : "admin",
"RECORD_INSERTION_TIME" : "1653600843"
},
{
"GROUP_KEY_ALIAS" : "BurninBoxConfiguration",
"GROUP_NAME" : "BurninBoxConfiguration",
"GROUP_KEY" : "95",
"COMMENT_DESCRIPTION" : "This Group Alias was automatically setup by the server.",
"AUTHOR" : "admin",
"RECORD_INSERTION_TIME" : "1650393357"
},
{
"GROUP_KEY_ALIAS" : "BurninBoxOnlyContext",
"GROUP_NAME" : "DefaultContext",
"GROUP_KEY" : "43",
"COMMENT_DESCRIPTION" : "This Group Alias was automatically setup by the server.",
"AUTHOR" : "admin",
"RECORD_INSERTION_TIME" : "1632518780"
},
{
"GROUP_KEY_ALIAS" : "BurninBoxOnlyConfiguration",
"GROUP_NAME" : "BurninBoxConfiguration",
"GROUP_KEY" : "89",
"COMMENT_DESCRIPTION" : "This Group Alias was automatically setup by the server.",
"AUTHOR" : "admin",
"RECORD_INSERTION_TIME" : "1634055106"
},
{
"GROUP_KEY_ALIAS" : "TrackerOnlyConfiguration",
"GROUP_NAME" : "BurninBoxConfiguration",
"GROUP_KEY" : "89",
"COMMENT_DESCRIPTION" : "This Group Alias was automatically setup by the server.",
"AUTHOR" : "admin",
"RECORD_INSERTION_TIME" : "1650482925"
},
{
"GROUP_KEY_ALIAS" : "TrackerOnlyContext",
"GROUP_NAME" : "DefaultContext",
"GROUP_KEY" : "43",
"COMMENT_DESCRIPTION" : "This Group Alias was automatically setup by the server.",
"AUTHOR" : "admin",
"RECORD_INSERTION_TIME" : "1636583603"
}
]
},
"metadata" : {

},
"search" : [

]
},
"comments" : [

],
"origin" : {
"source" : "template",
"name" : "notprovided",
"format" : "json",
"created" : "2022-05-26T16:34:03.863-0500",
"rawdata" : [

]
},
"version" : "240",
"entities" : [
{
"name" : "OTSROOT",
"assigned" : "2022-05-26T16:34:03.863-0500"
}
],
"configurations" : [
{
"name" : "notprovided",
"assigned" : "2022-05-26T16:34:03.863-0500"
},
{
"name" : "GroupAliasTreeEditWizBackbone_v99",
"assigned" : "2022-05-26T16:34:05.571-0500"
}
],
"changelog" : "notprovided",
"bookkeeping" : {
"isdeleted" : false,
"isreadonly" : false,
"updates" : [
{
"event" : "addConfiguration",
"timestamp" : "2022-05-26T16:34:03.863-0500",
"value" : {
"name" : "notprovided",
"assigned" : "2022-05-26T16:34:03.863-0500"
}
},
{
"event" : "setVersion",
"timestamp" : "2022-05-26T16:34:03.863-0500",
"value" : {
"name" : "240",
"assigned" : "2022-05-26T16:34:03.863-0500"
}
},
{
"event" : "setCollection",
"timestamp" : "2022-05-26T16:34:03.863-0500",
"value" : {
"name" : "GroupAliasesTable",
"assigned" : "2022-05-26T16:34:03.863-0500"
}
},
{
"event" : "addEntity",
"timestamp" : "2022-05-26T16:34:03.863-0500",
"value" : {
"name" : "OTSROOT",
"assigned" : "2022-05-26T16:34:03.863-0500"
}
},
{
"event" : "addConfiguration",
"timestamp" : "2022-05-26T16:34:05.571-0500",
"value" : {
"name" : "GroupAliasTreeEditWizBackbone_v99",
"assigned" : "2022-05-26T16:34:05.571-0500"
}
}
],
"created" : "2022-05-26T16:34:03.863-0500"
},
"_id" : {
"$oid" : "f2468fef789c4baaa4995f91"
},
"collection" : "GroupAliasesTable",
"aliases" : {
"active" : [

],
"history" : [

]
},
"runs" : [

],
"attachments" : [

],
"configtype" : "notprovided"
}