{
"document" : {
"data" : {
"NAME" : "FECMS_BURNIN_BOX_INTERFACE_TABLE",
"COMMENT" : "No comment.",
"AUTHOR" : "admin",
"CREATION_TIME" : 1603142161,
"COL_TYPES" : {
"INTERFACE_ID" : "STRING",
"STATUS" : "STRING",
"INTERFACE_IP_ADDRESS" : "STRING",
"INTERFACE_PORT" : "NUMBER",
"HOST_IP_ADDRESS" : "STRING",
"HOST_PORT" : "NUMBER",
"DATA_PUBLISHER_PORT" : "NUMBER",
"LINK_TO_BURNIN_BOX_CYCLE_TABLE" : "STRING",
"LINK_TO_BURNIN_BOX_CYCLE_GROUP_ID" : "STRING",
"COMMENT_DESCRIPTION" : "STRING",
"AUTHOR" : "STRING",
"RECORD_INSERTION_TIME" : "TIMESTAMP WITH TIMEZONE"
},
"DATA_SET" : [
{
"INTERFACE_ID" : "FEBurninBoxInterface",
"STATUS" : "On",
"INTERFACE_IP_ADDRESS" : "127.0.0.1",
"INTERFACE_PORT" : "5001",
"HOST_IP_ADDRESS" : "127.0.0.1",
"HOST_PORT" : "10000",
"DATA_PUBLISHER_PORT" : "50000",
"LINK_TO_BURNIN_BOX_CYCLE_TABLE" : "BurninBoxCycleTable",
"LINK_TO_BURNIN_BOX_CYCLE_GROUP_ID" : "ModuleTestingCycle",
"COMMENT_DESCRIPTION" : "No Comment",
"AUTHOR" : "admin",
"RECORD_INSERTION_TIME" : "1603142150"
}
]
},
"metadata" : {

},
"search" : [

]
},
"comments" : [

],
"origin" : {
"source" : "template",
"name" : "notprovided",
"format" : "json",
"created" : "2020-10-19T16:16:01.147-0500",
"rawdata" : [

]
},
"version" : "32",
"entities" : [
{
"name" : "OTSROOT",
"assigned" : "2020-10-19T16:16:01.148-0500"
}
],
"configurations" : [
{
"name" : "notprovided",
"assigned" : "2020-10-19T16:16:01.147-0500"
},
{
"name" : "BurninBoxConfiguration_v17",
"assigned" : "2020-10-19T16:16:02.630-0500"
},
{
"name" : "BurninBoxConfiguration_v18",
"assigned" : "2020-10-23T11:00:20.439-0500"
},
{
"name" : "BurninBoxConfiguration_v19",
"assigned" : "2020-10-26T11:51:21.437-0500"
},
{
"name" : "BurninBoxConfiguration_v20",
"assigned" : "2020-10-26T11:51:43.093-0500"
},
{
"name" : "BurninBoxConfiguration_v21",
"assigned" : "2020-10-26T11:56:42.525-0500"
},
{
"name" : "BurninBoxConfiguration_v22",
"assigned" : "2020-10-26T14:34:34.461-0500"
},
{
"name" : "BurninBoxConfiguration_v23",
"assigned" : "2020-10-26T14:53:01.390-0500"
},
{
"name" : "BurninBoxConfiguration_v24",
"assigned" : "2020-10-26T15:02:46.651-0500"
},
{
"name" : "BurninBoxConfiguration_v25",
"assigned" : "2020-10-27T17:42:10.446-0500"
},
{
"name" : "BurninBoxConfiguration_v26",
"assigned" : "2020-10-29T11:52:32.644-0500"
},
{
"name" : "BurninBoxConfiguration_v27",
"assigned" : "2020-10-29T11:54:26.408-0500"
},
{
"name" : "BurninBoxConfiguration_v28",
"assigned" : "2020-10-29T13:30:24.372-0500"
},
{
"name" : "BurninBoxConfiguration_v29",
"assigned" : "2020-10-29T13:45:55.774-0500"
},
{
"name" : "BurninBoxConfiguration_v30",
"assigned" : "2020-10-29T13:46:38.051-0500"
},
{
"name" : "BurninBoxConfiguration_v31",
"assigned" : "2020-10-29T13:48:02.700-0500"
},
{
"name" : "BurninBoxConfiguration_v32",
"assigned" : "2020-10-29T14:39:28.713-0500"
},
{
"name" : "BurninBoxConfiguration_v33",
"assigned" : "2021-06-30T16:17:51.714-0500"
},
{
"name" : "BurninBoxConfiguration_v34",
"assigned" : "2021-06-30T16:23:48.074-0500"
},
{
"name" : "BurninBoxConfiguration_v35",
"assigned" : "2021-07-08T14:06:13.965-0500"
},
{
"name" : "BurninBoxConfiguration_v36",
"assigned" : "2021-07-08T14:16:58.153-0500"
},
{
"name" : "BurninBoxConfiguration_v37",
"assigned" : "2021-07-08T16:20:44.718-0500"
},
{
"name" : "BurninBoxConfiguration_v38",
"assigned" : "2021-07-09T11:47:13.917-0500"
},
{
"name" : "BurninBoxConfiguration_v39",
"assigned" : "2021-07-09T11:48:46.038-0500"
},
{
"name" : "BurninBoxConfiguration_v40",
"assigned" : "2021-07-09T16:06:00.512-0500"
},
{
"name" : "BurninBoxConfiguration_v41",
"assigned" : "2021-07-12T11:04:55.497-0500"
},
{
"name" : "BurninBoxConfiguration_v42",
"assigned" : "2021-07-13T12:01:31.334-0500"
},
{
"name" : "BurninBoxConfiguration_v43",
"assigned" : "2021-07-13T12:22:05.825-0500"
},
{
"name" : "BurninBoxConfiguration_v44",
"assigned" : "2021-07-14T13:05:58.400-0500"
},
{
"name" : "BurninBoxConfiguration_v45",
"assigned" : "2021-07-14T14:26:04.587-0500"
},
{
"name" : "BurninBoxConfiguration_v46",
"assigned" : "2021-07-14T14:46:56.846-0500"
},
{
"name" : "BurninBoxConfiguration_v47",
"assigned" : "2021-07-14T15:24:33.715-0500"
},
{
"name" : "BurninBoxConfiguration_v48",
"assigned" : "2021-07-14T16:05:29.330-0500"
},
{
"name" : "BurninBoxConfiguration_v49",
"assigned" : "2021-07-14T16:15:40.958-0500"
},
{
"name" : "BurninBoxConfiguration_v50",
"assigned" : "2021-07-14T16:17:40.764-0500"
},
{
"name" : "BurninBoxConfiguration_v51",
"assigned" : "2021-07-15T11:50:33.773-0500"
},
{
"name" : "BurninBoxConfiguration_v52",
"assigned" : "2021-07-20T13:45:53.907-0500"
},
{
"name" : "BurninBoxConfiguration_v53",
"assigned" : "2021-07-20T16:41:42.093-0500"
},
{
"name" : "BurninBoxConfiguration_v54",
"assigned" : "2021-07-20T17:09:26.815-0500"
},
{
"name" : "BurninBoxConfiguration_v55",
"assigned" : "2021-07-20T17:28:39.990-0500"
},
{
"name" : "BurninBoxConfiguration_v56",
"assigned" : "2021-07-20T17:46:27.297-0500"
},
{
"name" : "BurninBoxConfiguration_v57",
"assigned" : "2021-07-21T11:50:01.873-0500"
},
{
"name" : "BurninBoxConfiguration_v58",
"assigned" : "2021-07-21T11:58:37.535-0500"
},
{
"name" : "BurninBoxConfiguration_v59",
"assigned" : "2021-07-21T11:59:33.290-0500"
},
{
"name" : "BurninBoxConfiguration_v60",
"assigned" : "2021-07-22T18:35:00.306-0500"
},
{
"name" : "BurninBoxConfiguration_v61",
"assigned" : "2021-07-23T12:33:56.620-0500"
},
{
"name" : "BurninBoxConfiguration_v62",
"assigned" : "2021-07-24T00:54:49.438-0500"
},
{
"name" : "BurninBoxConfiguration_v63",
"assigned" : "2021-07-24T12:12:51.023-0500"
},
{
"name" : "BurninBoxConfiguration_v64",
"assigned" : "2021-07-25T21:07:15.956-0500"
},
{
"name" : "BurninBoxConfiguration_v65",
"assigned" : "2021-07-26T07:43:11.830-0500"
},
{
"name" : "BurninBoxConfiguration_v66",
"assigned" : "2021-07-26T18:37:11.925-0500"
},
{
"name" : "BurninBoxConfiguration_v67",
"assigned" : "2021-07-27T08:25:40.642-0500"
},
{
"name" : "BurninBoxConfiguration_v68",
"assigned" : "2021-08-03T11:10:37.063-0500"
},
{
"name" : "BurninBoxConfiguration_v69",
"assigned" : "2021-08-04T12:21:57.430-0500"
},
{
"name" : "BurninBoxConfiguration_v70",
"assigned" : "2021-09-02T13:43:33.871-0500"
},
{
"name" : "BurninBoxConfiguration_v71",
"assigned" : "2021-09-02T14:03:36.698-0500"
},
{
"name" : "BurninBoxConfiguration_v72",
"assigned" : "2021-09-23T15:47:05.090-0500"
},
{
"name" : "BurninBoxConfiguration_v73",
"assigned" : "2021-09-23T15:47:42.053-0500"
},
{
"name" : "BurninBoxConfiguration_v74",
"assigned" : "2021-09-24T15:36:49.944-0500"
},
{
"name" : "BurninBoxConfiguration_v75",
"assigned" : "2021-09-24T15:53:22.925-0500"
},
{
"name" : "BurninBoxConfiguration_v76",
"assigned" : "2021-09-24T16:04:21.899-0500"
},
{
"name" : "BurninBoxConfiguration_v77",
"assigned" : "2021-09-24T16:28:06.743-0500"
},
{
"name" : "BurninBoxConfiguration_v78",
"assigned" : "2021-09-27T09:02:56.310-0500"
},
{
"name" : "BurninBoxConfiguration_v79",
"assigned" : "2021-09-27T14:22:24.596-0500"
},
{
"name" : "BurninBoxConfiguration_v80",
"assigned" : "2021-09-28T09:24:50.488-0500"
},
{
"name" : "BurninBoxConfiguration_v81",
"assigned" : "2021-09-30T09:14:50.776-0500"
},
{
"name" : "BurninBoxConfiguration_v82",
"assigned" : "2021-10-01T10:56:21.291-0500"
},
{
"name" : "BurninBoxConfiguration_v83",
"assigned" : "2021-10-01T11:01:40.921-0500"
},
{
"name" : "BurninBoxConfiguration_v84",
"assigned" : "2021-10-06T10:02:31.173-0500"
},
{
"name" : "BurninBoxConfiguration_v85",
"assigned" : "2021-10-07T16:32:40.308-0500"
},
{
"name" : "BurninBoxConfiguration_v86",
"assigned" : "2021-10-08T14:03:15.157-0500"
},
{
"name" : "BurninBoxConfiguration_v87",
"assigned" : "2021-10-11T16:00:56.069-0500"
},
{
"name" : "BurninBoxConfiguration_v88",
"assigned" : "2021-10-12T09:07:17.328-0500"
},
{
"name" : "BurninBoxConfiguration_v89",
"assigned" : "2021-10-12T11:11:23.011-0500"
},
{
"name" : "BurninBoxConfiguration_v90",
"assigned" : "2021-10-14T17:03:16.423-0500"
},
{
"name" : "BurninBoxConfiguration_v91",
"assigned" : "2021-10-15T10:48:31.163-0500"
},
{
"name" : "BurninBoxConfiguration_v92",
"assigned" : "2021-10-15T15:50:49.107-0500"
},
{
"name" : "BurninBoxConfiguration_v93",
"assigned" : "2021-11-03T16:30:19.959-0500"
},
{
"name" : "BurninBoxConfiguration_v94",
"assigned" : "2021-11-10T15:11:02.362-0600"
},
{
"name" : "BurninBoxConfiguration_v95",
"assigned" : "2022-04-19T14:35:56.343-0400"
},
{
"name" : "BurninBoxConfiguration_v96",
"assigned" : "2022-04-20T10:06:05.347-0400"
},
{
"name" : "BurninBoxConfiguration_v97",
"assigned" : "2022-04-20T11:23:52.069-0400"
}
],
"changelog" : "notprovided",
"bookkeeping" : {
"isdeleted" : false,
"isreadonly" : false,
"updates" : [
{
"event" : "addConfiguration",
"timestamp" : "2020-10-19T16:16:01.147-0500",
"value" : {
"name" : "notprovided",
"assigned" : "2020-10-19T16:16:01.147-0500"
}
},
{
"event" : "setVersion",
"timestamp" : "2020-10-19T16:16:01.147-0500",
"value" : {
"name" : "32",
"assigned" : "2020-10-19T16:16:01.147-0500"
}
},
{
"event" : "setCollection",
"timestamp" : "2020-10-19T16:16:01.148-0500",
"value" : {
"name" : "FECMSBurninBoxInterfaceTable",
"assigned" : "2020-10-19T16:16:01.148-0500"
}
},
{
"event" : "addEntity",
"timestamp" : "2020-10-19T16:16:01.148-0500",
"value" : {
"name" : "OTSROOT",
"assigned" : "2020-10-19T16:16:01.148-0500"
}
},
{
"event" : "addConfiguration",
"timestamp" : "2020-10-19T16:16:02.630-0500",
"value" : {
"name" : "BurninBoxConfiguration_v17",
"assigned" : "2020-10-19T16:16:02.630-0500"
}
},
{
"event" : "addConfiguration",
"timestamp" : "2020-10-23T11:00:20.439-0500",
"value" : {
"name" : "BurninBoxConfiguration_v18",
"assigned" : "2020-10-23T11:00:20.439-0500"
}
},
{
"event" : "addConfiguration",
"timestamp" : "2020-10-26T11:51:21.438-0500",
"value" : {
"name" : "BurninBoxConfiguration_v19",
"assigned" : "2020-10-26T11:51:21.437-0500"
}
},
{
"event" : "addConfiguration",
"timestamp" : "2020-10-26T11:51:43.093-0500",
"value" : {
"name" : "BurninBoxConfiguration_v20",
"assigned" : "2020-10-26T11:51:43.093-0500"
}
},
{
"event" : "addConfiguration",
"timestamp" : "2020-10-26T11:56:42.525-0500",
"value" : {
"name" : "BurninBoxConfiguration_v21",
"assigned" : "2020-10-26T11:56:42.525-0500"
}
},
{
"event" : "addConfiguration",
"timestamp" : "2020-10-26T14:34:34.461-0500",
"value" : {
"name" : "BurninBoxConfiguration_v22",
"assigned" : "2020-10-26T14:34:34.461-0500"
}
},
{
"event" : "addConfiguration",
"timestamp" : "2020-10-26T14:53:01.390-0500",
"value" : {
"name" : "BurninBoxConfiguration_v23",
"assigned" : "2020-10-26T14:53:01.390-0500"
}
},
{
"event" : "addConfiguration",
"timestamp" : "2020-10-26T15:02:46.651-0500",
"value" : {
"name" : "BurninBoxConfiguration_v24",
"assigned" : "2020-10-26T15:02:46.651-0500"
}
},
{
"event" : "addConfiguration",
"timestamp" : "2020-10-27T17:42:10.446-0500",
"value" : {
"name" : "BurninBoxConfiguration_v25",
"assigned" : "2020-10-27T17:42:10.446-0500"
}
},
{
"event" : "addConfiguration",
"timestamp" : "2020-10-29T11:52:32.644-0500",
"value" : {
"name" : "BurninBoxConfiguration_v26",
"assigned" : "2020-10-29T11:52:32.644-0500"
}
},
{
"event" : "addConfiguration",
"timestamp" : "2020-10-29T11:54:26.408-0500",
"value" : {
"name" : "BurninBoxConfiguration_v27",
"assigned" : "2020-10-29T11:54:26.408-0500"
}
},
{
"event" : "addConfiguration",
"timestamp" : "2020-10-29T13:30:24.372-0500",
"value" : {
"name" : "BurninBoxConfiguration_v28",
"assigned" : "2020-10-29T13:30:24.372-0500"
}
},
{
"event" : "addConfiguration",
"timestamp" : "2020-10-29T13:45:55.774-0500",
"value" : {
"name" : "BurninBoxConfiguration_v29",
"assigned" : "2020-10-29T13:45:55.774-0500"
}
},
{
"event" : "addConfiguration",
"timestamp" : "2020-10-29T13:46:38.051-0500",
"value" : {
"name" : "BurninBoxConfiguration_v30",
"assigned" : "2020-10-29T13:46:38.051-0500"
}
},
{
"event" : "addConfiguration",
"timestamp" : "2020-10-29T13:48:02.700-0500",
"value" : {
"name" : "BurninBoxConfiguration_v31",
"assigned" : "2020-10-29T13:48:02.700-0500"
}
},
{
"event" : "addConfiguration",
"timestamp" : "2020-10-29T14:39:28.713-0500",
"value" : {
"name" : "BurninBoxConfiguration_v32",
"assigned" : "2020-10-29T14:39:28.713-0500"
}
},
{
"event" : "addConfiguration",
"timestamp" : "2021-06-30T16:17:51.714-0500",
"value" : {
"name" : "BurninBoxConfiguration_v33",
"assigned" : "2021-06-30T16:17:51.714-0500"
}
},
{
"event" : "addConfiguration",
"timestamp" : "2021-06-30T16:23:48.074-0500",
"value" : {
"name" : "BurninBoxConfiguration_v34",
"assigned" : "2021-06-30T16:23:48.074-0500"
}
},
{
"event" : "addConfiguration",
"timestamp" : "2021-07-08T14:06:13.965-0500",
"value" : {
"name" : "BurninBoxConfiguration_v35",
"assigned" : "2021-07-08T14:06:13.965-0500"
}
},
{
"event" : "addConfiguration",
"timestamp" : "2021-07-08T14:16:58.153-0500",
"value" : {
"name" : "BurninBoxConfiguration_v36",
"assigned" : "2021-07-08T14:16:58.153-0500"
}
},
{
"event" : "addConfiguration",
"timestamp" : "2021-07-08T16:20:44.719-0500",
"value" : {
"name" : "BurninBoxConfiguration_v37",
"assigned" : "2021-07-08T16:20:44.718-0500"
}
},
{
"event" : "addConfiguration",
"timestamp" : "2021-07-09T11:47:13.917-0500",
"value" : {
"name" : "BurninBoxConfiguration_v38",
"assigned" : "2021-07-09T11:47:13.917-0500"
}
},
{
"event" : "addConfiguration",
"timestamp" : "2021-07-09T11:48:46.039-0500",
"value" : {
"name" : "BurninBoxConfiguration_v39",
"assigned" : "2021-07-09T11:48:46.038-0500"
}
},
{
"event" : "addConfiguration",
"timestamp" : "2021-07-09T16:06:00.512-0500",
"value" : {
"name" : "BurninBoxConfiguration_v40",
"assigned" : "2021-07-09T16:06:00.512-0500"
}
},
{
"event" : "addConfiguration",
"timestamp" : "2021-07-12T11:04:55.497-0500",
"value" : {
"name" : "BurninBoxConfiguration_v41",
"assigned" : "2021-07-12T11:04:55.497-0500"
}
},
{
"event" : "addConfiguration",
"timestamp" : "2021-07-13T12:01:31.334-0500",
"value" : {
"name" : "BurninBoxConfiguration_v42",
"assigned" : "2021-07-13T12:01:31.334-0500"
}
},
{
"event" : "addConfiguration",
"timestamp" : "2021-07-13T12:22:05.825-0500",
"value" : {
"name" : "BurninBoxConfiguration_v43",
"assigned" : "2021-07-13T12:22:05.825-0500"
}
},
{
"event" : "addConfiguration",
"timestamp" : "2021-07-14T13:05:58.400-0500",
"value" : {
"name" : "BurninBoxConfiguration_v44",
"assigned" : "2021-07-14T13:05:58.400-0500"
}
},
{
"event" : "addConfiguration",
"timestamp" : "2021-07-14T14:26:04.587-0500",
"value" : {
"name" : "BurninBoxConfiguration_v45",
"assigned" : "2021-07-14T14:26:04.587-0500"
}
},
{
"event" : "addConfiguration",
"timestamp" : "2021-07-14T14:46:56.846-0500",
"value" : {
"name" : "BurninBoxConfiguration_v46",
"assigned" : "2021-07-14T14:46:56.846-0500"
}
},
{
"event" : "addConfiguration",
"timestamp" : "2021-07-14T15:24:33.715-0500",
"value" : {
"name" : "BurninBoxConfiguration_v47",
"assigned" : "2021-07-14T15:24:33.715-0500"
}
},
{
"event" : "addConfiguration",
"timestamp" : "2021-07-14T16:05:29.330-0500",
"value" : {
"name" : "BurninBoxConfiguration_v48",
"assigned" : "2021-07-14T16:05:29.330-0500"
}
},
{
"event" : "addConfiguration",
"timestamp" : "2021-07-14T16:15:40.958-0500",
"value" : {
"name" : "BurninBoxConfiguration_v49",
"assigned" : "2021-07-14T16:15:40.958-0500"
}
},
{
"event" : "addConfiguration",
"timestamp" : "2021-07-14T16:17:40.764-0500",
"value" : {
"name" : "BurninBoxConfiguration_v50",
"assigned" : "2021-07-14T16:17:40.764-0500"
}
},
{
"event" : "addConfiguration",
"timestamp" : "2021-07-15T11:50:33.773-0500",
"value" : {
"name" : "BurninBoxConfiguration_v51",
"assigned" : "2021-07-15T11:50:33.773-0500"
}
},
{
"event" : "addConfiguration",
"timestamp" : "2021-07-20T13:45:53.907-0500",
"value" : {
"name" : "BurninBoxConfiguration_v52",
"assigned" : "2021-07-20T13:45:53.907-0500"
}
},
{
"event" : "addConfiguration",
"timestamp" : "2021-07-20T16:41:42.093-0500",
"value" : {
"name" : "BurninBoxConfiguration_v53",
"assigned" : "2021-07-20T16:41:42.093-0500"
}
},
{
"event" : "addConfiguration",
"timestamp" : "2021-07-20T17:09:26.815-0500",
"value" : {
"name" : "BurninBoxConfiguration_v54",
"assigned" : "2021-07-20T17:09:26.815-0500"
}
},
{
"event" : "addConfiguration",
"timestamp" : "2021-07-20T17:28:39.990-0500",
"value" : {
"name" : "BurninBoxConfiguration_v55",
"assigned" : "2021-07-20T17:28:39.990-0500"
}
},
{
"event" : "addConfiguration",
"timestamp" : "2021-07-20T17:46:27.298-0500",
"value" : {
"name" : "BurninBoxConfiguration_v56",
"assigned" : "2021-07-20T17:46:27.297-0500"
}
},
{
"event" : "addConfiguration",
"timestamp" : "2021-07-21T11:50:01.873-0500",
"value" : {
"name" : "BurninBoxConfiguration_v57",
"assigned" : "2021-07-21T11:50:01.873-0500"
}
},
{
"event" : "addConfiguration",
"timestamp" : "2021-07-21T11:58:37.535-0500",
"value" : {
"name" : "BurninBoxConfiguration_v58",
"assigned" : "2021-07-21T11:58:37.535-0500"
}
},
{
"event" : "addConfiguration",
"timestamp" : "2021-07-21T11:59:33.290-0500",
"value" : {
"name" : "BurninBoxConfiguration_v59",
"assigned" : "2021-07-21T11:59:33.290-0500"
}
},
{
"event" : "addConfiguration",
"timestamp" : "2021-07-22T18:35:00.306-0500",
"value" : {
"name" : "BurninBoxConfiguration_v60",
"assigned" : "2021-07-22T18:35:00.306-0500"
}
},
{
"event" : "addConfiguration",
"timestamp" : "2021-07-23T12:33:56.620-0500",
"value" : {
"name" : "BurninBoxConfiguration_v61",
"assigned" : "2021-07-23T12:33:56.620-0500"
}
},
{
"event" : "addConfiguration",
"timestamp" : "2021-07-24T00:54:49.438-0500",
"value" : {
"name" : "BurninBoxConfiguration_v62",
"assigned" : "2021-07-24T00:54:49.438-0500"
}
},
{
"event" : "addConfiguration",
"timestamp" : "2021-07-24T12:12:51.023-0500",
"value" : {
"name" : "BurninBoxConfiguration_v63",
"assigned" : "2021-07-24T12:12:51.023-0500"
}
},
{
"event" : "addConfiguration",
"timestamp" : "2021-07-25T21:07:15.956-0500",
"value" : {
"name" : "BurninBoxConfiguration_v64",
"assigned" : "2021-07-25T21:07:15.956-0500"
}
},
{
"event" : "addConfiguration",
"timestamp" : "2021-07-26T07:43:11.830-0500",
"value" : {
"name" : "BurninBoxConfiguration_v65",
"assigned" : "2021-07-26T07:43:11.830-0500"
}
},
{
"event" : "addConfiguration",
"timestamp" : "2021-07-26T18:37:11.925-0500",
"value" : {
"name" : "BurninBoxConfiguration_v66",
"assigned" : "2021-07-26T18:37:11.925-0500"
}
},
{
"event" : "addConfiguration",
"timestamp" : "2021-07-27T08:25:40.642-0500",
"value" : {
"name" : "BurninBoxConfiguration_v67",
"assigned" : "2021-07-27T08:25:40.642-0500"
}
},
{
"event" : "addConfiguration",
"timestamp" : "2021-08-03T11:10:37.063-0500",
"value" : {
"name" : "BurninBoxConfiguration_v68",
"assigned" : "2021-08-03T11:10:37.063-0500"
}
},
{
"event" : "addConfiguration",
"timestamp" : "2021-08-04T12:21:57.430-0500",
"value" : {
"name" : "BurninBoxConfiguration_v69",
"assigned" : "2021-08-04T12:21:57.430-0500"
}
},
{
"event" : "addConfiguration",
"timestamp" : "2021-09-02T13:43:33.871-0500",
"value" : {
"name" : "BurninBoxConfiguration_v70",
"assigned" : "2021-09-02T13:43:33.871-0500"
}
},
{
"event" : "addConfiguration",
"timestamp" : "2021-09-02T14:03:36.698-0500",
"value" : {
"name" : "BurninBoxConfiguration_v71",
"assigned" : "2021-09-02T14:03:36.698-0500"
}
},
{
"event" : "addConfiguration",
"timestamp" : "2021-09-23T15:47:05.090-0500",
"value" : {
"name" : "BurninBoxConfiguration_v72",
"assigned" : "2021-09-23T15:47:05.090-0500"
}
},
{
"event" : "addConfiguration",
"timestamp" : "2021-09-23T15:47:42.053-0500",
"value" : {
"name" : "BurninBoxConfiguration_v73",
"assigned" : "2021-09-23T15:47:42.053-0500"
}
},
{
"event" : "addConfiguration",
"timestamp" : "2021-09-24T15:36:49.944-0500",
"value" : {
"name" : "BurninBoxConfiguration_v74",
"assigned" : "2021-09-24T15:36:49.944-0500"
}
},
{
"event" : "addConfiguration",
"timestamp" : "2021-09-24T15:53:22.925-0500",
"value" : {
"name" : "BurninBoxConfiguration_v75",
"assigned" : "2021-09-24T15:53:22.925-0500"
}
},
{
"event" : "addConfiguration",
"timestamp" : "2021-09-24T16:04:21.899-0500",
"value" : {
"name" : "BurninBoxConfiguration_v76",
"assigned" : "2021-09-24T16:04:21.899-0500"
}
},
{
"event" : "addConfiguration",
"timestamp" : "2021-09-24T16:28:06.743-0500",
"value" : {
"name" : "BurninBoxConfiguration_v77",
"assigned" : "2021-09-24T16:28:06.743-0500"
}
},
{
"event" : "addConfiguration",
"timestamp" : "2021-09-27T09:02:56.310-0500",
"value" : {
"name" : "BurninBoxConfiguration_v78",
"assigned" : "2021-09-27T09:02:56.310-0500"
}
},
{
"event" : "addConfiguration",
"timestamp" : "2021-09-27T14:22:24.596-0500",
"value" : {
"name" : "BurninBoxConfiguration_v79",
"assigned" : "2021-09-27T14:22:24.596-0500"
}
},
{
"event" : "addConfiguration",
"timestamp" : "2021-09-28T09:24:50.488-0500",
"value" : {
"name" : "BurninBoxConfiguration_v80",
"assigned" : "2021-09-28T09:24:50.488-0500"
}
},
{
"event" : "addConfiguration",
"timestamp" : "2021-09-30T09:14:50.776-0500",
"value" : {
"name" : "BurninBoxConfiguration_v81",
"assigned" : "2021-09-30T09:14:50.776-0500"
}
},
{
"event" : "addConfiguration",
"timestamp" : "2021-10-01T10:56:21.291-0500",
"value" : {
"name" : "BurninBoxConfiguration_v82",
"assigned" : "2021-10-01T10:56:21.291-0500"
}
},
{
"event" : "addConfiguration",
"timestamp" : "2021-10-01T11:01:40.921-0500",
"value" : {
"name" : "BurninBoxConfiguration_v83",
"assigned" : "2021-10-01T11:01:40.921-0500"
}
},
{
"event" : "addConfiguration",
"timestamp" : "2021-10-06T10:02:31.173-0500",
"value" : {
"name" : "BurninBoxConfiguration_v84",
"assigned" : "2021-10-06T10:02:31.173-0500"
}
},
{
"event" : "addConfiguration",
"timestamp" : "2021-10-07T16:32:40.308-0500",
"value" : {
"name" : "BurninBoxConfiguration_v85",
"assigned" : "2021-10-07T16:32:40.308-0500"
}
},
{
"event" : "addConfiguration",
"timestamp" : "2021-10-08T14:03:15.157-0500",
"value" : {
"name" : "BurninBoxConfiguration_v86",
"assigned" : "2021-10-08T14:03:15.157-0500"
}
},
{
"event" : "addConfiguration",
"timestamp" : "2021-10-11T16:00:56.069-0500",
"value" : {
"name" : "BurninBoxConfiguration_v87",
"assigned" : "2021-10-11T16:00:56.069-0500"
}
},
{
"event" : "addConfiguration",
"timestamp" : "2021-10-12T09:07:17.328-0500",
"value" : {
"name" : "BurninBoxConfiguration_v88",
"assigned" : "2021-10-12T09:07:17.328-0500"
}
},
{
"event" : "addConfiguration",
"timestamp" : "2021-10-12T11:11:23.011-0500",
"value" : {
"name" : "BurninBoxConfiguration_v89",
"assigned" : "2021-10-12T11:11:23.011-0500"
}
},
{
"event" : "addConfiguration",
"timestamp" : "2021-10-14T17:03:16.423-0500",
"value" : {
"name" : "BurninBoxConfiguration_v90",
"assigned" : "2021-10-14T17:03:16.423-0500"
}
},
{
"event" : "addConfiguration",
"timestamp" : "2021-10-15T10:48:31.163-0500",
"value" : {
"name" : "BurninBoxConfiguration_v91",
"assigned" : "2021-10-15T10:48:31.163-0500"
}
},
{
"event" : "addConfiguration",
"timestamp" : "2021-10-15T15:50:49.107-0500",
"value" : {
"name" : "BurninBoxConfiguration_v92",
"assigned" : "2021-10-15T15:50:49.107-0500"
}
},
{
"event" : "addConfiguration",
"timestamp" : "2021-11-03T16:30:19.959-0500",
"value" : {
"name" : "BurninBoxConfiguration_v93",
"assigned" : "2021-11-03T16:30:19.959-0500"
}
},
{
"event" : "addConfiguration",
"timestamp" : "2021-11-10T15:11:02.362-0600",
"value" : {
"name" : "BurninBoxConfiguration_v94",
"assigned" : "2021-11-10T15:11:02.362-0600"
}
},
{
"event" : "addConfiguration",
"timestamp" : "2022-04-19T14:35:56.343-0400",
"value" : {
"name" : "BurninBoxConfiguration_v95",
"assigned" : "2022-04-19T14:35:56.343-0400"
}
},
{
"event" : "addConfiguration",
"timestamp" : "2022-04-20T10:06:05.347-0400",
"value" : {
"name" : "BurninBoxConfiguration_v96",
"assigned" : "2022-04-20T10:06:05.347-0400"
}
},
{
"event" : "addConfiguration",
"timestamp" : "2022-04-20T11:23:52.069-0400",
"value" : {
"name" : "BurninBoxConfiguration_v97",
"assigned" : "2022-04-20T11:23:52.069-0400"
}
}
],
"created" : "2020-10-19T16:16:01.147-0500"
},
"_id" : {
"$oid" : "cd73dfa3eb7e4065ad31c359"
},
"collection" : "FECMSBurninBoxInterfaceTable",
"aliases" : {
"active" : [

],
"history" : [

]
},
"runs" : [

],
"attachments" : [

],
"configtype" : "notprovided"
}