{
"document" : {
"data" : {
"NAME" : "TCP_DATA_LISTENER_PRODUCER_TABLE",
"COMMENT" : "No comment.",
"AUTHOR" : "admin",
"CREATION_TIME" : 1603996193,
"COL_TYPES" : {
"PROCESSOR_UID" : "STRING",
"BUFFER_SIZE" : "NUMBER",
"SERVER_IP_ADDRESS" : "STRING",
"SERVER_PORT" : "NUMBER",
"DATA_TYPE" : "STRING",
"COMMENT_DESCRIPTION" : "STRING",
"AUTHOR" : "STRING",
"RECORD_INSERTION_TIME" : "TIMESTAMP WITH TIMEZONE"
},
"DATA_SET" : [
{
"PROCESSOR_UID" : "VBBurninBoxListener",
"BUFFER_SIZE" : "1000",
"SERVER_IP_ADDRESS" : "127.0.0.1",
"SERVER_PORT" : "50000",
"DATA_TYPE" : "Raw",
"COMMENT_DESCRIPTION" : "No Comment",
"AUTHOR" : "admin",
"RECORD_INSERTION_TIME" : "1603996193"
},
{
"PROCESSOR_UID" : "VBPowerSupplyListener",
"BUFFER_SIZE" : "1000",
"SERVER_IP_ADDRESS" : "127.0.0.1",
"SERVER_PORT" : "50001",
"DATA_TYPE" : "Packet",
"COMMENT_DESCRIPTION" : "No Comment",
"AUTHOR" : "admin",
"RECORD_INSERTION_TIME" : "1603996193"
}
]
},
"metadata" : {

},
"search" : [

]
},
"comments" : [

],
"origin" : {
"source" : "template",
"name" : "notprovided",
"format" : "json",
"created" : "2020-10-29T13:29:53.364-0500",
"rawdata" : [

]
},
"version" : "3",
"entities" : [
{
"name" : "OTSROOT",
"assigned" : "2020-10-29T13:29:53.364-0500"
}
],
"configurations" : [
{
"name" : "notprovided",
"assigned" : "2020-10-29T13:29:53.364-0500"
},
{
"name" : "BurninBoxConfiguration_v28",
"assigned" : "2020-10-29T13:30:24.758-0500"
},
{
"name" : "BurninBoxConfiguration_v29",
"assigned" : "2020-10-29T13:45:56.156-0500"
},
{
"name" : "BurninBoxConfiguration_v30",
"assigned" : "2020-10-29T13:46:38.451-0500"
},
{
"name" : "BurninBoxConfiguration_v31",
"assigned" : "2020-10-29T13:48:03.062-0500"
},
{
"name" : "BurninBoxConfiguration_v32",
"assigned" : "2020-10-29T14:39:29.145-0500"
}
],
"changelog" : "notprovided",
"bookkeeping" : {
"isdeleted" : false,
"isreadonly" : false,
"updates" : [
{
"event" : "addConfiguration",
"timestamp" : "2020-10-29T13:29:53.364-0500",
"value" : {
"name" : "notprovided",
"assigned" : "2020-10-29T13:29:53.364-0500"
}
},
{
"event" : "setVersion",
"timestamp" : "2020-10-29T13:29:53.364-0500",
"value" : {
"name" : "3",
"assigned" : "2020-10-29T13:29:53.364-0500"
}
},
{
"event" : "setCollection",
"timestamp" : "2020-10-29T13:29:53.364-0500",
"value" : {
"name" : "TCPDataListenerProducerTable",
"assigned" : "2020-10-29T13:29:53.364-0500"
}
},
{
"event" : "addEntity",
"timestamp" : "2020-10-29T13:29:53.364-0500",
"value" : {
"name" : "OTSROOT",
"assigned" : "2020-10-29T13:29:53.364-0500"
}
},
{
"event" : "addConfiguration",
"timestamp" : "2020-10-29T13:30:24.758-0500",
"value" : {
"name" : "BurninBoxConfiguration_v28",
"assigned" : "2020-10-29T13:30:24.758-0500"
}
},
{
"event" : "addConfiguration",
"timestamp" : "2020-10-29T13:45:56.156-0500",
"value" : {
"name" : "BurninBoxConfiguration_v29",
"assigned" : "2020-10-29T13:45:56.156-0500"
}
},
{
"event" : "addConfiguration",
"timestamp" : "2020-10-29T13:46:38.451-0500",
"value" : {
"name" : "BurninBoxConfiguration_v30",
"assigned" : "2020-10-29T13:46:38.451-0500"
}
},
{
"event" : "addConfiguration",
"timestamp" : "2020-10-29T13:48:03.062-0500",
"value" : {
"name" : "BurninBoxConfiguration_v31",
"assigned" : "2020-10-29T13:48:03.062-0500"
}
},
{
"event" : "addConfiguration",
"timestamp" : "2020-10-29T14:39:29.145-0500",
"value" : {
"name" : "BurninBoxConfiguration_v32",
"assigned" : "2020-10-29T14:39:29.145-0500"
}
}
],
"created" : "2020-10-29T13:29:53.364-0500"
},
"_id" : {
"$oid" : "dd16c65b1d69496a87a818fa"
},
"collection" : "TCPDataListenerProducerTable",
"aliases" : {
"active" : [

],
"history" : [

]
},
"runs" : [

],
"attachments" : [

],
"configtype" : "notprovided"
}