{
"document" : {
"data" : {
"NAME" : "POWER_SUPPLY_DEVICE_TABLE",
"COMMENT" : "No comment.",
"AUTHOR" : "admin",
"CREATION_TIME" : 1601936470,
"COL_TYPES" : {
"POWER_SUPPLY_GROUP_ID" : "STRING",
"POWER_SUPPLY_DEVICE_UID" : "STRING",
"STATUS" : "STRING",
"LINK_TO_POWER_SUPPLY_TABLE" : "STRING",
"LINK_TO_POWER_SUPPLY_UID" : "STRING",
"COMMENT_DESCRIPTION" : "STRING",
"AUTHOR" : "STRING",
"RECORD_INSERTION_TIME" : "TIMESTAMP WITH TIMEZONE"
},
"DATA_SET" : [
{
"POWER_SUPPLY_GROUP_ID" : "BurninBox",
"POWER_SUPPLY_DEVICE_UID" : "CAENBurninBox",
"STATUS" : "Off",
"LINK_TO_POWER_SUPPLY_TABLE" : "CAENPowerSupplyTable",
"LINK_TO_POWER_SUPPLY_UID" : "BurninBox",
"COMMENT_DESCRIPTION" : "No Comment",
"AUTHOR" : "admin",
"RECORD_INSERTION_TIME" : "1601936470"
}
]
},
"metadata" : {

},
"search" : [

]
},
"comments" : [

],
"origin" : {
"source" : "template",
"name" : "notprovided",
"format" : "json",
"created" : "2020-10-05T17:21:10.591-0500",
"rawdata" : [

]
},
"version" : "0",
"entities" : [
{
"name" : "OTSROOT",
"assigned" : "2020-10-05T17:21:10.592-0500"
}
],
"configurations" : [
{
"name" : "notprovided",
"assigned" : "2020-10-05T17:21:10.591-0500"
},
{
"name" : "BurninBoxConfiguration_v11",
"assigned" : "2020-10-05T17:39:04.050-0500"
},
{
"name" : "BurninBoxConfiguration_v12",
"assigned" : "2020-10-05T17:43:06.279-0500"
},
{
"name" : "BurninBoxConfiguration_v13",
"assigned" : "2020-10-09T14:43:40.224-0500"
},
{
"name" : "BurninBoxConfiguration_v14",
"assigned" : "2020-10-09T15:30:46.817-0500"
},
{
"name" : "BurninBoxConfiguration_v15",
"assigned" : "2020-10-12T10:14:43.708-0500"
},
{
"name" : "BurninBoxConfiguration_v16",
"assigned" : "2020-10-12T15:33:09.294-0500"
},
{
"name" : "BurninBoxConfiguration_v17",
"assigned" : "2020-10-19T16:16:02.847-0500"
},
{
"name" : "BurninBoxConfiguration_v18",
"assigned" : "2020-10-23T11:00:20.686-0500"
},
{
"name" : "BurninBoxConfiguration_v19",
"assigned" : "2020-10-26T11:51:21.681-0500"
},
{
"name" : "BurninBoxConfiguration_v20",
"assigned" : "2020-10-26T11:51:43.336-0500"
},
{
"name" : "BurninBoxConfiguration_v21",
"assigned" : "2020-10-26T11:56:42.774-0500"
},
{
"name" : "BurninBoxConfiguration_v22",
"assigned" : "2020-10-26T14:34:34.699-0500"
},
{
"name" : "BurninBoxConfiguration_v23",
"assigned" : "2020-10-26T14:53:01.629-0500"
},
{
"name" : "BurninBoxConfiguration_v24",
"assigned" : "2020-10-26T15:02:46.895-0500"
},
{
"name" : "BurninBoxConfiguration_v25",
"assigned" : "2020-10-27T17:42:10.682-0500"
},
{
"name" : "BurninBoxConfiguration_v26",
"assigned" : "2020-10-29T11:52:32.911-0500"
}
],
"changelog" : "notprovided",
"bookkeeping" : {
"isdeleted" : false,
"isreadonly" : false,
"updates" : [
{
"event" : "addConfiguration",
"timestamp" : "2020-10-05T17:21:10.591-0500",
"value" : {
"name" : "notprovided",
"assigned" : "2020-10-05T17:21:10.591-0500"
}
},
{
"event" : "setVersion",
"timestamp" : "2020-10-05T17:21:10.591-0500",
"value" : {
"name" : "0",
"assigned" : "2020-10-05T17:21:10.591-0500"
}
},
{
"event" : "setCollection",
"timestamp" : "2020-10-05T17:21:10.592-0500",
"value" : {
"name" : "PowerSupplyDeviceTable",
"assigned" : "2020-10-05T17:21:10.592-0500"
}
},
{
"event" : "addEntity",
"timestamp" : "2020-10-05T17:21:10.592-0500",
"value" : {
"name" : "OTSROOT",
"assigned" : "2020-10-05T17:21:10.592-0500"
}
},
{
"event" : "addConfiguration",
"timestamp" : "2020-10-05T17:39:04.050-0500",
"value" : {
"name" : "BurninBoxConfiguration_v11",
"assigned" : "2020-10-05T17:39:04.050-0500"
}
},
{
"event" : "addConfiguration",
"timestamp" : "2020-10-05T17:43:06.279-0500",
"value" : {
"name" : "BurninBoxConfiguration_v12",
"assigned" : "2020-10-05T17:43:06.279-0500"
}
},
{
"event" : "addConfiguration",
"timestamp" : "2020-10-09T14:43:40.224-0500",
"value" : {
"name" : "BurninBoxConfiguration_v13",
"assigned" : "2020-10-09T14:43:40.224-0500"
}
},
{
"event" : "addConfiguration",
"timestamp" : "2020-10-09T15:30:46.817-0500",
"value" : {
"name" : "BurninBoxConfiguration_v14",
"assigned" : "2020-10-09T15:30:46.817-0500"
}
},
{
"event" : "addConfiguration",
"timestamp" : "2020-10-12T10:14:43.708-0500",
"value" : {
"name" : "BurninBoxConfiguration_v15",
"assigned" : "2020-10-12T10:14:43.708-0500"
}
},
{
"event" : "addConfiguration",
"timestamp" : "2020-10-12T15:33:09.294-0500",
"value" : {
"name" : "BurninBoxConfiguration_v16",
"assigned" : "2020-10-12T15:33:09.294-0500"
}
},
{
"event" : "addConfiguration",
"timestamp" : "2020-10-19T16:16:02.847-0500",
"value" : {
"name" : "BurninBoxConfiguration_v17",
"assigned" : "2020-10-19T16:16:02.847-0500"
}
},
{
"event" : "addConfiguration",
"timestamp" : "2020-10-23T11:00:20.686-0500",
"value" : {
"name" : "BurninBoxConfiguration_v18",
"assigned" : "2020-10-23T11:00:20.686-0500"
}
},
{
"event" : "addConfiguration",
"timestamp" : "2020-10-26T11:51:21.681-0500",
"value" : {
"name" : "BurninBoxConfiguration_v19",
"assigned" : "2020-10-26T11:51:21.681-0500"
}
},
{
"event" : "addConfiguration",
"timestamp" : "2020-10-26T11:51:43.336-0500",
"value" : {
"name" : "BurninBoxConfiguration_v20",
"assigned" : "2020-10-26T11:51:43.336-0500"
}
},
{
"event" : "addConfiguration",
"timestamp" : "2020-10-26T11:56:42.774-0500",
"value" : {
"name" : "BurninBoxConfiguration_v21",
"assigned" : "2020-10-26T11:56:42.774-0500"
}
},
{
"event" : "addConfiguration",
"timestamp" : "2020-10-26T14:34:34.699-0500",
"value" : {
"name" : "BurninBoxConfiguration_v22",
"assigned" : "2020-10-26T14:34:34.699-0500"
}
},
{
"event" : "addConfiguration",
"timestamp" : "2020-10-26T14:53:01.629-0500",
"value" : {
"name" : "BurninBoxConfiguration_v23",
"assigned" : "2020-10-26T14:53:01.629-0500"
}
},
{
"event" : "addConfiguration",
"timestamp" : "2020-10-26T15:02:46.895-0500",
"value" : {
"name" : "BurninBoxConfiguration_v24",
"assigned" : "2020-10-26T15:02:46.895-0500"
}
},
{
"event" : "addConfiguration",
"timestamp" : "2020-10-27T17:42:10.682-0500",
"value" : {
"name" : "BurninBoxConfiguration_v25",
"assigned" : "2020-10-27T17:42:10.682-0500"
}
},
{
"event" : "addConfiguration",
"timestamp" : "2020-10-29T11:52:32.911-0500",
"value" : {
"name" : "BurninBoxConfiguration_v26",
"assigned" : "2020-10-29T11:52:32.911-0500"
}
}
],
"created" : "2020-10-05T17:21:10.591-0500"
},
"_id" : {
"$oid" : "97a61093c8fe42429b4f042b"
},
"collection" : "PowerSupplyDeviceTable",
"aliases" : {
"active" : [

],
"history" : [

]
},
"runs" : [

],
"attachments" : [

],
"configtype" : "notprovided"
}