{
"document" : {
"data" : {
"NAME" : "XDAQ_CONTEXT_TABLE",
"COMMENT" : "Default simplest Outer Tracker table",
"AUTHOR" : "admin",
"CREATION_TIME" : 1602266456,
"COL_TYPES" : {
"CONTEXT_UID" : "STRING",
"STATUS" : "STRING",
"ID" : "NUMBER",
"ADDRESS" : "STRING",
"PORT" : "NUMBER",
"LINK_TO_APPLICATION_TABLE" : "STRING",
"LINK_TO_APPLICATION_GROUP_ID" : "STRING",
"COMMENT_DESCRIPTION" : "STRING",
"AUTHOR" : "STRING",
"RECORD_INSERTION_TIME" : "TIMESTAMP WITH TIMEZONE"
},
"DATA_SET" : [
{
"CONTEXT_UID" : "MainContext",
"STATUS" : "On",
"ID" : "0",
"ADDRESS" : "http://${HOSTNAME}",
"PORT" : "2015",
"LINK_TO_APPLICATION_TABLE" : "XDAQApplicationTable",
"LINK_TO_APPLICATION_GROUP_ID" : "MainContextApps",
"COMMENT_DESCRIPTION" : "main context",
"AUTHOR" : "admin",
"RECORD_INSERTION_TIME" : "1571774077"
},
{
"CONTEXT_UID" : "VisualizerContext",
"STATUS" : "On",
"ID" : "0",
"ADDRESS" : "http://${HOSTNAME}",
"PORT" : "2020",
"LINK_TO_APPLICATION_TABLE" : "XDAQApplicationTable",
"LINK_TO_APPLICATION_GROUP_ID" : "VisualizerContextApp",
"COMMENT_DESCRIPTION" : "No Comment",
"AUTHOR" : "admin",
"RECORD_INSERTION_TIME" : "1602266456"
},
{
"CONTEXT_UID" : "TrackerContext",
"STATUS" : "Off",
"ID" : "0",
"ADDRESS" : "http://${HOSTNAME}",
"PORT" : "2021",
"LINK_TO_APPLICATION_TABLE" : "XDAQApplicationTable",
"LINK_TO_APPLICATION_GROUP_ID" : "TrackerContextApps",
"COMMENT_DESCRIPTION" : "No Comment",
"AUTHOR" : "admin",
"RECORD_INSERTION_TIME" : "1602266456"
},
{
"CONTEXT_UID" : "BurninBoxContext",
"STATUS" : "On",
"ID" : "0",
"ADDRESS" : "http://${HOSTNAME}",
"PORT" : "2022",
"LINK_TO_APPLICATION_TABLE" : "XDAQApplicationTable",
"LINK_TO_APPLICATION_GROUP_ID" : "BurninBoxContextApps",
"COMMENT_DESCRIPTION" : "No Comment",
"AUTHOR" : "admin",
"RECORD_INSERTION_TIME" : "1602266456"
},
{
"CONTEXT_UID" : "PowerSupplyContext",
"STATUS" : "Off",
"ID" : "0",
"ADDRESS" : "http://${HOSTNAME}",
"PORT" : "2023",
"LINK_TO_APPLICATION_TABLE" : "XDAQApplicationTable",
"LINK_TO_APPLICATION_GROUP_ID" : "PowerSupplyContextApps",
"COMMENT_DESCRIPTION" : "No Comment",
"AUTHOR" : "admin",
"RECORD_INSERTION_TIME" : "1602266456"
}
]
},
"metadata" : {

},
"search" : [

]
},
"comments" : [

],
"origin" : {
"source" : "template",
"name" : "notprovided",
"format" : "json",
"created" : "2020-10-09T13:00:56.743-0500",
"rawdata" : [

]
},
"version" : "7",
"entities" : [
{
"name" : "OTSROOT",
"assigned" : "2020-10-09T13:00:56.743-0500"
}
],
"configurations" : [
{
"name" : "notprovided",
"assigned" : "2020-10-09T13:00:56.743-0500"
},
{
"name" : "DefaultContext_v20",
"assigned" : "2020-10-09T13:00:58.204-0500"
},
{
"name" : "DefaultContext_v26",
"assigned" : "2020-10-12T09:41:39.708-0500"
},
{
"name" : "DefaultContext_v35",
"assigned" : "2021-07-07T16:05:38.164-0500"
},
{
"name" : "DefaultContext_v37",
"assigned" : "2021-07-08T14:17:00.388-0500"
},
{
"name" : "DefaultContext_v44",
"assigned" : "2021-08-03T11:10:39.902-0500"
},
{
"name" : "DefaultContext_v45",
"assigned" : "2021-09-02T14:08:01.296-0500"
},
{
"name" : "DefaultContext_v50",
"assigned" : "2022-04-20T10:06:52.512-0400"
}
],
"changelog" : "notprovided",
"bookkeeping" : {
"isdeleted" : false,
"isreadonly" : false,
"updates" : [
{
"event" : "addConfiguration",
"timestamp" : "2020-10-09T13:00:56.743-0500",
"value" : {
"name" : "notprovided",
"assigned" : "2020-10-09T13:00:56.743-0500"
}
},
{
"event" : "setVersion",
"timestamp" : "2020-10-09T13:00:56.743-0500",
"value" : {
"name" : "7",
"assigned" : "2020-10-09T13:00:56.743-0500"
}
},
{
"event" : "setCollection",
"timestamp" : "2020-10-09T13:00:56.743-0500",
"value" : {
"name" : "XDAQContextTable",
"assigned" : "2020-10-09T13:00:56.743-0500"
}
},
{
"event" : "addEntity",
"timestamp" : "2020-10-09T13:00:56.744-0500",
"value" : {
"name" : "OTSROOT",
"assigned" : "2020-10-09T13:00:56.743-0500"
}
},
{
"event" : "addConfiguration",
"timestamp" : "2020-10-09T13:00:58.204-0500",
"value" : {
"name" : "DefaultContext_v20",
"assigned" : "2020-10-09T13:00:58.204-0500"
}
},
{
"event" : "addConfiguration",
"timestamp" : "2020-10-12T09:41:39.708-0500",
"value" : {
"name" : "DefaultContext_v26",
"assigned" : "2020-10-12T09:41:39.708-0500"
}
},
{
"event" : "addConfiguration",
"timestamp" : "2021-07-07T16:05:38.164-0500",
"value" : {
"name" : "DefaultContext_v35",
"assigned" : "2021-07-07T16:05:38.164-0500"
}
},
{
"event" : "addConfiguration",
"timestamp" : "2021-07-08T14:17:00.388-0500",
"value" : {
"name" : "DefaultContext_v37",
"assigned" : "2021-07-08T14:17:00.388-0500"
}
},
{
"event" : "addConfiguration",
"timestamp" : "2021-08-03T11:10:39.902-0500",
"value" : {
"name" : "DefaultContext_v44",
"assigned" : "2021-08-03T11:10:39.902-0500"
}
},
{
"event" : "addConfiguration",
"timestamp" : "2021-09-02T14:08:01.297-0500",
"value" : {
"name" : "DefaultContext_v45",
"assigned" : "2021-09-02T14:08:01.296-0500"
}
},
{
"event" : "addConfiguration",
"timestamp" : "2022-04-20T10:06:52.512-0400",
"value" : {
"name" : "DefaultContext_v50",
"assigned" : "2022-04-20T10:06:52.512-0400"
}
}
],
"created" : "2020-10-09T13:00:56.743-0500"
},
"_id" : {
"$oid" : "da6f227a10db420a96d253e4"
},
"collection" : "XDAQContextTable",
"aliases" : {
"active" : [

],
"history" : [

]
},
"runs" : [

],
"attachments" : [

],
"configtype" : "notprovided"
}