{
"document" : {
"data" : {
"NAME" : "FE_MIDDLEWARE_INTERFACE_TABLE",
"COMMENT" : "No comment.",
"AUTHOR" : "admin",
"CREATION_TIME" : 1596127346,
"COL_TYPES" : {
"INTERFACE_ID" : "STRING",
"INTERFACE_IP_ADDRESS" : "STRING",
"INTERFACE_PORT" : "NUMBER",
"CALIBRATION_NAME" : "STRING",
"CONFIGURATION_DIR" : "STRING",
"CONFIGURATION_NAME" : "STRING",
"COMMENT_DESCRIPTION" : "STRING",
"AUTHOR" : "STRING",
"RECORD_INSERTION_TIME" : "TIMESTAMP WITH TIMEZONE"
},
"DATA_SET" : [
{
"INTERFACE_ID" : "FEOuterTrackerInterface0",
"INTERFACE_IP_ADDRESS" : "kenny01.dhcp.fnal.gov",
"INTERFACE_PORT" : "5000",
"CALIBRATION_NAME" : "calibrationandpedenoise",
"CONFIGURATION_DIR" : "${PH2ACF_BASE_DIR}/settings",
"CONFIGURATION_NAME" : "D19CDescription_2CBC3_Feynman.xml",
"COMMENT_DESCRIPTION" : "No Comment",
"AUTHOR" : "admin",
"RECORD_INSERTION_TIME" : "1596127275"
}
]
},
"metadata" : {

},
"search" : [

]
},
"comments" : [

],
"origin" : {
"source" : "template",
"name" : "notprovided",
"format" : "json",
"created" : "2020-07-30T11:42:26.402-0500",
"rawdata" : [

]
},
"version" : "1",
"entities" : [
{
"name" : "OTSROOT",
"assigned" : "2020-07-30T11:42:26.403-0500"
}
],
"configurations" : [
{
"name" : "notprovided",
"assigned" : "2020-07-30T11:42:26.402-0500"
},
{
"name" : "BurninBoxConfiguration_v1",
"assigned" : "2020-07-30T11:42:27.386-0500"
}
],
"changelog" : "notprovided",
"bookkeeping" : {
"isdeleted" : false,
"isreadonly" : false,
"updates" : [
{
"event" : "addConfiguration",
"timestamp" : "2020-07-30T11:42:26.402-0500",
"value" : {
"name" : "notprovided",
"assigned" : "2020-07-30T11:42:26.402-0500"
}
},
{
"event" : "setVersion",
"timestamp" : "2020-07-30T11:42:26.403-0500",
"value" : {
"name" : "1",
"assigned" : "2020-07-30T11:42:26.403-0500"
}
},
{
"event" : "setCollection",
"timestamp" : "2020-07-30T11:42:26.403-0500",
"value" : {
"name" : "FEMiddlewareInterfaceTable",
"assigned" : "2020-07-30T11:42:26.403-0500"
}
},
{
"event" : "addEntity",
"timestamp" : "2020-07-30T11:42:26.403-0500",
"value" : {
"name" : "OTSROOT",
"assigned" : "2020-07-30T11:42:26.403-0500"
}
},
{
"event" : "addConfiguration",
"timestamp" : "2020-07-30T11:42:27.386-0500",
"value" : {
"name" : "BurninBoxConfiguration_v1",
"assigned" : "2020-07-30T11:42:27.386-0500"
}
}
],
"created" : "2020-07-30T11:42:26.402-0500"
},
"_id" : {
"$oid" : "0b720ec320264b80b667ff9e"
},
"collection" : "FEMiddlewareInterfaceTable",
"aliases" : {
"active" : [

],
"history" : [

]
},
"runs" : [

],
"attachments" : [

],
"configtype" : "notprovided"
}