{
"document" : {
"data" : {
"NAME" : "FE_MIDDLEWARE_INTERFACE_TABLE",
"COMMENT" : "No comment.",
"AUTHOR" : "admin",
"CREATION_TIME" : 1674147761,
"COL_TYPES" : {
"INTERFACE_ID" : "STRING",
"INTERFACE_IP_ADDRESS" : "STRING",
"INTERFACE_PORT" : "NUMBER",
"CALIBRATION_NAME" : "STRING",
"CONFIGURATION_DIR" : "STRING",
"CONFIGURATION_NAME" : "STRING",
"COMMENT_DESCRIPTION" : "STRING",
"AUTHOR" : "STRING",
"RECORD_INSERTION_TIME" : "TIMESTAMP WITH TIMEZONE"
},
"DATA_SET" : [
{
"INTERFACE_ID" : "FETrackerInterface0",
"INTERFACE_IP_ADDRESS" : "localhost",
"INTERFACE_PORT" : "5000",
"CALIBRATION_NAME" : "calibrationandpedenoise",
"CONFIGURATION_DIR" : "${PH2ACF_BASE_DIR}/settings",
"CONFIGURATION_NAME" : "2S_4Modules_Burnin.xml",
"COMMENT_DESCRIPTION" : "No Comment",
"AUTHOR" : "admin",
"RECORD_INSERTION_TIME" : "1674147691"
},
{
"INTERFACE_ID" : "FETrackerInterface1",
"INTERFACE_IP_ADDRESS" : "localhost.localdomain",
"INTERFACE_PORT" : "5000",
"CALIBRATION_NAME" : "calibrationandpedenoise",
"CONFIGURATION_DIR" : "settings",
"CONFIGURATION_NAME" : "D19CDescription_2CBC3_Feynman.xml",
"COMMENT_DESCRIPTION" : "No Comment",
"AUTHOR" : "admin",
"RECORD_INSERTION_TIME" : "1601935854"
}
]
},
"metadata" : {

},
"search" : [

]
},
"comments" : [

],
"origin" : {
"source" : "template",
"name" : "notprovided",
"format" : "json",
"created" : "2023-01-19T11:02:41.742-0600",
"rawdata" : [

]
},
"version" : "10",
"entities" : [
{
"name" : "OTSROOT",
"assigned" : "2023-01-19T11:02:41.742-0600"
}
],
"configurations" : [
{
"name" : "notprovided",
"assigned" : "2023-01-19T11:02:41.742-0600"
},
{
"name" : "BurninBoxConfiguration_v112",
"assigned" : "2023-01-19T11:02:44.953-0600"
},
{
"name" : "BurninBoxConfiguration_v113",
"assigned" : "2023-01-20T11:51:30.953-0600"
},
{
"name" : "BurninBoxConfiguration_v114",
"assigned" : "2023-01-30T11:15:46.106-0600"
},
{
"name" : "BurninBoxConfiguration_v115",
"assigned" : "2023-03-01T10:10:33.964-0600"
},
{
"name" : "BurninBoxConfiguration_v116",
"assigned" : "2023-03-07T16:36:50.963-0600"
},
{
"name" : "BurninBoxConfiguration_v117",
"assigned" : "2023-03-09T15:31:31.949-0600"
},
{
"name" : "BurninBoxConfiguration_v118",
"assigned" : "2023-03-15T12:03:56.089-0500"
},
{
"name" : "BurninBoxConfiguration_v119",
"assigned" : "2023-03-16T14:10:40.919-0500"
},
{
"name" : "BurninBoxConfiguration_v120",
"assigned" : "2023-04-04T11:18:54.299-0500"
},
{
"name" : "BurninBoxConfiguration_v121",
"assigned" : "2023-04-04T11:19:17.397-0500"
},
{
"name" : "BurninBoxConfiguration_v122",
"assigned" : "2023-04-04T11:23:00.956-0500"
},
{
"name" : "BurninBoxConfiguration_v123",
"assigned" : "2023-04-04T13:48:51.839-0500"
},
{
"name" : "BurninBoxConfiguration_v124",
"assigned" : "2023-04-04T13:51:59.013-0500"
},
{
"name" : "BurninBoxConfiguration_v125",
"assigned" : "2023-04-04T14:31:00.624-0500"
},
{
"name" : "BurninBoxConfiguration_v126",
"assigned" : "2023-04-04T16:05:04.513-0500"
},
{
"name" : "BurninBoxConfiguration_v127",
"assigned" : "2023-04-07T10:09:32.426-0500"
},
{
"name" : "BurninBoxConfiguration_v128",
"assigned" : "2023-04-07T16:20:29.660-0500"
},
{
"name" : "BurninBoxConfiguration_v129",
"assigned" : "2023-04-14T10:53:43.947-0500"
},
{
"name" : "BurninBoxConfiguration_v130",
"assigned" : "2023-04-14T11:01:23.707-0500"
},
{
"name" : "BurninBoxConfiguration_v131",
"assigned" : "2023-04-14T11:05:25.773-0500"
},
{
"name" : "BurninBoxConfiguration_v132",
"assigned" : "2023-04-14T12:25:10.908-0500"
},
{
"name" : "BurninBoxConfiguration_v133",
"assigned" : "2023-04-14T14:03:26.865-0500"
},
{
"name" : "BurninBoxConfiguration_v134",
"assigned" : "2023-04-14T15:36:49.439-0500"
},
{
"name" : "BurninBoxConfiguration_v135",
"assigned" : "2023-04-14T15:57:04.055-0500"
},
{
"name" : "BurninBoxConfiguration_v136",
"assigned" : "2023-04-14T15:59:00.682-0500"
},
{
"name" : "BurninBoxConfiguration_v137",
"assigned" : "2023-04-14T16:18:32.652-0500"
},
{
"name" : "BurninBoxConfiguration_v138",
"assigned" : "2023-04-14T16:20:11.833-0500"
},
{
"name" : "BurninBoxConfiguration_v139",
"assigned" : "2023-04-17T15:51:48.921-0500"
},
{
"name" : "BurninBoxConfiguration_v140",
"assigned" : "2023-04-18T10:48:02.298-0500"
},
{
"name" : "BurninBoxConfiguration_v141",
"assigned" : "2023-04-18T12:02:41.352-0500"
},
{
"name" : "BurninBoxConfiguration_v142",
"assigned" : "2023-04-18T12:03:56.848-0500"
},
{
"name" : "BurninBoxConfiguration_v143",
"assigned" : "2023-04-18T13:48:31.809-0500"
},
{
"name" : "BurninBoxConfiguration_v144",
"assigned" : "2023-04-18T14:33:55.064-0500"
},
{
"name" : "BurninBoxConfiguration_v145",
"assigned" : "2023-04-18T16:14:31.596-0500"
},
{
"name" : "BurninBoxConfiguration_v146",
"assigned" : "2023-04-18T16:20:21.134-0500"
},
{
"name" : "BurninBoxConfiguration_v147",
"assigned" : "2023-04-21T15:02:48.072-0500"
},
{
"name" : "BurninBoxConfiguration_v148",
"assigned" : "2023-05-09T09:06:44.313-0500"
},
{
"name" : "BurninBoxConfiguration_v149",
"assigned" : "2023-05-11T08:26:02.421-0500"
},
{
"name" : "BurninBoxConfiguration_v150",
"assigned" : "2023-05-11T14:10:22.898-0500"
},
{
"name" : "BurninBoxConfiguration_v151",
"assigned" : "2023-05-11T14:10:59.961-0500"
},
{
"name" : "BurninBoxConfiguration_v152",
"assigned" : "2023-05-11T14:12:47.926-0500"
},
{
"name" : "BurninBoxConfiguration_v153",
"assigned" : "2023-05-19T11:54:17.814-0500"
},
{
"name" : "BurninBoxConfiguration_v154",
"assigned" : "2023-05-19T11:57:27.602-0500"
},
{
"name" : "BurninBoxConfiguration_v155",
"assigned" : "2023-05-19T13:22:53.720-0500"
},
{
"name" : "BurninBoxConfiguration_v156",
"assigned" : "2023-06-01T14:54:10.027-0500"
},
{
"name" : "BurninBoxConfiguration_v157",
"assigned" : "2023-06-01T14:56:07.316-0500"
},
{
"name" : "BurninBoxConfiguration_v158",
"assigned" : "2023-06-01T14:56:43.977-0500"
},
{
"name" : "BurninBoxConfiguration_v159",
"assigned" : "2023-06-02T12:37:16.973-0500"
}
],
"changelog" : "notprovided",
"bookkeeping" : {
"isdeleted" : false,
"isreadonly" : false,
"updates" : [
{
"event" : "addConfiguration",
"timestamp" : "2023-01-19T11:02:41.742-0600",
"value" : {
"name" : "notprovided",
"assigned" : "2023-01-19T11:02:41.742-0600"
}
},
{
"event" : "setVersion",
"timestamp" : "2023-01-19T11:02:41.742-0600",
"value" : {
"name" : "10",
"assigned" : "2023-01-19T11:02:41.742-0600"
}
},
{
"event" : "setCollection",
"timestamp" : "2023-01-19T11:02:41.742-0600",
"value" : {
"name" : "FEMiddlewareInterfaceTable",
"assigned" : "2023-01-19T11:02:41.742-0600"
}
},
{
"event" : "addEntity",
"timestamp" : "2023-01-19T11:02:41.742-0600",
"value" : {
"name" : "OTSROOT",
"assigned" : "2023-01-19T11:02:41.742-0600"
}
},
{
"event" : "addConfiguration",
"timestamp" : "2023-01-19T11:02:44.953-0600",
"value" : {
"name" : "BurninBoxConfiguration_v112",
"assigned" : "2023-01-19T11:02:44.953-0600"
}
},
{
"event" : "addConfiguration",
"timestamp" : "2023-01-20T11:51:30.953-0600",
"value" : {
"name" : "BurninBoxConfiguration_v113",
"assigned" : "2023-01-20T11:51:30.953-0600"
}
},
{
"event" : "addConfiguration",
"timestamp" : "2023-01-30T11:15:46.106-0600",
"value" : {
"name" : "BurninBoxConfiguration_v114",
"assigned" : "2023-01-30T11:15:46.106-0600"
}
},
{
"event" : "addConfiguration",
"timestamp" : "2023-03-01T10:10:33.964-0600",
"value" : {
"name" : "BurninBoxConfiguration_v115",
"assigned" : "2023-03-01T10:10:33.964-0600"
}
},
{
"event" : "addConfiguration",
"timestamp" : "2023-03-07T16:36:50.963-0600",
"value" : {
"name" : "BurninBoxConfiguration_v116",
"assigned" : "2023-03-07T16:36:50.963-0600"
}
},
{
"event" : "addConfiguration",
"timestamp" : "2023-03-09T15:31:31.949-0600",
"value" : {
"name" : "BurninBoxConfiguration_v117",
"assigned" : "2023-03-09T15:31:31.949-0600"
}
},
{
"event" : "addConfiguration",
"timestamp" : "2023-03-15T12:03:56.089-0500",
"value" : {
"name" : "BurninBoxConfiguration_v118",
"assigned" : "2023-03-15T12:03:56.089-0500"
}
},
{
"event" : "addConfiguration",
"timestamp" : "2023-03-16T14:10:40.919-0500",
"value" : {
"name" : "BurninBoxConfiguration_v119",
"assigned" : "2023-03-16T14:10:40.919-0500"
}
},
{
"event" : "addConfiguration",
"timestamp" : "2023-04-04T11:18:54.299-0500",
"value" : {
"name" : "BurninBoxConfiguration_v120",
"assigned" : "2023-04-04T11:18:54.299-0500"
}
},
{
"event" : "addConfiguration",
"timestamp" : "2023-04-04T11:19:17.397-0500",
"value" : {
"name" : "BurninBoxConfiguration_v121",
"assigned" : "2023-04-04T11:19:17.397-0500"
}
},
{
"event" : "addConfiguration",
"timestamp" : "2023-04-04T11:23:00.956-0500",
"value" : {
"name" : "BurninBoxConfiguration_v122",
"assigned" : "2023-04-04T11:23:00.956-0500"
}
},
{
"event" : "addConfiguration",
"timestamp" : "2023-04-04T13:48:51.840-0500",
"value" : {
"name" : "BurninBoxConfiguration_v123",
"assigned" : "2023-04-04T13:48:51.839-0500"
}
},
{
"event" : "addConfiguration",
"timestamp" : "2023-04-04T13:51:59.013-0500",
"value" : {
"name" : "BurninBoxConfiguration_v124",
"assigned" : "2023-04-04T13:51:59.013-0500"
}
},
{
"event" : "addConfiguration",
"timestamp" : "2023-04-04T14:31:00.624-0500",
"value" : {
"name" : "BurninBoxConfiguration_v125",
"assigned" : "2023-04-04T14:31:00.624-0500"
}
},
{
"event" : "addConfiguration",
"timestamp" : "2023-04-04T16:05:04.513-0500",
"value" : {
"name" : "BurninBoxConfiguration_v126",
"assigned" : "2023-04-04T16:05:04.513-0500"
}
},
{
"event" : "addConfiguration",
"timestamp" : "2023-04-07T10:09:32.426-0500",
"value" : {
"name" : "BurninBoxConfiguration_v127",
"assigned" : "2023-04-07T10:09:32.426-0500"
}
},
{
"event" : "addConfiguration",
"timestamp" : "2023-04-07T16:20:29.660-0500",
"value" : {
"name" : "BurninBoxConfiguration_v128",
"assigned" : "2023-04-07T16:20:29.660-0500"
}
},
{
"event" : "addConfiguration",
"timestamp" : "2023-04-14T10:53:43.947-0500",
"value" : {
"name" : "BurninBoxConfiguration_v129",
"assigned" : "2023-04-14T10:53:43.947-0500"
}
},
{
"event" : "addConfiguration",
"timestamp" : "2023-04-14T11:01:23.707-0500",
"value" : {
"name" : "BurninBoxConfiguration_v130",
"assigned" : "2023-04-14T11:01:23.707-0500"
}
},
{
"event" : "addConfiguration",
"timestamp" : "2023-04-14T11:05:25.773-0500",
"value" : {
"name" : "BurninBoxConfiguration_v131",
"assigned" : "2023-04-14T11:05:25.773-0500"
}
},
{
"event" : "addConfiguration",
"timestamp" : "2023-04-14T12:25:10.908-0500",
"value" : {
"name" : "BurninBoxConfiguration_v132",
"assigned" : "2023-04-14T12:25:10.908-0500"
}
},
{
"event" : "addConfiguration",
"timestamp" : "2023-04-14T14:03:26.865-0500",
"value" : {
"name" : "BurninBoxConfiguration_v133",
"assigned" : "2023-04-14T14:03:26.865-0500"
}
},
{
"event" : "addConfiguration",
"timestamp" : "2023-04-14T15:36:49.439-0500",
"value" : {
"name" : "BurninBoxConfiguration_v134",
"assigned" : "2023-04-14T15:36:49.439-0500"
}
},
{
"event" : "addConfiguration",
"timestamp" : "2023-04-14T15:57:04.055-0500",
"value" : {
"name" : "BurninBoxConfiguration_v135",
"assigned" : "2023-04-14T15:57:04.055-0500"
}
},
{
"event" : "addConfiguration",
"timestamp" : "2023-04-14T15:59:00.682-0500",
"value" : {
"name" : "BurninBoxConfiguration_v136",
"assigned" : "2023-04-14T15:59:00.682-0500"
}
},
{
"event" : "addConfiguration",
"timestamp" : "2023-04-14T16:18:32.652-0500",
"value" : {
"name" : "BurninBoxConfiguration_v137",
"assigned" : "2023-04-14T16:18:32.652-0500"
}
},
{
"event" : "addConfiguration",
"timestamp" : "2023-04-14T16:20:11.833-0500",
"value" : {
"name" : "BurninBoxConfiguration_v138",
"assigned" : "2023-04-14T16:20:11.833-0500"
}
},
{
"event" : "addConfiguration",
"timestamp" : "2023-04-17T15:51:48.921-0500",
"value" : {
"name" : "BurninBoxConfiguration_v139",
"assigned" : "2023-04-17T15:51:48.921-0500"
}
},
{
"event" : "addConfiguration",
"timestamp" : "2023-04-18T10:48:02.298-0500",
"value" : {
"name" : "BurninBoxConfiguration_v140",
"assigned" : "2023-04-18T10:48:02.298-0500"
}
},
{
"event" : "addConfiguration",
"timestamp" : "2023-04-18T12:02:41.352-0500",
"value" : {
"name" : "BurninBoxConfiguration_v141",
"assigned" : "2023-04-18T12:02:41.352-0500"
}
},
{
"event" : "addConfiguration",
"timestamp" : "2023-04-18T12:03:56.848-0500",
"value" : {
"name" : "BurninBoxConfiguration_v142",
"assigned" : "2023-04-18T12:03:56.848-0500"
}
},
{
"event" : "addConfiguration",
"timestamp" : "2023-04-18T13:48:31.809-0500",
"value" : {
"name" : "BurninBoxConfiguration_v143",
"assigned" : "2023-04-18T13:48:31.809-0500"
}
},
{
"event" : "addConfiguration",
"timestamp" : "2023-04-18T14:33:55.064-0500",
"value" : {
"name" : "BurninBoxConfiguration_v144",
"assigned" : "2023-04-18T14:33:55.064-0500"
}
},
{
"event" : "addConfiguration",
"timestamp" : "2023-04-18T16:14:31.596-0500",
"value" : {
"name" : "BurninBoxConfiguration_v145",
"assigned" : "2023-04-18T16:14:31.596-0500"
}
},
{
"event" : "addConfiguration",
"timestamp" : "2023-04-18T16:20:21.134-0500",
"value" : {
"name" : "BurninBoxConfiguration_v146",
"assigned" : "2023-04-18T16:20:21.134-0500"
}
},
{
"event" : "addConfiguration",
"timestamp" : "2023-04-21T15:02:48.072-0500",
"value" : {
"name" : "BurninBoxConfiguration_v147",
"assigned" : "2023-04-21T15:02:48.072-0500"
}
},
{
"event" : "addConfiguration",
"timestamp" : "2023-05-09T09:06:44.313-0500",
"value" : {
"name" : "BurninBoxConfiguration_v148",
"assigned" : "2023-05-09T09:06:44.313-0500"
}
},
{
"event" : "addConfiguration",
"timestamp" : "2023-05-11T08:26:02.421-0500",
"value" : {
"name" : "BurninBoxConfiguration_v149",
"assigned" : "2023-05-11T08:26:02.421-0500"
}
},
{
"event" : "addConfiguration",
"timestamp" : "2023-05-11T14:10:22.898-0500",
"value" : {
"name" : "BurninBoxConfiguration_v150",
"assigned" : "2023-05-11T14:10:22.898-0500"
}
},
{
"event" : "addConfiguration",
"timestamp" : "2023-05-11T14:10:59.961-0500",
"value" : {
"name" : "BurninBoxConfiguration_v151",
"assigned" : "2023-05-11T14:10:59.961-0500"
}
},
{
"event" : "addConfiguration",
"timestamp" : "2023-05-11T14:12:47.926-0500",
"value" : {
"name" : "BurninBoxConfiguration_v152",
"assigned" : "2023-05-11T14:12:47.926-0500"
}
},
{
"event" : "addConfiguration",
"timestamp" : "2023-05-19T11:54:17.815-0500",
"value" : {
"name" : "BurninBoxConfiguration_v153",
"assigned" : "2023-05-19T11:54:17.814-0500"
}
},
{
"event" : "addConfiguration",
"timestamp" : "2023-05-19T11:57:27.602-0500",
"value" : {
"name" : "BurninBoxConfiguration_v154",
"assigned" : "2023-05-19T11:57:27.602-0500"
}
},
{
"event" : "addConfiguration",
"timestamp" : "2023-05-19T13:22:53.720-0500",
"value" : {
"name" : "BurninBoxConfiguration_v155",
"assigned" : "2023-05-19T13:22:53.720-0500"
}
},
{
"event" : "addConfiguration",
"timestamp" : "2023-06-01T14:54:10.027-0500",
"value" : {
"name" : "BurninBoxConfiguration_v156",
"assigned" : "2023-06-01T14:54:10.027-0500"
}
},
{
"event" : "addConfiguration",
"timestamp" : "2023-06-01T14:56:07.316-0500",
"value" : {
"name" : "BurninBoxConfiguration_v157",
"assigned" : "2023-06-01T14:56:07.316-0500"
}
},
{
"event" : "addConfiguration",
"timestamp" : "2023-06-01T14:56:43.977-0500",
"value" : {
"name" : "BurninBoxConfiguration_v158",
"assigned" : "2023-06-01T14:56:43.977-0500"
}
},
{
"event" : "addConfiguration",
"timestamp" : "2023-06-02T12:37:16.973-0500",
"value" : {
"name" : "BurninBoxConfiguration_v159",
"assigned" : "2023-06-02T12:37:16.973-0500"
}
}
],
"created" : "2023-01-19T11:02:41.742-0600"
},
"_id" : {
"$oid" : "f73b6aa4670d4dbd8e6805cc"
},
"collection" : "FEMiddlewareInterfaceTable",
"aliases" : {
"active" : [

],
"history" : [

]
},
"runs" : [

],
"attachments" : [

],
"configtype" : "notprovided"
}