{
"document" : {
"data" : {
"NAME" : "CAEN_POWER_SUPPLY_CHANNEL_TABLE",
"COMMENT" : "No comment.",
"AUTHOR" : "admin",
"CREATION_TIME" : 1625779242,
"COL_TYPES" : {
"POWER_SUPPLY_GROUP_UID" : "STRING",
"CHANNEL_UID" : "STRING",
"SLOT" : "NUMBER",
"CHANNEL" : "NUMBER",
"DETECTOR_NAME" : "STRING",
"CHANNEL_TYPE" : "STRING",
"TURN_ON_SEQUENCE" : "NUMBER",
"TURN_OFF_SEQUENCE" : "NUMBER",
"IN_USE" : "STRING",
"I0SET" : "NUMBER",
"V0SET" : "NUMBER",
"R_UP" : "NUMBER",
"R_DWN" : "NUMBER",
"TRIP" : "NUMBER",
"R_UP_TIME" : "NUMBER",
"R_DW_TIME" : "NUMBER",
"UNV_THR" : "NUMBER",
"OVV_THR" : "NUMBER",
"COMMENT_DESCRIPTION" : "STRING",
"AUTHOR" : "STRING",
"RECORD_INSERTION_TIME" : "TIMESTAMP WITH TIMEZONE"
},
"DATA_SET" : [
{
"POWER_SUPPLY_GROUP_UID" : "BurninBox",
"CHANNEL_UID" : "Module1A_LV",
"SLOT" : "1",
"CHANNEL" : "0",
"DETECTOR_NAME" : "Module1A",
"CHANNEL_TYPE" : "LV",
"TURN_ON_SEQUENCE" : "0",
"TURN_OFF_SEQUENCE" : "0",
"IN_USE" : "Yes",
"I0SET" : "1.5",
"V0SET" : "10",
"R_UP" : "5",
"R_DWN" : "5",
"TRIP" : "0",
"R_UP_TIME" : "0",
"R_DW_TIME" : "0",
"UNV_THR" : "5",
"OVV_THR" : "15",
"COMMENT_DESCRIPTION" : "No Comment",
"AUTHOR" : "admin",
"RECORD_INSERTION_TIME" : "1625779203"
}
]
},
"metadata" : {

},
"search" : [

]
},
"comments" : [

],
"origin" : {
"source" : "template",
"name" : "notprovided",
"format" : "json",
"created" : "2021-07-08T16:20:42.880-0500",
"rawdata" : [

]
},
"version" : "4",
"entities" : [
{
"name" : "OTSROOT",
"assigned" : "2021-07-08T16:20:42.882-0500"
}
],
"configurations" : [
{
"name" : "notprovided",
"assigned" : "2021-07-08T16:20:42.881-0500"
},
{
"name" : "BurninBoxConfiguration_v37",
"assigned" : "2021-07-08T16:20:44.351-0500"
},
{
"name" : "BurninBoxConfiguration_v38",
"assigned" : "2021-07-09T11:47:13.532-0500"
},
{
"name" : "BurninBoxConfiguration_v39",
"assigned" : "2021-07-09T11:48:45.665-0500"
},
{
"name" : "BurninBoxConfiguration_v40",
"assigned" : "2021-07-09T16:06:00.082-0500"
},
{
"name" : "BurninBoxConfiguration_v41",
"assigned" : "2021-07-12T11:04:55.093-0500"
},
{
"name" : "BurninBoxConfiguration_v42",
"assigned" : "2021-07-13T12:01:30.879-0500"
},
{
"name" : "BurninBoxConfiguration_v43",
"assigned" : "2021-07-13T12:22:05.432-0500"
},
{
"name" : "BurninBoxConfiguration_v44",
"assigned" : "2021-07-14T13:05:57.979-0500"
},
{
"name" : "BurninBoxConfiguration_v45",
"assigned" : "2021-07-14T14:26:04.138-0500"
},
{
"name" : "BurninBoxConfiguration_v46",
"assigned" : "2021-07-14T14:46:56.469-0500"
},
{
"name" : "BurninBoxConfiguration_v47",
"assigned" : "2021-07-14T15:24:33.281-0500"
},
{
"name" : "BurninBoxConfiguration_v48",
"assigned" : "2021-07-14T16:05:28.850-0500"
}
],
"changelog" : "notprovided",
"bookkeeping" : {
"isdeleted" : false,
"isreadonly" : false,
"updates" : [
{
"event" : "addConfiguration",
"timestamp" : "2021-07-08T16:20:42.881-0500",
"value" : {
"name" : "notprovided",
"assigned" : "2021-07-08T16:20:42.881-0500"
}
},
{
"event" : "setVersion",
"timestamp" : "2021-07-08T16:20:42.881-0500",
"value" : {
"name" : "4",
"assigned" : "2021-07-08T16:20:42.881-0500"
}
},
{
"event" : "setCollection",
"timestamp" : "2021-07-08T16:20:42.882-0500",
"value" : {
"name" : "CAENPowerSupplyChannelTable",
"assigned" : "2021-07-08T16:20:42.882-0500"
}
},
{
"event" : "addEntity",
"timestamp" : "2021-07-08T16:20:42.882-0500",
"value" : {
"name" : "OTSROOT",
"assigned" : "2021-07-08T16:20:42.882-0500"
}
},
{
"event" : "addConfiguration",
"timestamp" : "2021-07-08T16:20:44.351-0500",
"value" : {
"name" : "BurninBoxConfiguration_v37",
"assigned" : "2021-07-08T16:20:44.351-0500"
}
},
{
"event" : "addConfiguration",
"timestamp" : "2021-07-09T11:47:13.532-0500",
"value" : {
"name" : "BurninBoxConfiguration_v38",
"assigned" : "2021-07-09T11:47:13.532-0500"
}
},
{
"event" : "addConfiguration",
"timestamp" : "2021-07-09T11:48:45.665-0500",
"value" : {
"name" : "BurninBoxConfiguration_v39",
"assigned" : "2021-07-09T11:48:45.665-0500"
}
},
{
"event" : "addConfiguration",
"timestamp" : "2021-07-09T16:06:00.082-0500",
"value" : {
"name" : "BurninBoxConfiguration_v40",
"assigned" : "2021-07-09T16:06:00.082-0500"
}
},
{
"event" : "addConfiguration",
"timestamp" : "2021-07-12T11:04:55.093-0500",
"value" : {
"name" : "BurninBoxConfiguration_v41",
"assigned" : "2021-07-12T11:04:55.093-0500"
}
},
{
"event" : "addConfiguration",
"timestamp" : "2021-07-13T12:01:30.879-0500",
"value" : {
"name" : "BurninBoxConfiguration_v42",
"assigned" : "2021-07-13T12:01:30.879-0500"
}
},
{
"event" : "addConfiguration",
"timestamp" : "2021-07-13T12:22:05.432-0500",
"value" : {
"name" : "BurninBoxConfiguration_v43",
"assigned" : "2021-07-13T12:22:05.432-0500"
}
},
{
"event" : "addConfiguration",
"timestamp" : "2021-07-14T13:05:57.979-0500",
"value" : {
"name" : "BurninBoxConfiguration_v44",
"assigned" : "2021-07-14T13:05:57.979-0500"
}
},
{
"event" : "addConfiguration",
"timestamp" : "2021-07-14T14:26:04.138-0500",
"value" : {
"name" : "BurninBoxConfiguration_v45",
"assigned" : "2021-07-14T14:26:04.138-0500"
}
},
{
"event" : "addConfiguration",
"timestamp" : "2021-07-14T14:46:56.469-0500",
"value" : {
"name" : "BurninBoxConfiguration_v46",
"assigned" : "2021-07-14T14:46:56.469-0500"
}
},
{
"event" : "addConfiguration",
"timestamp" : "2021-07-14T15:24:33.281-0500",
"value" : {
"name" : "BurninBoxConfiguration_v47",
"assigned" : "2021-07-14T15:24:33.281-0500"
}
},
{
"event" : "addConfiguration",
"timestamp" : "2021-07-14T16:05:28.850-0500",
"value" : {
"name" : "BurninBoxConfiguration_v48",
"assigned" : "2021-07-14T16:05:28.850-0500"
}
}
],
"created" : "2021-07-08T16:20:42.880-0500"
},
"_id" : {
"$oid" : "81674a26986046659a041a5c"
},
"collection" : "CAENPowerSupplyChannelTable",
"aliases" : {
"active" : [

],
"history" : [

]
},
"runs" : [

],
"attachments" : [

],
"configtype" : "notprovided"
}