{
"document" : {
"data" : {
"NAME" : "DATA_BUFFER_TABLE",
"COMMENT" : "Records for data buffer Producers and Consumers.",
"AUTHOR" : "admin",
"CREATION_TIME" : 1625849324,
"COL_TYPES" : {
"DATA_BUFFER_GROUP_ID" : "STRING",
"DATA_BUFFER_UID" : "STRING",
"LINK_TO_DATA_PROCESSOR_TABLE" : "STRING",
"LINK_TO_DATA_PROCESSOR_GROUP_ID" : "STRING",
"STATUS" : "STRING",
"COMMENT_DESCRIPTION" : "STRING",
"AUTHOR" : "STRING",
"RECORD_INSERTION_TIME" : "TIMESTAMP WITH TIMEZONE"
},
"DATA_SET" : [
{
"DATA_BUFFER_GROUP_ID" : "VisualizerDataBuffer",
"DATA_BUFFER_UID" : "VisualizerBurninBoxBuffer",
"LINK_TO_DATA_PROCESSOR_TABLE" : "DataProcessorTable",
"LINK_TO_DATA_PROCESSOR_GROUP_ID" : "VisualizerBurninBoxBuffer",
"STATUS" : "On",
"COMMENT_DESCRIPTION" : "DEFAULT",
"AUTHOR" : "admin",
"RECORD_INSERTION_TIME" : "1603996075"
},
{
"DATA_BUFFER_GROUP_ID" : "VisualizerDataBuffer",
"DATA_BUFFER_UID" : "VisualizerPowerSupplyBuffer",
"LINK_TO_DATA_PROCESSOR_TABLE" : "DataProcessorTable",
"LINK_TO_DATA_PROCESSOR_GROUP_ID" : "VisualizerPowerSupplyBuffer",
"STATUS" : "On",
"COMMENT_DESCRIPTION" : "DEFAULT",
"AUTHOR" : "admin",
"RECORD_INSERTION_TIME" : "1625849278"
},
{
"DATA_BUFFER_GROUP_ID" : "VisualizerDataBuffer",
"DATA_BUFFER_UID" : "TrackerBuffer",
"LINK_TO_DATA_PROCESSOR_TABLE" : "DataProcessorTable",
"LINK_TO_DATA_PROCESSOR_GROUP_ID" : "VisualizerTrackerBuffer",
"STATUS" : "On",
"COMMENT_DESCRIPTION" : "DEFAULT",
"AUTHOR" : "admin",
"RECORD_INSERTION_TIME" : "1625849283"
}
]
},
"metadata" : {

},
"search" : [

]
},
"comments" : [

],
"origin" : {
"source" : "template",
"name" : "notprovided",
"format" : "json",
"created" : "2021-07-09T11:48:44.184-0500",
"rawdata" : [

]
},
"version" : "7",
"entities" : [
{
"name" : "OTSROOT",
"assigned" : "2021-07-09T11:48:44.184-0500"
}
],
"configurations" : [
{
"name" : "notprovided",
"assigned" : "2021-07-09T11:48:44.184-0500"
},
{
"name" : "BurninBoxConfiguration_v39",
"assigned" : "2021-07-09T11:48:45.897-0500"
},
{
"name" : "BurninBoxConfiguration_v40",
"assigned" : "2021-07-09T16:06:00.345-0500"
},
{
"name" : "BurninBoxConfiguration_v41",
"assigned" : "2021-07-12T11:04:55.334-0500"
},
{
"name" : "BurninBoxConfiguration_v42",
"assigned" : "2021-07-13T12:01:31.154-0500"
},
{
"name" : "BurninBoxConfiguration_v50",
"assigned" : "2021-07-14T16:17:40.609-0500"
},
{
"name" : "BurninBoxConfiguration_v51",
"assigned" : "2021-07-15T11:50:33.592-0500"
},
{
"name" : "BurninBoxConfiguration_v52",
"assigned" : "2021-07-20T13:45:53.730-0500"
},
{
"name" : "BurninBoxConfiguration_v53",
"assigned" : "2021-07-20T16:41:41.920-0500"
},
{
"name" : "BurninBoxConfiguration_v54",
"assigned" : "2021-07-20T17:09:26.631-0500"
},
{
"name" : "BurninBoxConfiguration_v58",
"assigned" : "2021-07-21T11:58:37.356-0500"
},
{
"name" : "BurninBoxConfiguration_v59",
"assigned" : "2021-07-21T11:59:33.121-0500"
},
{
"name" : "BurninBoxConfiguration_v60",
"assigned" : "2021-07-22T18:35:00.112-0500"
},
{
"name" : "BurninBoxConfiguration_v61",
"assigned" : "2021-07-23T12:33:56.444-0500"
},
{
"name" : "BurninBoxConfiguration_v62",
"assigned" : "2021-07-24T00:54:49.243-0500"
},
{
"name" : "BurninBoxConfiguration_v63",
"assigned" : "2021-07-24T12:12:50.839-0500"
},
{
"name" : "BurninBoxConfiguration_v64",
"assigned" : "2021-07-25T21:07:15.784-0500"
},
{
"name" : "BurninBoxConfiguration_v65",
"assigned" : "2021-07-26T07:43:11.674-0500"
},
{
"name" : "BurninBoxConfiguration_v66",
"assigned" : "2021-07-26T18:37:11.731-0500"
},
{
"name" : "BurninBoxConfiguration_v67",
"assigned" : "2021-07-27T08:25:40.452-0500"
},
{
"name" : "BurninBoxConfiguration_v76",
"assigned" : "2021-09-24T16:04:21.707-0500"
},
{
"name" : "BurninBoxConfiguration_v77",
"assigned" : "2021-09-24T16:28:06.514-0500"
},
{
"name" : "BurninBoxConfiguration_v78",
"assigned" : "2021-09-27T09:02:56.133-0500"
},
{
"name" : "BurninBoxConfiguration_v79",
"assigned" : "2021-09-27T14:22:24.411-0500"
},
{
"name" : "BurninBoxConfiguration_v80",
"assigned" : "2021-09-28T09:24:50.304-0500"
},
{
"name" : "BurninBoxConfiguration_v83",
"assigned" : "2021-10-01T11:01:40.730-0500"
},
{
"name" : "BurninBoxConfiguration_v84",
"assigned" : "2021-10-06T10:02:30.968-0500"
},
{
"name" : "BurninBoxConfiguration_v85",
"assigned" : "2021-10-07T16:32:40.093-0500"
},
{
"name" : "BurninBoxConfiguration_v86",
"assigned" : "2021-10-08T14:03:14.947-0500"
},
{
"name" : "BurninBoxConfiguration_v87",
"assigned" : "2021-10-11T16:00:55.808-0500"
},
{
"name" : "BurninBoxConfiguration_v88",
"assigned" : "2021-10-12T09:07:17.095-0500"
},
{
"name" : "BurninBoxConfiguration_v89",
"assigned" : "2021-10-12T11:11:22.785-0500"
},
{
"name" : "BurninBoxConfiguration_v90",
"assigned" : "2021-10-14T17:03:16.186-0500"
},
{
"name" : "BurninBoxConfiguration_v91",
"assigned" : "2021-10-15T10:48:30.952-0500"
},
{
"name" : "BurninBoxConfiguration_v92",
"assigned" : "2021-10-15T15:50:48.867-0500"
},
{
"name" : "BurninBoxConfiguration_v93",
"assigned" : "2021-11-03T16:30:19.742-0500"
},
{
"name" : "BurninBoxConfiguration_v95",
"assigned" : "2022-04-19T14:35:56.172-0400"
}
],
"changelog" : "notprovided",
"bookkeeping" : {
"isdeleted" : false,
"isreadonly" : false,
"updates" : [
{
"event" : "addConfiguration",
"timestamp" : "2021-07-09T11:48:44.184-0500",
"value" : {
"name" : "notprovided",
"assigned" : "2021-07-09T11:48:44.184-0500"
}
},
{
"event" : "setVersion",
"timestamp" : "2021-07-09T11:48:44.184-0500",
"value" : {
"name" : "7",
"assigned" : "2021-07-09T11:48:44.184-0500"
}
},
{
"event" : "setCollection",
"timestamp" : "2021-07-09T11:48:44.184-0500",
"value" : {
"name" : "DataBufferTable",
"assigned" : "2021-07-09T11:48:44.184-0500"
}
},
{
"event" : "addEntity",
"timestamp" : "2021-07-09T11:48:44.184-0500",
"value" : {
"name" : "OTSROOT",
"assigned" : "2021-07-09T11:48:44.184-0500"
}
},
{
"event" : "addConfiguration",
"timestamp" : "2021-07-09T11:48:45.897-0500",
"value" : {
"name" : "BurninBoxConfiguration_v39",
"assigned" : "2021-07-09T11:48:45.897-0500"
}
},
{
"event" : "addConfiguration",
"timestamp" : "2021-07-09T16:06:00.345-0500",
"value" : {
"name" : "BurninBoxConfiguration_v40",
"assigned" : "2021-07-09T16:06:00.345-0500"
}
},
{
"event" : "addConfiguration",
"timestamp" : "2021-07-12T11:04:55.335-0500",
"value" : {
"name" : "BurninBoxConfiguration_v41",
"assigned" : "2021-07-12T11:04:55.334-0500"
}
},
{
"event" : "addConfiguration",
"timestamp" : "2021-07-13T12:01:31.154-0500",
"value" : {
"name" : "BurninBoxConfiguration_v42",
"assigned" : "2021-07-13T12:01:31.154-0500"
}
},
{
"event" : "addConfiguration",
"timestamp" : "2021-07-14T16:17:40.609-0500",
"value" : {
"name" : "BurninBoxConfiguration_v50",
"assigned" : "2021-07-14T16:17:40.609-0500"
}
},
{
"event" : "addConfiguration",
"timestamp" : "2021-07-15T11:50:33.592-0500",
"value" : {
"name" : "BurninBoxConfiguration_v51",
"assigned" : "2021-07-15T11:50:33.592-0500"
}
},
{
"event" : "addConfiguration",
"timestamp" : "2021-07-20T13:45:53.730-0500",
"value" : {
"name" : "BurninBoxConfiguration_v52",
"assigned" : "2021-07-20T13:45:53.730-0500"
}
},
{
"event" : "addConfiguration",
"timestamp" : "2021-07-20T16:41:41.920-0500",
"value" : {
"name" : "BurninBoxConfiguration_v53",
"assigned" : "2021-07-20T16:41:41.920-0500"
}
},
{
"event" : "addConfiguration",
"timestamp" : "2021-07-20T17:09:26.631-0500",
"value" : {
"name" : "BurninBoxConfiguration_v54",
"assigned" : "2021-07-20T17:09:26.631-0500"
}
},
{
"event" : "addConfiguration",
"timestamp" : "2021-07-21T11:58:37.356-0500",
"value" : {
"name" : "BurninBoxConfiguration_v58",
"assigned" : "2021-07-21T11:58:37.356-0500"
}
},
{
"event" : "addConfiguration",
"timestamp" : "2021-07-21T11:59:33.121-0500",
"value" : {
"name" : "BurninBoxConfiguration_v59",
"assigned" : "2021-07-21T11:59:33.121-0500"
}
},
{
"event" : "addConfiguration",
"timestamp" : "2021-07-22T18:35:00.112-0500",
"value" : {
"name" : "BurninBoxConfiguration_v60",
"assigned" : "2021-07-22T18:35:00.112-0500"
}
},
{
"event" : "addConfiguration",
"timestamp" : "2021-07-23T12:33:56.444-0500",
"value" : {
"name" : "BurninBoxConfiguration_v61",
"assigned" : "2021-07-23T12:33:56.444-0500"
}
},
{
"event" : "addConfiguration",
"timestamp" : "2021-07-24T00:54:49.243-0500",
"value" : {
"name" : "BurninBoxConfiguration_v62",
"assigned" : "2021-07-24T00:54:49.243-0500"
}
},
{
"event" : "addConfiguration",
"timestamp" : "2021-07-24T12:12:50.839-0500",
"value" : {
"name" : "BurninBoxConfiguration_v63",
"assigned" : "2021-07-24T12:12:50.839-0500"
}
},
{
"event" : "addConfiguration",
"timestamp" : "2021-07-25T21:07:15.784-0500",
"value" : {
"name" : "BurninBoxConfiguration_v64",
"assigned" : "2021-07-25T21:07:15.784-0500"
}
},
{
"event" : "addConfiguration",
"timestamp" : "2021-07-26T07:43:11.674-0500",
"value" : {
"name" : "BurninBoxConfiguration_v65",
"assigned" : "2021-07-26T07:43:11.674-0500"
}
},
{
"event" : "addConfiguration",
"timestamp" : "2021-07-26T18:37:11.731-0500",
"value" : {
"name" : "BurninBoxConfiguration_v66",
"assigned" : "2021-07-26T18:37:11.731-0500"
}
},
{
"event" : "addConfiguration",
"timestamp" : "2021-07-27T08:25:40.452-0500",
"value" : {
"name" : "BurninBoxConfiguration_v67",
"assigned" : "2021-07-27T08:25:40.452-0500"
}
},
{
"event" : "addConfiguration",
"timestamp" : "2021-09-24T16:04:21.707-0500",
"value" : {
"name" : "BurninBoxConfiguration_v76",
"assigned" : "2021-09-24T16:04:21.707-0500"
}
},
{
"event" : "addConfiguration",
"timestamp" : "2021-09-24T16:28:06.514-0500",
"value" : {
"name" : "BurninBoxConfiguration_v77",
"assigned" : "2021-09-24T16:28:06.514-0500"
}
},
{
"event" : "addConfiguration",
"timestamp" : "2021-09-27T09:02:56.133-0500",
"value" : {
"name" : "BurninBoxConfiguration_v78",
"assigned" : "2021-09-27T09:02:56.133-0500"
}
},
{
"event" : "addConfiguration",
"timestamp" : "2021-09-27T14:22:24.411-0500",
"value" : {
"name" : "BurninBoxConfiguration_v79",
"assigned" : "2021-09-27T14:22:24.411-0500"
}
},
{
"event" : "addConfiguration",
"timestamp" : "2021-09-28T09:24:50.304-0500",
"value" : {
"name" : "BurninBoxConfiguration_v80",
"assigned" : "2021-09-28T09:24:50.304-0500"
}
},
{
"event" : "addConfiguration",
"timestamp" : "2021-10-01T11:01:40.730-0500",
"value" : {
"name" : "BurninBoxConfiguration_v83",
"assigned" : "2021-10-01T11:01:40.730-0500"
}
},
{
"event" : "addConfiguration",
"timestamp" : "2021-10-06T10:02:30.968-0500",
"value" : {
"name" : "BurninBoxConfiguration_v84",
"assigned" : "2021-10-06T10:02:30.968-0500"
}
},
{
"event" : "addConfiguration",
"timestamp" : "2021-10-07T16:32:40.093-0500",
"value" : {
"name" : "BurninBoxConfiguration_v85",
"assigned" : "2021-10-07T16:32:40.093-0500"
}
},
{
"event" : "addConfiguration",
"timestamp" : "2021-10-08T14:03:14.947-0500",
"value" : {
"name" : "BurninBoxConfiguration_v86",
"assigned" : "2021-10-08T14:03:14.947-0500"
}
},
{
"event" : "addConfiguration",
"timestamp" : "2021-10-11T16:00:55.808-0500",
"value" : {
"name" : "BurninBoxConfiguration_v87",
"assigned" : "2021-10-11T16:00:55.808-0500"
}
},
{
"event" : "addConfiguration",
"timestamp" : "2021-10-12T09:07:17.095-0500",
"value" : {
"name" : "BurninBoxConfiguration_v88",
"assigned" : "2021-10-12T09:07:17.095-0500"
}
},
{
"event" : "addConfiguration",
"timestamp" : "2021-10-12T11:11:22.785-0500",
"value" : {
"name" : "BurninBoxConfiguration_v89",
"assigned" : "2021-10-12T11:11:22.785-0500"
}
},
{
"event" : "addConfiguration",
"timestamp" : "2021-10-14T17:03:16.186-0500",
"value" : {
"name" : "BurninBoxConfiguration_v90",
"assigned" : "2021-10-14T17:03:16.186-0500"
}
},
{
"event" : "addConfiguration",
"timestamp" : "2021-10-15T10:48:30.952-0500",
"value" : {
"name" : "BurninBoxConfiguration_v91",
"assigned" : "2021-10-15T10:48:30.952-0500"
}
},
{
"event" : "addConfiguration",
"timestamp" : "2021-10-15T15:50:48.867-0500",
"value" : {
"name" : "BurninBoxConfiguration_v92",
"assigned" : "2021-10-15T15:50:48.867-0500"
}
},
{
"event" : "addConfiguration",
"timestamp" : "2021-11-03T16:30:19.742-0500",
"value" : {
"name" : "BurninBoxConfiguration_v93",
"assigned" : "2021-11-03T16:30:19.742-0500"
}
},
{
"event" : "addConfiguration",
"timestamp" : "2022-04-19T14:35:56.172-0400",
"value" : {
"name" : "BurninBoxConfiguration_v95",
"assigned" : "2022-04-19T14:35:56.172-0400"
}
}
],
"created" : "2021-07-09T11:48:44.184-0500"
},
"_id" : {
"$oid" : "2734d8bae7fb429f8d3efd25"
},
"collection" : "DataBufferTable",
"aliases" : {
"active" : [

],
"history" : [

]
},
"runs" : [

],
"attachments" : [

],
"configtype" : "notprovided"
}