{
"document" : {
"data" : {
"NAME" : "DATA_BUFFER_TABLE",
"COMMENT" : "Records for data buffer Producers and Consumers.",
"AUTHOR" : "admin",
"CREATION_TIME" : 1536269612,
"COL_TYPES" : {
"DATA_BUFFER_GROUP_ID" : "VARCHAR2",
"PROCESSOR_UID" : "VARCHAR2",
"PROCESSOR_TYPE" : "VARCHAR2",
"PROCESSOR_PLUGIN_NAME" : "VARCHAR2",
"LINK_TO_PROCESSOR_TABLE" : "VARCHAR2",
"LINK_TO_PROCESSOR_UID" : "VARCHAR2",
"STATUS" : "VARCHAR2",
"COMMENT_DESCRIPTION" : "VARCHAR2",
"AUTHOR" : "VARCHAR2",
"RECORD_INSERTION_TIME" : "TIMESTAMP WITH TIMEZONE"
},
"DATA_SET" : [
{
"DATA_BUFFER_GROUP_ID" : "BurninBox0_DataBuffer0",
"PROCESSOR_UID" : "BurninBox0_DB0_Listener0",
"PROCESSOR_TYPE" : "Producer",
"PROCESSOR_PLUGIN_NAME" : "UDPDataListenerProducer",
"LINK_TO_PROCESSOR_TABLE" : "UDPDataListenerProducerTable",
"LINK_TO_PROCESSOR_UID" : "BurninBox0_DB0_Listener0",
"STATUS" : "On",
"COMMENT_DESCRIPTION" : "",
"AUTHOR" : "admin",
"RECORD_INSERTION_TIME" : "1536268904"
},
{
"DATA_BUFFER_GROUP_ID" : "BurninBox0_DataBuffer0",
"PROCESSOR_UID" : "BurninBox0_DB0_RawDataSaver0",
"PROCESSOR_TYPE" : "Consumer",
"PROCESSOR_PLUGIN_NAME" : "CMSTimingRawDataSaverConsumer",
"LINK_TO_PROCESSOR_TABLE" : "RawDataSaverConsumerTable",
"LINK_TO_PROCESSOR_UID" : "BurninBox0_DB0_RawDataSaver0",
"STATUS" : "On",
"COMMENT_DESCRIPTION" : "",
"AUTHOR" : "admin",
"RECORD_INSERTION_TIME" : "1536268904"
},
{
"DATA_BUFFER_GROUP_ID" : "VisualBuffer",
"PROCESSOR_UID" : "VBListener0",
"PROCESSOR_TYPE" : "Producer",
"PROCESSOR_PLUGIN_NAME" : "UDPDataListenerProducer",
"LINK_TO_PROCESSOR_TABLE" : "UDPDataListenerProducerTable",
"LINK_TO_PROCESSOR_UID" : "VBListener0",
"STATUS" : "On",
"COMMENT_DESCRIPTION" : "",
"AUTHOR" : "admin",
"RECORD_INSERTION_TIME" : "1536266319"
},
{
"DATA_BUFFER_GROUP_ID" : "VisualBuffer",
"PROCESSOR_UID" : "VBBurninBoxDQMHistos",
"PROCESSOR_TYPE" : "Consumer",
"PROCESSOR_PLUGIN_NAME" : "BurninBoxDQMHistosConsumer",
"LINK_TO_PROCESSOR_TABLE" : "BurninBoxDQMHistosConsumerTable",
"LINK_TO_PROCESSOR_UID" : "VBBurninBoxDQMHistos",
"STATUS" : "On",
"COMMENT_DESCRIPTION" : "",
"AUTHOR" : "admin",
"RECORD_INSERTION_TIME" : "1536269612"
}
]
},
"metadata" : {

},
"search" : [

]
},
"comments" : [

],
"origin" : {
"source" : "template",
"name" : "notprovided",
"format" : "json",
"created" : "2018-09-06T17:34:13.936-0500",
"rawdata" : [

]
},
"version" : "0",
"entities" : [
{
"name" : "OTSROOT",
"assigned" : "2018-09-06T17:34:13.940-0500"
}
],
"tables" : [
{
"name" : "notprovided",
"assigned" : "2018-09-06T17:34:13.938-0500"
},
{
"name" : "BurninBoxConfig_v0",
"assigned" : "2018-09-06T17:34:14.502-0500"
},
{
"name" : "BurninBoxConfig_v1",
"assigned" : "2018-09-10T10:45:51.031-0500"
},
{
"name" : "BurninBoxConfig_v2",
"assigned" : "2018-09-10T11:24:18.444-0500"
},
{
"name" : "BurninBoxConfig_v3",
"assigned" : "2018-09-11T09:59:56.055-0500"
},
{
"name" : "BurninBoxConfig_v4",
"assigned" : "2018-09-11T10:01:19.149-0500"
},
{
"name" : "BurninBoxConfig_v5",
"assigned" : "2018-09-11T10:11:15.705-0500"
},
{
"name" : "BurninBoxConfig_v6",
"assigned" : "2018-09-12T12:16:43.443-0500"
},
{
"name" : "BurninBoxConfig_v7",
"assigned" : "2018-09-17T11:12:09.081-0500"
},
{
"name" : "BurninBoxConfig_v8",
"assigned" : "2018-09-17T13:53:33.112-0500"
},
{
"name" : "BurninBoxConfig_v9",
"assigned" : "2018-09-17T14:03:57.842-0500"
},
{
"name" : "BurninBoxConfig_v10",
"assigned" : "2018-09-18T15:31:02.179-0500"
},
{
"name" : "BurninBoxConfig_v11",
"assigned" : "2018-09-19T09:27:01.917-0500"
},
{
"name" : "BurninBoxConfig_v12",
"assigned" : "2018-09-19T10:08:01.760-0500"
},
{
"name" : "BurninBoxConfig_v13",
"assigned" : "2018-09-19T10:23:21.703-0500"
},
{
"name" : "BurninBoxConfig_v14",
"assigned" : "2018-09-19T11:22:21.070-0500"
},
{
"name" : "BurninBoxConfig_v15",
"assigned" : "2018-09-19T12:26:54.946-0500"
},
{
"name" : "BurninBoxConfig_v16",
"assigned" : "2018-09-20T14:22:27.012-0500"
},
{
"name" : "BurninBoxConfig_v17",
"assigned" : "2018-09-20T15:42:02.809-0500"
},
{
"name" : "BurninBoxConfig_v18",
"assigned" : "2018-09-21T11:16:28.826-0500"
},
{
"name" : "BurninBoxConfig_v19",
"assigned" : "2018-09-21T13:39:24.967-0500"
},
{
"name" : "BurninBoxConfig_v20",
"assigned" : "2018-09-21T13:39:48.890-0500"
},
{
"name" : "BurninBoxConfig_v21",
"assigned" : "2019-02-28T12:04:25.569-0600"
},
{
"name" : "BurninBoxConfig_v22",
"assigned" : "2019-02-28T12:05:07.992-0600"
},
{
"name" : "BurninBoxConfig_v23",
"assigned" : "2019-02-28T13:57:09.600-0600"
}
],
"changelog" : "notprovided",
"bookkeeping" : {
"isdeleted" : false,
"isreadonly" : false,
"updates" : [
{
"event" : "addTable",
"timestamp" : "2018-09-06T17:34:13.938-0500",
"value" : {
"name" : "notprovided",
"assigned" : "2018-09-06T17:34:13.938-0500"
}
},
{
"event" : "setVersion",
"timestamp" : "2018-09-06T17:34:13.939-0500",
"value" : {
"name" : "0",
"assigned" : "2018-09-06T17:34:13.939-0500"
}
},
{
"event" : "setCollection",
"timestamp" : "2018-09-06T17:34:13.940-0500",
"value" : {
"name" : "DataBufferTable",
"assigned" : "2018-09-06T17:34:13.940-0500"
}
},
{
"event" : "addEntity",
"timestamp" : "2018-09-06T17:34:13.940-0500",
"value" : {
"name" : "OTSROOT",
"assigned" : "2018-09-06T17:34:13.940-0500"
}
},
{
"event" : "addTable",
"timestamp" : "2018-09-06T17:34:14.502-0500",
"value" : {
"name" : "BurninBoxConfig_v0",
"assigned" : "2018-09-06T17:34:14.502-0500"
}
},
{
"event" : "addTable",
"timestamp" : "2018-09-10T10:45:51.031-0500",
"value" : {
"name" : "BurninBoxConfig_v1",
"assigned" : "2018-09-10T10:45:51.031-0500"
}
},
{
"event" : "addTable",
"timestamp" : "2018-09-10T11:24:18.444-0500",
"value" : {
"name" : "BurninBoxConfig_v2",
"assigned" : "2018-09-10T11:24:18.444-0500"
}
},
{
"event" : "addTable",
"timestamp" : "2018-09-11T09:59:56.055-0500",
"value" : {
"name" : "BurninBoxConfig_v3",
"assigned" : "2018-09-11T09:59:56.055-0500"
}
},
{
"event" : "addTable",
"timestamp" : "2018-09-11T10:01:19.149-0500",
"value" : {
"name" : "BurninBoxConfig_v4",
"assigned" : "2018-09-11T10:01:19.149-0500"
}
},
{
"event" : "addTable",
"timestamp" : "2018-09-11T10:11:15.705-0500",
"value" : {
"name" : "BurninBoxConfig_v5",
"assigned" : "2018-09-11T10:11:15.705-0500"
}
},
{
"event" : "addTable",
"timestamp" : "2018-09-12T12:16:43.443-0500",
"value" : {
"name" : "BurninBoxConfig_v6",
"assigned" : "2018-09-12T12:16:43.443-0500"
}
},
{
"event" : "addTable",
"timestamp" : "2018-09-17T11:12:09.081-0500",
"value" : {
"name" : "BurninBoxConfig_v7",
"assigned" : "2018-09-17T11:12:09.081-0500"
}
},
{
"event" : "addTable",
"timestamp" : "2018-09-17T13:53:33.112-0500",
"value" : {
"name" : "BurninBoxConfig_v8",
"assigned" : "2018-09-17T13:53:33.112-0500"
}
},
{
"event" : "addTable",
"timestamp" : "2018-09-17T14:03:57.842-0500",
"value" : {
"name" : "BurninBoxConfig_v9",
"assigned" : "2018-09-17T14:03:57.842-0500"
}
},
{
"event" : "addTable",
"timestamp" : "2018-09-18T15:31:02.179-0500",
"value" : {
"name" : "BurninBoxConfig_v10",
"assigned" : "2018-09-18T15:31:02.179-0500"
}
},
{
"event" : "addTable",
"timestamp" : "2018-09-19T09:27:01.917-0500",
"value" : {
"name" : "BurninBoxConfig_v11",
"assigned" : "2018-09-19T09:27:01.917-0500"
}
},
{
"event" : "addTable",
"timestamp" : "2018-09-19T10:08:01.760-0500",
"value" : {
"name" : "BurninBoxConfig_v12",
"assigned" : "2018-09-19T10:08:01.760-0500"
}
},
{
"event" : "addTable",
"timestamp" : "2018-09-19T10:23:21.703-0500",
"value" : {
"name" : "BurninBoxConfig_v13",
"assigned" : "2018-09-19T10:23:21.703-0500"
}
},
{
"event" : "addTable",
"timestamp" : "2018-09-19T11:22:21.070-0500",
"value" : {
"name" : "BurninBoxConfig_v14",
"assigned" : "2018-09-19T11:22:21.070-0500"
}
},
{
"event" : "addTable",
"timestamp" : "2018-09-19T12:26:54.946-0500",
"value" : {
"name" : "BurninBoxConfig_v15",
"assigned" : "2018-09-19T12:26:54.946-0500"
}
},
{
"event" : "addTable",
"timestamp" : "2018-09-20T14:22:27.012-0500",
"value" : {
"name" : "BurninBoxConfig_v16",
"assigned" : "2018-09-20T14:22:27.012-0500"
}
},
{
"event" : "addTable",
"timestamp" : "2018-09-20T15:42:02.809-0500",
"value" : {
"name" : "BurninBoxConfig_v17",
"assigned" : "2018-09-20T15:42:02.809-0500"
}
},
{
"event" : "addTable",
"timestamp" : "2018-09-21T11:16:28.826-0500",
"value" : {
"name" : "BurninBoxConfig_v18",
"assigned" : "2018-09-21T11:16:28.826-0500"
}
},
{
"event" : "addTable",
"timestamp" : "2018-09-21T13:39:24.967-0500",
"value" : {
"name" : "BurninBoxConfig_v19",
"assigned" : "2018-09-21T13:39:24.967-0500"
}
},
{
"event" : "addTable",
"timestamp" : "2018-09-21T13:39:48.890-0500",
"value" : {
"name" : "BurninBoxConfig_v20",
"assigned" : "2018-09-21T13:39:48.890-0500"
}
},
{
"event" : "addTable",
"timestamp" : "2019-02-28T12:04:25.569-0600",
"value" : {
"name" : "BurninBoxConfig_v21",
"assigned" : "2019-02-28T12:04:25.569-0600"
}
},
{
"event" : "addTable",
"timestamp" : "2019-02-28T12:05:07.992-0600",
"value" : {
"name" : "BurninBoxConfig_v22",
"assigned" : "2019-02-28T12:05:07.992-0600"
}
},
{
"event" : "addTable",
"timestamp" : "2019-02-28T13:57:09.600-0600",
"value" : {
"name" : "BurninBoxConfig_v23",
"assigned" : "2019-02-28T13:57:09.600-0600"
}
},
{
"event" : "addConfiguration",
"timestamp" : "2019-07-19T15:24:15.659-0500",
"value" : {
"name" : "BurninBoxConfig_v24",
"assigned" : "2019-07-19T15:24:15.659-0500"
}
},
{
"event" : "addConfiguration",
"timestamp" : "2019-07-19T15:25:10.794-0500",
"value" : {
"name" : "BurninBoxConfig_v25",
"assigned" : "2019-07-19T15:25:10.794-0500"
}
}
],
"created" : "2018-09-06T17:34:13.936-0500"
},
"_id" : {
"$oid" : "c0a5974b5ba145c39be3ebfa"
},
"collection" : "DataBufferTable",
"aliases" : {
"active" : [

],
"history" : [

]
},
"runs" : [

],
"attachments" : [

],
"configtype" : "notprovided",
"configurations" : [
{
"name" : "BurninBoxConfig_v24",
"assigned" : "2019-07-19T15:24:15.659-0500"
},
{
"name" : "BurninBoxConfig_v25",
"assigned" : "2019-07-19T15:25:10.794-0500"
}
]
}