{
"document" : {
"data" : {
"NAME" : "",
"COMMENT" : "",
"AUTHOR" : "",
"CREATION_TIME" : 1528236848,
"COL_TYPES" : {
"UNUSED_UID" : "NUMBER",
"GROUP_ALIASES" : "VARCHAR2",
"COMMENT_DESCRIPTION" : "VARCHAR2",
"AUTHOR" : "VARCHAR2",
"GROUP_CREATION_TIME" : "TIMESTAMP WITH TIMEZONE"
},
"DATA_SET" : [
{
"UNUSED_UID" : "0",
"GROUP_ALIASES" : "",
"COMMENT_DESCRIPTION" : "",
"AUTHOR" : "admin",
"GROUP_CREATION_TIME" : "1551377108"
}
]
},
"metadata" : {

},
"search" : [

]
},
"comments" : [

],
"origin" : {
"source" : "template",
"name" : "notprovided",
"format" : "json",
"created" : "2019-02-28T12:05:08.830-0600",
"rawdata" : [

]
},
"version" : "54",
"entities" : [
{
"name" : "OTSROOT",
"assigned" : "2019-02-28T12:05:08.830-0600"
}
],
"tables" : [
{
"name" : "notprovided",
"assigned" : "2019-02-28T12:05:08.830-0600"
},
{
"name" : "GroupAliasTreeEditWizBackbone_v3",
"assigned" : "2019-02-28T12:05:08.855-0600"
}
],
"changelog" : "notprovided",
"bookkeeping" : {
"isdeleted" : false,
"isreadonly" : false,
"updates" : [
{
"event" : "addTable",
"timestamp" : "2019-02-28T12:05:08.830-0600",
"value" : {
"name" : "notprovided",
"assigned" : "2019-02-28T12:05:08.830-0600"
}
},
{
"event" : "setVersion",
"timestamp" : "2019-02-28T12:05:08.830-0600",
"value" : {
"name" : "54",
"assigned" : "2019-02-28T12:05:08.830-0600"
}
},
{
"event" : "setCollection",
"timestamp" : "2019-02-28T12:05:08.830-0600",
"value" : {
"name" : "TableGroupMetadata",
"assigned" : "2019-02-28T12:05:08.830-0600"
}
},
{
"event" : "addEntity",
"timestamp" : "2019-02-28T12:05:08.830-0600",
"value" : {
"name" : "OTSROOT",
"assigned" : "2019-02-28T12:05:08.830-0600"
}
},
{
"event" : "addTable",
"timestamp" : "2019-02-28T12:05:08.855-0600",
"value" : {
"name" : "GroupAliasTreeEditWizBackbone_v3",
"assigned" : "2019-02-28T12:05:08.855-0600"
}
}
],
"created" : "2019-02-28T12:05:08.830-0600"
},
"_id" : {
"$oid" : "cc193f378da747ab8fc82069"
},
"collection" : "TableGroupMetadata",
"aliases" : {
"active" : [

],
"history" : [

]
},
"runs" : [

],
"attachments" : [

],
"configtype" : "notprovided"
}