{
"document" : {
"data" : {
"NAME" : "GROUP_ALIASES_TABLE",
"COMMENT" : "Default Backbone.",
"AUTHOR" : "admin",
"CREATION_TIME" : 1601935555,
"COL_TYPES" : {
"GROUP_KEY_ALIAS" : "STRING",
"GROUP_NAME" : "STRING",
"GROUP_KEY" : "STRING",
"COMMENT_DESCRIPTION" : "STRING",
"AUTHOR" : "STRING",
"RECORD_INSERTION_TIME" : "TIMESTAMP WITH TIMEZONE"
},
"DATA_SET" : [
{
"GROUP_KEY_ALIAS" : "DefaultContext",
"GROUP_NAME" : "DefaultContext",
"GROUP_KEY" : "13",
"COMMENT_DESCRIPTION" : "This Group Alias was automatically setup by the server.",
"AUTHOR" : "admin",
"RECORD_INSERTION_TIME" : "1601935498"
},
{
"GROUP_KEY_ALIAS" : "BurninBoxConfig",
"GROUP_NAME" : "BurninBoxConfig",
"GROUP_KEY" : "36",
"COMMENT_DESCRIPTION" : "This Group Alias was automatically setup by the server.",
"AUTHOR" : "admin",
"RECORD_INSERTION_TIME" : "1595610996"
},
{
"GROUP_KEY_ALIAS" : "BurninBoxConfiguration",
"GROUP_NAME" : "BurninBoxConfiguration",
"GROUP_KEY" : "8",
"COMMENT_DESCRIPTION" : "This Group Alias was automatically setup by the server.",
"AUTHOR" : "admin",
"RECORD_INSERTION_TIME" : "1601935555"
}
]
},
"metadata" : {

},
"search" : [

]
},
"comments" : [

],
"origin" : {
"source" : "template",
"name" : "notprovided",
"format" : "json",
"created" : "2020-10-05T17:05:55.886-0500",
"rawdata" : [

]
},
"version" : "64",
"entities" : [
{
"name" : "OTSROOT",
"assigned" : "2020-10-05T17:05:55.887-0500"
}
],
"configurations" : [
{
"name" : "notprovided",
"assigned" : "2020-10-05T17:05:55.887-0500"
},
{
"name" : "TableEditWizBackbone_v45",
"assigned" : "2020-10-05T17:05:56.910-0500"
}
],
"changelog" : "notprovided",
"bookkeeping" : {
"isdeleted" : false,
"isreadonly" : false,
"updates" : [
{
"event" : "addConfiguration",
"timestamp" : "2020-10-05T17:05:55.887-0500",
"value" : {
"name" : "notprovided",
"assigned" : "2020-10-05T17:05:55.887-0500"
}
},
{
"event" : "setVersion",
"timestamp" : "2020-10-05T17:05:55.887-0500",
"value" : {
"name" : "64",
"assigned" : "2020-10-05T17:05:55.887-0500"
}
},
{
"event" : "setCollection",
"timestamp" : "2020-10-05T17:05:55.887-0500",
"value" : {
"name" : "GroupAliasesTable",
"assigned" : "2020-10-05T17:05:55.887-0500"
}
},
{
"event" : "addEntity",
"timestamp" : "2020-10-05T17:05:55.887-0500",
"value" : {
"name" : "OTSROOT",
"assigned" : "2020-10-05T17:05:55.887-0500"
}
},
{
"event" : "addConfiguration",
"timestamp" : "2020-10-05T17:05:56.910-0500",
"value" : {
"name" : "TableEditWizBackbone_v45",
"assigned" : "2020-10-05T17:05:56.910-0500"
}
}
],
"created" : "2020-10-05T17:05:55.886-0500"
},
"_id" : {
"$oid" : "11409e693c204fa9bbcac0cf"
},
"collection" : "GroupAliasesTable",
"aliases" : {
"active" : [

],
"history" : [

]
},
"runs" : [

],
"attachments" : [

],
"configtype" : "notprovided"
}