{
"document" : {
"data" : {
"NAME" : "GROUP_ALIASES_TABLE",
"COMMENT" : "Default Backbone.",
"AUTHOR" : "admin",
"CREATION_TIME" : 1536678079,
"COL_TYPES" : {
"GROUP_KEY_ALIAS" : "VARCHAR2",
"GROUP_NAME" : "VARCHAR2",
"GROUP_KEY" : "VARCHAR2",
"COMMENT_DESCRIPTION" : "VARCHAR2",
"AUTHOR" : "VARCHAR2",
"RECORD_INSERTION_TIME" : "TIMESTAMP WITH TIMEZONE"
},
"DATA_SET" : [
{
"GROUP_KEY_ALIAS" : "DefaultContext",
"GROUP_NAME" : "DefaultContext",
"GROUP_KEY" : "3",
"COMMENT_DESCRIPTION" : "This Group Alias was automatically setup by the server.",
"AUTHOR" : "admin",
"RECORD_INSERTION_TIME" : "1536678020"
},
{
"GROUP_KEY_ALIAS" : "BurninBoxConfig",
"GROUP_NAME" : "BurninBoxConfig",
"GROUP_KEY" : "4",
"COMMENT_DESCRIPTION" : "This Group Alias was automatically setup by the server.",
"AUTHOR" : "admin",
"RECORD_INSERTION_TIME" : "1536678079"
}
]
},
"metadata" : {

},
"search" : [

]
},
"comments" : [

],
"origin" : {
"source" : "template",
"name" : "notprovided",
"format" : "json",
"created" : "2018-09-11T10:01:19.573-0500",
"rawdata" : [

]
},
"version" : "9",
"entities" : [
{
"name" : "OTSROOT",
"assigned" : "2018-09-11T10:01:19.575-0500"
}
],
"tables" : [
{
"name" : "notprovided",
"assigned" : "2018-09-11T10:01:19.574-0500"
},
{
"name" : "TableEditWizBackbone_v9",
"assigned" : "2018-09-11T10:01:20.025-0500"
}
],
"changelog" : "notprovided",
"bookkeeping" : {
"isdeleted" : false,
"isreadonly" : false,
"updates" : [
{
"event" : "addTable",
"timestamp" : "2018-09-11T10:01:19.574-0500",
"value" : {
"name" : "notprovided",
"assigned" : "2018-09-11T10:01:19.574-0500"
}
},
{
"event" : "setVersion",
"timestamp" : "2018-09-11T10:01:19.574-0500",
"value" : {
"name" : "9",
"assigned" : "2018-09-11T10:01:19.574-0500"
}
},
{
"event" : "setCollection",
"timestamp" : "2018-09-11T10:01:19.574-0500",
"value" : {
"name" : "GroupAliasesTable",
"assigned" : "2018-09-11T10:01:19.574-0500"
}
},
{
"event" : "addEntity",
"timestamp" : "2018-09-11T10:01:19.575-0500",
"value" : {
"name" : "OTSROOT",
"assigned" : "2018-09-11T10:01:19.575-0500"
}
},
{
"event" : "addTable",
"timestamp" : "2018-09-11T10:01:20.025-0500",
"value" : {
"name" : "TableEditWizBackbone_v9",
"assigned" : "2018-09-11T10:01:20.025-0500"
}
}
],
"created" : "2018-09-11T10:01:19.573-0500"
},
"_id" : {
"$oid" : "35f24ce4f6074b91afcb94d0"
},
"collection" : "GroupAliasesTable",
"aliases" : {
"active" : [

],
"history" : [

]
},
"runs" : [

],
"attachments" : [

],
"configtype" : "notprovided"
}