{
"document" : {
"data" : {
"NAME" : "GROUP_ALIASES_TABLE",
"COMMENT" : "Default Backbone.",
"AUTHOR" : "admin",
"CREATION_TIME" : 1625779245,
"COL_TYPES" : {
"GROUP_KEY_ALIAS" : "STRING",
"GROUP_NAME" : "STRING",
"GROUP_KEY" : "STRING",
"COMMENT_DESCRIPTION" : "STRING",
"AUTHOR" : "STRING",
"RECORD_INSERTION_TIME" : "TIMESTAMP WITH TIMEZONE"
},
"DATA_SET" : [
{
"GROUP_KEY_ALIAS" : "DefaultContext",
"GROUP_NAME" : "DefaultContext",
"GROUP_KEY" : "37",
"COMMENT_DESCRIPTION" : "This Group Alias was automatically setup by the server.",
"AUTHOR" : "admin",
"RECORD_INSERTION_TIME" : "1625771820"
},
{
"GROUP_KEY_ALIAS" : "BurninBoxConfiguration",
"GROUP_NAME" : "BurninBoxConfiguration",
"GROUP_KEY" : "37",
"COMMENT_DESCRIPTION" : "This Group Alias was automatically setup by the server.",
"AUTHOR" : "admin",
"RECORD_INSERTION_TIME" : "1625779245"
}
]
},
"metadata" : {

},
"search" : [

]
},
"comments" : [

],
"origin" : {
"source" : "template",
"name" : "notprovided",
"format" : "json",
"created" : "2021-07-08T16:20:45.606-0500",
"rawdata" : [

]
},
"version" : "125",
"entities" : [
{
"name" : "OTSROOT",
"assigned" : "2021-07-08T16:20:45.606-0500"
}
],
"configurations" : [
{
"name" : "notprovided",
"assigned" : "2021-07-08T16:20:45.606-0500"
},
{
"name" : "GroupAliasTreeEditWizBackbone_v49",
"assigned" : "2021-07-08T16:20:46.757-0500"
}
],
"changelog" : "notprovided",
"bookkeeping" : {
"isdeleted" : false,
"isreadonly" : false,
"updates" : [
{
"event" : "addConfiguration",
"timestamp" : "2021-07-08T16:20:45.606-0500",
"value" : {
"name" : "notprovided",
"assigned" : "2021-07-08T16:20:45.606-0500"
}
},
{
"event" : "setVersion",
"timestamp" : "2021-07-08T16:20:45.606-0500",
"value" : {
"name" : "125",
"assigned" : "2021-07-08T16:20:45.606-0500"
}
},
{
"event" : "setCollection",
"timestamp" : "2021-07-08T16:20:45.606-0500",
"value" : {
"name" : "GroupAliasesTable",
"assigned" : "2021-07-08T16:20:45.606-0500"
}
},
{
"event" : "addEntity",
"timestamp" : "2021-07-08T16:20:45.606-0500",
"value" : {
"name" : "OTSROOT",
"assigned" : "2021-07-08T16:20:45.606-0500"
}
},
{
"event" : "addConfiguration",
"timestamp" : "2021-07-08T16:20:46.757-0500",
"value" : {
"name" : "GroupAliasTreeEditWizBackbone_v49",
"assigned" : "2021-07-08T16:20:46.757-0500"
}
}
],
"created" : "2021-07-08T16:20:45.606-0500"
},
"_id" : {
"$oid" : "92217362539b4d038a5755e9"
},
"collection" : "GroupAliasesTable",
"aliases" : {
"active" : [

],
"history" : [

]
},
"runs" : [

],
"attachments" : [

],
"configtype" : "notprovided"
}