{
"document" : {
"data" : {
"NAME" : "GROUP_ALIASES_TABLE",
"COMMENT" : "Default Backbone.",
"AUTHOR" : "admin",
"CREATION_TIME" : 1626817303,
"COL_TYPES" : {
"GROUP_KEY_ALIAS" : "STRING",
"GROUP_NAME" : "STRING",
"GROUP_KEY" : "STRING",
"COMMENT_DESCRIPTION" : "STRING",
"AUTHOR" : "STRING",
"RECORD_INSERTION_TIME" : "TIMESTAMP WITH TIMEZONE"
},
"DATA_SET" : [
{
"GROUP_KEY_ALIAS" : "DefaultContext",
"GROUP_NAME" : "DefaultContext",
"GROUP_KEY" : "39",
"COMMENT_DESCRIPTION" : "This Group Alias was automatically setup by the server.",
"AUTHOR" : "admin",
"RECORD_INSERTION_TIME" : "1626297462"
},
{
"GROUP_KEY_ALIAS" : "BurninBoxConfiguration",
"GROUP_NAME" : "BurninBoxConfiguration",
"GROUP_KEY" : "53",
"COMMENT_DESCRIPTION" : "This Group Alias was automatically setup by the server.",
"AUTHOR" : "admin",
"RECORD_INSERTION_TIME" : "1626817302"
}
]
},
"metadata" : {

},
"search" : [

]
},
"comments" : [

],
"origin" : {
"source" : "template",
"name" : "notprovided",
"format" : "json",
"created" : "2021-07-20T16:41:43.051-0500",
"rawdata" : [

]
},
"version" : "152",
"entities" : [
{
"name" : "OTSROOT",
"assigned" : "2021-07-20T16:41:43.052-0500"
}
],
"configurations" : [
{
"name" : "notprovided",
"assigned" : "2021-07-20T16:41:43.052-0500"
},
{
"name" : "TableEditWizBackbone_v86",
"assigned" : "2021-07-20T16:41:44.361-0500"
}
],
"changelog" : "notprovided",
"bookkeeping" : {
"isdeleted" : false,
"isreadonly" : false,
"updates" : [
{
"event" : "addConfiguration",
"timestamp" : "2021-07-20T16:41:43.052-0500",
"value" : {
"name" : "notprovided",
"assigned" : "2021-07-20T16:41:43.052-0500"
}
},
{
"event" : "setVersion",
"timestamp" : "2021-07-20T16:41:43.052-0500",
"value" : {
"name" : "152",
"assigned" : "2021-07-20T16:41:43.052-0500"
}
},
{
"event" : "setCollection",
"timestamp" : "2021-07-20T16:41:43.052-0500",
"value" : {
"name" : "GroupAliasesTable",
"assigned" : "2021-07-20T16:41:43.052-0500"
}
},
{
"event" : "addEntity",
"timestamp" : "2021-07-20T16:41:43.052-0500",
"value" : {
"name" : "OTSROOT",
"assigned" : "2021-07-20T16:41:43.052-0500"
}
},
{
"event" : "addConfiguration",
"timestamp" : "2021-07-20T16:41:44.361-0500",
"value" : {
"name" : "TableEditWizBackbone_v86",
"assigned" : "2021-07-20T16:41:44.361-0500"
}
}
],
"created" : "2021-07-20T16:41:43.051-0500"
},
"_id" : {
"$oid" : "cf42b53e45e7410caa42cb04"
},
"collection" : "GroupAliasesTable",
"aliases" : {
"active" : [

],
"history" : [

]
},
"runs" : [

],
"attachments" : [

],
"configtype" : "notprovided"
}