{
"document" : {
"data" : {
"NAME" : "DATA_BUFFER_TABLE",
"COMMENT" : "Records for data buffer Producers and Consumers.",
"AUTHOR" : "admin",
"CREATION_TIME" : 1625771816,
"COL_TYPES" : {
"DATA_BUFFER_GROUP_ID" : "STRING",
"DATA_BUFFER_UID" : "STRING",
"LINK_TO_DATA_PROCESSOR_TABLE" : "STRING",
"LINK_TO_DATA_PROCESSOR_GROUP_ID" : "STRING",
"STATUS" : "STRING",
"COMMENT_DESCRIPTION" : "STRING",
"AUTHOR" : "STRING",
"RECORD_INSERTION_TIME" : "TIMESTAMP WITH TIMEZONE"
},
"DATA_SET" : [
{
"DATA_BUFFER_GROUP_ID" : "VisualizerDataBuffer",
"DATA_BUFFER_UID" : "VisualizerBurninBoxBuffer",
"LINK_TO_DATA_PROCESSOR_TABLE" : "DataProcessorTable",
"LINK_TO_DATA_PROCESSOR_GROUP_ID" : "VisualizerBurninBoxBuffer",
"STATUS" : "On",
"COMMENT_DESCRIPTION" : "DEFAULT",
"AUTHOR" : "admin",
"RECORD_INSERTION_TIME" : "1603996075"
},
{
"DATA_BUFFER_GROUP_ID" : "VisualizerDataBuffer",
"DATA_BUFFER_UID" : "VisualizerPowerSupplyBuffer",
"LINK_TO_DATA_PROCESSOR_TABLE" : "DataProcessorTable",
"LINK_TO_DATA_PROCESSOR_GROUP_ID" : "VisualizerPowerSupplyBuffer",
"STATUS" : "Off",
"COMMENT_DESCRIPTION" : "DEFAULT",
"AUTHOR" : "admin",
"RECORD_INSERTION_TIME" : "1625771770"
}
]
},
"metadata" : {

},
"search" : [

]
},
"comments" : [

],
"origin" : {
"source" : "template",
"name" : "notprovided",
"format" : "json",
"created" : "2021-07-08T14:16:56.334-0500",
"rawdata" : [

]
},
"version" : "5",
"entities" : [
{
"name" : "OTSROOT",
"assigned" : "2021-07-08T14:16:56.335-0500"
}
],
"configurations" : [
{
"name" : "notprovided",
"assigned" : "2021-07-08T14:16:56.334-0500"
},
{
"name" : "BurninBoxConfiguration_v36",
"assigned" : "2021-07-08T14:16:57.994-0500"
}
],
"changelog" : "notprovided",
"bookkeeping" : {
"isdeleted" : false,
"isreadonly" : false,
"updates" : [
{
"event" : "addConfiguration",
"timestamp" : "2021-07-08T14:16:56.334-0500",
"value" : {
"name" : "notprovided",
"assigned" : "2021-07-08T14:16:56.334-0500"
}
},
{
"event" : "setVersion",
"timestamp" : "2021-07-08T14:16:56.335-0500",
"value" : {
"name" : "5",
"assigned" : "2021-07-08T14:16:56.335-0500"
}
},
{
"event" : "setCollection",
"timestamp" : "2021-07-08T14:16:56.335-0500",
"value" : {
"name" : "DataBufferTable",
"assigned" : "2021-07-08T14:16:56.335-0500"
}
},
{
"event" : "addEntity",
"timestamp" : "2021-07-08T14:16:56.335-0500",
"value" : {
"name" : "OTSROOT",
"assigned" : "2021-07-08T14:16:56.335-0500"
}
},
{
"event" : "addConfiguration",
"timestamp" : "2021-07-08T14:16:57.994-0500",
"value" : {
"name" : "BurninBoxConfiguration_v36",
"assigned" : "2021-07-08T14:16:57.994-0500"
}
}
],
"created" : "2021-07-08T14:16:56.334-0500"
},
"_id" : {
"$oid" : "09493353ce654297bf9761be"
},
"collection" : "DataBufferTable",
"aliases" : {
"active" : [

],
"history" : [

]
},
"runs" : [

],
"attachments" : [

],
"configtype" : "notprovided"
}