{
"document" : {
"data" : {
"NAME" : "DATA_BUFFER_TABLE",
"COMMENT" : "Records for data buffer Producers and Consumers.",
"AUTHOR" : "admin",
"CREATION_TIME" : 1563996527,
"COL_TYPES" : {
"DATA_BUFFER_GROUP_ID" : "VARCHAR2",
"DATA_BUFFER_UID" : "VARCHAR2",
"LINK_TO_DATA_PROCESSOR_TABLE" : "VARCHAR2",
"LINK_TO_DATA_PROCESSOR_GROUP_ID" : "VARCHAR2",
"STATUS" : "VARCHAR2",
"COMMENT_DESCRIPTION" : "VARCHAR2",
"AUTHOR" : "VARCHAR2",
"RECORD_INSERTION_TIME" : "TIMESTAMP WITH TIMEZONE"
},
"DATA_SET" : [
{
"DATA_BUFFER_GROUP_ID" : "VisualDataManager",
"DATA_BUFFER_UID" : "VisualBuffer",
"LINK_TO_DATA_PROCESSOR_TABLE" : "DataProcessorTable",
"LINK_TO_DATA_PROCESSOR_GROUP_ID" : "VisualBuffer",
"STATUS" : "On",
"COMMENT_DESCRIPTION" : "DEFAULT",
"AUTHOR" : "admin",
"RECORD_INSERTION_TIME" : "1563996527"
}
]
},
"metadata" : {

},
"search" : [

]
},
"comments" : [

],
"origin" : {
"source" : "template",
"name" : "notprovided",
"format" : "json",
"created" : "2019-07-24T14:28:47.220-0500",
"rawdata" : [

]
},
"version" : "1",
"entities" : [
{
"name" : "OTSROOT",
"assigned" : "2019-07-24T14:28:47.221-0500"
}
],
"configurations" : [
{
"name" : "notprovided",
"assigned" : "2019-07-24T14:28:47.220-0500"
},
{
"name" : "BurninBoxConfig_v26",
"assigned" : "2019-07-24T14:34:10.264-0500"
}
],
"changelog" : "notprovided",
"bookkeeping" : {
"isdeleted" : false,
"isreadonly" : false,
"updates" : [
{
"event" : "addConfiguration",
"timestamp" : "2019-07-24T14:28:47.220-0500",
"value" : {
"name" : "notprovided",
"assigned" : "2019-07-24T14:28:47.220-0500"
}
},
{
"event" : "setVersion",
"timestamp" : "2019-07-24T14:28:47.221-0500",
"value" : {
"name" : "1",
"assigned" : "2019-07-24T14:28:47.221-0500"
}
},
{
"event" : "setCollection",
"timestamp" : "2019-07-24T14:28:47.221-0500",
"value" : {
"name" : "DataBufferTable",
"assigned" : "2019-07-24T14:28:47.221-0500"
}
},
{
"event" : "addEntity",
"timestamp" : "2019-07-24T14:28:47.221-0500",
"value" : {
"name" : "OTSROOT",
"assigned" : "2019-07-24T14:28:47.221-0500"
}
},
{
"event" : "addConfiguration",
"timestamp" : "2019-07-24T14:34:10.264-0500",
"value" : {
"name" : "BurninBoxConfig_v26",
"assigned" : "2019-07-24T14:34:10.264-0500"
}
}
],
"created" : "2019-07-24T14:28:47.220-0500"
},
"_id" : {
"$oid" : "d75ecca59a3e41729cb9f10d"
},
"collection" : "DataBufferTable",
"aliases" : {
"active" : [

],
"history" : [

]
},
"runs" : [

],
"attachments" : [

],
"configtype" : "notprovided"
}