{
"ouid" : [
"10e061bcd7df44aba763fed0",
"18e1f66411334206a9e283ce",
"2f5ac0103abf475db997e0ea",
"348bd833429b4820b8415d8b",
"3bb13ed0318f4cce89c785d3",
"40cabd81173d47e29a74a821",
"8d325f84c1404a61bd1e4357",
"8f75b1145e3140a38e2a8daa",
"93597d245b4e44af8021cb4c",
"9382361c1e1c42b9bccb2770",
"960b064cf02d4f16b04c6da9",
"a79e3ca92de448888f6eb0ad",
"af35d790ce1c4f21b7753f6b",
"af91ff9b18b4450ba060d731",
"f926e6f4378649fe84846045"
],
"version" : {
"0" : [
"40cabd81173d47e29a74a821"
],
"1" : [
"2f5ac0103abf475db997e0ea"
],
"2" : [
"9382361c1e1c42b9bccb2770"
],
"3" : [
"a79e3ca92de448888f6eb0ad"
],
"4" : [
"93597d245b4e44af8021cb4c"
],
"5" : [
"8f75b1145e3140a38e2a8daa"
],
"6" : [
"10e061bcd7df44aba763fed0"
],
"7" : [
"af91ff9b18b4450ba060d731"
],
"8" : [
"348bd833429b4820b8415d8b"
],
"9" : [
"8d325f84c1404a61bd1e4357"
],
"10" : [
"f926e6f4378649fe84846045"
],
"11" : [
"18e1f66411334206a9e283ce"
],
"12" : [
"3bb13ed0318f4cce89c785d3"
],
"13" : [
"af35d790ce1c4f21b7753f6b"
],
"14" : [
"960b064cf02d4f16b04c6da9"
]
},
"configurations.name" : {
"notprovided" : [
"10e061bcd7df44aba763fed0",
"18e1f66411334206a9e283ce",
"2f5ac0103abf475db997e0ea",
"348bd833429b4820b8415d8b",
"3bb13ed0318f4cce89c785d3",
"40cabd81173d47e29a74a821",
"8d325f84c1404a61bd1e4357",
"8f75b1145e3140a38e2a8daa",
"93597d245b4e44af8021cb4c",
"9382361c1e1c42b9bccb2770",
"960b064cf02d4f16b04c6da9",
"a79e3ca92de448888f6eb0ad",
"af35d790ce1c4f21b7753f6b",
"af91ff9b18b4450ba060d731",
"f926e6f4378649fe84846045"
],
"iterateDefaultGroup_v0" : [
"40cabd81173d47e29a74a821"
],
"iterateDefaultGroup_v1" : [
"2f5ac0103abf475db997e0ea"
],
"iterateDefaultGroup_v2" : [
"40cabd81173d47e29a74a821"
],
"iterateDefaultGroup_v3" : [
"9382361c1e1c42b9bccb2770"
],
"iterateDefaultGroup_v4" : [
"a79e3ca92de448888f6eb0ad"
],
"iterateDefaultGroup_v5" : [
"93597d245b4e44af8021cb4c"
],
"iterateDefaultGroup_v6" : [
"93597d245b4e44af8021cb4c"
],
"iterateDefaultGroup_v7" : [
"93597d245b4e44af8021cb4c"
],
"iterateDefaultGroup_v8" : [
"93597d245b4e44af8021cb4c"
],
"iterateDefaultGroup_v9" : [
"93597d245b4e44af8021cb4c"
],
"iterateDefaultGroup_v10" : [
"93597d245b4e44af8021cb4c"
],
"iterateDefaultGroup_v11" : [
"93597d245b4e44af8021cb4c"
],
"iterateDefaultGroup_v12" : [
"93597d245b4e44af8021cb4c"
],
"iterateDefaultGroup_v13" : [
"8f75b1145e3140a38e2a8daa"
],
"iterateDefaultGroup_v14" : [
"10e061bcd7df44aba763fed0"
],
"iterateDefaultGroup_v15" : [
"af91ff9b18b4450ba060d731"
],
"iterateDefaultGroup_v16" : [
"348bd833429b4820b8415d8b"
],
"iterateDefaultGroup_v17" : [
"8d325f84c1404a61bd1e4357"
],
"iterateDefaultGroup_v18" : [
"8d325f84c1404a61bd1e4357"
],
"iterateDefaultGroup_v19" : [
"8d325f84c1404a61bd1e4357"
],
"iterateDefaultGroup_v20" : [
"8d325f84c1404a61bd1e4357"
],
"iterateDefaultGroup_v21" : [
"8d325f84c1404a61bd1e4357"
],
"iterateDefaultGroup_v22" : [
"f926e6f4378649fe84846045"
],
"iterateDefaultGroup_v23" : [
"f926e6f4378649fe84846045"
],
"iterateDefaultGroup_v24" : [
"18e1f66411334206a9e283ce"
],
"iterateDefaultGroup_v25" : [
"18e1f66411334206a9e283ce"
],
"iterateDefaultGroup_v26" : [
"18e1f66411334206a9e283ce"
],
"iterateDefaultGroup_v27" : [
"18e1f66411334206a9e283ce"
],
"iterateDefaultGroup_v28" : [
"18e1f66411334206a9e283ce"
],
"iterateDefaultGroup_v29" : [
"af91ff9b18b4450ba060d731"
],
"iterateDefaultGroup_v30" : [
"18e1f66411334206a9e283ce"
],
"iterateDefaultGroup_v31" : [
"18e1f66411334206a9e283ce"
],
"iterateDefaultGroup_v32" : [
"18e1f66411334206a9e283ce"
],
"iterateDefaultGroup_v33" : [
"18e1f66411334206a9e283ce"
],
"iterateDefaultGroup_v34" : [
"18e1f66411334206a9e283ce"
],
"iterateDefaultGroup_v35" : [
"18e1f66411334206a9e283ce"
],
"iterateDefaultGroup_v36" : [
"18e1f66411334206a9e283ce"
],
"iterateDefaultGroup_v37" : [
"18e1f66411334206a9e283ce"
],
"iterateDefaultGroup_v38" : [
"18e1f66411334206a9e283ce"
],
"iterateDefaultGroup_v39" : [
"18e1f66411334206a9e283ce"
],
"iterateDefaultGroup_v40" : [
"18e1f66411334206a9e283ce"
],
"iterateDefaultGroup_v41" : [
"18e1f66411334206a9e283ce"
],
"iterateDefaultGroup_v42" : [
"18e1f66411334206a9e283ce"
],
"iterateDefaultGroup_v43" : [
"18e1f66411334206a9e283ce"
],
"iterateDefaultGroup_v44" : [
"18e1f66411334206a9e283ce"
],
"iterateDefaultGroup_v45" : [
"18e1f66411334206a9e283ce"
],
"iterateDefaultGroup_v46" : [
"18e1f66411334206a9e283ce"
],
"iterateDefaultGroup_v47" : [
"18e1f66411334206a9e283ce"
],
"iterateDefaultGroup_v48" : [
"18e1f66411334206a9e283ce"
],
"iterateDefaultGroup_v49" : [
"18e1f66411334206a9e283ce"
],
"iterateDefaultGroup_v50" : [
"18e1f66411334206a9e283ce"
],
"iterateDefaultGroup_v51" : [
"18e1f66411334206a9e283ce"
],
"iterateDefaultGroup_v52" : [
"18e1f66411334206a9e283ce"
],
"iterateDefaultGroup_v53" : [
"18e1f66411334206a9e283ce"
],
"iterateDefaultGroup_v54" : [
"3bb13ed0318f4cce89c785d3"
],
"iterateDefaultGroup_v55" : [
"3bb13ed0318f4cce89c785d3"
],
"iterateDefaultGroup_v56" : [
"3bb13ed0318f4cce89c785d3"
],
"iterateDefaultGroup_v57" : [
"af35d790ce1c4f21b7753f6b"
],
"iterateDefaultGroup_v58" : [
"960b064cf02d4f16b04c6da9"
],
"iterateDefaultGroup_v59" : [
"960b064cf02d4f16b04c6da9"
],
"iterateDefaultGroup_v60" : [
"960b064cf02d4f16b04c6da9"
]
},
"entities.name" : {
"OTSROOT" : [
"10e061bcd7df44aba763fed0",
"18e1f66411334206a9e283ce",
"2f5ac0103abf475db997e0ea",
"348bd833429b4820b8415d8b",
"3bb13ed0318f4cce89c785d3",
"40cabd81173d47e29a74a821",
"8d325f84c1404a61bd1e4357",
"8f75b1145e3140a38e2a8daa",
"93597d245b4e44af8021cb4c",
"9382361c1e1c42b9bccb2770",
"960b064cf02d4f16b04c6da9",
"a79e3ca92de448888f6eb0ad",
"af35d790ce1c4f21b7753f6b",
"af91ff9b18b4450ba060d731",
"f926e6f4378649fe84846045"
]
},
"aliases.active.name" : {

},
"runs.name" : {

},
"configurations.assigned" : {
"notprovided" : [
"2018-09-10T09:26:39.303-0500",
"2018-09-10T09:27:19.835-0500",
"2020-07-29T13:52:19.467-0500",
"2020-07-29T13:56:46.518-0500",
"2020-07-29T15:14:10.853-0500",
"2020-10-26T10:34:08.193-0500",
"2020-10-26T11:12:07.216-0500",
"2020-10-26T13:20:57.400-0500",
"2020-10-26T13:46:30.332-0500",
"2020-10-27T17:08:42.812-0500",
"2021-07-14T16:20:54.761-0500",
"2021-07-22T18:34:17.100-0500",
"2021-09-02T13:40:31.254-0500",
"2021-10-12T11:12:22.418-0500",
"2021-10-12T16:34:01.134-0500"
],
"iterateDefaultGroup_v0" : [
"2018-09-10T09:26:39.827-0500"
],
"iterateDefaultGroup_v1" : [
"2018-09-10T09:27:20.693-0500"
],
"iterateDefaultGroup_v2" : [
"2020-07-28T16:25:06.323-0500"
],
"iterateDefaultGroup_v3" : [
"2020-07-29T13:52:20.637-0500"
],
"iterateDefaultGroup_v4" : [
"2020-07-29T13:56:47.766-0500"
],
"iterateDefaultGroup_v5" : [
"2020-07-29T15:14:12.007-0500"
],
"iterateDefaultGroup_v6" : [
"2020-10-09T16:10:10.225-0500"
],
"iterateDefaultGroup_v7" : [
"2020-10-09T16:31:32.168-0500"
],
"iterateDefaultGroup_v8" : [
"2020-10-09T16:46:00.833-0500"
],
"iterateDefaultGroup_v9" : [
"2020-10-12T10:30:01.958-0500"
],
"iterateDefaultGroup_v10" : [
"2020-10-12T13:54:18.382-0500"
],
"iterateDefaultGroup_v11" : [
"2020-10-12T15:28:45.974-0500"
],
"iterateDefaultGroup_v12" : [
"2020-10-12T15:33:41.341-0500"
],
"iterateDefaultGroup_v13" : [
"2020-10-26T10:34:09.785-0500"
],
"iterateDefaultGroup_v14" : [
"2020-10-26T11:12:08.872-0500"
],
"iterateDefaultGroup_v15" : [
"2020-10-26T13:20:59.015-0500"
],
"iterateDefaultGroup_v16" : [
"2020-10-26T13:46:31.955-0500"
],
"iterateDefaultGroup_v17" : [
"2020-10-27T17:08:44.571-0500"
],
"iterateDefaultGroup_v18" : [
"2021-06-30T15:46:04.306-0500"
],
"iterateDefaultGroup_v19" : [
"2021-07-12T11:48:21.948-0500"
],
"iterateDefaultGroup_v20" : [
"2021-07-12T13:38:45.067-0500"
],
"iterateDefaultGroup_v21" : [
"2021-07-12T13:40:40.019-0500"
],
"iterateDefaultGroup_v22" : [
"2021-07-14T16:20:56.864-0500"
],
"iterateDefaultGroup_v23" : [
"2021-07-20T15:29:51.507-0500"
],
"iterateDefaultGroup_v24" : [
"2021-07-22T18:34:19.258-0500"
],
"iterateDefaultGroup_v25" : [
"2021-07-23T12:39:38.613-0500"
],
"iterateDefaultGroup_v26" : [
"2021-07-23T12:45:35.984-0500"
],
"iterateDefaultGroup_v27" : [
"2021-07-23T13:08:43.770-0500"
],
"iterateDefaultGroup_v28" : [
"2021-07-23T13:16:30.287-0500"
],
"iterateDefaultGroup_v29" : [
"2021-07-23T14:16:54.052-0500"
],
"iterateDefaultGroup_v30" : [
"2021-07-28T08:44:05.068-0500"
],
"iterateDefaultGroup_v31" : [
"2021-07-28T09:04:35.783-0500"
],
"iterateDefaultGroup_v32" : [
"2021-07-28T09:08:06.608-0500"
],
"iterateDefaultGroup_v33" : [
"2021-07-28T09:09:00.627-0500"
],
"iterateDefaultGroup_v34" : [
"2021-07-28T09:11:42.670-0500"
],
"iterateDefaultGroup_v35" : [
"2021-07-28T10:45:28.707-0500"
],
"iterateDefaultGroup_v36" : [
"2021-07-28T11:09:41.924-0500"
],
"iterateDefaultGroup_v37" : [
"2021-07-28T11:56:32.283-0500"
],
"iterateDefaultGroup_v38" : [
"2021-07-28T13:37:16.902-0500"
],
"iterateDefaultGroup_v39" : [
"2021-07-28T14:34:07.015-0500"
],
"iterateDefaultGroup_v40" : [
"2021-07-28T14:42:30.360-0500"
],
"iterateDefaultGroup_v41" : [
"2021-07-28T14:47:07.333-0500"
],
"iterateDefaultGroup_v42" : [
"2021-07-28T14:48:23.758-0500"
],
"iterateDefaultGroup_v43" : [
"2021-07-28T14:48:51.672-0500"
],
"iterateDefaultGroup_v44" : [
"2021-07-28T14:51:23.093-0500"
],
"iterateDefaultGroup_v45" : [
"2021-07-28T15:03:29.999-0500"
],
"iterateDefaultGroup_v46" : [
"2021-07-28T15:11:18.842-0500"
],
"iterateDefaultGroup_v47" : [
"2021-07-28T15:13:40.328-0500"
],
"iterateDefaultGroup_v48" : [
"2021-07-28T15:30:21.401-0500"
],
"iterateDefaultGroup_v49" : [
"2021-07-28T15:42:30.727-0500"
],
"iterateDefaultGroup_v50" : [
"2021-07-28T15:54:18.605-0500"
],
"iterateDefaultGroup_v51" : [
"2021-07-28T16:06:51.470-0500"
],
"iterateDefaultGroup_v52" : [
"2021-07-28T16:13:47.437-0500"
],
"iterateDefaultGroup_v53" : [
"2021-07-28T16:15:01.711-0500"
],
"iterateDefaultGroup_v54" : [
"2021-09-02T13:40:33.834-0500"
],
"iterateDefaultGroup_v55" : [
"2021-09-02T14:33:16.870-0500"
],
"iterateDefaultGroup_v56" : [
"2021-09-02T14:42:09.360-0500"
],
"iterateDefaultGroup_v57" : [
"2021-10-12T11:12:25.157-0500"
],
"iterateDefaultGroup_v58" : [
"2021-10-12T16:34:03.882-0500"
],
"iterateDefaultGroup_v59" : [
"2021-10-13T18:15:37.620-0500"
],
"iterateDefaultGroup_v60" : [
"2021-10-15T15:39:59.198-0500"
]
}
}