{
"ouid" : [
"0629ee756b2e4ad3961f0515",
"4ad490c0a2a941c094c7280a",
"597aa8444fef4140b5fcf1e8",
"5d1384de2e11439880ed302c",
"a12b100073ef4dcab77303e6",
"b22651a49b69417abbe73089",
"babb210ece7e4296a68d9493",
"dc1219efd44c4e608fa2efdd",
"e59fe0b8681a4c42944c4117"
],
"version" : {
"0" : [
"e59fe0b8681a4c42944c4117"
],
"1" : [
"babb210ece7e4296a68d9493"
],
"2" : [
"0629ee756b2e4ad3961f0515"
],
"3" : [
"4ad490c0a2a941c094c7280a"
],
"4" : [
"5d1384de2e11439880ed302c"
],
"5" : [
"597aa8444fef4140b5fcf1e8"
],
"6" : [
"dc1219efd44c4e608fa2efdd"
],
"7" : [
"a12b100073ef4dcab77303e6"
],
"8" : [
"b22651a49b69417abbe73089"
]
},
"configurations.name" : {
"notprovided" : [
"0629ee756b2e4ad3961f0515",
"4ad490c0a2a941c094c7280a",
"597aa8444fef4140b5fcf1e8",
"5d1384de2e11439880ed302c",
"a12b100073ef4dcab77303e6",
"b22651a49b69417abbe73089",
"babb210ece7e4296a68d9493",
"dc1219efd44c4e608fa2efdd",
"e59fe0b8681a4c42944c4117"
],
"iterateDefaultGroup_v0" : [
"e59fe0b8681a4c42944c4117"
],
"iterateDefaultGroup_v1" : [
"babb210ece7e4296a68d9493"
],
"iterateDefaultGroup_v2" : [
"e59fe0b8681a4c42944c4117"
],
"iterateDefaultGroup_v3" : [
"0629ee756b2e4ad3961f0515"
],
"iterateDefaultGroup_v4" : [
"0629ee756b2e4ad3961f0515"
],
"iterateDefaultGroup_v5" : [
"4ad490c0a2a941c094c7280a"
],
"iterateDefaultGroup_v6" : [
"4ad490c0a2a941c094c7280a"
],
"iterateDefaultGroup_v7" : [
"4ad490c0a2a941c094c7280a"
],
"iterateDefaultGroup_v8" : [
"4ad490c0a2a941c094c7280a"
],
"iterateDefaultGroup_v9" : [
"4ad490c0a2a941c094c7280a"
],
"iterateDefaultGroup_v10" : [
"4ad490c0a2a941c094c7280a"
],
"iterateDefaultGroup_v11" : [
"4ad490c0a2a941c094c7280a"
],
"iterateDefaultGroup_v12" : [
"4ad490c0a2a941c094c7280a"
],
"iterateDefaultGroup_v13" : [
"5d1384de2e11439880ed302c"
],
"iterateDefaultGroup_v14" : [
"597aa8444fef4140b5fcf1e8"
],
"iterateDefaultGroup_v15" : [
"dc1219efd44c4e608fa2efdd"
],
"iterateDefaultGroup_v16" : [
"dc1219efd44c4e608fa2efdd"
],
"iterateDefaultGroup_v17" : [
"dc1219efd44c4e608fa2efdd"
],
"iterateDefaultGroup_v18" : [
"dc1219efd44c4e608fa2efdd"
],
"iterateDefaultGroup_v19" : [
"dc1219efd44c4e608fa2efdd"
],
"iterateDefaultGroup_v20" : [
"dc1219efd44c4e608fa2efdd"
],
"iterateDefaultGroup_v21" : [
"dc1219efd44c4e608fa2efdd"
],
"iterateDefaultGroup_v22" : [
"dc1219efd44c4e608fa2efdd"
],
"iterateDefaultGroup_v23" : [
"dc1219efd44c4e608fa2efdd"
],
"iterateDefaultGroup_v24" : [
"dc1219efd44c4e608fa2efdd"
],
"iterateDefaultGroup_v25" : [
"dc1219efd44c4e608fa2efdd"
],
"iterateDefaultGroup_v26" : [
"dc1219efd44c4e608fa2efdd"
],
"iterateDefaultGroup_v27" : [
"dc1219efd44c4e608fa2efdd"
],
"iterateDefaultGroup_v28" : [
"dc1219efd44c4e608fa2efdd"
],
"iterateDefaultGroup_v29" : [
"dc1219efd44c4e608fa2efdd"
],
"iterateDefaultGroup_v30" : [
"dc1219efd44c4e608fa2efdd"
],
"iterateDefaultGroup_v31" : [
"dc1219efd44c4e608fa2efdd"
],
"iterateDefaultGroup_v32" : [
"dc1219efd44c4e608fa2efdd"
],
"iterateDefaultGroup_v33" : [
"dc1219efd44c4e608fa2efdd"
],
"iterateDefaultGroup_v34" : [
"dc1219efd44c4e608fa2efdd"
],
"iterateDefaultGroup_v35" : [
"dc1219efd44c4e608fa2efdd"
],
"iterateDefaultGroup_v36" : [
"dc1219efd44c4e608fa2efdd"
],
"iterateDefaultGroup_v37" : [
"dc1219efd44c4e608fa2efdd"
],
"iterateDefaultGroup_v38" : [
"dc1219efd44c4e608fa2efdd"
],
"iterateDefaultGroup_v39" : [
"dc1219efd44c4e608fa2efdd"
],
"iterateDefaultGroup_v40" : [
"dc1219efd44c4e608fa2efdd"
],
"iterateDefaultGroup_v41" : [
"dc1219efd44c4e608fa2efdd"
],
"iterateDefaultGroup_v42" : [
"dc1219efd44c4e608fa2efdd"
],
"iterateDefaultGroup_v43" : [
"dc1219efd44c4e608fa2efdd"
],
"iterateDefaultGroup_v44" : [
"dc1219efd44c4e608fa2efdd"
],
"iterateDefaultGroup_v45" : [
"dc1219efd44c4e608fa2efdd"
],
"iterateDefaultGroup_v46" : [
"dc1219efd44c4e608fa2efdd"
],
"iterateDefaultGroup_v47" : [
"dc1219efd44c4e608fa2efdd"
],
"iterateDefaultGroup_v48" : [
"dc1219efd44c4e608fa2efdd"
],
"iterateDefaultGroup_v49" : [
"dc1219efd44c4e608fa2efdd"
],
"iterateDefaultGroup_v50" : [
"dc1219efd44c4e608fa2efdd"
],
"iterateDefaultGroup_v51" : [
"dc1219efd44c4e608fa2efdd"
],
"iterateDefaultGroup_v52" : [
"dc1219efd44c4e608fa2efdd"
],
"iterateDefaultGroup_v53" : [
"dc1219efd44c4e608fa2efdd"
],
"iterateDefaultGroup_v54" : [
"a12b100073ef4dcab77303e6"
],
"iterateDefaultGroup_v55" : [
"a12b100073ef4dcab77303e6"
],
"iterateDefaultGroup_v56" : [
"a12b100073ef4dcab77303e6"
],
"iterateDefaultGroup_v57" : [
"b22651a49b69417abbe73089"
],
"iterateDefaultGroup_v58" : [
"b22651a49b69417abbe73089"
],
"iterateDefaultGroup_v59" : [
"b22651a49b69417abbe73089"
],
"iterateDefaultGroup_v60" : [
"b22651a49b69417abbe73089"
]
},
"entities.name" : {
"OTSROOT" : [
"0629ee756b2e4ad3961f0515",
"4ad490c0a2a941c094c7280a",
"597aa8444fef4140b5fcf1e8",
"5d1384de2e11439880ed302c",
"a12b100073ef4dcab77303e6",
"b22651a49b69417abbe73089",
"babb210ece7e4296a68d9493",
"dc1219efd44c4e608fa2efdd",
"e59fe0b8681a4c42944c4117"
]
},
"aliases.active.name" : {

},
"runs.name" : {

},
"configurations.assigned" : {
"notprovided" : [
"2018-09-10T09:26:39.058-0500",
"2018-09-10T09:27:19.865-0500",
"2020-07-29T13:52:19.400-0500",
"2020-07-29T15:14:10.695-0500",
"2020-10-26T10:34:08.231-0500",
"2020-10-26T11:12:07.093-0500",
"2020-10-26T13:20:57.512-0500",
"2021-09-02T13:40:31.126-0500",
"2021-10-12T11:12:22.362-0500"
],
"iterateDefaultGroup_v0" : [
"2018-09-10T09:26:39.561-0500"
],
"iterateDefaultGroup_v1" : [
"2018-09-10T09:27:20.424-0500"
],
"iterateDefaultGroup_v2" : [
"2020-07-28T16:25:06.000-0500"
],
"iterateDefaultGroup_v3" : [
"2020-07-29T13:52:20.293-0500"
],
"iterateDefaultGroup_v4" : [
"2020-07-29T13:56:47.416-0500"
],
"iterateDefaultGroup_v5" : [
"2020-07-29T15:14:11.670-0500"
],
"iterateDefaultGroup_v6" : [
"2020-10-09T16:10:09.867-0500"
],
"iterateDefaultGroup_v7" : [
"2020-10-09T16:31:31.791-0500"
],
"iterateDefaultGroup_v8" : [
"2020-10-09T16:46:00.480-0500"
],
"iterateDefaultGroup_v9" : [
"2020-10-12T10:30:01.598-0500"
],
"iterateDefaultGroup_v10" : [
"2020-10-12T13:54:18.011-0500"
],
"iterateDefaultGroup_v11" : [
"2020-10-12T15:28:45.589-0500"
],
"iterateDefaultGroup_v12" : [
"2020-10-12T15:33:40.960-0500"
],
"iterateDefaultGroup_v13" : [
"2020-10-26T10:34:09.390-0500"
],
"iterateDefaultGroup_v14" : [
"2020-10-26T11:12:08.439-0500"
],
"iterateDefaultGroup_v15" : [
"2020-10-26T13:20:58.620-0500"
],
"iterateDefaultGroup_v16" : [
"2020-10-26T13:46:31.522-0500"
],
"iterateDefaultGroup_v17" : [
"2020-10-27T17:08:44.135-0500"
],
"iterateDefaultGroup_v18" : [
"2021-06-30T15:46:03.844-0500"
],
"iterateDefaultGroup_v19" : [
"2021-07-12T11:48:21.454-0500"
],
"iterateDefaultGroup_v20" : [
"2021-07-12T13:38:44.578-0500"
],
"iterateDefaultGroup_v21" : [
"2021-07-12T13:40:39.534-0500"
],
"iterateDefaultGroup_v22" : [
"2021-07-14T16:20:56.391-0500"
],
"iterateDefaultGroup_v23" : [
"2021-07-20T15:29:51.015-0500"
],
"iterateDefaultGroup_v24" : [
"2021-07-22T18:34:18.781-0500"
],
"iterateDefaultGroup_v25" : [
"2021-07-23T12:39:38.083-0500"
],
"iterateDefaultGroup_v26" : [
"2021-07-23T12:45:35.548-0500"
],
"iterateDefaultGroup_v27" : [
"2021-07-23T13:08:43.231-0500"
],
"iterateDefaultGroup_v28" : [
"2021-07-23T13:16:29.796-0500"
],
"iterateDefaultGroup_v29" : [
"2021-07-23T14:16:53.541-0500"
],
"iterateDefaultGroup_v30" : [
"2021-07-28T08:44:04.499-0500"
],
"iterateDefaultGroup_v31" : [
"2021-07-28T09:04:35.307-0500"
],
"iterateDefaultGroup_v32" : [
"2021-07-28T09:08:06.078-0500"
],
"iterateDefaultGroup_v33" : [
"2021-07-28T09:09:00.098-0500"
],
"iterateDefaultGroup_v34" : [
"2021-07-28T09:11:42.154-0500"
],
"iterateDefaultGroup_v35" : [
"2021-07-28T10:45:28.189-0500"
],
"iterateDefaultGroup_v36" : [
"2021-07-28T11:09:41.361-0500"
],
"iterateDefaultGroup_v37" : [
"2021-07-28T11:56:31.761-0500"
],
"iterateDefaultGroup_v38" : [
"2021-07-28T13:37:16.222-0500"
],
"iterateDefaultGroup_v39" : [
"2021-07-28T14:34:06.466-0500"
],
"iterateDefaultGroup_v40" : [
"2021-07-28T14:42:29.745-0500"
],
"iterateDefaultGroup_v41" : [
"2021-07-28T14:47:06.728-0500"
],
"iterateDefaultGroup_v42" : [
"2021-07-28T14:48:23.113-0500"
],
"iterateDefaultGroup_v43" : [
"2021-07-28T14:48:51.039-0500"
],
"iterateDefaultGroup_v44" : [
"2021-07-28T14:51:22.524-0500"
],
"iterateDefaultGroup_v45" : [
"2021-07-28T15:03:29.419-0500"
],
"iterateDefaultGroup_v46" : [
"2021-07-28T15:11:18.300-0500"
],
"iterateDefaultGroup_v47" : [
"2021-07-28T15:13:39.736-0500"
],
"iterateDefaultGroup_v48" : [
"2021-07-28T15:30:20.894-0500"
],
"iterateDefaultGroup_v49" : [
"2021-07-28T15:42:30.120-0500"
],
"iterateDefaultGroup_v50" : [
"2021-07-28T15:54:18.059-0500"
],
"iterateDefaultGroup_v51" : [
"2021-07-28T16:06:50.865-0500"
],
"iterateDefaultGroup_v52" : [
"2021-07-28T16:13:46.898-0500"
],
"iterateDefaultGroup_v53" : [
"2021-07-28T16:15:01.034-0500"
],
"iterateDefaultGroup_v54" : [
"2021-09-02T13:40:33.291-0500"
],
"iterateDefaultGroup_v55" : [
"2021-09-02T14:33:16.270-0500"
],
"iterateDefaultGroup_v56" : [
"2021-09-02T14:42:08.758-0500"
],
"iterateDefaultGroup_v57" : [
"2021-10-12T11:12:24.560-0500"
],
"iterateDefaultGroup_v58" : [
"2021-10-12T16:34:03.280-0500"
],
"iterateDefaultGroup_v59" : [
"2021-10-13T18:15:36.974-0500"
],
"iterateDefaultGroup_v60" : [
"2021-10-15T15:39:58.512-0500"
]
}
}