{
"document" : {
"data" : {
"NAME" : "DATA_MANAGER_SUPERVISOR_TABLE",
"COMMENT" : "Data manager top-level records.",
"AUTHOR" : "admin",
"CREATION_TIME" : 1563996777,
"COL_TYPES" : {
"SUPERVISOR_UID" : "VARCHAR2",
"LINK_TO_DATA_MANAGER_TABLE" : "VARCHAR2",
"LINK_TO_DATA_MANAGER_GROUP_ID" : "VARCHAR2",
"COMMENT_DESCRIPTION" : "VARCHAR2",
"AUTHOR" : "VARCHAR2",
"RECORD_INSERTION_TIME" : "TIMESTAMP WITH TIMEZONE"
},
"DATA_SET" : [
{
"SUPERVISOR_UID" : "DataManagerSupervisorBurninBox0",
"LINK_TO_DATA_MANAGER_TABLE" : "DataBufferTable",
"LINK_TO_DATA_MANAGER_GROUP_ID" : "DMBurninBox0",
"COMMENT_DESCRIPTION" : "No Comment",
"AUTHOR" : "admin",
"RECORD_INSERTION_TIME" : "1563996777"
},
{
"SUPERVISOR_UID" : "VisualSupervisor0",
"LINK_TO_DATA_MANAGER_TABLE" : "DataBufferTable",
"LINK_TO_DATA_MANAGER_GROUP_ID" : "VisualDataManager",
"COMMENT_DESCRIPTION" : "",
"AUTHOR" : "admin",
"RECORD_INSERTION_TIME" : "1563996777"
}
]
},
"metadata" : {

},
"search" : [

]
},
"comments" : [

],
"origin" : {
"source" : "template",
"name" : "notprovided",
"format" : "json",
"created" : "2019-07-24T14:32:57.034-0500",
"rawdata" : [

]
},
"version" : "1",
"entities" : [
{
"name" : "OTSROOT",
"assigned" : "2019-07-24T14:32:57.034-0500"
}
],
"configurations" : [
{
"name" : "notprovided",
"assigned" : "2019-07-24T14:32:57.034-0500"
},
{
"name" : "BurninBoxConfig_v26",
"assigned" : "2019-07-24T14:34:10.296-0500"
}
],
"changelog" : "notprovided",
"bookkeeping" : {
"isdeleted" : false,
"isreadonly" : false,
"updates" : [
{
"event" : "addConfiguration",
"timestamp" : "2019-07-24T14:32:57.034-0500",
"value" : {
"name" : "notprovided",
"assigned" : "2019-07-24T14:32:57.034-0500"
}
},
{
"event" : "setVersion",
"timestamp" : "2019-07-24T14:32:57.034-0500",
"value" : {
"name" : "1",
"assigned" : "2019-07-24T14:32:57.034-0500"
}
},
{
"event" : "setCollection",
"timestamp" : "2019-07-24T14:32:57.034-0500",
"value" : {
"name" : "DataManagerSupervisorTable",
"assigned" : "2019-07-24T14:32:57.034-0500"
}
},
{
"event" : "addEntity",
"timestamp" : "2019-07-24T14:32:57.034-0500",
"value" : {
"name" : "OTSROOT",
"assigned" : "2019-07-24T14:32:57.034-0500"
}
},
{
"event" : "addConfiguration",
"timestamp" : "2019-07-24T14:34:10.296-0500",
"value" : {
"name" : "BurninBoxConfig_v26",
"assigned" : "2019-07-24T14:34:10.296-0500"
}
}
],
"created" : "2019-07-24T14:32:57.034-0500"
},
"_id" : {
"$oid" : "77068195595244d1aef8b5d4"
},
"collection" : "DataManagerSupervisorTable",
"aliases" : {
"active" : [

],
"history" : [

]
},
"runs" : [

],
"attachments" : [

],
"configtype" : "notprovided"
}