{
"document" : {
"data" : {
"BurninBoxCycleTable" : "2",
"CAENPowerSupplyChannelTable" : "2",
"CAENPowerSupplyDeviceTable" : "0",
"CAENPowerSupplyTable" : "0",
"DQMBurninBoxHistosConsumerTable" : "2",
"DQMMiddlewareHistosConsumerTable" : "2",
"DQMMiddlewareMonitorHistosConsumerTable" : "2",
"DQMPowerSupplyConsumerTable" : "0",
"DataBufferTable" : "2",
"DataManagerSupervisorTable" : "0",
"DataProcessorTable" : "2",
"FECMSBurninBoxInterfaceTable" : "0",
"FEInterfaceTable" : "0",
"FEMiddlewareInterfaceTable" : "2",
"FEPowerSupplyInterfaceTable" : "0",
"FESupervisorTable" : "0",
"PowerSupplyDeviceTable" : "0",
"PowerSupplyToDetectorTable" : "2",
"RawDataSaverConsumerTable" : "0",
"TCPDataReceiverProducerTable" : "2",
"TableGroupMetadata" : "2",
"UDPDataListenerProducerTable" : "0"
},
"metadata" : {

},
"search" : [

]
},
"comments" : [

],
"origin" : {
"source" : "template",
"name" : "notprovided",
"format" : "json",
"created" : "2023-11-27T11:36:47.936-0600",
"rawdata" : [

]
},
"version" : "2",
"entities" : [
{
"name" : "OTSROOT",
"assigned" : "2023-11-27T11:36:47.936-0600"
}
],
"configurations" : [
{
"name" : "notprovided",
"assigned" : "2023-11-27T11:36:47.936-0600"
}
],
"changelog" : "notprovided",
"bookkeeping" : {
"isdeleted" : false,
"isreadonly" : false,
"updates" : [
{
"event" : "addConfiguration",
"timestamp" : "2023-11-27T11:36:47.936-0600",
"value" : {
"name" : "notprovided",
"assigned" : "2023-11-27T11:36:47.936-0600"
}
},
{
"event" : "setVersion",
"timestamp" : "2023-11-27T11:36:47.936-0600",
"value" : {
"name" : "2",
"assigned" : "2023-11-27T11:36:47.936-0600"
}
},
{
"event" : "setCollection",
"timestamp" : "2023-11-27T11:36:47.936-0600",
"value" : {
"name" : "GroupCache_BurninBoxConfiguration",
"assigned" : "2023-11-27T11:36:47.936-0600"
}
},
{
"event" : "addEntity",
"timestamp" : "2023-11-27T11:36:47.936-0600",
"value" : {
"name" : "OTSROOT",
"assigned" : "2023-11-27T11:36:47.936-0600"
}
}
],
"created" : "2023-11-27T11:36:47.936-0600"
},
"_id" : {
"$oid" : "157eadebc9ce402cbb0eced0"
},
"collection" : "GroupCache_BurninBoxConfiguration",
"aliases" : {
"active" : [

],
"history" : [

]
},
"runs" : [

],
"attachments" : [

],
"configtype" : "notprovided"
}