{
"document" : {
"data" : {
"NAME" : "VERSION_ALIASES_TABLE",
"COMMENT" : "Default Version Aliases.",
"AUTHOR" : "admin",
"CREATION_TIME" : 1480649901,
"COL_TYPES" : {
"VERSION_ALIAS_UID" : "VARCHAR2",
"TABLE_NAME" : "VARCHAR2",
"VERSION_ALIAS" : "VARCHAR2",
"VERSION" : "VARCHAR2",
"COMMENT_DESCRIPTION" : "VARCHAR2",
"AUTHOR" : "VARCHAR2",
"RECORD_INSERTION_TIME" : "TIMESTAMP WITH TIMEZONE"
},
"DATA_SET" : [

]
},
"metadata" : {

},
"search" : [

]
},
"comments" : [

],
"origin" : {
"source" : "template",
"name" : "notprovided",
"format" : "json",
"created" : "2018-09-06T17:34:15.894-0500",
"rawdata" : [

]
},
"version" : "3",
"entities" : [
{
"name" : "OTSROOT",
"assigned" : "2018-09-06T17:34:15.896-0500"
}
],
"tables" : [
{
"name" : "notprovided",
"assigned" : "2018-09-06T17:34:15.895-0500"
},
{
"name" : "TableEditWizBackbone_v3",
"assigned" : "2018-09-06T17:34:15.967-0500"
},
{
"name" : "TableEditWizBackbone_v4",
"assigned" : "2018-09-10T09:24:24.879-0500"
},
{
"name" : "TableEditWizBackbone_v5",
"assigned" : "2018-09-10T10:45:51.888-0500"
},
{
"name" : "TableEditWizBackbone_v6",
"assigned" : "2018-09-10T11:24:19.340-0500"
},
{
"name" : "TableEditWizBackbone_v7",
"assigned" : "2018-09-11T09:59:56.940-0500"
},
{
"name" : "TableEditWizBackbone_v8",
"assigned" : "2018-09-11T10:00:21.174-0500"
},
{
"name" : "TableEditWizBackbone_v9",
"assigned" : "2018-09-11T10:01:20.065-0500"
},
{
"name" : "GroupAliasTreeEditWizBackbone_v0",
"assigned" : "2018-09-11T10:11:16.717-0500"
},
{
"name" : "GroupAliasTreeEditWizBackbone_v1",
"assigned" : "2018-09-12T12:16:44.519-0500"
},
{
"name" : "TableEditWizBackbone_v10",
"assigned" : "2018-09-12T13:36:48.289-0500"
},
{
"name" : "TableEditWizBackbone_v11",
"assigned" : "2018-09-12T13:37:50.991-0500"
},
{
"name" : "TableEditWizBackbone_v12",
"assigned" : "2018-09-17T11:12:10.292-0500"
},
{
"name" : "TableEditWizBackbone_v13",
"assigned" : "2018-09-17T13:53:34.263-0500"
},
{
"name" : "TableEditWizBackbone_v14",
"assigned" : "2018-09-17T14:03:58.933-0500"
},
{
"name" : "TableEditWizBackbone_v15",
"assigned" : "2018-09-18T15:31:06.534-0500"
},
{
"name" : "TableEditWizBackbone_v16",
"assigned" : "2018-09-19T09:27:06.299-0500"
},
{
"name" : "TableEditWizBackbone_v17",
"assigned" : "2018-09-19T10:08:02.972-0500"
},
{
"name" : "TableEditWizBackbone_v18",
"assigned" : "2018-09-19T10:23:22.937-0500"
},
{
"name" : "TableEditWizBackbone_v19",
"assigned" : "2018-09-19T11:22:22.338-0500"
},
{
"name" : "TableEditWizBackbone_v20",
"assigned" : "2018-09-19T12:26:56.252-0500"
},
{
"name" : "TableEditWizBackbone_v21",
"assigned" : "2018-09-20T14:22:28.200-0500"
},
{
"name" : "TableEditWizBackbone_v22",
"assigned" : "2018-09-20T15:42:04.082-0500"
},
{
"name" : "TableEditWizBackbone_v23",
"assigned" : "2018-09-21T11:16:32.366-0500"
},
{
"name" : "TableEditWizBackbone_v24",
"assigned" : "2018-09-21T13:39:26.403-0500"
},
{
"name" : "TableEditWizBackbone_v25",
"assigned" : "2018-09-21T13:39:50.319-0500"
},
{
"name" : "GroupAliasTreeEditWizBackbone_v2",
"assigned" : "2019-02-28T12:04:26.452-0600"
},
{
"name" : "GroupAliasTreeEditWizBackbone_v3",
"assigned" : "2019-02-28T12:05:08.918-0600"
},
{
"name" : "GroupAliasTreeEditWizBackbone_v4",
"assigned" : "2019-02-28T13:57:10.504-0600"
}
],
"changelog" : "notprovided",
"bookkeeping" : {
"isdeleted" : false,
"isreadonly" : false,
"updates" : [
{
"event" : "addTable",
"timestamp" : "2018-09-06T17:34:15.895-0500",
"value" : {
"name" : "notprovided",
"assigned" : "2018-09-06T17:34:15.895-0500"
}
},
{
"event" : "setVersion",
"timestamp" : "2018-09-06T17:34:15.895-0500",
"value" : {
"name" : "3",
"assigned" : "2018-09-06T17:34:15.895-0500"
}
},
{
"event" : "setCollection",
"timestamp" : "2018-09-06T17:34:15.896-0500",
"value" : {
"name" : "VersionAliasesTable",
"assigned" : "2018-09-06T17:34:15.896-0500"
}
},
{
"event" : "addEntity",
"timestamp" : "2018-09-06T17:34:15.896-0500",
"value" : {
"name" : "OTSROOT",
"assigned" : "2018-09-06T17:34:15.896-0500"
}
},
{
"event" : "addTable",
"timestamp" : "2018-09-06T17:34:15.967-0500",
"value" : {
"name" : "TableEditWizBackbone_v3",
"assigned" : "2018-09-06T17:34:15.967-0500"
}
},
{
"event" : "addTable",
"timestamp" : "2018-09-10T09:24:24.879-0500",
"value" : {
"name" : "TableEditWizBackbone_v4",
"assigned" : "2018-09-10T09:24:24.879-0500"
}
},
{
"event" : "addTable",
"timestamp" : "2018-09-10T10:45:51.888-0500",
"value" : {
"name" : "TableEditWizBackbone_v5",
"assigned" : "2018-09-10T10:45:51.888-0500"
}
},
{
"event" : "addTable",
"timestamp" : "2018-09-10T11:24:19.340-0500",
"value" : {
"name" : "TableEditWizBackbone_v6",
"assigned" : "2018-09-10T11:24:19.340-0500"
}
},
{
"event" : "addTable",
"timestamp" : "2018-09-11T09:59:56.940-0500",
"value" : {
"name" : "TableEditWizBackbone_v7",
"assigned" : "2018-09-11T09:59:56.940-0500"
}
},
{
"event" : "addTable",
"timestamp" : "2018-09-11T10:00:21.174-0500",
"value" : {
"name" : "TableEditWizBackbone_v8",
"assigned" : "2018-09-11T10:00:21.174-0500"
}
},
{
"event" : "addTable",
"timestamp" : "2018-09-11T10:01:20.065-0500",
"value" : {
"name" : "TableEditWizBackbone_v9",
"assigned" : "2018-09-11T10:01:20.065-0500"
}
},
{
"event" : "addTable",
"timestamp" : "2018-09-11T10:11:16.717-0500",
"value" : {
"name" : "GroupAliasTreeEditWizBackbone_v0",
"assigned" : "2018-09-11T10:11:16.717-0500"
}
},
{
"event" : "addTable",
"timestamp" : "2018-09-12T12:16:44.519-0500",
"value" : {
"name" : "GroupAliasTreeEditWizBackbone_v1",
"assigned" : "2018-09-12T12:16:44.519-0500"
}
},
{
"event" : "addTable",
"timestamp" : "2018-09-12T13:36:48.289-0500",
"value" : {
"name" : "TableEditWizBackbone_v10",
"assigned" : "2018-09-12T13:36:48.289-0500"
}
},
{
"event" : "addTable",
"timestamp" : "2018-09-12T13:37:50.991-0500",
"value" : {
"name" : "TableEditWizBackbone_v11",
"assigned" : "2018-09-12T13:37:50.991-0500"
}
},
{
"event" : "addTable",
"timestamp" : "2018-09-17T11:12:10.292-0500",
"value" : {
"name" : "TableEditWizBackbone_v12",
"assigned" : "2018-09-17T11:12:10.292-0500"
}
},
{
"event" : "addTable",
"timestamp" : "2018-09-17T13:53:34.263-0500",
"value" : {
"name" : "TableEditWizBackbone_v13",
"assigned" : "2018-09-17T13:53:34.263-0500"
}
},
{
"event" : "addTable",
"timestamp" : "2018-09-17T14:03:58.933-0500",
"value" : {
"name" : "TableEditWizBackbone_v14",
"assigned" : "2018-09-17T14:03:58.933-0500"
}
},
{
"event" : "addTable",
"timestamp" : "2018-09-18T15:31:06.534-0500",
"value" : {
"name" : "TableEditWizBackbone_v15",
"assigned" : "2018-09-18T15:31:06.534-0500"
}
},
{
"event" : "addTable",
"timestamp" : "2018-09-19T09:27:06.299-0500",
"value" : {
"name" : "TableEditWizBackbone_v16",
"assigned" : "2018-09-19T09:27:06.299-0500"
}
},
{
"event" : "addTable",
"timestamp" : "2018-09-19T10:08:02.972-0500",
"value" : {
"name" : "TableEditWizBackbone_v17",
"assigned" : "2018-09-19T10:08:02.972-0500"
}
},
{
"event" : "addTable",
"timestamp" : "2018-09-19T10:23:22.937-0500",
"value" : {
"name" : "TableEditWizBackbone_v18",
"assigned" : "2018-09-19T10:23:22.937-0500"
}
},
{
"event" : "addTable",
"timestamp" : "2018-09-19T11:22:22.338-0500",
"value" : {
"name" : "TableEditWizBackbone_v19",
"assigned" : "2018-09-19T11:22:22.338-0500"
}
},
{
"event" : "addTable",
"timestamp" : "2018-09-19T12:26:56.252-0500",
"value" : {
"name" : "TableEditWizBackbone_v20",
"assigned" : "2018-09-19T12:26:56.252-0500"
}
},
{
"event" : "addTable",
"timestamp" : "2018-09-20T14:22:28.200-0500",
"value" : {
"name" : "TableEditWizBackbone_v21",
"assigned" : "2018-09-20T14:22:28.200-0500"
}
},
{
"event" : "addTable",
"timestamp" : "2018-09-20T15:42:04.082-0500",
"value" : {
"name" : "TableEditWizBackbone_v22",
"assigned" : "2018-09-20T15:42:04.082-0500"
}
},
{
"event" : "addTable",
"timestamp" : "2018-09-21T11:16:32.366-0500",
"value" : {
"name" : "TableEditWizBackbone_v23",
"assigned" : "2018-09-21T11:16:32.366-0500"
}
},
{
"event" : "addTable",
"timestamp" : "2018-09-21T13:39:26.403-0500",
"value" : {
"name" : "TableEditWizBackbone_v24",
"assigned" : "2018-09-21T13:39:26.403-0500"
}
},
{
"event" : "addTable",
"timestamp" : "2018-09-21T13:39:50.319-0500",
"value" : {
"name" : "TableEditWizBackbone_v25",
"assigned" : "2018-09-21T13:39:50.319-0500"
}
},
{
"event" : "addTable",
"timestamp" : "2019-02-28T12:04:26.452-0600",
"value" : {
"name" : "GroupAliasTreeEditWizBackbone_v2",
"assigned" : "2019-02-28T12:04:26.452-0600"
}
},
{
"event" : "addTable",
"timestamp" : "2019-02-28T12:05:08.918-0600",
"value" : {
"name" : "GroupAliasTreeEditWizBackbone_v3",
"assigned" : "2019-02-28T12:05:08.918-0600"
}
},
{
"event" : "addTable",
"timestamp" : "2019-02-28T13:57:10.504-0600",
"value" : {
"name" : "GroupAliasTreeEditWizBackbone_v4",
"assigned" : "2019-02-28T13:57:10.504-0600"
}
},
{
"event" : "addConfiguration",
"timestamp" : "2019-07-17T14:42:57.324-0500",
"value" : {
"name" : "GroupAliasTreeEditWizBackbone_v5",
"assigned" : "2019-07-17T14:42:57.324-0500"
}
},
{
"event" : "addConfiguration",
"timestamp" : "2019-07-19T15:24:17.039-0500",
"value" : {
"name" : "TableEditWizBackbone_v26",
"assigned" : "2019-07-19T15:24:17.039-0500"
}
},
{
"event" : "addConfiguration",
"timestamp" : "2019-07-19T15:25:11.793-0500",
"value" : {
"name" : "GroupAliasTreeEditWizBackbone_v6",
"assigned" : "2019-07-19T15:25:11.793-0500"
}
},
{
"event" : "addConfiguration",
"timestamp" : "2019-07-24T14:34:11.553-0500",
"value" : {
"name" : "TableEditWizBackbone_v27",
"assigned" : "2019-07-24T14:34:11.553-0500"
}
},
{
"event" : "addConfiguration",
"timestamp" : "2019-07-24T14:47:24.810-0500",
"value" : {
"name" : "TableEditWizBackbone_v28",
"assigned" : "2019-07-24T14:47:24.810-0500"
}
},
{
"event" : "addConfiguration",
"timestamp" : "2019-07-24T14:48:42.584-0500",
"value" : {
"name" : "GroupAliasTreeEditWizBackbone_v7",
"assigned" : "2019-07-24T14:48:42.584-0500"
}
},
{
"event" : "addConfiguration",
"timestamp" : "2019-07-24T14:48:43.436-0500",
"value" : {
"name" : "GroupAliasTreeEditWizBackbone_v8",
"assigned" : "2019-07-24T14:48:43.436-0500"
}
},
{
"event" : "addConfiguration",
"timestamp" : "2019-10-22T14:55:22.546-0500",
"value" : {
"name" : "TableEditWizBackbone_v29",
"assigned" : "2019-10-22T14:55:22.546-0500"
}
},
{
"event" : "addConfiguration",
"timestamp" : "2020-06-29T11:00:06.308-0500",
"value" : {
"name" : "TableEditWizBackbone_v30",
"assigned" : "2020-06-29T11:00:06.308-0500"
}
},
{
"event" : "addConfiguration",
"timestamp" : "2020-06-29T11:05:40.929-0500",
"value" : {
"name" : "GroupAliasTreeEditWizBackbone_v9",
"assigned" : "2020-06-29T11:05:40.929-0500"
}
},
{
"event" : "addConfiguration",
"timestamp" : "2020-06-29T11:28:22.748-0500",
"value" : {
"name" : "TableEditWizBackbone_v31",
"assigned" : "2020-06-29T11:28:22.748-0500"
}
},
{
"event" : "addConfiguration",
"timestamp" : "2020-07-24T10:58:18.968-0500",
"value" : {
"name" : "GroupAliasTreeEditWizBackbone_v10",
"assigned" : "2020-07-24T10:58:18.968-0500"
}
},
{
"event" : "addConfiguration",
"timestamp" : "2020-07-24T11:00:08.624-0500",
"value" : {
"name" : "GroupAliasTreeEditWizBackbone_v11",
"assigned" : "2020-07-24T11:00:08.624-0500"
}
},
{
"event" : "addConfiguration",
"timestamp" : "2020-07-24T11:56:07.509-0500",
"value" : {
"name" : "TableEditWizBackbone_v32",
"assigned" : "2020-07-24T11:56:07.509-0500"
}
},
{
"event" : "addConfiguration",
"timestamp" : "2020-07-24T12:12:10.387-0500",
"value" : {
"name" : "TableEditWizBackbone_v33",
"assigned" : "2020-07-24T12:12:10.386-0500"
}
},
{
"event" : "addConfiguration",
"timestamp" : "2020-07-24T12:16:36.914-0500",
"value" : {
"name" : "TableEditWizBackbone_v34",
"assigned" : "2020-07-24T12:16:36.914-0500"
}
},
{
"event" : "addConfiguration",
"timestamp" : "2020-07-29T15:59:42.145-0500",
"value" : {
"name" : "TableEditWizBackbone_v35",
"assigned" : "2020-07-29T15:59:42.145-0500"
}
},
{
"event" : "addConfiguration",
"timestamp" : "2020-07-29T16:01:23.668-0500",
"value" : {
"name" : "GroupAliasTreeEditWizBackbone_v12",
"assigned" : "2020-07-29T16:01:23.668-0500"
}
},
{
"event" : "addConfiguration",
"timestamp" : "2020-07-29T16:34:44.044-0500",
"value" : {
"name" : "GroupAliasTreeEditWizBackbone_v13",
"assigned" : "2020-07-29T16:34:44.044-0500"
}
},
{
"event" : "addConfiguration",
"timestamp" : "2020-07-29T16:39:54.918-0500",
"value" : {
"name" : "TableEditWizBackbone_v36",
"assigned" : "2020-07-29T16:39:54.918-0500"
}
},
{
"event" : "addConfiguration",
"timestamp" : "2020-07-29T16:40:45.543-0500",
"value" : {
"name" : "TableEditWizBackbone_v37",
"assigned" : "2020-07-29T16:40:45.543-0500"
}
},
{
"event" : "addConfiguration",
"timestamp" : "2020-07-29T16:45:02.953-0500",
"value" : {
"name" : "TableEditWizBackbone_v38",
"assigned" : "2020-07-29T16:45:02.953-0500"
}
},
{
"event" : "addConfiguration",
"timestamp" : "2020-07-29T16:49:17.607-0500",
"value" : {
"name" : "GroupAliasTreeEditWizBackbone_v14",
"assigned" : "2020-07-29T16:49:17.607-0500"
}
},
{
"event" : "addConfiguration",
"timestamp" : "2020-07-30T11:42:29.579-0500",
"value" : {
"name" : "GroupAliasTreeEditWizBackbone_v15",
"assigned" : "2020-07-30T11:42:29.579-0500"
}
},
{
"event" : "addConfiguration",
"timestamp" : "2020-07-30T11:42:30.726-0500",
"value" : {
"name" : "GroupAliasTreeEditWizBackbone_v16",
"assigned" : "2020-07-30T11:42:30.726-0500"
}
},
{
"event" : "addConfiguration",
"timestamp" : "2020-07-30T11:54:27.074-0500",
"value" : {
"name" : "GroupAliasTreeEditWizBackbone_v17",
"assigned" : "2020-07-30T11:54:27.074-0500"
}
},
{
"event" : "addConfiguration",
"timestamp" : "2020-07-30T12:05:14.179-0500",
"value" : {
"name" : "GroupAliasTreeEditWizBackbone_v18",
"assigned" : "2020-07-30T12:05:14.179-0500"
}
},
{
"event" : "addConfiguration",
"timestamp" : "2020-07-31T09:38:02.021-0500",
"value" : {
"name" : "GroupAliasTreeEditWizBackbone_v19",
"assigned" : "2020-07-31T09:38:02.021-0500"
}
},
{
"event" : "addConfiguration",
"timestamp" : "2020-09-02T11:30:05.714-0500",
"value" : {
"name" : "TableEditWizBackbone_v39",
"assigned" : "2020-09-02T11:30:05.714-0500"
}
},
{
"event" : "addConfiguration",
"timestamp" : "2020-09-02T11:31:33.587-0500",
"value" : {
"name" : "TableEditWizBackbone_v40",
"assigned" : "2020-09-02T11:31:33.587-0500"
}
},
{
"event" : "addConfiguration",
"timestamp" : "2020-09-02T15:08:52.700-0500",
"value" : {
"name" : "TableEditWizBackbone_v41",
"assigned" : "2020-09-02T15:08:52.700-0500"
}
},
{
"event" : "addConfiguration",
"timestamp" : "2020-09-02T15:22:10.902-0500",
"value" : {
"name" : "TableEditWizBackbone_v42",
"assigned" : "2020-09-02T15:22:10.902-0500"
}
},
{
"event" : "addConfiguration",
"timestamp" : "2020-09-02T16:01:07.298-0500",
"value" : {
"name" : "TableEditWizBackbone_v43",
"assigned" : "2020-09-02T16:01:07.298-0500"
}
},
{
"event" : "addConfiguration",
"timestamp" : "2020-09-02T16:05:20.874-0500",
"value" : {
"name" : "GroupAliasTreeEditWizBackbone_v20",
"assigned" : "2020-09-02T16:05:20.874-0500"
}
},
{
"event" : "addConfiguration",
"timestamp" : "2020-10-05T17:04:59.681-0500",
"value" : {
"name" : "TableEditWizBackbone_v44",
"assigned" : "2020-10-05T17:04:59.681-0500"
}
},
{
"event" : "addConfiguration",
"timestamp" : "2020-10-05T17:05:57.001-0500",
"value" : {
"name" : "TableEditWizBackbone_v45",
"assigned" : "2020-10-05T17:05:57.001-0500"
}
},
{
"event" : "addConfiguration",
"timestamp" : "2020-10-05T17:07:08.197-0500",
"value" : {
"name" : "TableEditWizBackbone_v46",
"assigned" : "2020-10-05T17:07:08.197-0500"
}
},
{
"event" : "addConfiguration",
"timestamp" : "2020-10-05T17:09:50.053-0500",
"value" : {
"name" : "TableEditWizBackbone_v47",
"assigned" : "2020-10-05T17:09:50.053-0500"
}
},
{
"event" : "addConfiguration",
"timestamp" : "2020-10-05T17:11:03.885-0500",
"value" : {
"name" : "TableEditWizBackbone_v48",
"assigned" : "2020-10-05T17:11:03.885-0500"
}
},
{
"event" : "addConfiguration",
"timestamp" : "2020-10-05T17:39:05.594-0500",
"value" : {
"name" : "TableEditWizBackbone_v49",
"assigned" : "2020-10-05T17:39:05.594-0500"
}
},
{
"event" : "addConfiguration",
"timestamp" : "2020-10-05T17:43:07.864-0500",
"value" : {
"name" : "TableEditWizBackbone_v50",
"assigned" : "2020-10-05T17:43:07.864-0500"
}
},
{
"event" : "addConfiguration",
"timestamp" : "2020-10-05T17:43:28.642-0500",
"value" : {
"name" : "TableEditWizBackbone_v51",
"assigned" : "2020-10-05T17:43:28.642-0500"
}
},
{
"event" : "addConfiguration",
"timestamp" : "2020-10-05T17:51:31.673-0500",
"value" : {
"name" : "TableEditWizBackbone_v52",
"assigned" : "2020-10-05T17:51:31.673-0500"
}
},
{
"event" : "addConfiguration",
"timestamp" : "2020-10-09T11:58:11.810-0500",
"value" : {
"name" : "TableEditWizBackbone_v53",
"assigned" : "2020-10-09T11:58:11.810-0500"
}
},
{
"event" : "addConfiguration",
"timestamp" : "2020-10-09T12:53:55.616-0500",
"value" : {
"name" : "GroupAliasTreeEditWizBackbone_v21",
"assigned" : "2020-10-09T12:53:55.616-0500"
}
},
{
"event" : "addConfiguration",
"timestamp" : "2020-10-09T12:57:08.298-0500",
"value" : {
"name" : "TableEditWizBackbone_v54",
"assigned" : "2020-10-09T12:57:08.298-0500"
}
},
{
"event" : "addConfiguration",
"timestamp" : "2020-10-09T13:00:59.594-0500",
"value" : {
"name" : "TableEditWizBackbone_v55",
"assigned" : "2020-10-09T13:00:59.594-0500"
}
},
{
"event" : "addConfiguration",
"timestamp" : "2020-10-09T14:43:41.818-0500",
"value" : {
"name" : "TableEditWizBackbone_v56",
"assigned" : "2020-10-09T14:43:41.818-0500"
}
},
{
"event" : "addConfiguration",
"timestamp" : "2020-10-09T15:30:50.090-0500",
"value" : {
"name" : "GroupAliasTreeEditWizBackbone_v22",
"assigned" : "2020-10-09T15:30:50.090-0500"
}
},
{
"event" : "addConfiguration",
"timestamp" : "2020-10-09T15:30:51.459-0500",
"value" : {
"name" : "GroupAliasTreeEditWizBackbone_v23",
"assigned" : "2020-10-09T15:30:51.459-0500"
}
},
{
"event" : "addConfiguration",
"timestamp" : "2020-10-09T15:32:25.741-0500",
"value" : {
"name" : "GroupAliasTreeEditWizBackbone_v24",
"assigned" : "2020-10-09T15:32:25.740-0500"
}
},
{
"event" : "addConfiguration",
"timestamp" : "2020-10-09T15:33:00.082-0500",
"value" : {
"name" : "TableEditWizBackbone_v57",
"assigned" : "2020-10-09T15:33:00.081-0500"
}
},
{
"event" : "addConfiguration",
"timestamp" : "2020-10-09T16:47:20.727-0500",
"value" : {
"name" : "GroupAliasTreeEditWizBackbone_v25",
"assigned" : "2020-10-09T16:47:20.727-0500"
}
},
{
"event" : "addConfiguration",
"timestamp" : "2020-10-12T09:37:51.757-0500",
"value" : {
"name" : "GroupAliasTreeEditWizBackbone_v26",
"assigned" : "2020-10-12T09:37:51.757-0500"
}
},
{
"event" : "addConfiguration",
"timestamp" : "2020-10-12T09:41:41.291-0500",
"value" : {
"name" : "GroupAliasTreeEditWizBackbone_v27",
"assigned" : "2020-10-12T09:41:41.291-0500"
}
},
{
"event" : "addConfiguration",
"timestamp" : "2020-10-12T10:14:45.517-0500",
"value" : {
"name" : "TableEditWizBackbone_v58",
"assigned" : "2020-10-12T10:14:45.517-0500"
}
},
{
"event" : "addConfiguration",
"timestamp" : "2020-10-12T10:19:11.612-0500",
"value" : {
"name" : "GroupAliasTreeEditWizBackbone_v28",
"assigned" : "2020-10-12T10:19:11.612-0500"
}
},
{
"event" : "addConfiguration",
"timestamp" : "2020-10-12T15:33:11.205-0500",
"value" : {
"name" : "TableEditWizBackbone_v59",
"assigned" : "2020-10-12T15:33:11.205-0500"
}
},
{
"event" : "addConfiguration",
"timestamp" : "2020-10-19T16:12:59.009-0500",
"value" : {
"name" : "GroupAliasTreeEditWizBackbone_v29",
"assigned" : "2020-10-19T16:12:59.009-0500"
}
},
{
"event" : "addConfiguration",
"timestamp" : "2020-10-19T16:16:04.414-0500",
"value" : {
"name" : "GroupAliasTreeEditWizBackbone_v30",
"assigned" : "2020-10-19T16:16:04.414-0500"
}
},
{
"event" : "addConfiguration",
"timestamp" : "2020-10-23T11:00:22.090-0500",
"value" : {
"name" : "TableEditWizBackbone_v60",
"assigned" : "2020-10-23T11:00:22.090-0500"
}
},
{
"event" : "addConfiguration",
"timestamp" : "2020-10-26T10:39:59.510-0500",
"value" : {
"name" : "TableEditWizBackbone_v61",
"assigned" : "2020-10-26T10:39:59.510-0500"
}
},
{
"event" : "addConfiguration",
"timestamp" : "2020-10-26T11:51:23.208-0500",
"value" : {
"name" : "TableEditWizBackbone_v62",
"assigned" : "2020-10-26T11:51:23.208-0500"
}
},
{
"event" : "addConfiguration",
"timestamp" : "2020-10-26T11:51:44.829-0500",
"value" : {
"name" : "TableEditWizBackbone_v63",
"assigned" : "2020-10-26T11:51:44.829-0500"
}
},
{
"event" : "addConfiguration",
"timestamp" : "2020-10-26T11:56:44.354-0500",
"value" : {
"name" : "TableEditWizBackbone_v64",
"assigned" : "2020-10-26T11:56:44.354-0500"
}
},
{
"event" : "addConfiguration",
"timestamp" : "2020-10-26T13:16:59.469-0500",
"value" : {
"name" : "GroupAliasTreeEditWizBackbone_v31",
"assigned" : "2020-10-26T13:16:59.469-0500"
}
},
{
"event" : "addConfiguration",
"timestamp" : "2020-10-26T14:34:36.254-0500",
"value" : {
"name" : "TableEditWizBackbone_v65",
"assigned" : "2020-10-26T14:34:36.254-0500"
}
},
{
"event" : "addConfiguration",
"timestamp" : "2020-10-26T14:53:04.514-0500",
"value" : {
"name" : "GroupAliasTreeEditWizBackbone_v32",
"assigned" : "2020-10-26T14:53:04.514-0500"
}
},
{
"event" : "addConfiguration",
"timestamp" : "2020-10-26T14:53:05.859-0500",
"value" : {
"name" : "GroupAliasTreeEditWizBackbone_v33",
"assigned" : "2020-10-26T14:53:05.859-0500"
}
},
{
"event" : "addConfiguration",
"timestamp" : "2020-10-26T15:02:48.440-0500",
"value" : {
"name" : "TableEditWizBackbone_v66",
"assigned" : "2020-10-26T15:02:48.440-0500"
}
},
{
"event" : "addConfiguration",
"timestamp" : "2020-10-26T15:37:56.161-0500",
"value" : {
"name" : "GroupAliasTreeEditWizBackbone_v34",
"assigned" : "2020-10-26T15:37:56.160-0500"
}
},
{
"event" : "addConfiguration",
"timestamp" : "2020-10-27T17:42:12.482-0500",
"value" : {
"name" : "GroupAliasTreeEditWizBackbone_v35",
"assigned" : "2020-10-27T17:42:12.482-0500"
}
},
{
"event" : "addConfiguration",
"timestamp" : "2020-10-29T11:39:19.443-0500",
"value" : {
"name" : "GroupAliasTreeEditWizBackbone_v36",
"assigned" : "2020-10-29T11:39:19.443-0500"
}
},
{
"event" : "addConfiguration",
"timestamp" : "2020-10-29T11:52:34.583-0500",
"value" : {
"name" : "TableEditWizBackbone_v67",
"assigned" : "2020-10-29T11:52:34.583-0500"
}
},
{
"event" : "addConfiguration",
"timestamp" : "2020-10-29T11:54:30.039-0500",
"value" : {
"name" : "GroupAliasTreeEditWizBackbone_v37",
"assigned" : "2020-10-29T11:54:30.039-0500"
}
},
{
"event" : "addConfiguration",
"timestamp" : "2020-10-29T11:54:31.392-0500",
"value" : {
"name" : "GroupAliasTreeEditWizBackbone_v38",
"assigned" : "2020-10-29T11:54:31.392-0500"
}
},
{
"event" : "addConfiguration",
"timestamp" : "2020-10-29T11:54:57.951-0500",
"value" : {
"name" : "GroupAliasTreeEditWizBackbone_v39",
"assigned" : "2020-10-29T11:54:57.951-0500"
}
},
{
"event" : "addConfiguration",
"timestamp" : "2020-10-29T13:30:26.267-0500",
"value" : {
"name" : "TableEditWizBackbone_v68",
"assigned" : "2020-10-29T13:30:26.267-0500"
}
},
{
"event" : "addConfiguration",
"timestamp" : "2020-10-29T13:33:32.847-0500",
"value" : {
"name" : "TableEditWizBackbone_v69",
"assigned" : "2020-10-29T13:33:32.847-0500"
}
},
{
"event" : "addConfiguration",
"timestamp" : "2020-10-29T13:45:57.609-0500",
"value" : {
"name" : "TableEditWizBackbone_v70",
"assigned" : "2020-10-29T13:45:57.609-0500"
}
},
{
"event" : "addConfiguration",
"timestamp" : "2020-10-29T13:46:40.004-0500",
"value" : {
"name" : "TableEditWizBackbone_v71",
"assigned" : "2020-10-29T13:46:40.004-0500"
}
},
{
"event" : "addConfiguration",
"timestamp" : "2020-10-29T13:48:04.672-0500",
"value" : {
"name" : "TableEditWizBackbone_v72",
"assigned" : "2020-10-29T13:48:04.672-0500"
}
},
{
"event" : "addConfiguration",
"timestamp" : "2020-10-29T14:39:30.706-0500",
"value" : {
"name" : "GroupAliasTreeEditWizBackbone_v40",
"assigned" : "2020-10-29T14:39:30.706-0500"
}
},
{
"event" : "addConfiguration",
"timestamp" : "2020-11-16T17:04:45.022-0600",
"value" : {
"name" : "GroupAliasTreeEditWizBackbone_v41",
"assigned" : "2020-11-16T17:04:45.022-0600"
}
},
{
"event" : "addConfiguration",
"timestamp" : "2020-11-16T17:07:51.368-0600",
"value" : {
"name" : "TableEditWizBackbone_v73",
"assigned" : "2020-11-16T17:07:51.368-0600"
}
},
{
"event" : "addConfiguration",
"timestamp" : "2020-11-16T17:10:05.568-0600",
"value" : {
"name" : "TableEditWizBackbone_v74",
"assigned" : "2020-11-16T17:10:05.568-0600"
}
},
{
"event" : "addConfiguration",
"timestamp" : "2021-06-30T16:17:53.765-0500",
"value" : {
"name" : "TableEditWizBackbone_v75",
"assigned" : "2021-06-30T16:17:53.765-0500"
}
},
{
"event" : "addConfiguration",
"timestamp" : "2021-06-30T16:23:50.493-0500",
"value" : {
"name" : "TableEditWizBackbone_v76",
"assigned" : "2021-06-30T16:23:50.493-0500"
}
},
{
"event" : "addConfiguration",
"timestamp" : "2021-07-07T14:45:54.078-0500",
"value" : {
"name" : "TableEditWizBackbone_v77",
"assigned" : "2021-07-07T14:45:54.078-0500"
}
},
{
"event" : "addConfiguration",
"timestamp" : "2021-07-07T16:02:06.216-0500",
"value" : {
"name" : "GroupAliasTreeEditWizBackbone_v42",
"assigned" : "2021-07-07T16:02:06.216-0500"
}
},
{
"event" : "addConfiguration",
"timestamp" : "2021-07-07T16:05:39.608-0500",
"value" : {
"name" : "GroupAliasTreeEditWizBackbone_v43",
"assigned" : "2021-07-07T16:05:39.608-0500"
}
},
{
"event" : "addConfiguration",
"timestamp" : "2021-07-08T14:00:22.092-0500",
"value" : {
"name" : "GroupAliasTreeEditWizBackbone_v44",
"assigned" : "2021-07-08T14:00:22.092-0500"
}
},
{
"event" : "addConfiguration",
"timestamp" : "2021-07-08T14:06:15.833-0500",
"value" : {
"name" : "GroupAliasTreeEditWizBackbone_v45",
"assigned" : "2021-07-08T14:06:15.833-0500"
}
},
{
"event" : "addConfiguration",
"timestamp" : "2021-07-08T14:12:40.908-0500",
"value" : {
"name" : "GroupAliasTreeEditWizBackbone_v46",
"assigned" : "2021-07-08T14:12:40.908-0500"
}
},
{
"event" : "addConfiguration",
"timestamp" : "2021-07-08T14:17:01.851-0500",
"value" : {
"name" : "GroupAliasTreeEditWizBackbone_v47",
"assigned" : "2021-07-08T14:17:01.851-0500"
}
},
{
"event" : "addConfiguration",
"timestamp" : "2021-07-08T14:17:03.279-0500",
"value" : {
"name" : "GroupAliasTreeEditWizBackbone_v48",
"assigned" : "2021-07-08T14:17:03.279-0500"
}
},
{
"event" : "addConfiguration",
"timestamp" : "2021-07-08T16:20:46.888-0500",
"value" : {
"name" : "GroupAliasTreeEditWizBackbone_v49",
"assigned" : "2021-07-08T16:20:46.888-0500"
}
},
{
"event" : "addConfiguration",
"timestamp" : "2021-07-08T16:21:58.041-0500",
"value" : {
"name" : "GroupAliasTreeEditWizBackbone_v50",
"assigned" : "2021-07-08T16:21:58.041-0500"
}
},
{
"event" : "addConfiguration",
"timestamp" : "2021-07-08T16:24:41.233-0500",
"value" : {
"name" : "GroupAliasTreeEditWizBackbone_v51",
"assigned" : "2021-07-08T16:24:41.232-0500"
}
},
{
"event" : "addConfiguration",
"timestamp" : "2021-07-09T11:47:15.917-0500",
"value" : {
"name" : "TableEditWizBackbone_v78",
"assigned" : "2021-07-09T11:47:15.917-0500"
}
},
{
"event" : "addConfiguration",
"timestamp" : "2021-07-09T11:48:48.073-0500",
"value" : {
"name" : "GroupAliasTreeEditWizBackbone_v52",
"assigned" : "2021-07-09T11:48:48.073-0500"
}
},
{
"event" : "addConfiguration",
"timestamp" : "2021-07-09T16:06:02.590-0500",
"value" : {
"name" : "TableEditWizBackbone_v79",
"assigned" : "2021-07-09T16:06:02.590-0500"
}
},
{
"event" : "addConfiguration",
"timestamp" : "2021-07-12T11:04:57.424-0500",
"value" : {
"name" : "TableEditWizBackbone_v80",
"assigned" : "2021-07-12T11:04:57.424-0500"
}
},
{
"event" : "addConfiguration",
"timestamp" : "2021-07-13T12:01:33.708-0500",
"value" : {
"name" : "TableEditWizBackbone_v81",
"assigned" : "2021-07-13T12:01:33.708-0500"
}
},
{
"event" : "addConfiguration",
"timestamp" : "2021-07-13T12:22:09.124-0500",
"value" : {
"name" : "GroupAliasTreeEditWizBackbone_v53",
"assigned" : "2021-07-13T12:22:09.124-0500"
}
},
{
"event" : "addConfiguration",
"timestamp" : "2021-07-13T12:22:10.924-0500",
"value" : {
"name" : "GroupAliasTreeEditWizBackbone_v54",
"assigned" : "2021-07-13T12:22:10.924-0500"
}
},
{
"event" : "addConfiguration",
"timestamp" : "2021-07-14T13:02:16.126-0500",
"value" : {
"name" : "GroupAliasTreeEditWizBackbone_v55",
"assigned" : "2021-07-14T13:02:16.126-0500"
}
},
{
"event" : "addConfiguration",
"timestamp" : "2021-07-14T13:03:03.252-0500",
"value" : {
"name" : "GroupAliasTreeEditWizBackbone_v56",
"assigned" : "2021-07-14T13:03:03.252-0500"
}
},
{
"event" : "addConfiguration",
"timestamp" : "2021-07-14T13:03:04.978-0500",
"value" : {
"name" : "GroupAliasTreeEditWizBackbone_v57",
"assigned" : "2021-07-14T13:03:04.978-0500"
}
},
{
"event" : "addConfiguration",
"timestamp" : "2021-07-14T13:06:00.560-0500",
"value" : {
"name" : "GroupAliasTreeEditWizBackbone_v58",
"assigned" : "2021-07-14T13:06:00.560-0500"
}
},
{
"event" : "addConfiguration",
"timestamp" : "2021-07-14T14:21:03.453-0500",
"value" : {
"name" : "GroupAliasTreeEditWizBackbone_v59",
"assigned" : "2021-07-14T14:21:03.453-0500"
}
},
{
"event" : "addConfiguration",
"timestamp" : "2021-07-14T14:21:05.107-0500",
"value" : {
"name" : "GroupAliasTreeEditWizBackbone_v60",
"assigned" : "2021-07-14T14:21:05.107-0500"
}
},
{
"event" : "addConfiguration",
"timestamp" : "2021-07-14T14:26:06.901-0500",
"value" : {
"name" : "GroupAliasTreeEditWizBackbone_v61",
"assigned" : "2021-07-14T14:26:06.901-0500"
}
},
{
"event" : "addConfiguration",
"timestamp" : "2021-07-14T14:39:33.744-0500",
"value" : {
"name" : "GroupAliasTreeEditWizBackbone_v62",
"assigned" : "2021-07-14T14:39:33.744-0500"
}
},
{
"event" : "addConfiguration",
"timestamp" : "2021-07-14T14:47:00.362-0500",
"value" : {
"name" : "GroupAliasTreeEditWizBackbone_v63",
"assigned" : "2021-07-14T14:47:00.362-0500"
}
},
{
"event" : "addConfiguration",
"timestamp" : "2021-07-14T14:47:02.068-0500",
"value" : {
"name" : "GroupAliasTreeEditWizBackbone_v64",
"assigned" : "2021-07-14T14:47:02.068-0500"
}
},
{
"event" : "addConfiguration",
"timestamp" : "2021-07-14T14:51:08.252-0500",
"value" : {
"name" : "GroupAliasTreeEditWizBackbone_v65",
"assigned" : "2021-07-14T14:51:08.252-0500"
}
},
{
"event" : "addConfiguration",
"timestamp" : "2021-07-14T15:24:35.899-0500",
"value" : {
"name" : "TableEditWizBackbone_v82",
"assigned" : "2021-07-14T15:24:35.899-0500"
}
},
{
"event" : "addConfiguration",
"timestamp" : "2021-07-14T16:05:31.678-0500",
"value" : {
"name" : "TableEditWizBackbone_v83",
"assigned" : "2021-07-14T16:05:31.677-0500"
}
},
{
"event" : "addConfiguration",
"timestamp" : "2021-07-14T16:15:43.362-0500",
"value" : {
"name" : "TableEditWizBackbone_v84",
"assigned" : "2021-07-14T16:15:43.362-0500"
}
},
{
"event" : "addConfiguration",
"timestamp" : "2021-07-14T16:17:44.149-0500",
"value" : {
"name" : "GroupAliasTreeEditWizBackbone_v66",
"assigned" : "2021-07-14T16:17:44.148-0500"
}
},
{
"event" : "addConfiguration",
"timestamp" : "2021-07-14T16:17:45.824-0500",
"value" : {
"name" : "GroupAliasTreeEditWizBackbone_v67",
"assigned" : "2021-07-14T16:17:45.824-0500"
}
},
{
"event" : "addConfiguration",
"timestamp" : "2021-07-15T11:50:36.009-0500",
"value" : {
"name" : "TableEditWizBackbone_v85",
"assigned" : "2021-07-15T11:50:36.009-0500"
}
},
{
"event" : "addConfiguration",
"timestamp" : "2021-07-20T13:45:56.004-0500",
"value" : {
"name" : "GroupAliasTreeEditWizBackbone_v68",
"assigned" : "2021-07-20T13:45:56.003-0500"
}
},
{
"event" : "addConfiguration",
"timestamp" : "2021-07-20T16:41:44.505-0500",
"value" : {
"name" : "TableEditWizBackbone_v86",
"assigned" : "2021-07-20T16:41:44.505-0500"
}
},
{
"event" : "addConfiguration",
"timestamp" : "2021-07-20T16:50:38.639-0500",
"value" : {
"name" : "GroupAliasTreeEditWizBackbone_v69",
"assigned" : "2021-07-20T16:50:38.639-0500"
}
},
{
"event" : "addConfiguration",
"timestamp" : "2021-07-20T17:09:29.104-0500",
"value" : {
"name" : "TableEditWizBackbone_v87",
"assigned" : "2021-07-20T17:09:29.104-0500"
}
},
{
"event" : "addConfiguration",
"timestamp" : "2021-07-20T17:28:42.403-0500",
"value" : {
"name" : "GroupAliasTreeEditWizBackbone_v70",
"assigned" : "2021-07-20T17:28:42.402-0500"
}
},
{
"event" : "addConfiguration",
"timestamp" : "2021-07-20T17:46:29.734-0500",
"value" : {
"name" : "TableEditWizBackbone_v88",
"assigned" : "2021-07-20T17:46:29.734-0500"
}
},
{
"event" : "addConfiguration",
"timestamp" : "2021-07-21T11:50:04.045-0500",
"value" : {
"name" : "TableEditWizBackbone_v89",
"assigned" : "2021-07-21T11:50:04.045-0500"
}
},
{
"event" : "addConfiguration",
"timestamp" : "2021-07-21T11:58:41.265-0500",
"value" : {
"name" : "GroupAliasTreeEditWizBackbone_v71",
"assigned" : "2021-07-21T11:58:41.265-0500"
}
},
{
"event" : "addConfiguration",
"timestamp" : "2021-07-21T11:58:43.026-0500",
"value" : {
"name" : "GroupAliasTreeEditWizBackbone_v72",
"assigned" : "2021-07-21T11:58:43.026-0500"
}
},
{
"event" : "addConfiguration",
"timestamp" : "2021-07-21T11:59:35.632-0500",
"value" : {
"name" : "TableEditWizBackbone_v90",
"assigned" : "2021-07-21T11:59:35.632-0500"
}
},
{
"event" : "addConfiguration",
"timestamp" : "2021-07-21T12:08:24.594-0500",
"value" : {
"name" : "TableEditWizBackbone_v91",
"assigned" : "2021-07-21T12:08:24.594-0500"
}
},
{
"event" : "addConfiguration",
"timestamp" : "2021-07-22T18:35:02.871-0500",
"value" : {
"name" : "GroupAliasTreeEditWizBackbone_v73",
"assigned" : "2021-07-22T18:35:02.871-0500"
}
},
{
"event" : "addConfiguration",
"timestamp" : "2021-07-23T12:33:59.078-0500",
"value" : {
"name" : "TableEditWizBackbone_v92",
"assigned" : "2021-07-23T12:33:59.078-0500"
}
},
{
"event" : "addConfiguration",
"timestamp" : "2021-07-24T00:54:51.842-0500",
"value" : {
"name" : "TableEditWizBackbone_v93",
"assigned" : "2021-07-24T00:54:51.841-0500"
}
},
{
"event" : "addConfiguration",
"timestamp" : "2021-07-24T12:12:53.777-0500",
"value" : {
"name" : "TableEditWizBackbone_v94",
"assigned" : "2021-07-24T12:12:53.776-0500"
}
},
{
"event" : "addConfiguration",
"timestamp" : "2021-07-25T21:07:18.454-0500",
"value" : {
"name" : "TableEditWizBackbone_v95",
"assigned" : "2021-07-25T21:07:18.453-0500"
}
},
{
"event" : "addConfiguration",
"timestamp" : "2021-07-26T07:43:14.299-0500",
"value" : {
"name" : "TableEditWizBackbone_v96",
"assigned" : "2021-07-26T07:43:14.299-0500"
}
},
{
"event" : "addConfiguration",
"timestamp" : "2021-07-26T18:37:14.384-0500",
"value" : {
"name" : "TableEditWizBackbone_v97",
"assigned" : "2021-07-26T18:37:14.383-0500"
}
},
{
"event" : "addConfiguration",
"timestamp" : "2021-07-27T08:25:43.136-0500",
"value" : {
"name" : "TableEditWizBackbone_v98",
"assigned" : "2021-07-27T08:25:43.136-0500"
}
},
{
"event" : "addConfiguration",
"timestamp" : "2021-08-03T11:10:41.829-0500",
"value" : {
"name" : "GroupAliasTreeEditWizBackbone_v74",
"assigned" : "2021-08-03T11:10:41.829-0500"
}
},
{
"event" : "addConfiguration",
"timestamp" : "2021-08-03T11:10:43.713-0500",
"value" : {
"name" : "GroupAliasTreeEditWizBackbone_v75",
"assigned" : "2021-08-03T11:10:43.713-0500"
}
},
{
"event" : "addConfiguration",
"timestamp" : "2021-08-04T12:22:00.118-0500",
"value" : {
"name" : "TableEditWizBackbone_v99",
"assigned" : "2021-08-04T12:22:00.118-0500"
}
},
{
"event" : "addConfiguration",
"timestamp" : "2021-09-02T13:43:36.501-0500",
"value" : {
"name" : "TableEditWizBackbone_v100",
"assigned" : "2021-09-02T13:43:36.501-0500"
}
},
{
"event" : "addConfiguration",
"timestamp" : "2021-09-02T14:03:39.321-0500",
"value" : {
"name" : "GroupAliasTreeEditWizBackbone_v76",
"assigned" : "2021-09-02T14:03:39.320-0500"
}
},
{
"event" : "addConfiguration",
"timestamp" : "2021-09-02T14:08:03.263-0500",
"value" : {
"name" : "GroupAliasTreeEditWizBackbone_v77",
"assigned" : "2021-09-02T14:08:03.262-0500"
}
},
{
"event" : "addConfiguration",
"timestamp" : "2021-09-02T14:38:40.088-0500",
"value" : {
"name" : "GroupAliasTreeEditWizBackbone_v78",
"assigned" : "2021-09-02T14:38:40.088-0500"
}
},
{
"event" : "addConfiguration",
"timestamp" : "2021-09-23T15:47:07.725-0500",
"value" : {
"name" : "TableEditWizBackbone_v101",
"assigned" : "2021-09-23T15:47:07.725-0500"
}
},
{
"event" : "addConfiguration",
"timestamp" : "2021-09-23T15:47:44.673-0500",
"value" : {
"name" : "TableEditWizBackbone_v102",
"assigned" : "2021-09-23T15:47:44.673-0500"
}
},
{
"event" : "addConfiguration",
"timestamp" : "2021-09-24T15:36:54.943-0500",
"value" : {
"name" : "GroupAliasTreeEditWizBackbone_v79",
"assigned" : "2021-09-24T15:36:54.943-0500"
}
},
{
"event" : "addConfiguration",
"timestamp" : "2021-09-24T15:36:56.848-0500",
"value" : {
"name" : "GroupAliasTreeEditWizBackbone_v80",
"assigned" : "2021-09-24T15:36:56.848-0500"
}
},
{
"event" : "addConfiguration",
"timestamp" : "2021-09-24T15:42:29.280-0500",
"value" : {
"name" : "TableEditWizBackbone_v103",
"assigned" : "2021-09-24T15:42:29.280-0500"
}
},
{
"event" : "addConfiguration",
"timestamp" : "2021-09-24T15:44:06.385-0500",
"value" : {
"name" : "TableEditWizBackbone_v104",
"assigned" : "2021-09-24T15:44:06.385-0500"
}
},
{
"event" : "addConfiguration",
"timestamp" : "2021-09-24T15:49:57.077-0500",
"value" : {
"name" : "GroupAliasTreeEditWizBackbone_v81",
"assigned" : "2021-09-24T15:49:57.077-0500"
}
},
{
"event" : "addConfiguration",
"timestamp" : "2021-09-24T15:53:25.648-0500",
"value" : {
"name" : "TableEditWizBackbone_v105",
"assigned" : "2021-09-24T15:53:25.648-0500"
}
},
{
"event" : "addConfiguration",
"timestamp" : "2021-09-24T16:04:24.657-0500",
"value" : {
"name" : "TableEditWizBackbone_v106",
"assigned" : "2021-09-24T16:04:24.657-0500"
}
},
{
"event" : "addConfiguration",
"timestamp" : "2021-09-24T16:22:56.137-0500",
"value" : {
"name" : "TableEditWizBackbone_v107",
"assigned" : "2021-09-24T16:22:56.137-0500"
}
},
{
"event" : "addConfiguration",
"timestamp" : "2021-09-24T16:24:16.295-0500",
"value" : {
"name" : "GroupAliasTreeEditWizBackbone_v82",
"assigned" : "2021-09-24T16:24:16.294-0500"
}
},
{
"event" : "addConfiguration",
"timestamp" : "2021-09-24T16:26:22.094-0500",
"value" : {
"name" : "GroupAliasTreeEditWizBackbone_v83",
"assigned" : "2021-09-24T16:26:22.094-0500"
}
},
{
"event" : "addConfiguration",
"timestamp" : "2021-09-24T16:28:09.505-0500",
"value" : {
"name" : "TableEditWizBackbone_v108",
"assigned" : "2021-09-24T16:28:09.505-0500"
}
},
{
"event" : "addConfiguration",
"timestamp" : "2021-09-24T16:28:31.830-0500",
"value" : {
"name" : "TableEditWizBackbone_v109",
"assigned" : "2021-09-24T16:28:31.830-0500"
}
},
{
"event" : "addConfiguration",
"timestamp" : "2021-09-27T09:02:58.892-0500",
"value" : {
"name" : "TableEditWizBackbone_v110",
"assigned" : "2021-09-27T09:02:58.892-0500"
}
},
{
"event" : "addConfiguration",
"timestamp" : "2021-09-27T09:04:06.867-0500",
"value" : {
"name" : "TableEditWizBackbone_v111",
"assigned" : "2021-09-27T09:04:06.866-0500"
}
},
{
"event" : "addConfiguration",
"timestamp" : "2021-09-27T14:22:27.278-0500",
"value" : {
"name" : "TableEditWizBackbone_v112",
"assigned" : "2021-09-27T14:22:27.277-0500"
}
},
{
"event" : "addConfiguration",
"timestamp" : "2021-09-27T14:23:22.004-0500",
"value" : {
"name" : "TableEditWizBackbone_v113",
"assigned" : "2021-09-27T14:23:22.003-0500"
}
},
{
"event" : "addConfiguration",
"timestamp" : "2021-09-28T09:24:53.224-0500",
"value" : {
"name" : "TableEditWizBackbone_v114",
"assigned" : "2021-09-28T09:24:53.224-0500"
}
},
{
"event" : "addConfiguration",
"timestamp" : "2021-09-28T09:25:13.064-0500",
"value" : {
"name" : "TableEditWizBackbone_v115",
"assigned" : "2021-09-28T09:25:13.064-0500"
}
},
{
"event" : "addConfiguration",
"timestamp" : "2021-09-28T10:23:00.034-0500",
"value" : {
"name" : "GroupAliasTreeEditWizBackbone_v84",
"assigned" : "2021-09-28T10:23:00.034-0500"
}
},
{
"event" : "addConfiguration",
"timestamp" : "2021-09-28T11:22:06.387-0500",
"value" : {
"name" : "GroupAliasTreeEditWizBackbone_v85",
"assigned" : "2021-09-28T11:22:06.386-0500"
}
},
{
"event" : "addConfiguration",
"timestamp" : "2021-09-29T11:49:47.100-0500",
"value" : {
"name" : "GroupAliasTreeEditWizBackbone_v86",
"assigned" : "2021-09-29T11:49:47.100-0500"
}
},
{
"event" : "addConfiguration",
"timestamp" : "2021-09-30T09:14:53.485-0500",
"value" : {
"name" : "GroupAliasTreeEditWizBackbone_v87",
"assigned" : "2021-09-30T09:14:53.485-0500"
}
},
{
"event" : "addConfiguration",
"timestamp" : "2021-10-01T10:56:23.964-0500",
"value" : {
"name" : "TableEditWizBackbone_v116",
"assigned" : "2021-10-01T10:56:23.964-0500"
}
},
{
"event" : "addConfiguration",
"timestamp" : "2021-10-01T10:56:41.853-0500",
"value" : {
"name" : "TableEditWizBackbone_v117",
"assigned" : "2021-10-01T10:56:41.853-0500"
}
},
{
"event" : "addConfiguration",
"timestamp" : "2021-10-01T11:01:43.575-0500",
"value" : {
"name" : "TableEditWizBackbone_v118",
"assigned" : "2021-10-01T11:01:43.575-0500"
}
},
{
"event" : "addConfiguration",
"timestamp" : "2021-10-01T11:03:51.412-0500",
"value" : {
"name" : "TableEditWizBackbone_v119",
"assigned" : "2021-10-01T11:03:51.412-0500"
}
},
{
"event" : "addConfiguration",
"timestamp" : "2021-10-01T13:59:56.336-0500",
"value" : {
"name" : "GroupAliasTreeEditWizBackbone_v88",
"assigned" : "2021-10-01T13:59:56.335-0500"
}
},
{
"event" : "addConfiguration",
"timestamp" : "2021-10-01T14:01:56.912-0500",
"value" : {
"name" : "GroupAliasTreeEditWizBackbone_v89",
"assigned" : "2021-10-01T14:01:56.912-0500"
}
},
{
"event" : "addConfiguration",
"timestamp" : "2021-10-05T17:13:04.112-0500",
"value" : {
"name" : "GroupAliasTreeEditWizBackbone_v90",
"assigned" : "2021-10-05T17:13:04.112-0500"
}
},
{
"event" : "addConfiguration",
"timestamp" : "2021-10-06T10:02:34.019-0500",
"value" : {
"name" : "TableEditWizBackbone_v120",
"assigned" : "2021-10-06T10:02:34.019-0500"
}
},
{
"event" : "addConfiguration",
"timestamp" : "2021-10-06T10:02:51.939-0500",
"value" : {
"name" : "TableEditWizBackbone_v121",
"assigned" : "2021-10-06T10:02:51.938-0500"
}
},
{
"event" : "addConfiguration",
"timestamp" : "2021-10-07T16:32:43.028-0500",
"value" : {
"name" : "TableEditWizBackbone_v122",
"assigned" : "2021-10-07T16:32:43.028-0500"
}
},
{
"event" : "addConfiguration",
"timestamp" : "2021-10-07T16:33:04.766-0500",
"value" : {
"name" : "TableEditWizBackbone_v123",
"assigned" : "2021-10-07T16:33:04.766-0500"
}
},
{
"event" : "addConfiguration",
"timestamp" : "2021-10-08T14:03:17.938-0500",
"value" : {
"name" : "TableEditWizBackbone_v124",
"assigned" : "2021-10-08T14:03:17.937-0500"
}
},
{
"event" : "addConfiguration",
"timestamp" : "2021-10-11T16:00:59.052-0500",
"value" : {
"name" : "TableEditWizBackbone_v125",
"assigned" : "2021-10-11T16:00:59.052-0500"
}
},
{
"event" : "addConfiguration",
"timestamp" : "2021-10-11T17:57:26.597-0500",
"value" : {
"name" : "TableEditWizBackbone_v126",
"assigned" : "2021-10-11T17:57:26.597-0500"
}
},
{
"event" : "addConfiguration",
"timestamp" : "2021-10-12T09:07:20.247-0500",
"value" : {
"name" : "TableEditWizBackbone_v127",
"assigned" : "2021-10-12T09:07:20.247-0500"
}
},
{
"event" : "addConfiguration",
"timestamp" : "2021-10-12T09:07:35.020-0500",
"value" : {
"name" : "TableEditWizBackbone_v128",
"assigned" : "2021-10-12T09:07:35.020-0500"
}
},
{
"event" : "addConfiguration",
"timestamp" : "2021-10-12T11:11:25.903-0500",
"value" : {
"name" : "TableEditWizBackbone_v129",
"assigned" : "2021-10-12T11:11:25.902-0500"
}
},
{
"event" : "addConfiguration",
"timestamp" : "2021-10-12T11:11:48.130-0500",
"value" : {
"name" : "TableEditWizBackbone_v130",
"assigned" : "2021-10-12T11:11:48.130-0500"
}
},
{
"event" : "addConfiguration",
"timestamp" : "2021-10-12T13:46:55.928-0500",
"value" : {
"name" : "TableEditWizBackbone_v131",
"assigned" : "2021-10-12T13:46:55.928-0500"
}
},
{
"event" : "addConfiguration",
"timestamp" : "2021-10-12T14:33:53.783-0500",
"value" : {
"name" : "TableEditWizBackbone_v132",
"assigned" : "2021-10-12T14:33:53.783-0500"
}
},
{
"event" : "addConfiguration",
"timestamp" : "2021-10-14T17:03:19.399-0500",
"value" : {
"name" : "TableEditWizBackbone_v133",
"assigned" : "2021-10-14T17:03:19.399-0500"
}
},
{
"event" : "addConfiguration",
"timestamp" : "2021-10-14T17:03:40.067-0500",
"value" : {
"name" : "TableEditWizBackbone_v134",
"assigned" : "2021-10-14T17:03:40.067-0500"
}
},
{
"event" : "addConfiguration",
"timestamp" : "2021-10-15T10:48:33.975-0500",
"value" : {
"name" : "TableEditWizBackbone_v135",
"assigned" : "2021-10-15T10:48:33.975-0500"
}
},
{
"event" : "addConfiguration",
"timestamp" : "2021-10-15T10:48:46.979-0500",
"value" : {
"name" : "TableEditWizBackbone_v136",
"assigned" : "2021-10-15T10:48:46.978-0500"
}
},
{
"event" : "addConfiguration",
"timestamp" : "2021-10-15T15:50:52.104-0500",
"value" : {
"name" : "TableEditWizBackbone_v137",
"assigned" : "2021-10-15T15:50:52.103-0500"
}
},
{
"event" : "addConfiguration",
"timestamp" : "2021-10-15T15:51:07.299-0500",
"value" : {
"name" : "TableEditWizBackbone_v138",
"assigned" : "2021-10-15T15:51:07.299-0500"
}
},
{
"event" : "addConfiguration",
"timestamp" : "2021-11-03T16:30:22.882-0500",
"value" : {
"name" : "TableEditWizBackbone_v139",
"assigned" : "2021-11-03T16:30:22.882-0500"
}
},
{
"event" : "addConfiguration",
"timestamp" : "2021-11-03T16:31:02.559-0500",
"value" : {
"name" : "TableEditWizBackbone_v140",
"assigned" : "2021-11-03T16:31:02.559-0500"
}
},
{
"event" : "addConfiguration",
"timestamp" : "2021-11-10T08:36:02.890-0600",
"value" : {
"name" : "TableEditWizBackbone_v141",
"assigned" : "2021-11-10T08:36:02.890-0600"
}
},
{
"event" : "addConfiguration",
"timestamp" : "2021-11-10T15:06:50.299-0600",
"value" : {
"name" : "TableEditWizBackbone_v142",
"assigned" : "2021-11-10T15:06:50.299-0600"
}
},
{
"event" : "addConfiguration",
"timestamp" : "2021-11-10T15:08:33.779-0600",
"value" : {
"name" : "TableEditWizBackbone_v143",
"assigned" : "2021-11-10T15:08:33.779-0600"
}
},
{
"event" : "addConfiguration",
"timestamp" : "2021-11-10T15:11:07.988-0600",
"value" : {
"name" : "GroupAliasTreeEditWizBackbone_v91",
"assigned" : "2021-11-10T15:11:07.988-0600"
}
},
{
"event" : "addConfiguration",
"timestamp" : "2021-11-10T15:11:10.183-0600",
"value" : {
"name" : "GroupAliasTreeEditWizBackbone_v92",
"assigned" : "2021-11-10T15:11:10.183-0600"
}
},
{
"event" : "addConfiguration",
"timestamp" : "2021-11-10T16:33:25.005-0600",
"value" : {
"name" : "GroupAliasTreeEditWizBackbone_v93",
"assigned" : "2021-11-10T16:33:25.005-0600"
}
},
{
"event" : "addConfiguration",
"timestamp" : "2022-04-18T12:56:06.218-0400",
"value" : {
"name" : "GroupAliasWizBackbone_v0",
"assigned" : "2022-04-18T12:56:06.218-0400"
}
},
{
"event" : "addConfiguration",
"timestamp" : "2022-04-19T14:35:58.703-0400",
"value" : {
"name" : "GroupAliasWizBackbone_v1",
"assigned" : "2022-04-19T14:35:58.703-0400"
}
},
{
"event" : "addConfiguration",
"timestamp" : "2022-04-19T15:00:29.031-0400",
"value" : {
"name" : "GroupAliasWizBackbone_v2",
"assigned" : "2022-04-19T15:00:29.031-0400"
}
},
{
"event" : "addConfiguration",
"timestamp" : "2022-04-20T10:06:08.567-0400",
"value" : {
"name" : "GroupAliasTreeEditWizBackbone_v94",
"assigned" : "2022-04-20T10:06:08.567-0400"
}
},
{
"event" : "addConfiguration",
"timestamp" : "2022-04-20T10:06:55.171-0400",
"value" : {
"name" : "GroupAliasTreeEditWizBackbone_v95",
"assigned" : "2022-04-20T10:06:55.171-0400"
}
},
{
"event" : "addConfiguration",
"timestamp" : "2022-04-20T11:23:55.399-0400",
"value" : {
"name" : "GroupAliasTreeEditWizBackbone_v96",
"assigned" : "2022-04-20T11:23:55.399-0400"
}
},
{
"event" : "addConfiguration",
"timestamp" : "2022-04-20T14:28:45.630-0500",
"value" : {
"name" : "GroupAliasTreeEditWizBackbone_v97",
"assigned" : "2022-04-20T14:28:45.629-0500"
}
},
{
"event" : "addConfiguration",
"timestamp" : "2022-04-20T14:28:47.942-0500",
"value" : {
"name" : "GroupAliasTreeEditWizBackbone_v98",
"assigned" : "2022-04-20T14:28:47.942-0500"
}
},
{
"event" : "addConfiguration",
"timestamp" : "2022-05-26T16:34:05.775-0500",
"value" : {
"name" : "GroupAliasTreeEditWizBackbone_v99",
"assigned" : "2022-05-26T16:34:05.775-0500"
}
},
{
"event" : "addConfiguration",
"timestamp" : "2022-05-26T16:34:08.067-0500",
"value" : {
"name" : "GroupAliasTreeEditWizBackbone_v100",
"assigned" : "2022-05-26T16:34:08.067-0500"
}
},
{
"event" : "addConfiguration",
"timestamp" : "2022-06-03T14:30:18.597-0500",
"value" : {
"name" : "GroupAliasWizBackbone_v3",
"assigned" : "2022-06-03T14:30:18.597-0500"
}
},
{
"event" : "addConfiguration",
"timestamp" : "2022-06-03T14:34:11.639-0500",
"value" : {
"name" : "GroupAliasWizBackbone_v4",
"assigned" : "2022-06-03T14:34:11.639-0500"
}
},
{
"event" : "addConfiguration",
"timestamp" : "2022-06-07T15:00:01.989-0500",
"value" : {
"name" : "GroupAliasWizBackbone_v5",
"assigned" : "2022-06-07T15:00:01.989-0500"
}
},
{
"event" : "addConfiguration",
"timestamp" : "2022-06-07T15:05:56.221-0500",
"value" : {
"name" : "GroupAliasWizBackbone_v6",
"assigned" : "2022-06-07T15:05:56.221-0500"
}
},
{
"event" : "addConfiguration",
"timestamp" : "2022-06-07T16:09:20.240-0500",
"value" : {
"name" : "GroupAliasWizBackbone_v7",
"assigned" : "2022-06-07T16:09:20.239-0500"
}
},
{
"event" : "addConfiguration",
"timestamp" : "2022-06-10T10:17:29.208-0500",
"value" : {
"name" : "GroupAliasTreeEditWizBackbone_v101",
"assigned" : "2022-06-10T10:17:29.207-0500"
}
},
{
"event" : "addConfiguration",
"timestamp" : "2022-06-10T10:18:25.550-0500",
"value" : {
"name" : "GroupAliasTreeEditWizBackbone_v102",
"assigned" : "2022-06-10T10:18:25.550-0500"
}
},
{
"event" : "addConfiguration",
"timestamp" : "2022-06-10T10:27:18.537-0500",
"value" : {
"name" : "GroupAliasWizBackbone_v8",
"assigned" : "2022-06-10T10:27:18.537-0500"
}
},
{
"event" : "addConfiguration",
"timestamp" : "2022-06-13T14:13:03.770-0500",
"value" : {
"name" : "GroupAliasWizBackbone_v9",
"assigned" : "2022-06-13T14:13:03.770-0500"
}
},
{
"event" : "addConfiguration",
"timestamp" : "2022-06-13T15:22:21.270-0500",
"value" : {
"name" : "GroupAliasWizBackbone_v10",
"assigned" : "2022-06-13T15:22:21.270-0500"
}
},
{
"event" : "addConfiguration",
"timestamp" : "2022-06-21T15:37:17.403-0500",
"value" : {
"name" : "GroupAliasWizBackbone_v11",
"assigned" : "2022-06-21T15:37:17.403-0500"
}
},
{
"event" : "addConfiguration",
"timestamp" : "2022-06-21T15:39:40.010-0500",
"value" : {
"name" : "GroupAliasWizBackbone_v12",
"assigned" : "2022-06-21T15:39:40.010-0500"
}
},
{
"event" : "addConfiguration",
"timestamp" : "2022-06-30T12:02:34.701-0500",
"value" : {
"name" : "GroupAliasWizBackbone_v13",
"assigned" : "2022-06-30T12:02:34.701-0500"
}
},
{
"event" : "addConfiguration",
"timestamp" : "2023-01-19T10:05:04.544-0600",
"value" : {
"name" : "GroupAliasTreeEditWizBackbone_v103",
"assigned" : "2023-01-19T10:05:04.544-0600"
}
},
{
"event" : "addConfiguration",
"timestamp" : "2023-01-19T10:05:45.964-0600",
"value" : {
"name" : "GroupAliasTreeEditWizBackbone_v104",
"assigned" : "2023-01-19T10:05:45.964-0600"
}
},
{
"event" : "addConfiguration",
"timestamp" : "2023-01-19T10:08:22.718-0600",
"value" : {
"name" : "GroupAliasWizBackbone_v14",
"assigned" : "2023-01-19T10:08:22.718-0600"
}
},
{
"event" : "addConfiguration",
"timestamp" : "2023-01-19T11:02:51.217-0600",
"value" : {
"name" : "GroupAliasTreeEditWizBackbone_v105",
"assigned" : "2023-01-19T11:02:51.216-0600"
}
},
{
"event" : "addConfiguration",
"timestamp" : "2023-01-19T11:02:53.708-0600",
"value" : {
"name" : "GroupAliasTreeEditWizBackbone_v106",
"assigned" : "2023-01-19T11:02:53.708-0600"
}
},
{
"event" : "addConfiguration",
"timestamp" : "2023-01-19T12:09:21.072-0600",
"value" : {
"name" : "GroupAliasTreeEditWizBackbone_v107",
"assigned" : "2023-01-19T12:09:21.071-0600"
}
},
{
"event" : "addConfiguration",
"timestamp" : "2023-01-20T11:51:34.191-0600",
"value" : {
"name" : "GroupAliasTreeEditWizBackbone_v108",
"assigned" : "2023-01-20T11:51:34.191-0600"
}
},
{
"event" : "addConfiguration",
"timestamp" : "2023-01-23T15:12:00.819-0600",
"value" : {
"name" : "GroupAliasWizBackbone_v15",
"assigned" : "2023-01-23T15:12:00.819-0600"
}
},
{
"event" : "addConfiguration",
"timestamp" : "2023-01-30T11:15:49.061-0600",
"value" : {
"name" : "GroupAliasSaveWizBackbone_v0",
"assigned" : "2023-01-30T11:15:49.061-0600"
}
},
{
"event" : "addConfiguration",
"timestamp" : "2023-01-30T13:43:43.570-0600",
"value" : {
"name" : "GroupAliasWizBackbone_v16",
"assigned" : "2023-01-30T13:43:43.570-0600"
}
},
{
"event" : "addConfiguration",
"timestamp" : "2023-02-13T14:11:48.659-0600",
"value" : {
"name" : "GroupAliasWizBackbone_v17",
"assigned" : "2023-02-13T14:11:48.658-0600"
}
},
{
"event" : "addConfiguration",
"timestamp" : "2023-02-13T14:13:03.207-0600",
"value" : {
"name" : "GroupAliasWizBackbone_v18",
"assigned" : "2023-02-13T14:13:03.207-0600"
}
},
{
"event" : "addConfiguration",
"timestamp" : "2023-02-13T14:21:02.447-0600",
"value" : {
"name" : "GroupAliasWizBackbone_v19",
"assigned" : "2023-02-13T14:21:02.447-0600"
}
},
{
"event" : "addConfiguration",
"timestamp" : "2023-02-13T14:33:46.508-0600",
"value" : {
"name" : "GroupAliasWizBackbone_v20",
"assigned" : "2023-02-13T14:33:46.508-0600"
}
},
{
"event" : "addConfiguration",
"timestamp" : "2023-02-13T14:58:17.509-0600",
"value" : {
"name" : "GroupAliasWizBackbone_v21",
"assigned" : "2023-02-13T14:58:17.509-0600"
}
},
{
"event" : "addConfiguration",
"timestamp" : "2023-02-16T12:29:05.208-0600",
"value" : {
"name" : "GroupAliasWizBackbone_v22",
"assigned" : "2023-02-16T12:29:05.207-0600"
}
},
{
"event" : "addConfiguration",
"timestamp" : "2023-02-16T14:03:04.027-0600",
"value" : {
"name" : "GroupAliasWizBackbone_v23",
"assigned" : "2023-02-16T14:03:04.027-0600"
}
},
{
"event" : "addConfiguration",
"timestamp" : "2023-02-16T14:04:42.713-0600",
"value" : {
"name" : "GroupAliasWizBackbone_v24",
"assigned" : "2023-02-16T14:04:42.713-0600"
}
},
{
"event" : "addConfiguration",
"timestamp" : "2023-02-16T14:42:29.913-0600",
"value" : {
"name" : "GroupAliasWizBackbone_v25",
"assigned" : "2023-02-16T14:42:29.913-0600"
}
},
{
"event" : "addConfiguration",
"timestamp" : "2023-02-16T14:49:49.937-0600",
"value" : {
"name" : "GroupAliasWizBackbone_v26",
"assigned" : "2023-02-16T14:49:49.937-0600"
}
},
{
"event" : "addConfiguration",
"timestamp" : "2023-02-16T14:53:14.660-0600",
"value" : {
"name" : "GroupAliasWizBackbone_v27",
"assigned" : "2023-02-16T14:53:14.660-0600"
}
},
{
"event" : "addConfiguration",
"timestamp" : "2023-02-16T14:55:46.456-0600",
"value" : {
"name" : "GroupAliasWizBackbone_v28",
"assigned" : "2023-02-16T14:55:46.456-0600"
}
},
{
"event" : "addConfiguration",
"timestamp" : "2023-02-17T08:58:45.584-0600",
"value" : {
"name" : "GroupAliasTreeEditWizBackbone_v109",
"assigned" : "2023-02-17T08:58:45.584-0600"
}
},
{
"event" : "addConfiguration",
"timestamp" : "2023-02-17T09:04:57.267-0600",
"value" : {
"name" : "GroupAliasTreeEditWizBackbone_v110",
"assigned" : "2023-02-17T09:04:57.267-0600"
}
},
{
"event" : "addConfiguration",
"timestamp" : "2023-02-17T09:06:44.305-0600",
"value" : {
"name" : "GroupAliasWizBackbone_v29",
"assigned" : "2023-02-17T09:06:44.305-0600"
}
},
{
"event" : "addConfiguration",
"timestamp" : "2023-02-17T09:07:51.284-0600",
"value" : {
"name" : "GroupAliasTreeEditWizBackbone_v111",
"assigned" : "2023-02-17T09:07:51.284-0600"
}
},
{
"event" : "addConfiguration",
"timestamp" : "2023-02-23T08:41:53.225-0600",
"value" : {
"name" : "GroupAliasTreeEditWizBackbone_v112",
"assigned" : "2023-02-23T08:41:53.225-0600"
}
},
{
"event" : "addConfiguration",
"timestamp" : "2023-02-28T13:19:27.090-0600",
"value" : {
"name" : "GroupAliasTreeEditWizBackbone_v113",
"assigned" : "2023-02-28T13:19:27.090-0600"
}
},
{
"event" : "addConfiguration",
"timestamp" : "2023-02-28T13:20:48.015-0600",
"value" : {
"name" : "GroupAliasTreeEditWizBackbone_v114",
"assigned" : "2023-02-28T13:20:48.014-0600"
}
},
{
"event" : "addConfiguration",
"timestamp" : "2023-03-01T10:10:40.251-0600",
"value" : {
"name" : "GroupAliasTreeEditWizBackbone_v115",
"assigned" : "2023-03-01T10:10:40.251-0600"
}
},
{
"event" : "addConfiguration",
"timestamp" : "2023-03-01T10:10:42.927-0600",
"value" : {
"name" : "GroupAliasTreeEditWizBackbone_v116",
"assigned" : "2023-03-01T10:10:42.926-0600"
}
},
{
"event" : "addConfiguration",
"timestamp" : "2023-03-10T16:56:43.353+0100",
"value" : {
"name" : "GroupAliasTreeEditWizBackbone_v117",
"assigned" : "2023-03-10T16:56:43.353+0100"
}
},
{
"event" : "addConfiguration",
"timestamp" : "2023-03-10T16:58:27.213+0100",
"value" : {
"name" : "GroupAliasTreeEditWizBackbone_v118",
"assigned" : "2023-03-10T16:58:27.213+0100"
}
}
],
"created" : "2018-09-06T17:34:15.894-0500"
},
"_id" : {
"$oid" : "be7f3b320dae49f2862205a5"
},
"collection" : "VersionAliasesTable",
"aliases" : {
"active" : [

],
"history" : [

]
},
"runs" : [

],
"attachments" : [

],
"configtype" : "notprovided",
"configurations" : [
{
"name" : "GroupAliasTreeEditWizBackbone_v5",
"assigned" : "2019-07-17T14:42:57.324-0500"
},
{
"name" : "TableEditWizBackbone_v26",
"assigned" : "2019-07-19T15:24:17.039-0500"
},
{
"name" : "GroupAliasTreeEditWizBackbone_v6",
"assigned" : "2019-07-19T15:25:11.793-0500"
},
{
"name" : "TableEditWizBackbone_v27",
"assigned" : "2019-07-24T14:34:11.553-0500"
},
{
"name" : "TableEditWizBackbone_v28",
"assigned" : "2019-07-24T14:47:24.810-0500"
},
{
"name" : "GroupAliasTreeEditWizBackbone_v7",
"assigned" : "2019-07-24T14:48:42.584-0500"
},
{
"name" : "GroupAliasTreeEditWizBackbone_v8",
"assigned" : "2019-07-24T14:48:43.436-0500"
},
{
"name" : "TableEditWizBackbone_v29",
"assigned" : "2019-10-22T14:55:22.546-0500"
},
{
"name" : "TableEditWizBackbone_v30",
"assigned" : "2020-06-29T11:00:06.308-0500"
},
{
"name" : "GroupAliasTreeEditWizBackbone_v9",
"assigned" : "2020-06-29T11:05:40.929-0500"
},
{
"name" : "TableEditWizBackbone_v31",
"assigned" : "2020-06-29T11:28:22.748-0500"
},
{
"name" : "GroupAliasTreeEditWizBackbone_v10",
"assigned" : "2020-07-24T10:58:18.968-0500"
},
{
"name" : "GroupAliasTreeEditWizBackbone_v11",
"assigned" : "2020-07-24T11:00:08.624-0500"
},
{
"name" : "TableEditWizBackbone_v32",
"assigned" : "2020-07-24T11:56:07.509-0500"
},
{
"name" : "TableEditWizBackbone_v33",
"assigned" : "2020-07-24T12:12:10.386-0500"
},
{
"name" : "TableEditWizBackbone_v34",
"assigned" : "2020-07-24T12:16:36.914-0500"
},
{
"name" : "TableEditWizBackbone_v35",
"assigned" : "2020-07-29T15:59:42.145-0500"
},
{
"name" : "GroupAliasTreeEditWizBackbone_v12",
"assigned" : "2020-07-29T16:01:23.668-0500"
},
{
"name" : "GroupAliasTreeEditWizBackbone_v13",
"assigned" : "2020-07-29T16:34:44.044-0500"
},
{
"name" : "TableEditWizBackbone_v36",
"assigned" : "2020-07-29T16:39:54.918-0500"
},
{
"name" : "TableEditWizBackbone_v37",
"assigned" : "2020-07-29T16:40:45.543-0500"
},
{
"name" : "TableEditWizBackbone_v38",
"assigned" : "2020-07-29T16:45:02.953-0500"
},
{
"name" : "GroupAliasTreeEditWizBackbone_v14",
"assigned" : "2020-07-29T16:49:17.607-0500"
},
{
"name" : "GroupAliasTreeEditWizBackbone_v15",
"assigned" : "2020-07-30T11:42:29.579-0500"
},
{
"name" : "GroupAliasTreeEditWizBackbone_v16",
"assigned" : "2020-07-30T11:42:30.726-0500"
},
{
"name" : "GroupAliasTreeEditWizBackbone_v17",
"assigned" : "2020-07-30T11:54:27.074-0500"
},
{
"name" : "GroupAliasTreeEditWizBackbone_v18",
"assigned" : "2020-07-30T12:05:14.179-0500"
},
{
"name" : "GroupAliasTreeEditWizBackbone_v19",
"assigned" : "2020-07-31T09:38:02.021-0500"
},
{
"name" : "TableEditWizBackbone_v39",
"assigned" : "2020-09-02T11:30:05.714-0500"
},
{
"name" : "TableEditWizBackbone_v40",
"assigned" : "2020-09-02T11:31:33.587-0500"
},
{
"name" : "TableEditWizBackbone_v41",
"assigned" : "2020-09-02T15:08:52.700-0500"
},
{
"name" : "TableEditWizBackbone_v42",
"assigned" : "2020-09-02T15:22:10.902-0500"
},
{
"name" : "TableEditWizBackbone_v43",
"assigned" : "2020-09-02T16:01:07.298-0500"
},
{
"name" : "GroupAliasTreeEditWizBackbone_v20",
"assigned" : "2020-09-02T16:05:20.874-0500"
},
{
"name" : "TableEditWizBackbone_v44",
"assigned" : "2020-10-05T17:04:59.681-0500"
},
{
"name" : "TableEditWizBackbone_v45",
"assigned" : "2020-10-05T17:05:57.001-0500"
},
{
"name" : "TableEditWizBackbone_v46",
"assigned" : "2020-10-05T17:07:08.197-0500"
},
{
"name" : "TableEditWizBackbone_v47",
"assigned" : "2020-10-05T17:09:50.053-0500"
},
{
"name" : "TableEditWizBackbone_v48",
"assigned" : "2020-10-05T17:11:03.885-0500"
},
{
"name" : "TableEditWizBackbone_v49",
"assigned" : "2020-10-05T17:39:05.594-0500"
},
{
"name" : "TableEditWizBackbone_v50",
"assigned" : "2020-10-05T17:43:07.864-0500"
},
{
"name" : "TableEditWizBackbone_v51",
"assigned" : "2020-10-05T17:43:28.642-0500"
},
{
"name" : "TableEditWizBackbone_v52",
"assigned" : "2020-10-05T17:51:31.673-0500"
},
{
"name" : "TableEditWizBackbone_v53",
"assigned" : "2020-10-09T11:58:11.810-0500"
},
{
"name" : "GroupAliasTreeEditWizBackbone_v21",
"assigned" : "2020-10-09T12:53:55.616-0500"
},
{
"name" : "TableEditWizBackbone_v54",
"assigned" : "2020-10-09T12:57:08.298-0500"
},
{
"name" : "TableEditWizBackbone_v55",
"assigned" : "2020-10-09T13:00:59.594-0500"
},
{
"name" : "TableEditWizBackbone_v56",
"assigned" : "2020-10-09T14:43:41.818-0500"
},
{
"name" : "GroupAliasTreeEditWizBackbone_v22",
"assigned" : "2020-10-09T15:30:50.090-0500"
},
{
"name" : "GroupAliasTreeEditWizBackbone_v23",
"assigned" : "2020-10-09T15:30:51.459-0500"
},
{
"name" : "GroupAliasTreeEditWizBackbone_v24",
"assigned" : "2020-10-09T15:32:25.740-0500"
},
{
"name" : "TableEditWizBackbone_v57",
"assigned" : "2020-10-09T15:33:00.081-0500"
},
{
"name" : "GroupAliasTreeEditWizBackbone_v25",
"assigned" : "2020-10-09T16:47:20.727-0500"
},
{
"name" : "GroupAliasTreeEditWizBackbone_v26",
"assigned" : "2020-10-12T09:37:51.757-0500"
},
{
"name" : "GroupAliasTreeEditWizBackbone_v27",
"assigned" : "2020-10-12T09:41:41.291-0500"
},
{
"name" : "TableEditWizBackbone_v58",
"assigned" : "2020-10-12T10:14:45.517-0500"
},
{
"name" : "GroupAliasTreeEditWizBackbone_v28",
"assigned" : "2020-10-12T10:19:11.612-0500"
},
{
"name" : "TableEditWizBackbone_v59",
"assigned" : "2020-10-12T15:33:11.205-0500"
},
{
"name" : "GroupAliasTreeEditWizBackbone_v29",
"assigned" : "2020-10-19T16:12:59.009-0500"
},
{
"name" : "GroupAliasTreeEditWizBackbone_v30",
"assigned" : "2020-10-19T16:16:04.414-0500"
},
{
"name" : "TableEditWizBackbone_v60",
"assigned" : "2020-10-23T11:00:22.090-0500"
},
{
"name" : "TableEditWizBackbone_v61",
"assigned" : "2020-10-26T10:39:59.510-0500"
},
{
"name" : "TableEditWizBackbone_v62",
"assigned" : "2020-10-26T11:51:23.208-0500"
},
{
"name" : "TableEditWizBackbone_v63",
"assigned" : "2020-10-26T11:51:44.829-0500"
},
{
"name" : "TableEditWizBackbone_v64",
"assigned" : "2020-10-26T11:56:44.354-0500"
},
{
"name" : "GroupAliasTreeEditWizBackbone_v31",
"assigned" : "2020-10-26T13:16:59.469-0500"
},
{
"name" : "TableEditWizBackbone_v65",
"assigned" : "2020-10-26T14:34:36.254-0500"
},
{
"name" : "GroupAliasTreeEditWizBackbone_v32",
"assigned" : "2020-10-26T14:53:04.514-0500"
},
{
"name" : "GroupAliasTreeEditWizBackbone_v33",
"assigned" : "2020-10-26T14:53:05.859-0500"
},
{
"name" : "TableEditWizBackbone_v66",
"assigned" : "2020-10-26T15:02:48.440-0500"
},
{
"name" : "GroupAliasTreeEditWizBackbone_v34",
"assigned" : "2020-10-26T15:37:56.160-0500"
},
{
"name" : "GroupAliasTreeEditWizBackbone_v35",
"assigned" : "2020-10-27T17:42:12.482-0500"
},
{
"name" : "GroupAliasTreeEditWizBackbone_v36",
"assigned" : "2020-10-29T11:39:19.443-0500"
},
{
"name" : "TableEditWizBackbone_v67",
"assigned" : "2020-10-29T11:52:34.583-0500"
},
{
"name" : "GroupAliasTreeEditWizBackbone_v37",
"assigned" : "2020-10-29T11:54:30.039-0500"
},
{
"name" : "GroupAliasTreeEditWizBackbone_v38",
"assigned" : "2020-10-29T11:54:31.392-0500"
},
{
"name" : "GroupAliasTreeEditWizBackbone_v39",
"assigned" : "2020-10-29T11:54:57.951-0500"
},
{
"name" : "TableEditWizBackbone_v68",
"assigned" : "2020-10-29T13:30:26.267-0500"
},
{
"name" : "TableEditWizBackbone_v69",
"assigned" : "2020-10-29T13:33:32.847-0500"
},
{
"name" : "TableEditWizBackbone_v70",
"assigned" : "2020-10-29T13:45:57.609-0500"
},
{
"name" : "TableEditWizBackbone_v71",
"assigned" : "2020-10-29T13:46:40.004-0500"
},
{
"name" : "TableEditWizBackbone_v72",
"assigned" : "2020-10-29T13:48:04.672-0500"
},
{
"name" : "GroupAliasTreeEditWizBackbone_v40",
"assigned" : "2020-10-29T14:39:30.706-0500"
},
{
"name" : "GroupAliasTreeEditWizBackbone_v41",
"assigned" : "2020-11-16T17:04:45.022-0600"
},
{
"name" : "TableEditWizBackbone_v73",
"assigned" : "2020-11-16T17:07:51.368-0600"
},
{
"name" : "TableEditWizBackbone_v74",
"assigned" : "2020-11-16T17:10:05.568-0600"
},
{
"name" : "TableEditWizBackbone_v75",
"assigned" : "2021-06-30T16:17:53.765-0500"
},
{
"name" : "TableEditWizBackbone_v76",
"assigned" : "2021-06-30T16:23:50.493-0500"
},
{
"name" : "TableEditWizBackbone_v77",
"assigned" : "2021-07-07T14:45:54.078-0500"
},
{
"name" : "GroupAliasTreeEditWizBackbone_v42",
"assigned" : "2021-07-07T16:02:06.216-0500"
},
{
"name" : "GroupAliasTreeEditWizBackbone_v43",
"assigned" : "2021-07-07T16:05:39.608-0500"
},
{
"name" : "GroupAliasTreeEditWizBackbone_v44",
"assigned" : "2021-07-08T14:00:22.092-0500"
},
{
"name" : "GroupAliasTreeEditWizBackbone_v45",
"assigned" : "2021-07-08T14:06:15.833-0500"
},
{
"name" : "GroupAliasTreeEditWizBackbone_v46",
"assigned" : "2021-07-08T14:12:40.908-0500"
},
{
"name" : "GroupAliasTreeEditWizBackbone_v47",
"assigned" : "2021-07-08T14:17:01.851-0500"
},
{
"name" : "GroupAliasTreeEditWizBackbone_v48",
"assigned" : "2021-07-08T14:17:03.279-0500"
},
{
"name" : "GroupAliasTreeEditWizBackbone_v49",
"assigned" : "2021-07-08T16:20:46.888-0500"
},
{
"name" : "GroupAliasTreeEditWizBackbone_v50",
"assigned" : "2021-07-08T16:21:58.041-0500"
},
{
"name" : "GroupAliasTreeEditWizBackbone_v51",
"assigned" : "2021-07-08T16:24:41.232-0500"
},
{
"name" : "TableEditWizBackbone_v78",
"assigned" : "2021-07-09T11:47:15.917-0500"
},
{
"name" : "GroupAliasTreeEditWizBackbone_v52",
"assigned" : "2021-07-09T11:48:48.073-0500"
},
{
"name" : "TableEditWizBackbone_v79",
"assigned" : "2021-07-09T16:06:02.590-0500"
},
{
"name" : "TableEditWizBackbone_v80",
"assigned" : "2021-07-12T11:04:57.424-0500"
},
{
"name" : "TableEditWizBackbone_v81",
"assigned" : "2021-07-13T12:01:33.708-0500"
},
{
"name" : "GroupAliasTreeEditWizBackbone_v53",
"assigned" : "2021-07-13T12:22:09.124-0500"
},
{
"name" : "GroupAliasTreeEditWizBackbone_v54",
"assigned" : "2021-07-13T12:22:10.924-0500"
},
{
"name" : "GroupAliasTreeEditWizBackbone_v55",
"assigned" : "2021-07-14T13:02:16.126-0500"
},
{
"name" : "GroupAliasTreeEditWizBackbone_v56",
"assigned" : "2021-07-14T13:03:03.252-0500"
},
{
"name" : "GroupAliasTreeEditWizBackbone_v57",
"assigned" : "2021-07-14T13:03:04.978-0500"
},
{
"name" : "GroupAliasTreeEditWizBackbone_v58",
"assigned" : "2021-07-14T13:06:00.560-0500"
},
{
"name" : "GroupAliasTreeEditWizBackbone_v59",
"assigned" : "2021-07-14T14:21:03.453-0500"
},
{
"name" : "GroupAliasTreeEditWizBackbone_v60",
"assigned" : "2021-07-14T14:21:05.107-0500"
},
{
"name" : "GroupAliasTreeEditWizBackbone_v61",
"assigned" : "2021-07-14T14:26:06.901-0500"
},
{
"name" : "GroupAliasTreeEditWizBackbone_v62",
"assigned" : "2021-07-14T14:39:33.744-0500"
},
{
"name" : "GroupAliasTreeEditWizBackbone_v63",
"assigned" : "2021-07-14T14:47:00.362-0500"
},
{
"name" : "GroupAliasTreeEditWizBackbone_v64",
"assigned" : "2021-07-14T14:47:02.068-0500"
},
{
"name" : "GroupAliasTreeEditWizBackbone_v65",
"assigned" : "2021-07-14T14:51:08.252-0500"
},
{
"name" : "TableEditWizBackbone_v82",
"assigned" : "2021-07-14T15:24:35.899-0500"
},
{
"name" : "TableEditWizBackbone_v83",
"assigned" : "2021-07-14T16:05:31.677-0500"
},
{
"name" : "TableEditWizBackbone_v84",
"assigned" : "2021-07-14T16:15:43.362-0500"
},
{
"name" : "GroupAliasTreeEditWizBackbone_v66",
"assigned" : "2021-07-14T16:17:44.148-0500"
},
{
"name" : "GroupAliasTreeEditWizBackbone_v67",
"assigned" : "2021-07-14T16:17:45.824-0500"
},
{
"name" : "TableEditWizBackbone_v85",
"assigned" : "2021-07-15T11:50:36.009-0500"
},
{
"name" : "GroupAliasTreeEditWizBackbone_v68",
"assigned" : "2021-07-20T13:45:56.003-0500"
},
{
"name" : "TableEditWizBackbone_v86",
"assigned" : "2021-07-20T16:41:44.505-0500"
},
{
"name" : "GroupAliasTreeEditWizBackbone_v69",
"assigned" : "2021-07-20T16:50:38.639-0500"
},
{
"name" : "TableEditWizBackbone_v87",
"assigned" : "2021-07-20T17:09:29.104-0500"
},
{
"name" : "GroupAliasTreeEditWizBackbone_v70",
"assigned" : "2021-07-20T17:28:42.402-0500"
},
{
"name" : "TableEditWizBackbone_v88",
"assigned" : "2021-07-20T17:46:29.734-0500"
},
{
"name" : "TableEditWizBackbone_v89",
"assigned" : "2021-07-21T11:50:04.045-0500"
},
{
"name" : "GroupAliasTreeEditWizBackbone_v71",
"assigned" : "2021-07-21T11:58:41.265-0500"
},
{
"name" : "GroupAliasTreeEditWizBackbone_v72",
"assigned" : "2021-07-21T11:58:43.026-0500"
},
{
"name" : "TableEditWizBackbone_v90",
"assigned" : "2021-07-21T11:59:35.632-0500"
},
{
"name" : "TableEditWizBackbone_v91",
"assigned" : "2021-07-21T12:08:24.594-0500"
},
{
"name" : "GroupAliasTreeEditWizBackbone_v73",
"assigned" : "2021-07-22T18:35:02.871-0500"
},
{
"name" : "TableEditWizBackbone_v92",
"assigned" : "2021-07-23T12:33:59.078-0500"
},
{
"name" : "TableEditWizBackbone_v93",
"assigned" : "2021-07-24T00:54:51.841-0500"
},
{
"name" : "TableEditWizBackbone_v94",
"assigned" : "2021-07-24T12:12:53.776-0500"
},
{
"name" : "TableEditWizBackbone_v95",
"assigned" : "2021-07-25T21:07:18.453-0500"
},
{
"name" : "TableEditWizBackbone_v96",
"assigned" : "2021-07-26T07:43:14.299-0500"
},
{
"name" : "TableEditWizBackbone_v97",
"assigned" : "2021-07-26T18:37:14.383-0500"
},
{
"name" : "TableEditWizBackbone_v98",
"assigned" : "2021-07-27T08:25:43.136-0500"
},
{
"name" : "GroupAliasTreeEditWizBackbone_v74",
"assigned" : "2021-08-03T11:10:41.829-0500"
},
{
"name" : "GroupAliasTreeEditWizBackbone_v75",
"assigned" : "2021-08-03T11:10:43.713-0500"
},
{
"name" : "TableEditWizBackbone_v99",
"assigned" : "2021-08-04T12:22:00.118-0500"
},
{
"name" : "TableEditWizBackbone_v100",
"assigned" : "2021-09-02T13:43:36.501-0500"
},
{
"name" : "GroupAliasTreeEditWizBackbone_v76",
"assigned" : "2021-09-02T14:03:39.320-0500"
},
{
"name" : "GroupAliasTreeEditWizBackbone_v77",
"assigned" : "2021-09-02T14:08:03.262-0500"
},
{
"name" : "GroupAliasTreeEditWizBackbone_v78",
"assigned" : "2021-09-02T14:38:40.088-0500"
},
{
"name" : "TableEditWizBackbone_v101",
"assigned" : "2021-09-23T15:47:07.725-0500"
},
{
"name" : "TableEditWizBackbone_v102",
"assigned" : "2021-09-23T15:47:44.673-0500"
},
{
"name" : "GroupAliasTreeEditWizBackbone_v79",
"assigned" : "2021-09-24T15:36:54.943-0500"
},
{
"name" : "GroupAliasTreeEditWizBackbone_v80",
"assigned" : "2021-09-24T15:36:56.848-0500"
},
{
"name" : "TableEditWizBackbone_v103",
"assigned" : "2021-09-24T15:42:29.280-0500"
},
{
"name" : "TableEditWizBackbone_v104",
"assigned" : "2021-09-24T15:44:06.385-0500"
},
{
"name" : "GroupAliasTreeEditWizBackbone_v81",
"assigned" : "2021-09-24T15:49:57.077-0500"
},
{
"name" : "TableEditWizBackbone_v105",
"assigned" : "2021-09-24T15:53:25.648-0500"
},
{
"name" : "TableEditWizBackbone_v106",
"assigned" : "2021-09-24T16:04:24.657-0500"
},
{
"name" : "TableEditWizBackbone_v107",
"assigned" : "2021-09-24T16:22:56.137-0500"
},
{
"name" : "GroupAliasTreeEditWizBackbone_v82",
"assigned" : "2021-09-24T16:24:16.294-0500"
},
{
"name" : "GroupAliasTreeEditWizBackbone_v83",
"assigned" : "2021-09-24T16:26:22.094-0500"
},
{
"name" : "TableEditWizBackbone_v108",
"assigned" : "2021-09-24T16:28:09.505-0500"
},
{
"name" : "TableEditWizBackbone_v109",
"assigned" : "2021-09-24T16:28:31.830-0500"
},
{
"name" : "TableEditWizBackbone_v110",
"assigned" : "2021-09-27T09:02:58.892-0500"
},
{
"name" : "TableEditWizBackbone_v111",
"assigned" : "2021-09-27T09:04:06.866-0500"
},
{
"name" : "TableEditWizBackbone_v112",
"assigned" : "2021-09-27T14:22:27.277-0500"
},
{
"name" : "TableEditWizBackbone_v113",
"assigned" : "2021-09-27T14:23:22.003-0500"
},
{
"name" : "TableEditWizBackbone_v114",
"assigned" : "2021-09-28T09:24:53.224-0500"
},
{
"name" : "TableEditWizBackbone_v115",
"assigned" : "2021-09-28T09:25:13.064-0500"
},
{
"name" : "GroupAliasTreeEditWizBackbone_v84",
"assigned" : "2021-09-28T10:23:00.034-0500"
},
{
"name" : "GroupAliasTreeEditWizBackbone_v85",
"assigned" : "2021-09-28T11:22:06.386-0500"
},
{
"name" : "GroupAliasTreeEditWizBackbone_v86",
"assigned" : "2021-09-29T11:49:47.100-0500"
},
{
"name" : "GroupAliasTreeEditWizBackbone_v87",
"assigned" : "2021-09-30T09:14:53.485-0500"
},
{
"name" : "TableEditWizBackbone_v116",
"assigned" : "2021-10-01T10:56:23.964-0500"
},
{
"name" : "TableEditWizBackbone_v117",
"assigned" : "2021-10-01T10:56:41.853-0500"
},
{
"name" : "TableEditWizBackbone_v118",
"assigned" : "2021-10-01T11:01:43.575-0500"
},
{
"name" : "TableEditWizBackbone_v119",
"assigned" : "2021-10-01T11:03:51.412-0500"
},
{
"name" : "GroupAliasTreeEditWizBackbone_v88",
"assigned" : "2021-10-01T13:59:56.335-0500"
},
{
"name" : "GroupAliasTreeEditWizBackbone_v89",
"assigned" : "2021-10-01T14:01:56.912-0500"
},
{
"name" : "GroupAliasTreeEditWizBackbone_v90",
"assigned" : "2021-10-05T17:13:04.112-0500"
},
{
"name" : "TableEditWizBackbone_v120",
"assigned" : "2021-10-06T10:02:34.019-0500"
},
{
"name" : "TableEditWizBackbone_v121",
"assigned" : "2021-10-06T10:02:51.938-0500"
},
{
"name" : "TableEditWizBackbone_v122",
"assigned" : "2021-10-07T16:32:43.028-0500"
},
{
"name" : "TableEditWizBackbone_v123",
"assigned" : "2021-10-07T16:33:04.766-0500"
},
{
"name" : "TableEditWizBackbone_v124",
"assigned" : "2021-10-08T14:03:17.937-0500"
},
{
"name" : "TableEditWizBackbone_v125",
"assigned" : "2021-10-11T16:00:59.052-0500"
},
{
"name" : "TableEditWizBackbone_v126",
"assigned" : "2021-10-11T17:57:26.597-0500"
},
{
"name" : "TableEditWizBackbone_v127",
"assigned" : "2021-10-12T09:07:20.247-0500"
},
{
"name" : "TableEditWizBackbone_v128",
"assigned" : "2021-10-12T09:07:35.020-0500"
},
{
"name" : "TableEditWizBackbone_v129",
"assigned" : "2021-10-12T11:11:25.902-0500"
},
{
"name" : "TableEditWizBackbone_v130",
"assigned" : "2021-10-12T11:11:48.130-0500"
},
{
"name" : "TableEditWizBackbone_v131",
"assigned" : "2021-10-12T13:46:55.928-0500"
},
{
"name" : "TableEditWizBackbone_v132",
"assigned" : "2021-10-12T14:33:53.783-0500"
},
{
"name" : "TableEditWizBackbone_v133",
"assigned" : "2021-10-14T17:03:19.399-0500"
},
{
"name" : "TableEditWizBackbone_v134",
"assigned" : "2021-10-14T17:03:40.067-0500"
},
{
"name" : "TableEditWizBackbone_v135",
"assigned" : "2021-10-15T10:48:33.975-0500"
},
{
"name" : "TableEditWizBackbone_v136",
"assigned" : "2021-10-15T10:48:46.978-0500"
},
{
"name" : "TableEditWizBackbone_v137",
"assigned" : "2021-10-15T15:50:52.103-0500"
},
{
"name" : "TableEditWizBackbone_v138",
"assigned" : "2021-10-15T15:51:07.299-0500"
},
{
"name" : "TableEditWizBackbone_v139",
"assigned" : "2021-11-03T16:30:22.882-0500"
},
{
"name" : "TableEditWizBackbone_v140",
"assigned" : "2021-11-03T16:31:02.559-0500"
},
{
"name" : "TableEditWizBackbone_v141",
"assigned" : "2021-11-10T08:36:02.890-0600"
},
{
"name" : "TableEditWizBackbone_v142",
"assigned" : "2021-11-10T15:06:50.299-0600"
},
{
"name" : "TableEditWizBackbone_v143",
"assigned" : "2021-11-10T15:08:33.779-0600"
},
{
"name" : "GroupAliasTreeEditWizBackbone_v91",
"assigned" : "2021-11-10T15:11:07.988-0600"
},
{
"name" : "GroupAliasTreeEditWizBackbone_v92",
"assigned" : "2021-11-10T15:11:10.183-0600"
},
{
"name" : "GroupAliasTreeEditWizBackbone_v93",
"assigned" : "2021-11-10T16:33:25.005-0600"
},
{
"name" : "GroupAliasWizBackbone_v0",
"assigned" : "2022-04-18T12:56:06.218-0400"
},
{
"name" : "GroupAliasWizBackbone_v1",
"assigned" : "2022-04-19T14:35:58.703-0400"
},
{
"name" : "GroupAliasWizBackbone_v2",
"assigned" : "2022-04-19T15:00:29.031-0400"
},
{
"name" : "GroupAliasTreeEditWizBackbone_v94",
"assigned" : "2022-04-20T10:06:08.567-0400"
},
{
"name" : "GroupAliasTreeEditWizBackbone_v95",
"assigned" : "2022-04-20T10:06:55.171-0400"
},
{
"name" : "GroupAliasTreeEditWizBackbone_v96",
"assigned" : "2022-04-20T11:23:55.399-0400"
},
{
"name" : "GroupAliasTreeEditWizBackbone_v97",
"assigned" : "2022-04-20T14:28:45.629-0500"
},
{
"name" : "GroupAliasTreeEditWizBackbone_v98",
"assigned" : "2022-04-20T14:28:47.942-0500"
},
{
"name" : "GroupAliasTreeEditWizBackbone_v99",
"assigned" : "2022-05-26T16:34:05.775-0500"
},
{
"name" : "GroupAliasTreeEditWizBackbone_v100",
"assigned" : "2022-05-26T16:34:08.067-0500"
},
{
"name" : "GroupAliasWizBackbone_v3",
"assigned" : "2022-06-03T14:30:18.597-0500"
},
{
"name" : "GroupAliasWizBackbone_v4",
"assigned" : "2022-06-03T14:34:11.639-0500"
},
{
"name" : "GroupAliasWizBackbone_v5",
"assigned" : "2022-06-07T15:00:01.989-0500"
},
{
"name" : "GroupAliasWizBackbone_v6",
"assigned" : "2022-06-07T15:05:56.221-0500"
},
{
"name" : "GroupAliasWizBackbone_v7",
"assigned" : "2022-06-07T16:09:20.239-0500"
},
{
"name" : "GroupAliasTreeEditWizBackbone_v101",
"assigned" : "2022-06-10T10:17:29.207-0500"
},
{
"name" : "GroupAliasTreeEditWizBackbone_v102",
"assigned" : "2022-06-10T10:18:25.550-0500"
},
{
"name" : "GroupAliasWizBackbone_v8",
"assigned" : "2022-06-10T10:27:18.537-0500"
},
{
"name" : "GroupAliasWizBackbone_v9",
"assigned" : "2022-06-13T14:13:03.770-0500"
},
{
"name" : "GroupAliasWizBackbone_v10",
"assigned" : "2022-06-13T15:22:21.270-0500"
},
{
"name" : "GroupAliasWizBackbone_v11",
"assigned" : "2022-06-21T15:37:17.403-0500"
},
{
"name" : "GroupAliasWizBackbone_v12",
"assigned" : "2022-06-21T15:39:40.010-0500"
},
{
"name" : "GroupAliasWizBackbone_v13",
"assigned" : "2022-06-30T12:02:34.701-0500"
},
{
"name" : "GroupAliasTreeEditWizBackbone_v103",
"assigned" : "2023-01-19T10:05:04.544-0600"
},
{
"name" : "GroupAliasTreeEditWizBackbone_v104",
"assigned" : "2023-01-19T10:05:45.964-0600"
},
{
"name" : "GroupAliasWizBackbone_v14",
"assigned" : "2023-01-19T10:08:22.718-0600"
},
{
"name" : "GroupAliasTreeEditWizBackbone_v105",
"assigned" : "2023-01-19T11:02:51.216-0600"
},
{
"name" : "GroupAliasTreeEditWizBackbone_v106",
"assigned" : "2023-01-19T11:02:53.708-0600"
},
{
"name" : "GroupAliasTreeEditWizBackbone_v107",
"assigned" : "2023-01-19T12:09:21.071-0600"
},
{
"name" : "GroupAliasTreeEditWizBackbone_v108",
"assigned" : "2023-01-20T11:51:34.191-0600"
},
{
"name" : "GroupAliasWizBackbone_v15",
"assigned" : "2023-01-23T15:12:00.819-0600"
},
{
"name" : "GroupAliasSaveWizBackbone_v0",
"assigned" : "2023-01-30T11:15:49.061-0600"
},
{
"name" : "GroupAliasWizBackbone_v16",
"assigned" : "2023-01-30T13:43:43.570-0600"
},
{
"name" : "GroupAliasWizBackbone_v17",
"assigned" : "2023-02-13T14:11:48.658-0600"
},
{
"name" : "GroupAliasWizBackbone_v18",
"assigned" : "2023-02-13T14:13:03.207-0600"
},
{
"name" : "GroupAliasWizBackbone_v19",
"assigned" : "2023-02-13T14:21:02.447-0600"
},
{
"name" : "GroupAliasWizBackbone_v20",
"assigned" : "2023-02-13T14:33:46.508-0600"
},
{
"name" : "GroupAliasWizBackbone_v21",
"assigned" : "2023-02-13T14:58:17.509-0600"
},
{
"name" : "GroupAliasWizBackbone_v22",
"assigned" : "2023-02-16T12:29:05.207-0600"
},
{
"name" : "GroupAliasWizBackbone_v23",
"assigned" : "2023-02-16T14:03:04.027-0600"
},
{
"name" : "GroupAliasWizBackbone_v24",
"assigned" : "2023-02-16T14:04:42.713-0600"
},
{
"name" : "GroupAliasWizBackbone_v25",
"assigned" : "2023-02-16T14:42:29.913-0600"
},
{
"name" : "GroupAliasWizBackbone_v26",
"assigned" : "2023-02-16T14:49:49.937-0600"
},
{
"name" : "GroupAliasWizBackbone_v27",
"assigned" : "2023-02-16T14:53:14.660-0600"
},
{
"name" : "GroupAliasWizBackbone_v28",
"assigned" : "2023-02-16T14:55:46.456-0600"
},
{
"name" : "GroupAliasTreeEditWizBackbone_v109",
"assigned" : "2023-02-17T08:58:45.584-0600"
},
{
"name" : "GroupAliasTreeEditWizBackbone_v110",
"assigned" : "2023-02-17T09:04:57.267-0600"
},
{
"name" : "GroupAliasWizBackbone_v29",
"assigned" : "2023-02-17T09:06:44.305-0600"
},
{
"name" : "GroupAliasTreeEditWizBackbone_v111",
"assigned" : "2023-02-17T09:07:51.284-0600"
},
{
"name" : "GroupAliasTreeEditWizBackbone_v112",
"assigned" : "2023-02-23T08:41:53.225-0600"
},
{
"name" : "GroupAliasTreeEditWizBackbone_v113",
"assigned" : "2023-02-28T13:19:27.090-0600"
},
{
"name" : "GroupAliasTreeEditWizBackbone_v114",
"assigned" : "2023-02-28T13:20:48.014-0600"
},
{
"name" : "GroupAliasTreeEditWizBackbone_v115",
"assigned" : "2023-03-01T10:10:40.251-0600"
},
{
"name" : "GroupAliasTreeEditWizBackbone_v116",
"assigned" : "2023-03-01T10:10:42.926-0600"
},
{
"name" : "GroupAliasTreeEditWizBackbone_v117",
"assigned" : "2023-03-10T16:56:43.353+0100"
},
{
"name" : "GroupAliasTreeEditWizBackbone_v118",
"assigned" : "2023-03-10T16:58:27.213+0100"
}
]
}