{
"document" : {
"data" : {
"NAME" : "BURNIN_BOX_CYCLE_TABLE",
"COMMENT" : "No comment.",
"AUTHOR" : "admin",
"CREATION_TIME" : 1626294271,
"COL_TYPES" : {
"BURNIN_BOX_CYCLE_GROUP_ID" : "STRING",
"TARGET_ID" : "STRING",
"IN_USE" : "STRING",
"SEQUENCE" : "NUMBER",
"TEMPERATURE" : "NUMBER",
"TIME_AT_TARGET" : "NUMBER",
"COMMENT_DESCRIPTION" : "STRING",
"AUTHOR" : "STRING",
"RECORD_INSERTION_TIME" : "TIMESTAMP WITH TIMEZONE"
},
"DATA_SET" : [
{
"BURNIN_BOX_CYCLE_GROUP_ID" : "ModuleTestingCycle",
"TARGET_ID" : "LowTemperature",
"IN_USE" : "Yes",
"SEQUENCE" : "1",
"TEMPERATURE" : "18",
"TIME_AT_TARGET" : "1800",
"COMMENT_DESCRIPTION" : "No Comment",
"AUTHOR" : "admin",
"RECORD_INSERTION_TIME" : "1626294271"
},
{
"BURNIN_BOX_CYCLE_GROUP_ID" : "ModuleTestingCycle",
"TARGET_ID" : "HighTemperature",
"IN_USE" : "Yes",
"SEQUENCE" : "2",
"TEMPERATURE" : "20",
"TIME_AT_TARGET" : "1800",
"COMMENT_DESCRIPTION" : "No Comment",
"AUTHOR" : "admin",
"RECORD_INSERTION_TIME" : "1626195689"
},
{
"BURNIN_BOX_CYCLE_GROUP_ID" : "ModuleTestingCycle",
"TARGET_ID" : "StopTemperature",
"IN_USE" : "Yes",
"SEQUENCE" : "3",
"TEMPERATURE" : "20",
"TIME_AT_TARGET" : "0",
"COMMENT_DESCRIPTION" : "No Comment",
"AUTHOR" : "admin",
"RECORD_INSERTION_TIME" : "1603731101"
}
]
},
"metadata" : {

},
"search" : [

]
},
"comments" : [

],
"origin" : {
"source" : "template",
"name" : "notprovided",
"format" : "json",
"created" : "2021-07-14T15:24:31.710-0500",
"rawdata" : [

]
},
"version" : "11",
"entities" : [
{
"name" : "OTSROOT",
"assigned" : "2021-07-14T15:24:31.711-0500"
}
],
"configurations" : [
{
"name" : "notprovided",
"assigned" : "2021-07-14T15:24:31.710-0500"
},
{
"name" : "BurninBoxConfiguration_v47",
"assigned" : "2021-07-14T15:24:33.157-0500"
},
{
"name" : "BurninBoxConfiguration_v52",
"assigned" : "2021-07-20T13:45:53.342-0500"
},
{
"name" : "BurninBoxConfiguration_v53",
"assigned" : "2021-07-20T16:41:41.505-0500"
},
{
"name" : "BurninBoxConfiguration_v54",
"assigned" : "2021-07-20T17:09:26.216-0500"
},
{
"name" : "BurninBoxConfiguration_v55",
"assigned" : "2021-07-20T17:28:39.395-0500"
},
{
"name" : "BurninBoxConfiguration_v56",
"assigned" : "2021-07-20T17:46:26.756-0500"
},
{
"name" : "BurninBoxConfiguration_v61",
"assigned" : "2021-07-23T12:33:56.015-0500"
}
],
"changelog" : "notprovided",
"bookkeeping" : {
"isdeleted" : false,
"isreadonly" : false,
"updates" : [
{
"event" : "addConfiguration",
"timestamp" : "2021-07-14T15:24:31.711-0500",
"value" : {
"name" : "notprovided",
"assigned" : "2021-07-14T15:24:31.710-0500"
}
},
{
"event" : "setVersion",
"timestamp" : "2021-07-14T15:24:31.711-0500",
"value" : {
"name" : "11",
"assigned" : "2021-07-14T15:24:31.711-0500"
}
},
{
"event" : "setCollection",
"timestamp" : "2021-07-14T15:24:31.711-0500",
"value" : {
"name" : "BurninBoxCycleTable",
"assigned" : "2021-07-14T15:24:31.711-0500"
}
},
{
"event" : "addEntity",
"timestamp" : "2021-07-14T15:24:31.711-0500",
"value" : {
"name" : "OTSROOT",
"assigned" : "2021-07-14T15:24:31.711-0500"
}
},
{
"event" : "addConfiguration",
"timestamp" : "2021-07-14T15:24:33.157-0500",
"value" : {
"name" : "BurninBoxConfiguration_v47",
"assigned" : "2021-07-14T15:24:33.157-0500"
}
},
{
"event" : "addConfiguration",
"timestamp" : "2021-07-20T13:45:53.342-0500",
"value" : {
"name" : "BurninBoxConfiguration_v52",
"assigned" : "2021-07-20T13:45:53.342-0500"
}
},
{
"event" : "addConfiguration",
"timestamp" : "2021-07-20T16:41:41.505-0500",
"value" : {
"name" : "BurninBoxConfiguration_v53",
"assigned" : "2021-07-20T16:41:41.505-0500"
}
},
{
"event" : "addConfiguration",
"timestamp" : "2021-07-20T17:09:26.216-0500",
"value" : {
"name" : "BurninBoxConfiguration_v54",
"assigned" : "2021-07-20T17:09:26.216-0500"
}
},
{
"event" : "addConfiguration",
"timestamp" : "2021-07-20T17:28:39.395-0500",
"value" : {
"name" : "BurninBoxConfiguration_v55",
"assigned" : "2021-07-20T17:28:39.395-0500"
}
},
{
"event" : "addConfiguration",
"timestamp" : "2021-07-20T17:46:26.756-0500",
"value" : {
"name" : "BurninBoxConfiguration_v56",
"assigned" : "2021-07-20T17:46:26.756-0500"
}
},
{
"event" : "addConfiguration",
"timestamp" : "2021-07-23T12:33:56.015-0500",
"value" : {
"name" : "BurninBoxConfiguration_v61",
"assigned" : "2021-07-23T12:33:56.015-0500"
}
}
],
"created" : "2021-07-14T15:24:31.710-0500"
},
"_id" : {
"$oid" : "4678c986ed55461386825554"
},
"collection" : "BurninBoxCycleTable",
"aliases" : {
"active" : [

],
"history" : [

]
},
"runs" : [

],
"attachments" : [

],
"configtype" : "notprovided"
}