{
"ouid" : [
"a393ba2a0263452c9fd01b40"
],
"version" : {
"6" : [
"a393ba2a0263452c9fd01b40"
]
},
"configurations.name" : {
"notprovided" : [
"a393ba2a0263452c9fd01b40"
],
"iterateDefaultGroup_v6" : [
"a393ba2a0263452c9fd01b40"
]
},
"entities.name" : {
"OTSROOT" : [
"a393ba2a0263452c9fd01b40"
]
},
"aliases.active.name" : {

},
"runs.name" : {

},
"configurations.assigned" : {
"notprovided" : [
"2023-10-25T15:16:54.246-0500"
],
"iterateDefaultGroup_v6" : [
"2023-10-25T15:16:54.847-0500"
]
}
}