{
"ouid" : [
"2b73209dd4bd4f6a956b61f3",
"593bf95761c04911a4bc5e58",
"96ab8491b0b842429eb334fb",
"a22e543addbf483b873d3f8b",
"ac72da7806f94261a38dc56d",
"eb93bf94eb664b2d93099968"
],
"version" : {
"0" : [
"593bf95761c04911a4bc5e58"
],
"1" : [
"2b73209dd4bd4f6a956b61f3"
],
"2" : [
"96ab8491b0b842429eb334fb"
],
"3" : [
"a22e543addbf483b873d3f8b"
],
"4" : [
"eb93bf94eb664b2d93099968"
],
"5" : [
"ac72da7806f94261a38dc56d"
]
},
"configurations.name" : {
"notprovided" : [
"2b73209dd4bd4f6a956b61f3",
"593bf95761c04911a4bc5e58",
"96ab8491b0b842429eb334fb",
"a22e543addbf483b873d3f8b",
"ac72da7806f94261a38dc56d",
"eb93bf94eb664b2d93099968"
],
"BurninBoxConfiguration_v33" : [
"593bf95761c04911a4bc5e58"
],
"BurninBoxConfiguration_v34" : [
"593bf95761c04911a4bc5e58"
],
"BurninBoxConfiguration_v35" : [
"593bf95761c04911a4bc5e58"
],
"BurninBoxConfiguration_v36" : [
"593bf95761c04911a4bc5e58"
],
"BurninBoxConfiguration_v37" : [
"593bf95761c04911a4bc5e58"
],
"BurninBoxConfiguration_v38" : [
"2b73209dd4bd4f6a956b61f3"
],
"BurninBoxConfiguration_v39" : [
"2b73209dd4bd4f6a956b61f3"
],
"BurninBoxConfiguration_v40" : [
"96ab8491b0b842429eb334fb"
],
"BurninBoxConfiguration_v41" : [
"96ab8491b0b842429eb334fb"
],
"BurninBoxConfiguration_v42" : [
"96ab8491b0b842429eb334fb"
],
"BurninBoxConfiguration_v43" : [
"96ab8491b0b842429eb334fb"
],
"BurninBoxConfiguration_v44" : [
"96ab8491b0b842429eb334fb"
],
"BurninBoxConfiguration_v45" : [
"96ab8491b0b842429eb334fb"
],
"BurninBoxConfiguration_v46" : [
"96ab8491b0b842429eb334fb"
],
"BurninBoxConfiguration_v47" : [
"96ab8491b0b842429eb334fb"
],
"BurninBoxConfiguration_v48" : [
"96ab8491b0b842429eb334fb"
],
"BurninBoxConfiguration_v49" : [
"96ab8491b0b842429eb334fb"
],
"BurninBoxConfiguration_v50" : [
"96ab8491b0b842429eb334fb"
],
"BurninBoxConfiguration_v51" : [
"96ab8491b0b842429eb334fb"
],
"BurninBoxConfiguration_v52" : [
"96ab8491b0b842429eb334fb"
],
"BurninBoxConfiguration_v53" : [
"96ab8491b0b842429eb334fb"
],
"BurninBoxConfiguration_v54" : [
"96ab8491b0b842429eb334fb"
],
"BurninBoxConfiguration_v55" : [
"96ab8491b0b842429eb334fb"
],
"BurninBoxConfiguration_v56" : [
"96ab8491b0b842429eb334fb"
],
"BurninBoxConfiguration_v57" : [
"96ab8491b0b842429eb334fb"
],
"BurninBoxConfiguration_v58" : [
"96ab8491b0b842429eb334fb"
],
"BurninBoxConfiguration_v59" : [
"96ab8491b0b842429eb334fb"
],
"BurninBoxConfiguration_v60" : [
"96ab8491b0b842429eb334fb"
],
"BurninBoxConfiguration_v61" : [
"96ab8491b0b842429eb334fb"
],
"BurninBoxConfiguration_v62" : [
"96ab8491b0b842429eb334fb"
],
"BurninBoxConfiguration_v63" : [
"96ab8491b0b842429eb334fb"
],
"BurninBoxConfiguration_v64" : [
"96ab8491b0b842429eb334fb"
],
"BurninBoxConfiguration_v65" : [
"96ab8491b0b842429eb334fb"
],
"BurninBoxConfiguration_v66" : [
"96ab8491b0b842429eb334fb"
],
"BurninBoxConfiguration_v67" : [
"96ab8491b0b842429eb334fb"
],
"BurninBoxConfiguration_v68" : [
"96ab8491b0b842429eb334fb"
],
"BurninBoxConfiguration_v69" : [
"96ab8491b0b842429eb334fb"
],
"BurninBoxConfiguration_v70" : [
"96ab8491b0b842429eb334fb"
],
"BurninBoxConfiguration_v71" : [
"96ab8491b0b842429eb334fb"
],
"BurninBoxConfiguration_v72" : [
"96ab8491b0b842429eb334fb"
],
"BurninBoxConfiguration_v73" : [
"96ab8491b0b842429eb334fb"
],
"BurninBoxConfiguration_v74" : [
"96ab8491b0b842429eb334fb"
],
"BurninBoxConfiguration_v75" : [
"96ab8491b0b842429eb334fb"
],
"BurninBoxConfiguration_v76" : [
"96ab8491b0b842429eb334fb"
],
"BurninBoxConfiguration_v77" : [
"96ab8491b0b842429eb334fb"
],
"BurninBoxConfiguration_v78" : [
"96ab8491b0b842429eb334fb"
],
"BurninBoxConfiguration_v79" : [
"96ab8491b0b842429eb334fb"
],
"BurninBoxConfiguration_v80" : [
"96ab8491b0b842429eb334fb"
],
"BurninBoxConfiguration_v81" : [
"96ab8491b0b842429eb334fb"
],
"BurninBoxConfiguration_v82" : [
"96ab8491b0b842429eb334fb"
],
"BurninBoxConfiguration_v83" : [
"96ab8491b0b842429eb334fb"
],
"BurninBoxConfiguration_v84" : [
"96ab8491b0b842429eb334fb"
],
"BurninBoxConfiguration_v85" : [
"96ab8491b0b842429eb334fb"
],
"BurninBoxConfiguration_v86" : [
"96ab8491b0b842429eb334fb"
],
"BurninBoxConfiguration_v87" : [
"96ab8491b0b842429eb334fb"
],
"BurninBoxConfiguration_v88" : [
"96ab8491b0b842429eb334fb"
],
"BurninBoxConfiguration_v89" : [
"96ab8491b0b842429eb334fb"
],
"BurninBoxConfiguration_v90" : [
"96ab8491b0b842429eb334fb"
],
"BurninBoxConfiguration_v91" : [
"96ab8491b0b842429eb334fb"
],
"BurninBoxConfiguration_v92" : [
"96ab8491b0b842429eb334fb"
],
"BurninBoxConfiguration_v93" : [
"96ab8491b0b842429eb334fb"
],
"BurninBoxConfiguration_v94" : [
"96ab8491b0b842429eb334fb"
],
"BurninBoxConfiguration_v95" : [
"96ab8491b0b842429eb334fb"
],
"BurninBoxConfiguration_v96" : [
"96ab8491b0b842429eb334fb"
],
"BurninBoxConfiguration_v97" : [
"96ab8491b0b842429eb334fb"
],
"BurninBoxConfiguration_v98" : [
"96ab8491b0b842429eb334fb"
],
"BurninBoxConfiguration_v99" : [
"96ab8491b0b842429eb334fb"
],
"BurninBoxConfiguration_v100" : [
"96ab8491b0b842429eb334fb"
],
"BurninBoxConfiguration_v101" : [
"96ab8491b0b842429eb334fb"
],
"BurninBoxConfiguration_v102" : [
"96ab8491b0b842429eb334fb"
],
"BurninBoxConfiguration_v103" : [
"96ab8491b0b842429eb334fb"
],
"BurninBoxConfiguration_v104" : [
"96ab8491b0b842429eb334fb"
],
"BurninBoxConfiguration_v105" : [
"96ab8491b0b842429eb334fb"
],
"BurninBoxConfiguration_v106" : [
"96ab8491b0b842429eb334fb"
],
"BurninBoxConfiguration_v107" : [
"96ab8491b0b842429eb334fb"
],
"BurninBoxConfiguration_v108" : [
"96ab8491b0b842429eb334fb"
],
"BurninBoxConfiguration_v109" : [
"96ab8491b0b842429eb334fb"
],
"BurninBoxConfiguration_v110" : [
"96ab8491b0b842429eb334fb"
],
"BurninBoxConfiguration_v111" : [
"96ab8491b0b842429eb334fb"
],
"BurninBoxConfiguration_v112" : [
"96ab8491b0b842429eb334fb"
],
"BurninBoxConfiguration_v113" : [
"96ab8491b0b842429eb334fb"
],
"BurninBoxConfiguration_v114" : [
"96ab8491b0b842429eb334fb"
],
"BurninBoxConfiguration_v115" : [
"96ab8491b0b842429eb334fb"
],
"BurninBoxConfiguration_v116" : [
"a22e543addbf483b873d3f8b"
],
"BurninBoxConfiguration_v117" : [
"a22e543addbf483b873d3f8b"
],
"BurninBoxConfiguration_v118" : [
"a22e543addbf483b873d3f8b"
],
"BurninBoxConfiguration_v119" : [
"a22e543addbf483b873d3f8b"
],
"BurninBoxConfiguration_v120" : [
"a22e543addbf483b873d3f8b"
],
"BurninBoxConfiguration_v121" : [
"a22e543addbf483b873d3f8b"
],
"BurninBoxConfiguration_v122" : [
"a22e543addbf483b873d3f8b"
],
"BurninBoxConfiguration_v123" : [
"eb93bf94eb664b2d93099968"
],
"BurninBoxConfiguration_v124" : [
"eb93bf94eb664b2d93099968"
],
"BurninBoxConfiguration_v125" : [
"eb93bf94eb664b2d93099968"
],
"BurninBoxConfiguration_v126" : [
"ac72da7806f94261a38dc56d"
],
"BurninBoxConfiguration_v127" : [
"ac72da7806f94261a38dc56d"
],
"BurninBoxConfiguration_v128" : [
"ac72da7806f94261a38dc56d"
],
"BurninBoxConfiguration_v129" : [
"ac72da7806f94261a38dc56d"
],
"BurninBoxConfiguration_v130" : [
"ac72da7806f94261a38dc56d"
],
"BurninBoxConfiguration_v131" : [
"ac72da7806f94261a38dc56d"
],
"BurninBoxConfiguration_v132" : [
"ac72da7806f94261a38dc56d"
],
"BurninBoxConfiguration_v133" : [
"ac72da7806f94261a38dc56d"
],
"BurninBoxConfiguration_v134" : [
"ac72da7806f94261a38dc56d"
],
"BurninBoxConfiguration_v135" : [
"ac72da7806f94261a38dc56d"
],
"BurninBoxConfiguration_v136" : [
"ac72da7806f94261a38dc56d"
],
"BurninBoxConfiguration_v137" : [
"ac72da7806f94261a38dc56d"
],
"BurninBoxConfiguration_v138" : [
"ac72da7806f94261a38dc56d"
],
"BurninBoxConfiguration_v139" : [
"ac72da7806f94261a38dc56d"
],
"BurninBoxConfiguration_v140" : [
"ac72da7806f94261a38dc56d"
],
"BurninBoxConfiguration_v141" : [
"ac72da7806f94261a38dc56d"
],
"BurninBoxConfiguration_v142" : [
"ac72da7806f94261a38dc56d"
],
"BurninBoxConfiguration_v143" : [
"ac72da7806f94261a38dc56d"
],
"BurninBoxConfiguration_v144" : [
"ac72da7806f94261a38dc56d"
],
"BurninBoxConfiguration_v145" : [
"ac72da7806f94261a38dc56d"
],
"BurninBoxConfiguration_v146" : [
"ac72da7806f94261a38dc56d"
],
"BurninBoxConfiguration_v147" : [
"ac72da7806f94261a38dc56d"
],
"BurninBoxConfiguration_v148" : [
"ac72da7806f94261a38dc56d"
],
"BurninBoxConfiguration_v149" : [
"ac72da7806f94261a38dc56d"
],
"BurninBoxConfiguration_v150" : [
"ac72da7806f94261a38dc56d"
]
},
"entities.name" : {
"OTSROOT" : [
"2b73209dd4bd4f6a956b61f3",
"593bf95761c04911a4bc5e58",
"96ab8491b0b842429eb334fb",
"a22e543addbf483b873d3f8b",
"ac72da7806f94261a38dc56d",
"eb93bf94eb664b2d93099968"
]
},
"aliases.active.name" : {

},
"runs.name" : {

},
"configurations.assigned" : {
"notprovided" : [
"2021-06-30T16:16:01.781-0500",
"2021-07-09T11:45:30.613-0500",
"2021-07-09T16:05:58.605-0500",
"2023-03-07T16:36:47.491-0600",
"2023-04-04T13:13:57.164-0500",
"2023-04-04T16:05:00.935-0500"
],
"BurninBoxConfiguration_v33" : [
"2021-06-30T16:17:52.093-0500"
],
"BurninBoxConfiguration_v34" : [
"2021-06-30T16:23:48.503-0500"
],
"BurninBoxConfiguration_v35" : [
"2021-07-08T14:06:14.347-0500"
],
"BurninBoxConfiguration_v36" : [
"2021-07-08T14:16:58.565-0500"
],
"BurninBoxConfiguration_v37" : [
"2021-07-08T16:20:45.151-0500"
],
"BurninBoxConfiguration_v38" : [
"2021-07-09T11:47:14.302-0500"
],
"BurninBoxConfiguration_v39" : [
"2021-07-09T11:48:46.416-0500"
],
"BurninBoxConfiguration_v40" : [
"2021-07-09T16:06:00.899-0500"
],
"BurninBoxConfiguration_v41" : [
"2021-07-12T11:04:55.875-0500"
],
"BurninBoxConfiguration_v42" : [
"2021-07-13T12:01:31.763-0500"
],
"BurninBoxConfiguration_v43" : [
"2021-07-13T12:22:06.245-0500"
],
"BurninBoxConfiguration_v44" : [
"2021-07-14T13:05:58.832-0500"
],
"BurninBoxConfiguration_v45" : [
"2021-07-14T14:26:05.036-0500"
],
"BurninBoxConfiguration_v46" : [
"2021-07-14T14:46:57.324-0500"
],
"BurninBoxConfiguration_v47" : [
"2021-07-14T15:24:34.217-0500"
],
"BurninBoxConfiguration_v48" : [
"2021-07-14T16:05:29.783-0500"
],
"BurninBoxConfiguration_v49" : [
"2021-07-14T16:15:41.481-0500"
],
"BurninBoxConfiguration_v50" : [
"2021-07-14T16:17:41.168-0500"
],
"BurninBoxConfiguration_v51" : [
"2021-07-15T11:50:34.212-0500"
],
"BurninBoxConfiguration_v52" : [
"2021-07-20T13:45:54.296-0500"
],
"BurninBoxConfiguration_v53" : [
"2021-07-20T16:41:42.549-0500"
],
"BurninBoxConfiguration_v54" : [
"2021-07-20T17:09:27.306-0500"
],
"BurninBoxConfiguration_v55" : [
"2021-07-20T17:28:40.467-0500"
],
"BurninBoxConfiguration_v56" : [
"2021-07-20T17:46:27.790-0500"
],
"BurninBoxConfiguration_v57" : [
"2021-07-21T11:50:02.304-0500"
],
"BurninBoxConfiguration_v58" : [
"2021-07-21T11:58:37.987-0500"
],
"BurninBoxConfiguration_v59" : [
"2021-07-21T11:59:33.765-0500"
],
"BurninBoxConfiguration_v60" : [
"2021-07-22T18:35:00.819-0500"
],
"BurninBoxConfiguration_v61" : [
"2021-07-23T12:33:57.106-0500"
],
"BurninBoxConfiguration_v62" : [
"2021-07-24T00:54:49.945-0500"
],
"BurninBoxConfiguration_v63" : [
"2021-07-24T12:12:51.481-0500"
],
"BurninBoxConfiguration_v64" : [
"2021-07-25T21:07:16.424-0500"
],
"BurninBoxConfiguration_v65" : [
"2021-07-26T07:43:12.326-0500"
],
"BurninBoxConfiguration_v66" : [
"2021-07-26T18:37:12.370-0500"
],
"BurninBoxConfiguration_v67" : [
"2021-07-27T08:25:41.145-0500"
],
"BurninBoxConfiguration_v68" : [
"2021-08-03T11:10:37.517-0500"
],
"BurninBoxConfiguration_v69" : [
"2021-08-04T12:21:57.963-0500"
],
"BurninBoxConfiguration_v70" : [
"2021-09-02T13:43:34.386-0500"
],
"BurninBoxConfiguration_v71" : [
"2021-09-02T14:03:37.258-0500"
],
"BurninBoxConfiguration_v72" : [
"2021-09-23T15:47:05.654-0500"
],
"BurninBoxConfiguration_v73" : [
"2021-09-23T15:47:42.568-0500"
],
"BurninBoxConfiguration_v74" : [
"2021-09-24T15:36:50.481-0500"
],
"BurninBoxConfiguration_v75" : [
"2021-09-24T15:53:23.485-0500"
],
"BurninBoxConfiguration_v76" : [
"2021-09-24T16:04:22.522-0500"
],
"BurninBoxConfiguration_v77" : [
"2021-09-24T16:28:07.292-0500"
],
"BurninBoxConfiguration_v78" : [
"2021-09-27T09:02:56.851-0500"
],
"BurninBoxConfiguration_v79" : [
"2021-09-27T14:22:25.120-0500"
],
"BurninBoxConfiguration_v80" : [
"2021-09-28T09:24:50.992-0500"
],
"BurninBoxConfiguration_v81" : [
"2021-09-30T09:14:51.338-0500"
],
"BurninBoxConfiguration_v82" : [
"2021-10-01T10:56:21.787-0500"
],
"BurninBoxConfiguration_v83" : [
"2021-10-01T11:01:41.428-0500"
],
"BurninBoxConfiguration_v84" : [
"2021-10-06T10:02:31.732-0500"
],
"BurninBoxConfiguration_v85" : [
"2021-10-07T16:32:40.866-0500"
],
"BurninBoxConfiguration_v86" : [
"2021-10-08T14:03:15.741-0500"
],
"BurninBoxConfiguration_v87" : [
"2021-10-11T16:00:56.716-0500"
],
"BurninBoxConfiguration_v88" : [
"2021-10-12T09:07:17.890-0500"
],
"BurninBoxConfiguration_v89" : [
"2021-10-12T11:11:23.588-0500"
],
"BurninBoxConfiguration_v90" : [
"2021-10-14T17:03:17.013-0500"
],
"BurninBoxConfiguration_v91" : [
"2021-10-15T10:48:31.734-0500"
],
"BurninBoxConfiguration_v92" : [
"2021-10-15T15:50:49.708-0500"
],
"BurninBoxConfiguration_v93" : [
"2021-11-03T16:30:20.535-0500"
],
"BurninBoxConfiguration_v94" : [
"2021-11-10T15:11:02.966-0600"
],
"BurninBoxConfiguration_v95" : [
"2022-04-19T14:35:56.816-0400"
],
"BurninBoxConfiguration_v96" : [
"2022-04-20T10:06:05.786-0400"
],
"BurninBoxConfiguration_v97" : [
"2022-04-20T11:23:52.514-0400"
],
"BurninBoxConfiguration_v98" : [
"2022-06-03T14:30:16.807-0500"
],
"BurninBoxConfiguration_v99" : [
"2022-06-03T14:34:09.676-0500"
],
"BurninBoxConfiguration_v100" : [
"2022-06-07T14:59:59.911-0500"
],
"BurninBoxConfiguration_v101" : [
"2022-06-07T15:05:54.156-0500"
],
"BurninBoxConfiguration_v102" : [
"2022-06-07T16:09:18.182-0500"
],
"BurninBoxConfiguration_v103" : [
"2022-06-10T10:17:26.408-0500"
],
"BurninBoxConfiguration_v104" : [
"2022-06-10T10:18:22.890-0500"
],
"BurninBoxConfiguration_v105" : [
"2022-06-13T14:13:01.638-0500"
],
"BurninBoxConfiguration_v106" : [
"2022-06-13T15:22:19.050-0500"
],
"BurninBoxConfiguration_v107" : [
"2022-06-21T15:37:15.176-0500"
],
"BurninBoxConfiguration_v108" : [
"2022-06-21T15:39:37.753-0500"
],
"BurninBoxConfiguration_v109" : [
"2022-06-30T12:02:32.217-0500"
],
"BurninBoxConfiguration_v110" : [
"2023-01-19T10:05:43.424-0600"
],
"BurninBoxConfiguration_v111" : [
"2023-01-19T10:08:20.340-0600"
],
"BurninBoxConfiguration_v112" : [
"2023-01-19T11:02:45.428-0600"
],
"BurninBoxConfiguration_v113" : [
"2023-01-20T11:51:31.440-0600"
],
"BurninBoxConfiguration_v114" : [
"2023-01-30T11:15:46.632-0600"
],
"BurninBoxConfiguration_v115" : [
"2023-03-01T10:10:34.434-0600"
],
"BurninBoxConfiguration_v116" : [
"2023-03-07T16:36:51.533-0600"
],
"BurninBoxConfiguration_v117" : [
"2023-03-09T15:31:32.379-0600"
],
"BurninBoxConfiguration_v118" : [
"2023-03-15T12:03:56.625-0500"
],
"BurninBoxConfiguration_v119" : [
"2023-03-16T14:10:41.483-0500"
],
"BurninBoxConfiguration_v120" : [
"2023-04-04T11:18:54.759-0500"
],
"BurninBoxConfiguration_v121" : [
"2023-04-04T11:19:17.845-0500"
],
"BurninBoxConfiguration_v122" : [
"2023-04-04T11:23:01.435-0500"
],
"BurninBoxConfiguration_v123" : [
"2023-04-04T13:48:52.395-0500"
],
"BurninBoxConfiguration_v124" : [
"2023-04-04T13:51:59.509-0500"
],
"BurninBoxConfiguration_v125" : [
"2023-04-04T14:31:01.329-0500"
],
"BurninBoxConfiguration_v126" : [
"2023-04-04T16:05:04.990-0500"
],
"BurninBoxConfiguration_v127" : [
"2023-04-07T10:09:32.917-0500"
],
"BurninBoxConfiguration_v128" : [
"2023-04-07T16:20:30.125-0500"
],
"BurninBoxConfiguration_v129" : [
"2023-04-14T10:53:44.444-0500"
],
"BurninBoxConfiguration_v130" : [
"2023-04-14T11:01:24.258-0500"
],
"BurninBoxConfiguration_v131" : [
"2023-04-14T11:05:26.361-0500"
],
"BurninBoxConfiguration_v132" : [
"2023-04-14T12:25:11.518-0500"
],
"BurninBoxConfiguration_v133" : [
"2023-04-14T14:03:27.367-0500"
],
"BurninBoxConfiguration_v134" : [
"2023-04-14T15:36:50.009-0500"
],
"BurninBoxConfiguration_v135" : [
"2023-04-14T15:57:04.692-0500"
],
"BurninBoxConfiguration_v136" : [
"2023-04-14T15:59:01.290-0500"
],
"BurninBoxConfiguration_v137" : [
"2023-04-14T16:18:33.146-0500"
],
"BurninBoxConfiguration_v138" : [
"2023-04-14T16:20:12.280-0500"
],
"BurninBoxConfiguration_v139" : [
"2023-04-17T15:51:49.389-0500"
],
"BurninBoxConfiguration_v140" : [
"2023-04-18T10:48:02.855-0500"
],
"BurninBoxConfiguration_v141" : [
"2023-04-18T12:02:41.920-0500"
],
"BurninBoxConfiguration_v142" : [
"2023-04-18T12:03:57.420-0500"
],
"BurninBoxConfiguration_v143" : [
"2023-04-18T13:48:32.421-0500"
],
"BurninBoxConfiguration_v144" : [
"2023-04-18T14:33:55.664-0500"
],
"BurninBoxConfiguration_v145" : [
"2023-04-18T16:14:32.118-0500"
],
"BurninBoxConfiguration_v146" : [
"2023-04-18T16:20:21.721-0500"
],
"BurninBoxConfiguration_v147" : [
"2023-04-21T15:02:48.599-0500"
],
"BurninBoxConfiguration_v148" : [
"2023-05-09T09:06:44.772-0500"
],
"BurninBoxConfiguration_v149" : [
"2023-05-11T08:26:02.899-0500"
],
"BurninBoxConfiguration_v150" : [
"2023-09-28T16:19:09.537+0200"
]
}
}