{
"document" : {
"data" : {
"NAME" : "DESKTOP_ICON_TABLE",
"COMMENT" : "Desktop icon definitions.",
"AUTHOR" : "admin",
"CREATION_TIME" : 1602266225,
"COL_TYPES" : {
"ICON_NAME" : "STRING",
"STATUS" : "STRING",
"CAPTION" : "STRING",
"ALTERNATE_TEXT" : "STRING",
"FORCE_ONLY_ONE_INSTANCE" : "STRING",
"REQUIRED_PERMISSION_LEVEL" : "STRING",
"IMAGE_URL" : "STRING",
"WINDOW_CONTENT_URL" : "STRING",
"LINK_TO_APPLICATION_TABLE" : "STRING",
"LINK_TO_APPLICATION_UID" : "STRING",
"LINK_TO_PARAMETER_TABLE" : "STRING",
"LINK_TO_PARAMETER_GROUP_ID" : "STRING",
"FOLDER_PATH" : "STRING",
"COMMENT_DESCRIPTION" : "STRING",
"AUTHOR" : "STRING",
"RECORD_INSERTION_TIME" : "TIMESTAMP WITH TIMEZONE"
},
"DATA_SET" : [
{
"ICON_NAME" : "FSM",
"STATUS" : "On",
"CAPTION" : "State Machine",
"ALTERNATE_TEXT" : "FSM",
"FORCE_ONLY_ONE_INSTANCE" : "True",
"REQUIRED_PERMISSION_LEVEL" : "1",
"IMAGE_URL" : "icon-Physics.gif",
"WINDOW_CONTENT_URL" : "/WebPath/html/StateMachine.html?fsm_name=OtherRuns0",
"LINK_TO_APPLICATION_TABLE" : "NO_LINK",
"LINK_TO_APPLICATION_UID" : "DEFAULT",
"LINK_TO_PARAMETER_TABLE" : "NO_LINK",
"LINK_TO_PARAMETER_GROUP_ID" : "DEFAULT",
"FOLDER_PATH" : "DEFAULT",
"COMMENT_DESCRIPTION" : "",
"AUTHOR" : "admin",
"RECORD_INSERTION_TIME" : "1593446231"
},
{
"ICON_NAME" : "Chat",
"STATUS" : "On",
"CAPTION" : "Chat",
"ALTERNATE_TEXT" : "CHAT",
"FORCE_ONLY_ONE_INSTANCE" : "True",
"REQUIRED_PERMISSION_LEVEL" : "1",
"IMAGE_URL" : "icon-Chat.png",
"WINDOW_CONTENT_URL" : "/WebPath/html/Chat.html",
"LINK_TO_APPLICATION_TABLE" : "XDAQApplicationTable",
"LINK_TO_APPLICATION_UID" : "ChatSupervisor",
"LINK_TO_PARAMETER_TABLE" : "NO_LINK",
"LINK_TO_PARAMETER_GROUP_ID" : "DEFAULT",
"FOLDER_PATH" : "DEFAULT",
"COMMENT_DESCRIPTION" : "The id number will be appended from the linked XDAQ supervisor urn",
"AUTHOR" : "admin",
"RECORD_INSERTION_TIME" : "1593446231"
},
{
"ICON_NAME" : "Logbook",
"STATUS" : "On",
"CAPTION" : "Logbook",
"ALTERNATE_TEXT" : "LOG",
"FORCE_ONLY_ONE_INSTANCE" : "True",
"REQUIRED_PERMISSION_LEVEL" : "1",
"IMAGE_URL" : "icon-Logbook.png",
"WINDOW_CONTENT_URL" : "/WebPath/html/Logbook.html",
"LINK_TO_APPLICATION_TABLE" : "XDAQApplicationTable",
"LINK_TO_APPLICATION_UID" : "LogbookSupervisor",
"LINK_TO_PARAMETER_TABLE" : "NO_LINK",
"LINK_TO_PARAMETER_GROUP_ID" : "DEFAULT",
"FOLDER_PATH" : "DEFAULT",
"COMMENT_DESCRIPTION" : "lid number must match XDAQ supervisor urn",
"AUTHOR" : "admin",
"RECORD_INSERTION_TIME" : "1593446231"
},
{
"ICON_NAME" : "Visualizer",
"STATUS" : "On",
"CAPTION" : "Visualizer",
"ALTERNATE_TEXT" : "VIS",
"FORCE_ONLY_ONE_INSTANCE" : "False",
"REQUIRED_PERMISSION_LEVEL" : "1",
"IMAGE_URL" : "icon-Visualizer.png",
"WINDOW_CONTENT_URL" : "/WebPath/html/Visualization.html",
"LINK_TO_APPLICATION_TABLE" : "XDAQApplicationTable",
"LINK_TO_APPLICATION_UID" : "VisualizerSupervisor",
"LINK_TO_PARAMETER_TABLE" : "NO_LINK",
"LINK_TO_PARAMETER_GROUP_ID" : "DEFAULT",
"FOLDER_PATH" : "DEFAULT",
"COMMENT_DESCRIPTION" : "urn must match XDAQ supervisor urn",
"AUTHOR" : "admin",
"RECORD_INSERTION_TIME" : "1602266225"
},
{
"ICON_NAME" : "MacroMaker",
"STATUS" : "On",
"CAPTION" : "Macro Maker",
"ALTERNATE_TEXT" : "MM",
"FORCE_ONLY_ONE_INSTANCE" : "True",
"REQUIRED_PERMISSION_LEVEL" : "1",
"IMAGE_URL" : "icon-MacroMaker.png",
"WINDOW_CONTENT_URL" : "/WebPath/html/MacroMaker.html",
"LINK_TO_APPLICATION_TABLE" : "XDAQApplicationTable",
"LINK_TO_APPLICATION_UID" : "MacroMakerSupervisor",
"LINK_TO_PARAMETER_TABLE" : "NO_LINK",
"LINK_TO_PARAMETER_GROUP_ID" : "DEFAULT",
"FOLDER_PATH" : "DEFAULT",
"COMMENT_DESCRIPTION" : "lid number must match XDAQ supervisor urn",
"AUTHOR" : "admin",
"RECORD_INSERTION_TIME" : "1593446231"
},
{
"ICON_NAME" : "Console",
"STATUS" : "On",
"CAPTION" : "Console",
"ALTERNATE_TEXT" : "CON",
"FORCE_ONLY_ONE_INSTANCE" : "True",
"REQUIRED_PERMISSION_LEVEL" : "255",
"IMAGE_URL" : "icon-Console.png",
"WINDOW_CONTENT_URL" : "/WebPath/html/Console.html?urn=",
"LINK_TO_APPLICATION_TABLE" : "XDAQApplicationTable",
"LINK_TO_APPLICATION_UID" : "ConsoleSupervisor",
"LINK_TO_PARAMETER_TABLE" : "NO_LINK",
"LINK_TO_PARAMETER_GROUP_ID" : "DEFAULT",
"FOLDER_PATH" : "DEFAULT",
"COMMENT_DESCRIPTION" : "urn must match XDAQ supervisor urn",
"AUTHOR" : "admin",
"RECORD_INSERTION_TIME" : "1593446231"
},
{
"ICON_NAME" : "ConfigureGUI",
"STATUS" : "On",
"CAPTION" : "Configure",
"ALTERNATE_TEXT" : "CFG",
"FORCE_ONLY_ONE_INSTANCE" : "False",
"REQUIRED_PERMISSION_LEVEL" : "10",
"IMAGE_URL" : "icon-Configure.png",
"WINDOW_CONTENT_URL" : "/urn:xdaq-application:lid=",
"LINK_TO_APPLICATION_TABLE" : "XDAQApplicationTable",
"LINK_TO_APPLICATION_UID" : "ConfigurationGUISupervisor",
"LINK_TO_PARAMETER_TABLE" : "NO_LINK",
"LINK_TO_PARAMETER_GROUP_ID" : "DEFAULT",
"FOLDER_PATH" : "DEFAULT",
"COMMENT_DESCRIPTION" : "lid number must match XDAQ supervisor urn",
"AUTHOR" : "admin",
"RECORD_INSERTION_TIME" : "1593446231"
},
{
"ICON_NAME" : "FESubConfigGUI",
"STATUS" : "On",
"CAPTION" : "Front-ends",
"ALTERNATE_TEXT" : "CFG",
"FORCE_ONLY_ONE_INSTANCE" : "False",
"REQUIRED_PERMISSION_LEVEL" : "10",
"IMAGE_URL" : "icon-Configure.png",
"WINDOW_CONTENT_URL" : "/WebPath/html/ConfigurationGUI_subset.html?urn=",
"LINK_TO_APPLICATION_TABLE" : "XDAQApplicationTable",
"LINK_TO_APPLICATION_UID" : "ConfigurationGUISupervisor",
"LINK_TO_PARAMETER_TABLE" : "DesktopWindowParameterTable",
"LINK_TO_PARAMETER_GROUP_ID" : "DEFAULT",
"FOLDER_PATH" : "Config Subsets",
"COMMENT_DESCRIPTION" : "lid number must match XDAQ supervisor urn",
"AUTHOR" : "admin",
"RECORD_INSERTION_TIME" : "1593446231"
},
{
"ICON_NAME" : "DPSubConfigGUI",
"STATUS" : "On",
"CAPTION" : "Data Processors",
"ALTERNATE_TEXT" : "CFG",
"FORCE_ONLY_ONE_INSTANCE" : "False",
"REQUIRED_PERMISSION_LEVEL" : "10",
"IMAGE_URL" : "icon-Configure.png",
"WINDOW_CONTENT_URL" : "/WebPath/html/ConfigurationGUI_subset.html?urn=",
"LINK_TO_APPLICATION_TABLE" : "XDAQApplicationTable",
"LINK_TO_APPLICATION_UID" : "ConfigurationGUISupervisor",
"LINK_TO_PARAMETER_TABLE" : "DesktopWindowParameterTable",
"LINK_TO_PARAMETER_GROUP_ID" : "DEFAULT",
"FOLDER_PATH" : "Config Subsets",
"COMMENT_DESCRIPTION" : "Data Processors config subset",
"AUTHOR" : "admin",
"RECORD_INSERTION_TIME" : "1593446231"
},
{
"ICON_NAME" : "ControlsDashboard",
"STATUS" : "Off",
"CAPTION" : "Controls Dashboard",
"ALTERNATE_TEXT" : "CTRLS",
"FORCE_ONLY_ONE_INSTANCE" : "False",
"REQUIRED_PERMISSION_LEVEL" : "1",
"IMAGE_URL" : "icon-ControlsDashboard.png",
"WINDOW_CONTENT_URL" : "/WebPath/html/SlowControlsDashboard.html?urn=",
"LINK_TO_APPLICATION_TABLE" : "XDAQApplicationTable",
"LINK_TO_APPLICATION_UID" : "ControlsDashboardSupervisor",
"LINK_TO_PARAMETER_TABLE" : "NO_LINK",
"LINK_TO_PARAMETER_GROUP_ID" : "DEFAULT",
"FOLDER_PATH" : "DEFAULT",
"COMMENT_DESCRIPTION" : "urn must match XDAQ supervisor urn",
"AUTHOR" : "admin",
"RECORD_INSERTION_TIME" : "1593446231"
},
{
"ICON_NAME" : "NOvALog",
"STATUS" : "Off",
"CAPTION" : "NOvA Log",
"ALTERNATE_TEXT" : "NOVA",
"FORCE_ONLY_ONE_INSTANCE" : "True",
"REQUIRED_PERMISSION_LEVEL" : "1",
"IMAGE_URL" : "0",
"WINDOW_CONTENT_URL" : "http://dbweb6.fnal.gov:8080/ECL/nova/E/index",
"LINK_TO_APPLICATION_TABLE" : "NO_LINK",
"LINK_TO_APPLICATION_UID" : "DEFAULT",
"LINK_TO_PARAMETER_TABLE" : "NO_LINK",
"LINK_TO_PARAMETER_GROUP_ID" : "DEFAULT",
"FOLDER_PATH" : "DEFAULT",
"COMMENT_DESCRIPTION" : "0 means use ALT for icon",
"AUTHOR" : "admin",
"RECORD_INSERTION_TIME" : "1593446231"
},
{
"ICON_NAME" : "FEMacroTest",
"STATUS" : "Off",
"CAPTION" : "FE Macro Test",
"ALTERNATE_TEXT" : "FE-Mac",
"FORCE_ONLY_ONE_INSTANCE" : "True",
"REQUIRED_PERMISSION_LEVEL" : "1",
"IMAGE_URL" : "0",
"WINDOW_CONTENT_URL" : "/WebPath/html/FEMacroTest.html?urn=",
"LINK_TO_APPLICATION_TABLE" : "XDAQApplicationTable",
"LINK_TO_APPLICATION_UID" : "MacroMakerSupervisor",
"LINK_TO_PARAMETER_TABLE" : "NO_LINK",
"LINK_TO_PARAMETER_GROUP_ID" : "DEFAULT",
"FOLDER_PATH" : "DEFAULT",
"COMMENT_DESCRIPTION" : "lid number must match XDAQ supervisor urn",
"AUTHOR" : "admin",
"RECORD_INSERTION_TIME" : "1593446231"
},
{
"ICON_NAME" : "NIMPlus",
"STATUS" : "On",
"CAPTION" : "NIM+",
"ALTERNATE_TEXT" : "NIM+",
"FORCE_ONLY_ONE_INSTANCE" : "False",
"REQUIRED_PERMISSION_LEVEL" : "1",
"IMAGE_URL" : "icon-Configure.png",
"WINDOW_CONTENT_URL" : "/WebPath/NimPlusWebPath/html/NimPlus_app.html",
"LINK_TO_APPLICATION_TABLE" : "XDAQApplicationTable",
"LINK_TO_APPLICATION_UID" : "ConfigurationGUISupervisor",
"LINK_TO_PARAMETER_TABLE" : "NO_LINK",
"LINK_TO_PARAMETER_GROUP_ID" : "DEFAULT",
"FOLDER_PATH" : "Config Subsets",
"COMMENT_DESCRIPTION" : "Ben's NIM+ web app",
"AUTHOR" : "admin",
"RECORD_INSERTION_TIME" : "1593446231"
},
{
"ICON_NAME" : "AcceleratorStatus",
"STATUS" : "On",
"CAPTION" : "Status",
"ALTERNATE_TEXT" : "Accelerator",
"FORCE_ONLY_ONE_INSTANCE" : "True",
"REQUIRED_PERMISSION_LEVEL" : "1",
"IMAGE_URL" : "0",
"WINDOW_CONTENT_URL" : "http://www-bd.fnal.gov/notifyservlet/www?project=&refresh=on&infolinks=top",
"LINK_TO_APPLICATION_TABLE" : "NO_LINK",
"LINK_TO_APPLICATION_UID" : "DEFAULT",
"LINK_TO_PARAMETER_TABLE" : "NO_LINK",
"LINK_TO_PARAMETER_GROUP_ID" : "DEFAULT",
"FOLDER_PATH" : "FTBF Extras",
"COMMENT_DESCRIPTION" : "Link to FNAL accelerator status.",
"AUTHOR" : "admin",
"RECORD_INSERTION_TIME" : "1593446231"
},
{
"ICON_NAME" : "AccLogbook",
"STATUS" : "On",
"CAPTION" : "Elog",
"ALTERNATE_TEXT" : "Accelerator",
"FORCE_ONLY_ONE_INSTANCE" : "False",
"REQUIRED_PERMISSION_LEVEL" : "1",
"IMAGE_URL" : "0",
"WINDOW_CONTENT_URL" : "https://www-bd.fnal.gov/Elog/?orLogName=Operations",
"LINK_TO_APPLICATION_TABLE" : "NO_LINK",
"LINK_TO_APPLICATION_UID" : "DEFAULT",
"LINK_TO_PARAMETER_TABLE" : "NO_LINK",
"LINK_TO_PARAMETER_GROUP_ID" : "DEFAULT",
"FOLDER_PATH" : "FTBF Extras",
"COMMENT_DESCRIPTION" : "Link to FNAL accelerator elog.",
"AUTHOR" : "admin",
"RECORD_INSERTION_TIME" : "1593446231"
},
{
"ICON_NAME" : "FTBFLogbook",
"STATUS" : "On",
"CAPTION" : "Elog",
"ALTERNATE_TEXT" : "FTBF",
"FORCE_ONLY_ONE_INSTANCE" : "False",
"REQUIRED_PERMISSION_LEVEL" : "1",
"IMAGE_URL" : "0",
"WINDOW_CONTENT_URL" : "http://dbweb6.fnal.gov:8080/ECL/test_beam/E/index",
"LINK_TO_APPLICATION_TABLE" : "NO_LINK",
"LINK_TO_APPLICATION_UID" : "DEFAULT",
"LINK_TO_PARAMETER_TABLE" : "NO_LINK",
"LINK_TO_PARAMETER_GROUP_ID" : "DEFAULT",
"FOLDER_PATH" : "FTBF Extras",
"COMMENT_DESCRIPTION" : "Link to FNAL test beam elog.",
"AUTHOR" : "admin",
"RECORD_INSERTION_TIME" : "1593446231"
},
{
"ICON_NAME" : "FTBFStatus",
"STATUS" : "On",
"CAPTION" : "Status",
"ALTERNATE_TEXT" : "FTBF",
"FORCE_ONLY_ONE_INSTANCE" : "False",
"REQUIRED_PERMISSION_LEVEL" : "1",
"IMAGE_URL" : "0",
"WINDOW_CONTENT_URL" : "https://www-bd.fnal.gov/synoptic/display/MTest/FTBF_Status",
"LINK_TO_APPLICATION_TABLE" : "NO_LINK",
"LINK_TO_APPLICATION_UID" : "DEFAULT",
"LINK_TO_PARAMETER_TABLE" : "NO_LINK",
"LINK_TO_PARAMETER_GROUP_ID" : "DEFAULT",
"FOLDER_PATH" : "FTBF Extras",
"COMMENT_DESCRIPTION" : "No Comment",
"AUTHOR" : "admin",
"RECORD_INSERTION_TIME" : "1593446231"
},
{
"ICON_NAME" : "SmartLaunch",
"STATUS" : "On",
"CAPTION" : "Smart Launch",
"ALTERNATE_TEXT" : "LAUNCH",
"FORCE_ONLY_ONE_INSTANCE" : "True",
"REQUIRED_PERMISSION_LEVEL" : "255",
"IMAGE_URL" : "/WebPath/FTBFWebPath/images/icon-Rocket.png",
"WINDOW_CONTENT_URL" : "/WebPath/FTBFWebPath/html/SmartLaunch.html",
"LINK_TO_APPLICATION_TABLE" : "XDAQApplicationTable",
"LINK_TO_APPLICATION_UID" : "ConfigurationGUISupervisor",
"LINK_TO_PARAMETER_TABLE" : "NO_LINK",
"LINK_TO_PARAMETER_GROUP_ID" : "DEFAULT",
"FOLDER_PATH" : "DEFAULT",
"COMMENT_DESCRIPTION" : "Smart Launch web app",
"AUTHOR" : "admin",
"RECORD_INSERTION_TIME" : "1593446231"
},
{
"ICON_NAME" : "Iterator",
"STATUS" : "On",
"CAPTION" : "Iterator",
"ALTERNATE_TEXT" : "IT",
"FORCE_ONLY_ONE_INSTANCE" : "False",
"REQUIRED_PERMISSION_LEVEL" : "1",
"IMAGE_URL" : "icon-Iterate.png",
"WINDOW_CONTENT_URL" : "/WebPath/html/Iterate.html",
"LINK_TO_APPLICATION_TABLE" : "XDAQApplicationTable",
"LINK_TO_APPLICATION_UID" : "ConfigurationGUISupervisor",
"LINK_TO_PARAMETER_TABLE" : "NO_LINK",
"LINK_TO_PARAMETER_GROUP_ID" : "DEFAULT",
"FOLDER_PATH" : "DEFAULT",
"COMMENT_DESCRIPTION" : "Iterate app",
"AUTHOR" : "admin",
"RECORD_INSERTION_TIME" : "1593446231"
}
]
},
"metadata" : {

},
"search" : [

]
},
"comments" : [

],
"origin" : {
"source" : "template",
"name" : "notprovided",
"format" : "json",
"created" : "2020-10-09T12:57:05.383-0500",
"rawdata" : [

]
},
"version" : "5",
"entities" : [
{
"name" : "OTSROOT",
"assigned" : "2020-10-09T12:57:05.383-0500"
}
],
"configurations" : [
{
"name" : "notprovided",
"assigned" : "2020-10-09T12:57:05.383-0500"
},
{
"name" : "DefaultContext_v19",
"assigned" : "2020-10-09T12:57:06.478-0500"
},
{
"name" : "DefaultContext_v20",
"assigned" : "2020-10-09T13:00:57.836-0500"
},
{
"name" : "DefaultContext_v21",
"assigned" : "2020-10-09T15:30:48.277-0500"
},
{
"name" : "DefaultContext_v22",
"assigned" : "2020-10-09T15:32:23.966-0500"
},
{
"name" : "DefaultContext_v27",
"assigned" : "2020-10-29T11:54:28.163-0500"
},
{
"name" : "DefaultContext_v28",
"assigned" : "2020-10-29T11:54:56.136-0500"
},
{
"name" : "DefaultContext_v29",
"assigned" : "2020-10-29T13:33:30.836-0500"
},
{
"name" : "DefaultContext_v30",
"assigned" : "2020-11-16T17:04:43.145-0600"
},
{
"name" : "DefaultContext_v31",
"assigned" : "2020-11-16T17:07:49.464-0600"
},
{
"name" : "DefaultContext_v32",
"assigned" : "2020-11-16T17:10:03.579-0600"
},
{
"name" : "DefaultContext_v33",
"assigned" : "2021-07-07T14:45:52.008-0500"
},
{
"name" : "DefaultContext_v34",
"assigned" : "2021-07-07T16:02:04.155-0500"
},
{
"name" : "DefaultContext_v35",
"assigned" : "2021-07-07T16:05:37.759-0500"
},
{
"name" : "DefaultContext_v36",
"assigned" : "2021-07-08T14:00:20.251-0500"
},
{
"name" : "DefaultContext_v37",
"assigned" : "2021-07-08T14:16:59.970-0500"
},
{
"name" : "DefaultContext_v38",
"assigned" : "2021-07-08T16:21:56.051-0500"
},
{
"name" : "DefaultContext_v39",
"assigned" : "2021-07-08T16:24:39.167-0500"
},
{
"name" : "DefaultContext_v40",
"assigned" : "2021-07-14T13:02:14.002-0500"
},
{
"name" : "DefaultContext_v41",
"assigned" : "2021-07-14T13:03:01.153-0500"
},
{
"name" : "DefaultContext_v42",
"assigned" : "2021-07-14T14:39:31.556-0500"
},
{
"name" : "DefaultContext_v43",
"assigned" : "2021-07-21T12:08:22.367-0500"
},
{
"name" : "DefaultContext_v44",
"assigned" : "2021-08-03T11:10:39.338-0500"
},
{
"name" : "DefaultContext_v45",
"assigned" : "2021-09-02T14:08:00.729-0500"
},
{
"name" : "DefaultContext_v46",
"assigned" : "2021-09-24T15:36:52.369-0500"
},
{
"name" : "DefaultContext_v47",
"assigned" : "2021-09-28T10:22:57.340-0500"
},
{
"name" : "DefaultContext_v48",
"assigned" : "2021-11-10T15:11:05.036-0600"
}
],
"changelog" : "notprovided",
"bookkeeping" : {
"isdeleted" : false,
"isreadonly" : false,
"updates" : [
{
"event" : "addConfiguration",
"timestamp" : "2020-10-09T12:57:05.383-0500",
"value" : {
"name" : "notprovided",
"assigned" : "2020-10-09T12:57:05.383-0500"
}
},
{
"event" : "setVersion",
"timestamp" : "2020-10-09T12:57:05.383-0500",
"value" : {
"name" : "5",
"assigned" : "2020-10-09T12:57:05.383-0500"
}
},
{
"event" : "setCollection",
"timestamp" : "2020-10-09T12:57:05.383-0500",
"value" : {
"name" : "DesktopIconTable",
"assigned" : "2020-10-09T12:57:05.383-0500"
}
},
{
"event" : "addEntity",
"timestamp" : "2020-10-09T12:57:05.383-0500",
"value" : {
"name" : "OTSROOT",
"assigned" : "2020-10-09T12:57:05.383-0500"
}
},
{
"event" : "addConfiguration",
"timestamp" : "2020-10-09T12:57:06.478-0500",
"value" : {
"name" : "DefaultContext_v19",
"assigned" : "2020-10-09T12:57:06.478-0500"
}
},
{
"event" : "addConfiguration",
"timestamp" : "2020-10-09T13:00:57.836-0500",
"value" : {
"name" : "DefaultContext_v20",
"assigned" : "2020-10-09T13:00:57.836-0500"
}
},
{
"event" : "addConfiguration",
"timestamp" : "2020-10-09T15:30:48.277-0500",
"value" : {
"name" : "DefaultContext_v21",
"assigned" : "2020-10-09T15:30:48.277-0500"
}
},
{
"event" : "addConfiguration",
"timestamp" : "2020-10-09T15:32:23.966-0500",
"value" : {
"name" : "DefaultContext_v22",
"assigned" : "2020-10-09T15:32:23.966-0500"
}
},
{
"event" : "addConfiguration",
"timestamp" : "2020-10-29T11:54:28.163-0500",
"value" : {
"name" : "DefaultContext_v27",
"assigned" : "2020-10-29T11:54:28.163-0500"
}
},
{
"event" : "addConfiguration",
"timestamp" : "2020-10-29T11:54:56.136-0500",
"value" : {
"name" : "DefaultContext_v28",
"assigned" : "2020-10-29T11:54:56.136-0500"
}
},
{
"event" : "addConfiguration",
"timestamp" : "2020-10-29T13:33:30.836-0500",
"value" : {
"name" : "DefaultContext_v29",
"assigned" : "2020-10-29T13:33:30.836-0500"
}
},
{
"event" : "addConfiguration",
"timestamp" : "2020-11-16T17:04:43.145-0600",
"value" : {
"name" : "DefaultContext_v30",
"assigned" : "2020-11-16T17:04:43.145-0600"
}
},
{
"event" : "addConfiguration",
"timestamp" : "2020-11-16T17:07:49.464-0600",
"value" : {
"name" : "DefaultContext_v31",
"assigned" : "2020-11-16T17:07:49.464-0600"
}
},
{
"event" : "addConfiguration",
"timestamp" : "2020-11-16T17:10:03.579-0600",
"value" : {
"name" : "DefaultContext_v32",
"assigned" : "2020-11-16T17:10:03.579-0600"
}
},
{
"event" : "addConfiguration",
"timestamp" : "2021-07-07T14:45:52.008-0500",
"value" : {
"name" : "DefaultContext_v33",
"assigned" : "2021-07-07T14:45:52.008-0500"
}
},
{
"event" : "addConfiguration",
"timestamp" : "2021-07-07T16:02:04.155-0500",
"value" : {
"name" : "DefaultContext_v34",
"assigned" : "2021-07-07T16:02:04.155-0500"
}
},
{
"event" : "addConfiguration",
"timestamp" : "2021-07-07T16:05:37.760-0500",
"value" : {
"name" : "DefaultContext_v35",
"assigned" : "2021-07-07T16:05:37.759-0500"
}
},
{
"event" : "addConfiguration",
"timestamp" : "2021-07-08T14:00:20.251-0500",
"value" : {
"name" : "DefaultContext_v36",
"assigned" : "2021-07-08T14:00:20.251-0500"
}
},
{
"event" : "addConfiguration",
"timestamp" : "2021-07-08T14:16:59.970-0500",
"value" : {
"name" : "DefaultContext_v37",
"assigned" : "2021-07-08T14:16:59.970-0500"
}
},
{
"event" : "addConfiguration",
"timestamp" : "2021-07-08T16:21:56.051-0500",
"value" : {
"name" : "DefaultContext_v38",
"assigned" : "2021-07-08T16:21:56.051-0500"
}
},
{
"event" : "addConfiguration",
"timestamp" : "2021-07-08T16:24:39.167-0500",
"value" : {
"name" : "DefaultContext_v39",
"assigned" : "2021-07-08T16:24:39.167-0500"
}
},
{
"event" : "addConfiguration",
"timestamp" : "2021-07-14T13:02:14.002-0500",
"value" : {
"name" : "DefaultContext_v40",
"assigned" : "2021-07-14T13:02:14.002-0500"
}
},
{
"event" : "addConfiguration",
"timestamp" : "2021-07-14T13:03:01.153-0500",
"value" : {
"name" : "DefaultContext_v41",
"assigned" : "2021-07-14T13:03:01.153-0500"
}
},
{
"event" : "addConfiguration",
"timestamp" : "2021-07-14T14:39:31.557-0500",
"value" : {
"name" : "DefaultContext_v42",
"assigned" : "2021-07-14T14:39:31.556-0500"
}
},
{
"event" : "addConfiguration",
"timestamp" : "2021-07-21T12:08:22.367-0500",
"value" : {
"name" : "DefaultContext_v43",
"assigned" : "2021-07-21T12:08:22.367-0500"
}
},
{
"event" : "addConfiguration",
"timestamp" : "2021-08-03T11:10:39.338-0500",
"value" : {
"name" : "DefaultContext_v44",
"assigned" : "2021-08-03T11:10:39.338-0500"
}
},
{
"event" : "addConfiguration",
"timestamp" : "2021-09-02T14:08:00.729-0500",
"value" : {
"name" : "DefaultContext_v45",
"assigned" : "2021-09-02T14:08:00.729-0500"
}
},
{
"event" : "addConfiguration",
"timestamp" : "2021-09-24T15:36:52.369-0500",
"value" : {
"name" : "DefaultContext_v46",
"assigned" : "2021-09-24T15:36:52.369-0500"
}
},
{
"event" : "addConfiguration",
"timestamp" : "2021-09-28T10:22:57.340-0500",
"value" : {
"name" : "DefaultContext_v47",
"assigned" : "2021-09-28T10:22:57.340-0500"
}
},
{
"event" : "addConfiguration",
"timestamp" : "2021-11-10T15:11:05.036-0600",
"value" : {
"name" : "DefaultContext_v48",
"assigned" : "2021-11-10T15:11:05.036-0600"
}
}
],
"created" : "2020-10-09T12:57:05.383-0500"
},
"_id" : {
"$oid" : "f4ff41f165b94e91bfa76d4c"
},
"collection" : "DesktopIconTable",
"aliases" : {
"active" : [

],
"history" : [

]
},
"runs" : [

],
"attachments" : [

],
"configtype" : "notprovided"
}