{
"ouid" : [
"909d8bc872d34451b1281209"
],
"version" : {
"0" : [
"909d8bc872d34451b1281209"
]
},
"configurations.name" : {
"notprovided" : [
"909d8bc872d34451b1281209"
],
"iterateDefaultGroup_v0" : [
"909d8bc872d34451b1281209"
],
"iterateDefaultGroup_v1" : [
"909d8bc872d34451b1281209"
],
"iterateDefaultGroup_v2" : [
"909d8bc872d34451b1281209"
],
"iterateDefaultGroup_v3" : [
"909d8bc872d34451b1281209"
],
"iterateDefaultGroup_v4" : [
"909d8bc872d34451b1281209"
],
"iterateDefaultGroup_v5" : [
"909d8bc872d34451b1281209"
],
"iterateDefaultGroup_v6" : [
"909d8bc872d34451b1281209"
],
"iterateDefaultGroup_v7" : [
"909d8bc872d34451b1281209"
],
"iterateDefaultGroup_v8" : [
"909d8bc872d34451b1281209"
],
"iterateDefaultGroup_v9" : [
"909d8bc872d34451b1281209"
],
"iterateDefaultGroup_v10" : [
"909d8bc872d34451b1281209"
],
"iterateDefaultGroup_v11" : [
"909d8bc872d34451b1281209"
],
"iterateDefaultGroup_v12" : [
"909d8bc872d34451b1281209"
],
"iterateDefaultGroup_v13" : [
"909d8bc872d34451b1281209"
],
"iterateDefaultGroup_v14" : [
"909d8bc872d34451b1281209"
],
"iterateDefaultGroup_v15" : [
"909d8bc872d34451b1281209"
],
"iterateDefaultGroup_v16" : [
"909d8bc872d34451b1281209"
],
"iterateDefaultGroup_v17" : [
"909d8bc872d34451b1281209"
],
"iterateDefaultGroup_v18" : [
"909d8bc872d34451b1281209"
],
"iterateDefaultGroup_v19" : [
"909d8bc872d34451b1281209"
],
"iterateDefaultGroup_v20" : [
"909d8bc872d34451b1281209"
],
"iterateDefaultGroup_v21" : [
"909d8bc872d34451b1281209"
],
"iterateDefaultGroup_v22" : [
"909d8bc872d34451b1281209"
],
"iterateDefaultGroup_v23" : [
"909d8bc872d34451b1281209"
],
"iterateDefaultGroup_v24" : [
"909d8bc872d34451b1281209"
],
"iterateDefaultGroup_v25" : [
"909d8bc872d34451b1281209"
],
"iterateDefaultGroup_v26" : [
"909d8bc872d34451b1281209"
],
"iterateDefaultGroup_v27" : [
"909d8bc872d34451b1281209"
],
"iterateDefaultGroup_v28" : [
"909d8bc872d34451b1281209"
],
"iterateDefaultGroup_v29" : [
"909d8bc872d34451b1281209"
],
"iterateDefaultGroup_v30" : [
"909d8bc872d34451b1281209"
],
"iterateDefaultGroup_v31" : [
"909d8bc872d34451b1281209"
],
"iterateDefaultGroup_v32" : [
"909d8bc872d34451b1281209"
],
"iterateDefaultGroup_v33" : [
"909d8bc872d34451b1281209"
],
"iterateDefaultGroup_v34" : [
"909d8bc872d34451b1281209"
],
"iterateDefaultGroup_v35" : [
"909d8bc872d34451b1281209"
],
"iterateDefaultGroup_v36" : [
"909d8bc872d34451b1281209"
],
"iterateDefaultGroup_v37" : [
"909d8bc872d34451b1281209"
],
"iterateDefaultGroup_v38" : [
"909d8bc872d34451b1281209"
],
"iterateDefaultGroup_v39" : [
"909d8bc872d34451b1281209"
],
"iterateDefaultGroup_v40" : [
"909d8bc872d34451b1281209"
],
"iterateDefaultGroup_v41" : [
"909d8bc872d34451b1281209"
],
"iterateDefaultGroup_v42" : [
"909d8bc872d34451b1281209"
],
"iterateDefaultGroup_v43" : [
"909d8bc872d34451b1281209"
],
"iterateDefaultGroup_v44" : [
"909d8bc872d34451b1281209"
],
"iterateDefaultGroup_v45" : [
"909d8bc872d34451b1281209"
],
"iterateDefaultGroup_v46" : [
"909d8bc872d34451b1281209"
],
"iterateDefaultGroup_v47" : [
"909d8bc872d34451b1281209"
],
"iterateDefaultGroup_v48" : [
"909d8bc872d34451b1281209"
],
"iterateDefaultGroup_v49" : [
"909d8bc872d34451b1281209"
],
"iterateDefaultGroup_v50" : [
"909d8bc872d34451b1281209"
],
"iterateDefaultGroup_v51" : [
"909d8bc872d34451b1281209"
],
"iterateDefaultGroup_v52" : [
"909d8bc872d34451b1281209"
],
"iterateDefaultGroup_v53" : [
"909d8bc872d34451b1281209"
],
"iterateDefaultGroup_v54" : [
"909d8bc872d34451b1281209"
],
"iterateDefaultGroup_v55" : [
"909d8bc872d34451b1281209"
],
"iterateDefaultGroup_v56" : [
"909d8bc872d34451b1281209"
],
"iterateDefaultGroup_v57" : [
"909d8bc872d34451b1281209"
],
"iterateDefaultGroup_v58" : [
"909d8bc872d34451b1281209"
],
"iterateDefaultGroup_v59" : [
"909d8bc872d34451b1281209"
],
"iterateDefaultGroup_v60" : [
"909d8bc872d34451b1281209"
],
"iterateDefaultGroup_v61" : [
"909d8bc872d34451b1281209"
],
"iterateDefaultGroup_v62" : [
"909d8bc872d34451b1281209"
],
"iterateDefaultGroup_v63" : [
"909d8bc872d34451b1281209"
],
"iterateDefaultGroup_v64" : [
"909d8bc872d34451b1281209"
],
"iterateDefaultGroup_v65" : [
"909d8bc872d34451b1281209"
],
"iterateDefaultGroup_v66" : [
"909d8bc872d34451b1281209"
],
"iterateDefaultGroup_v67" : [
"909d8bc872d34451b1281209"
],
"iterateDefaultGroup_v68" : [
"909d8bc872d34451b1281209"
],
"iterateDefaultGroup_v69" : [
"909d8bc872d34451b1281209"
],
"iterateDefaultGroup_v70" : [
"909d8bc872d34451b1281209"
],
"iterateDefaultGroup_v71" : [
"909d8bc872d34451b1281209"
],
"iterateDefaultGroup_v72" : [
"909d8bc872d34451b1281209"
],
"iterateDefaultGroup_v73" : [
"909d8bc872d34451b1281209"
],
"iterateDefaultGroup_v74" : [
"909d8bc872d34451b1281209"
],
"iterateDefaultGroup_v75" : [
"909d8bc872d34451b1281209"
],
"iterateDefaultGroup_v76" : [
"909d8bc872d34451b1281209"
],
"iterateDefaultGroup_v77" : [
"909d8bc872d34451b1281209"
],
"iterateDefaultGroup_v78" : [
"909d8bc872d34451b1281209"
],
"iterateDefaultGroup_v79" : [
"909d8bc872d34451b1281209"
],
"iterateDefaultGroup_v80" : [
"909d8bc872d34451b1281209"
],
"iterateDefaultGroup_v81" : [
"909d8bc872d34451b1281209"
]
},
"entities.name" : {
"OTSROOT" : [
"909d8bc872d34451b1281209"
]
},
"aliases.active.name" : {

},
"runs.name" : {

},
"configurations.assigned" : {
"notprovided" : [
"2018-09-10T09:26:39.170-0500"
],
"iterateDefaultGroup_v0" : [
"2018-09-10T09:26:39.676-0500"
],
"iterateDefaultGroup_v1" : [
"2018-09-10T09:27:20.537-0500"
],
"iterateDefaultGroup_v2" : [
"2020-07-28T16:25:06.106-0500"
],
"iterateDefaultGroup_v3" : [
"2020-07-29T13:52:20.407-0500"
],
"iterateDefaultGroup_v4" : [
"2020-07-29T13:56:47.529-0500"
],
"iterateDefaultGroup_v5" : [
"2020-07-29T15:14:11.778-0500"
],
"iterateDefaultGroup_v6" : [
"2020-10-09T16:10:09.987-0500"
],
"iterateDefaultGroup_v7" : [
"2020-10-09T16:31:31.908-0500"
],
"iterateDefaultGroup_v8" : [
"2020-10-09T16:46:00.595-0500"
],
"iterateDefaultGroup_v9" : [
"2020-10-12T10:30:01.716-0500"
],
"iterateDefaultGroup_v10" : [
"2020-10-12T13:54:18.137-0500"
],
"iterateDefaultGroup_v11" : [
"2020-10-12T15:28:45.712-0500"
],
"iterateDefaultGroup_v12" : [
"2020-10-12T15:33:41.085-0500"
],
"iterateDefaultGroup_v13" : [
"2020-10-26T10:34:09.522-0500"
],
"iterateDefaultGroup_v14" : [
"2020-10-26T11:12:08.581-0500"
],
"iterateDefaultGroup_v15" : [
"2020-10-26T13:20:58.759-0500"
],
"iterateDefaultGroup_v16" : [
"2020-10-26T13:46:31.661-0500"
],
"iterateDefaultGroup_v17" : [
"2020-10-27T17:08:44.293-0500"
],
"iterateDefaultGroup_v18" : [
"2021-06-30T15:46:04.005-0500"
],
"iterateDefaultGroup_v19" : [
"2021-07-12T11:48:21.619-0500"
],
"iterateDefaultGroup_v20" : [
"2021-07-12T13:38:44.745-0500"
],
"iterateDefaultGroup_v21" : [
"2021-07-12T13:40:39.685-0500"
],
"iterateDefaultGroup_v22" : [
"2021-07-14T16:20:56.564-0500"
],
"iterateDefaultGroup_v23" : [
"2021-07-20T15:29:51.181-0500"
],
"iterateDefaultGroup_v24" : [
"2021-07-22T18:34:18.917-0500"
],
"iterateDefaultGroup_v25" : [
"2021-07-23T12:39:38.269-0500"
],
"iterateDefaultGroup_v26" : [
"2021-07-23T12:45:35.694-0500"
],
"iterateDefaultGroup_v27" : [
"2021-07-23T13:08:43.386-0500"
],
"iterateDefaultGroup_v28" : [
"2021-07-23T13:16:29.958-0500"
],
"iterateDefaultGroup_v29" : [
"2021-07-23T14:16:53.726-0500"
],
"iterateDefaultGroup_v30" : [
"2021-07-28T08:44:04.695-0500"
],
"iterateDefaultGroup_v31" : [
"2021-07-28T09:04:35.468-0500"
],
"iterateDefaultGroup_v32" : [
"2021-07-28T09:08:06.283-0500"
],
"iterateDefaultGroup_v33" : [
"2021-07-28T09:09:00.280-0500"
],
"iterateDefaultGroup_v34" : [
"2021-07-28T09:11:42.337-0500"
],
"iterateDefaultGroup_v35" : [
"2021-07-28T10:45:28.369-0500"
],
"iterateDefaultGroup_v36" : [
"2021-07-28T11:09:41.531-0500"
],
"iterateDefaultGroup_v37" : [
"2021-07-28T11:56:31.943-0500"
],
"iterateDefaultGroup_v38" : [
"2021-07-28T13:37:16.453-0500"
],
"iterateDefaultGroup_v39" : [
"2021-07-28T14:34:06.659-0500"
],
"iterateDefaultGroup_v40" : [
"2021-07-28T14:42:29.968-0500"
],
"iterateDefaultGroup_v41" : [
"2021-07-28T14:47:06.945-0500"
],
"iterateDefaultGroup_v42" : [
"2021-07-28T14:48:23.306-0500"
],
"iterateDefaultGroup_v43" : [
"2021-07-28T14:48:51.245-0500"
],
"iterateDefaultGroup_v44" : [
"2021-07-28T14:51:22.690-0500"
],
"iterateDefaultGroup_v45" : [
"2021-07-28T15:03:29.629-0500"
],
"iterateDefaultGroup_v46" : [
"2021-07-28T15:11:18.491-0500"
],
"iterateDefaultGroup_v47" : [
"2021-07-28T15:13:39.949-0500"
],
"iterateDefaultGroup_v48" : [
"2021-07-28T15:30:21.072-0500"
],
"iterateDefaultGroup_v49" : [
"2021-07-28T15:42:30.326-0500"
],
"iterateDefaultGroup_v50" : [
"2021-07-28T15:54:18.250-0500"
],
"iterateDefaultGroup_v51" : [
"2021-07-28T16:06:51.068-0500"
],
"iterateDefaultGroup_v52" : [
"2021-07-28T16:13:47.101-0500"
],
"iterateDefaultGroup_v53" : [
"2021-07-28T16:15:01.263-0500"
],
"iterateDefaultGroup_v54" : [
"2021-09-02T13:40:33.472-0500"
],
"iterateDefaultGroup_v55" : [
"2021-09-02T14:33:16.451-0500"
],
"iterateDefaultGroup_v56" : [
"2021-09-02T14:42:08.957-0500"
],
"iterateDefaultGroup_v57" : [
"2021-10-12T11:12:24.747-0500"
],
"iterateDefaultGroup_v58" : [
"2021-10-12T16:34:03.478-0500"
],
"iterateDefaultGroup_v59" : [
"2021-10-13T18:15:37.181-0500"
],
"iterateDefaultGroup_v60" : [
"2021-10-15T15:39:58.733-0500"
],
"iterateDefaultGroup_v61" : [
"2023-03-10T15:26:53.572-0600"
],
"iterateDefaultGroup_v62" : [
"2023-03-15T09:42:49.011-0500"
],
"iterateDefaultGroup_v63" : [
"2023-03-16T13:47:44.086-0500"
],
"iterateDefaultGroup_v64" : [
"2023-03-16T14:10:02.827-0500"
],
"iterateDefaultGroup_v65" : [
"2023-04-04T11:27:07.333-0500"
],
"iterateDefaultGroup_v66" : [
"2023-04-07T12:13:38.992-0500"
],
"iterateDefaultGroup_v67" : [
"2023-04-07T13:50:52.434-0500"
],
"iterateDefaultGroup_v68" : [
"2023-04-07T13:53:27.092-0500"
],
"iterateDefaultGroup_v69" : [
"2023-04-07T13:58:49.176-0500"
],
"iterateDefaultGroup_v70" : [
"2023-04-07T14:10:01.621-0500"
],
"iterateDefaultGroup_v71" : [
"2023-04-07T14:33:16.649-0500"
],
"iterateDefaultGroup_v72" : [
"2023-04-07T14:47:41.124-0500"
],
"iterateDefaultGroup_v73" : [
"2023-04-07T15:12:10.401-0500"
],
"iterateDefaultGroup_v74" : [
"2023-04-07T15:32:05.212-0500"
],
"iterateDefaultGroup_v75" : [
"2023-04-07T16:23:30.293-0500"
],
"iterateDefaultGroup_v76" : [
"2023-04-10T13:12:21.014-0500"
],
"iterateDefaultGroup_v77" : [
"2023-04-10T14:03:47.316-0500"
],
"iterateDefaultGroup_v78" : [
"2023-04-13T17:40:21.847-0500"
],
"iterateDefaultGroup_v79" : [
"2023-04-13T17:42:56.956-0500"
],
"iterateDefaultGroup_v80" : [
"2023-04-14T09:32:22.361-0500"
],
"iterateDefaultGroup_v81" : [
"2023-04-14T16:25:20.937-0500"
]
}
}