06 Mar 2023 16:29:46.902 [140598891407552] INFO  localhost.p:2015 <> - xdaq version: 05.12.00, compiled on Oct  7 2022 at 18:56:42, 64bit
06 Mar 2023 16:29:46.905 [140598891407552] INFO  localhost.p:2015 <> - Loaded profile: /home/daq/Burnin/srcs/otsdaq_cmsburninbox/DataNCP/XDAQConfigurations/otsConfiguration_CMake.xml
06 Mar 2023 16:29:46.908 [140598891407552] INFO  localhost.p:2015 <> - core::b2innub version: 02.05.02, compiled on Oct  7 2022 at 18:58:14
06 Mar 2023 16:29:46.910 [140598891407552] INFO  localhost.p:2015 <> - core::i2outils version: 04.00.00, compiled on Oct  7 2022 at 18:57:15
06 Mar 2023 16:29:46.914 [140598891407552] INFO  localhost.p:2015 <> - core::executive version: 04.04.00, compiled on Oct  7 2022 at 18:57:56
06 Mar 2023 16:29:46.920 [140598891407552] INFO  localhost.p:2015 <> - core::b2inutils version: 04.04.05, compiled on Oct  7 2022 at 18:58:18
06 Mar 2023 16:29:46.928 [140598891407552] INFO  localhost.p:2015 <> - core::pthttp version: 04.07.00, compiled on Oct  7 2022 at 18:57:20
06 Mar 2023 16:29:46.931 [140598891407552] INFO  localhost.p:2015 <> - core::ptfifo version: 04.04.00, compiled on Oct  7 2022 at 18:57:45
06 Mar 2023 16:29:46.934 [140598891407552] INFO  localhost.p:2015 <> - core::xrelay version: 04.02.00, compiled on Oct  7 2022 at 18:58:10
06 Mar 2023 16:29:46.940 [140598891407552] INFO  localhost.p:2015 <> - core::hyperdaq version: 05.04.01, compiled on Oct  7 2022 at 18:58:09
06 Mar 2023 16:29:46.941 [140598891407552] DEBUG localhost.p:2015 <> - Create application descriptor for class: executive::Application id: 0
06 Mar 2023 16:29:46.983 [140598891407552] INFO  localhost.p:2015.executive::Application.lid(0) <> - Log URL not set (was already console)
06 Mar 2023 16:29:46.983 [140598891407552] INFO  localhost.p:2015.executive::Application.lid(0) <> - Changed Log level to INFO
06 Mar 2023 16:29:46.990 [140598891407552] INFO  localhost.p:2015.pt::http::PeerTransportHTTP.lid(1) <> - No security policies on this server
03-06 11:29:47.199462    MetricManager     INFO MetricManager(): MetricManager CONSTRUCTOR
03-06 11:29:47.203401 MessageFacility.h    DEBUG INIT_MF(...): Configuring message facility with /home/daq/Burnin/srcs/otsdaq_cmsburninbox/DataNCP/MessageFacilityConfigurations/MessageFacilityGen.fcl
otsConsole: {
	type: UDP
	threshold: DEBUG
	filename_delimit: "/src"
	port: 30000
	host: "127.0.0.1"
}
console: {
	type: "OTS"
	threshold: "DEBUG"
	filename_delimit: "/src"
	format_string: "|%L:%N:%f [%u]	%m"

}

file: ""

|Info:configureMessageFacility:configureMessageFacility.cc [274]	Message Facility Application . configured with: destinations:{console:{filename_delimit:"/src" format_string:"|%L:%N:%f [%u]\t%m" threshold:"DEBUG" type:"OTS"} file:"" otsConsole:{filename_delimit:"/src" host:"127.0.0.1" port:30000 threshold:"DEBUG" type:"UDP"}}
03-06 11:29:47.226721             OTSDAQ_TRACE     INFO ResolveHost(...): Resolving host 127.0.0.1, on port 30000
03-06 11:29:47.227826             OTSDAQ_TRACE     INFO GetInterfaceForNetwork(...): Resolving ip localhost.localdomain
|Debug:WebUsers:otsdaq/otsdaq/WebUsersUtilities/WebUsers.cc [484]	/home/daq/Burnin/srcs/otsdaq_cmsburninbox/DataNCP/ServiceData/LoginData/HashesData//hashes.xml
|Debug:WebUsers:otsdaq/otsdaq/WebUsersUtilities/WebUsers.cc [537]	1 Hashes found.
|Debug:WebUsers:otsdaq/otsdaq/WebUsersUtilities/WebUsers.cc [574]	Users database: /home/daq/Burnin/srcs/otsdaq_cmsburninbox/DataNCP/ServiceData/LoginData/UsersData//users.xml
|Debug:WebUsers:otsdaq/otsdaq/WebUsersUtilities/WebUsers.cc [601]	Found Users database next user Id: 1
|Info:WebUsers:otsdaq/otsdaq/WebUsersUtilities/WebUsers.cc [662]	User 'admin' is not a member of the default user group 'allUsers.' Assuming user account is inactive (permission level := 0).
|Debug:WebUsers:otsdaq/otsdaq/WebUsersUtilities/WebUsers.cc [698]	1 Users found.
User [0] 	Name: admin               	Display Name: Administrator                 	Email:                               	NAC:      	FailedCount: 0	Permissions: allUsers: 255
|Debug:WebUsers:otsdaq/otsdaq/WebUsersUtilities/WebUsers.cc [3252]	The current security type is NoSecurity
|Debug:WebUsers:otsdaq/otsdaq/WebUsersUtilities/WebUsers.cc [3262]	CareAboutCookieCodes_: 0
|Debug:WebUsers:otsdaq/otsdaq/WebUsersUtilities/WebUsers.cc [402]	/home/daq/Burnin/srcs/otsdaq_cmsburninbox/DataNCP/ServiceData/LoginData/UsersData//activeSessions.sv
|Info:WebUsers:otsdaq/otsdaq/WebUsersUtilities/WebUsers.cc [406]	Persistent active sessions were not found to be loaded at file: /home/daq/Burnin/srcs/otsdaq_cmsburninbox/DataNCP/ServiceData/LoginData/UsersData//activeSessions.sv
|Debug:WebUsers:otsdaq/otsdaq/WebUsersUtilities/WebUsers.cc [2928]	Attempting to load username with lock: admin
|Debug:WebUsers:otsdaq/otsdaq/WebUsersUtilities/WebUsers.cc [2942]	Setting lock
|Debug:WebUsers:otsdaq/otsdaq/WebUsersUtilities/WebUsers.cc [2669]	actingUser = admin
|Debug:WebUsers:otsdaq/otsdaq/WebUsersUtilities/WebUsers.cc [2670]	Permissions: allUsers: 255
|Debug:WebUsers:otsdaq/otsdaq/WebUsersUtilities/WebUsers.cc [2671]	usersUsernameWithLock_ = 
|Debug:WebUsers:otsdaq/otsdaq/WebUsersUtilities/WebUsers.cc [2672]	lock = 1
|Debug:WebUsers:otsdaq/otsdaq/WebUsersUtilities/WebUsers.cc [2673]	username = admin
|Debug:WebUsers:otsdaq/otsdaq/WebUsersUtilities/WebUsers.cc [2674]	isUsernameActive(username) = 0
|Info:WebUsers:otsdaq/otsdaq/WebUsersUtilities/WebUsers.cc [2700]	User 'admin' has locked out the system!
|Debug:WebUsers:otsdaq/otsdaq/WebUsersUtilities/WebUsers.cc [157]	Done with Web Users initialization!
06 Mar 2023 16:29:47.236 [140598891407552] INFO  localhost.p:2015 <> - otsdaq::GatewaySupervisor_ version: 02.06.08, compiled on Mar  6 2023 at 10:32:29
06 Mar 2023 16:29:47.245 [140598891407552] INFO  localhost.p:2015 <> - otsdaq::Chat version: 02.06.08, compiled on Mar  6 2023 at 10:34:40
06 Mar 2023 16:29:47.260 [140598891407552] INFO  localhost.p:2015 <> - otsdaq::Console version: 02.06.08, compiled on Mar  6 2023 at 10:36:59
06 Mar 2023 16:29:47.274 [140598891407552] INFO  localhost.p:2015 <> - otsdaq::ConfigurationGUI version: 02.06.08, compiled on Mar  6 2023 at 10:34:53
06 Mar 2023 16:29:47.288 [140598891407552] INFO  localhost.p:2015 <> - otsdaq::MacroMaker version: 02.06.08, compiled on Mar  6 2023 at 10:40:12
|Debug:FSM:otsdaq/otsdaq/FiniteStateMachine/FiniteStateMachine.cc [19]	FSM-GatewaySupervisor	<> Constructing FiniteStateMachine
|Debug:FSM:otsdaq/otsdaq/FiniteStateMachine/RunControlStateMachine.cc [107]	FSM-GatewaySupervisor	<> Resetting RunControlStateMachine with name 'GatewaySupervisor'...
|Debug:CorePropertySupervisorBase.cc:otsdaq/otsdaq/CoreSupervisors/CorePropertySupervisorBase.cc [24]	GatewaySupervisor:UNINITIALIZED_supervisorApplicationUID	<> application->getApplicationContext()->getContextDescriptor()->getURL() = http://localhost:2015
|Debug:CorePropertySupervisorBase.cc:otsdaq/otsdaq/CoreSupervisors/CorePropertySupervisorBase.cc [25]	GatewaySupervisor:UNINITIALIZED_supervisorApplicationUID	<> application->getApplicationDescriptor()->getLocalId() = 200
|Debug:CorePropertySupervisorBase.cc:otsdaq/otsdaq/CoreSupervisors/CorePropertySupervisorBase.cc [26]	GatewaySupervisor:UNINITIALIZED_supervisorApplicationUID	<> supervisorClass_ = ots::GatewaySupervisor
|Debug:CorePropertySupervisorBase.cc:otsdaq/otsdaq/CoreSupervisors/CorePropertySupervisorBase.cc [27]	GatewaySupervisor:UNINITIALIZED_supervisorApplicationUID	<> supervisorClassNoNamespace_ = GatewaySupervisor
|Debug:AllSupervisorInfo.cc:otsdaq/otsdaq/SupervisorInfo/AllSupervisorInfo.cc [44]	Initializing info based on XDAQ context...
|Debug:SupervisorDescriptorInfoBase.cc:otsdaq/otsdaq/SupervisorInfo/SupervisorDescriptorInfoBase.cc [33]	Init
|Debug:AllSupervisorInfo.cc:otsdaq/otsdaq/SupervisorInfo/AllSupervisorInfo.cc [103]	Initializing info for Normal mode XDAQ context...
|Debug:TableBase:otsdaq/otsdaq/TableCore/TableBase.cc [109]	TableBase-TableGroupMetadata	<> Special table 'TableGroupMetadata' constructed. 1
|Debug:ConfigurationManager:otsdaq/otsdaq/ConfigurationInterface/ConfigurationManager.cc [197]	READONLY_USER	<> username_ = READONLY_USER
|Debug:ConfigurationManager:otsdaq/otsdaq/ConfigurationInterface/ConfigurationManager.cc [244]	READONLY_USER	<> ACTIVE_GROUPS_FILENAME = /home/daq/Burnin/srcs/otsdaq_cmsburninbox/DataNCP/ServiceData/ActiveTableGroups.cfg
|Debug:ConfigurationManager:otsdaq/otsdaq/ConfigurationInterface/ConfigurationManager.cc [245]	READONLY_USER	<> ARTDAQ_DATABASE_URI = filesystemdb:///home/daq/Burnin/srcs/otsdaq_cmsburninbox/databases/filesystemdb/2023_03_NCP_db
|Debug:ConfigurationManager:otsdaq/otsdaq/ConfigurationInterface/ConfigurationManager.cc [1401]	READONLY_USER	<> ------------------------------------- init start    	 [for all plug-ins in Context group 'DefaultContext(75)']
|Debug:MessageFacilityTable_table.cc:otsdaq/otsdaq/TablePlugins/MessageFacilityTable_table.cc [120]	Found FWD/WEB/QT true/true/true and IP:Port:FwdPort 127.0.0.1:30000:30001 in MesageFacility table.
|Debug:MessageFacilityTable_table.cc:otsdaq/otsdaq/TablePlugins/MessageFacilityTable_table.cc [159]	Forwarding to Web GUI at IP:Port:FwdPort 127.0.0.1:30000:30001 with UDP forward MesageFacility.
|Debug:MessageFacilityTable_table.cc:otsdaq/otsdaq/TablePlugins/MessageFacilityTable_table.cc [204]	Wrote /home/daq/Burnin/srcs/otsdaq_cmsburninbox/DataNCP/MessageFacilityConfigurations/QuietForwarderGen.cfg:
RECEIVE_PORT 	 30000
DESTINATION_PORT 	 30001
DESTINATION_IP 	 127.0.0.1
|Debug:MessageFacilityTable_table.cc:otsdaq/otsdaq/TablePlugins/MessageFacilityTable_table.cc [276]	Opened.. /home/daq/Burnin/srcs/otsdaq_cmsburninbox/DataNCP/MessageFacilityConfigurations/MessageFacilityGen.fcl
|Debug:MessageFacilityTable_table.cc:otsdaq/otsdaq/TablePlugins/MessageFacilityTable_table.cc [287]	Opened for artdaq.. /home/daq/Burnin/srcs/otsdaq_cmsburninbox/DataNCP/MessageFacilityConfigurations/ARTDAQInterfaceMessageFacilityGen.fcl
|Debug:MessageFacilityTable_table.cc:otsdaq/otsdaq/TablePlugins/MessageFacilityTable_table.cc [296]	Wrote 
otsConsole: {
	type: UDP
	threshold: DEBUG
	filename_delimit: "/src"
	port: 30000
	host: "127.0.0.1"
}
console: {
	type: "OTS"
	threshold: "DEBUG"
	filename_delimit: "/src"
	format_string: "|%L:%N:%f [%u]	%m"

}
|Debug:ConfigurationManager:otsdaq/otsdaq/ConfigurationInterface/ConfigurationManager.cc [1567]	READONLY_USER	<> ------------------------------------- init complete 	 [for all plug-ins in Context group 'DefaultContext(75)']
|Debug:ConfigurationManager:otsdaq/otsdaq/ConfigurationInterface/ConfigurationManager.cc [1401]	READONLY_USER	<> ------------------------------------- init start    	 [for all plug-ins in Backbone group 'GroupAliasTreeEditWizBackbone(116)']
|Debug:ConfigurationManager:otsdaq/otsdaq/ConfigurationInterface/ConfigurationManager.cc [1567]	READONLY_USER	<> ------------------------------------- init complete 	 [for all plug-ins in Backbone group 'GroupAliasTreeEditWizBackbone(116)']
|Debug:ConfigurationManager:otsdaq/otsdaq/ConfigurationInterface/ConfigurationManager.cc [1386]	READONLY_USER	<> Not loading group because it is not of type Context or Backbone (it is type 'Iterate').
|Debug:ConfigurationManager:otsdaq/otsdaq/ConfigurationInterface/ConfigurationManager.cc [1386]	READONLY_USER	<> Not loading group because it is not of type Context or Backbone (it is type 'Configuration').
|Debug:AllSupervisorInfo.cc:otsdaq/otsdaq/SupervisorInfo/AllSupervisorInfo.cc [252]	The TRACE-controller app for hostname 'localhost' is CLASS:LID = ots::ChatSupervisor:110 name = ChatSupervisor
|Debug:AllSupervisorInfo.cc:otsdaq/otsdaq/SupervisorInfo/AllSupervisorInfo.cc [260]	TRACE-controller app count = 1
|Debug:AllSupervisorInfo.cc:otsdaq/otsdaq/SupervisorInfo/AllSupervisorInfo.cc [272]	Supervisor Info initialization complete!
|Debug:ConfigurationManager:otsdaq/otsdaq/ConfigurationInterface/ConfigurationManager.cc [462]	READONLY_USER	<> Destroying Backbone Key: 116
|Debug:ConfigurationManager:otsdaq/otsdaq/ConfigurationInterface/ConfigurationManager.cc [480]	READONLY_USER	<> Destroying Context Key: 75
|Debug:CorePropertySupervisorBase.cc:otsdaq/otsdaq/CoreSupervisors/CorePropertySupervisorBase.cc [68]	GatewaySupervisor:UNINITIALIZED_supervisorApplicationUID	<> Getting configuration specific info for supervisor 'GatewaySupervisor' of class ots::GatewaySupervisor.
|Debug:TableBase:otsdaq/otsdaq/TableCore/TableBase.cc [109]	TableBase-TableGroupMetadata	<> Special table 'TableGroupMetadata' constructed. 1
|Debug:ConfigurationManager:otsdaq/otsdaq/ConfigurationInterface/ConfigurationManager.cc [197]	READONLY_USER	<> username_ = READONLY_USER
|Debug:ConfigurationManager:otsdaq/otsdaq/ConfigurationInterface/ConfigurationManager.cc [244]	READONLY_USER	<> ACTIVE_GROUPS_FILENAME = /home/daq/Burnin/srcs/otsdaq_cmsburninbox/DataNCP/ServiceData/ActiveTableGroups.cfg
|Debug:ConfigurationManager:otsdaq/otsdaq/ConfigurationInterface/ConfigurationManager.cc [245]	READONLY_USER	<> ARTDAQ_DATABASE_URI = filesystemdb:///home/daq/Burnin/srcs/otsdaq_cmsburninbox/databases/filesystemdb/2023_03_NCP_db
|Debug:ConfigurationManager:otsdaq/otsdaq/ConfigurationInterface/ConfigurationManager.cc [1401]	READONLY_USER	<> ------------------------------------- init start    	 [for all plug-ins in Context group 'DefaultContext(75)']
|Debug:MessageFacilityTable_table.cc:otsdaq/otsdaq/TablePlugins/MessageFacilityTable_table.cc [120]	Found FWD/WEB/QT true/true/true and IP:Port:FwdPort 127.0.0.1:30000:30001 in MesageFacility table.
|Debug:MessageFacilityTable_table.cc:otsdaq/otsdaq/TablePlugins/MessageFacilityTable_table.cc [159]	Forwarding to Web GUI at IP:Port:FwdPort 127.0.0.1:30000:30001 with UDP forward MesageFacility.
|Debug:MessageFacilityTable_table.cc:otsdaq/otsdaq/TablePlugins/MessageFacilityTable_table.cc [204]	Wrote /home/daq/Burnin/srcs/otsdaq_cmsburninbox/DataNCP/MessageFacilityConfigurations/QuietForwarderGen.cfg:
RECEIVE_PORT 	 30000
DESTINATION_PORT 	 30001
DESTINATION_IP 	 127.0.0.1
|Debug:MessageFacilityTable_table.cc:otsdaq/otsdaq/TablePlugins/MessageFacilityTable_table.cc [276]	Opened.. /home/daq/Burnin/srcs/otsdaq_cmsburninbox/DataNCP/MessageFacilityConfigurations/MessageFacilityGen.fcl
|Debug:MessageFacilityTable_table.cc:otsdaq/otsdaq/TablePlugins/MessageFacilityTable_table.cc [287]	Opened for artdaq.. /home/daq/Burnin/srcs/otsdaq_cmsburninbox/DataNCP/MessageFacilityConfigurations/ARTDAQInterfaceMessageFacilityGen.fcl
|Debug:MessageFacilityTable_table.cc:otsdaq/otsdaq/TablePlugins/MessageFacilityTable_table.cc [296]	Wrote 
otsConsole: {
	type: UDP
	threshold: DEBUG
	filename_delimit: "/src"
	port: 30000
	host: "127.0.0.1"
}
console: {
	type: "OTS"
	threshold: "DEBUG"
	filename_delimit: "/src"
	format_string: "|%L:%N:%f [%u]	%m"

}
|Debug:ConfigurationManager:otsdaq/otsdaq/ConfigurationInterface/ConfigurationManager.cc [1567]	READONLY_USER	<> ------------------------------------- init complete 	 [for all plug-ins in Context group 'DefaultContext(75)']
|Debug:ConfigurationManager:otsdaq/otsdaq/ConfigurationInterface/ConfigurationManager.cc [1401]	READONLY_USER	<> ------------------------------------- init start    	 [for all plug-ins in Backbone group 'GroupAliasTreeEditWizBackbone(116)']
|Debug:ConfigurationManager:otsdaq/otsdaq/ConfigurationInterface/ConfigurationManager.cc [1567]	READONLY_USER	<> ------------------------------------- init complete 	 [for all plug-ins in Backbone group 'GroupAliasTreeEditWizBackbone(116)']
|Debug:ConfigurationManager:otsdaq/otsdaq/ConfigurationInterface/ConfigurationManager.cc [1386]	READONLY_USER	<> Not loading group because it is not of type Context or Backbone (it is type 'Iterate').
|Debug:ConfigurationManager:otsdaq/otsdaq/ConfigurationInterface/ConfigurationManager.cc [1386]	READONLY_USER	<> Not loading group because it is not of type Context or Backbone (it is type 'Configuration').
|Debug:CorePropertySupervisorBase.cc:otsdaq/otsdaq/CoreSupervisors/CorePropertySupervisorBase.cc [106]	GatewaySupervisor:GatewaySupervisor	<> CorePropertySupervisorBase::supervisorContextUID_ = MainContext
|Debug:CorePropertySupervisorBase.cc:otsdaq/otsdaq/CoreSupervisors/CorePropertySupervisorBase.cc [107]	GatewaySupervisor:GatewaySupervisor	<> CorePropertySupervisorBase::supervisorApplicationUID_ = GatewaySupervisor
|Debug:CorePropertySupervisorBase.cc:otsdaq/otsdaq/CoreSupervisors/CorePropertySupervisorBase.cc [108]	GatewaySupervisor:GatewaySupervisor	<> CorePropertySupervisorBase::supervisorConfigurationPath_ = /MainContext/LinkToApplicationTable/GatewaySupervisor/LinkToSupervisorTable
|Debug:CorePropertySupervisorBase.cc:otsdaq/otsdaq/CoreSupervisors/CorePropertySupervisorBase.cc [175]	hostname = localhost
|Debug:CorePropertySupervisorBase.cc:otsdaq/otsdaq/CoreSupervisors/CorePropertySupervisorBase.cc [189]	Marked alive: /home/daq/Burnin/srcs/otsdaq_cmsburninbox/DataNCP/Logs/otsdaq_is_alive-localhost-2015.dat
|Debug:WorkLoopManager.cc:otsdaq/otsdaq/WorkLoopManager/WorkLoopManager.cc [19]	Request name: StateMachine jobName: StateMachine
|Debug:Iterator:otsdaq/otsdaq/GatewaySupervisor/Iterator.cc [29]	Iterator constructed.
|Debug:Iterator:otsdaq/otsdaq/GatewaySupervisor/Iterator.cc [30]	Iterator constructed.
|Debug:GatewaySupervisor:otsdaq/otsdaq/GatewaySupervisor/GatewaySupervisor.cc [68]	Constructing
|Debug:GatewaySupervisor:otsdaq/otsdaq/GatewaySupervisor/GatewaySupervisor.cc [102]	Security: NoSecurity
|Debug:GatewaySupervisor:otsdaq/otsdaq/GatewaySupervisor/GatewaySupervisor.cc [158]	State changes over UDP are disabled.
|Debug:GatewaySupervisor:otsdaq/otsdaq/GatewaySupervisor/GatewaySupervisor.cc [180]	App Status checking is disabled.
|Debug:CorePropertySupervisorBase.cc:otsdaq/otsdaq/CoreSupervisors/CorePropertySupervisorBase.cc [24]	ChatSupervisor:UNINITIALIZED_supervisorApplicationUID	<> application->getApplicationContext()->getContextDescriptor()->getURL() = http://localhost:2015
|Debug:CorePropertySupervisorBase.cc:otsdaq/otsdaq/CoreSupervisors/CorePropertySupervisorBase.cc [25]	ChatSupervisor:UNINITIALIZED_supervisorApplicationUID	<> application->getApplicationDescriptor()->getLocalId() = 110
|Debug:CorePropertySupervisorBase.cc:otsdaq/otsdaq/CoreSupervisors/CorePropertySupervisorBase.cc [26]	ChatSupervisor:UNINITIALIZED_supervisorApplicationUID	<> supervisorClass_ = ots::ChatSupervisor
|Debug:CorePropertySupervisorBase.cc:otsdaq/otsdaq/CoreSupervisors/CorePropertySupervisorBase.cc [27]	ChatSupervisor:UNINITIALIZED_supervisorApplicationUID	<> supervisorClassNoNamespace_ = ChatSupervisor
|Debug:AllSupervisorInfo.cc:otsdaq/otsdaq/SupervisorInfo/AllSupervisorInfo.cc [44]	Initializing info based on XDAQ context...
|Debug:SupervisorDescriptorInfoBase.cc:otsdaq/otsdaq/SupervisorInfo/SupervisorDescriptorInfoBase.cc [33]	Init
|Debug:AllSupervisorInfo.cc:otsdaq/otsdaq/SupervisorInfo/AllSupervisorInfo.cc [103]	Initializing info for Normal mode XDAQ context...
|Debug:TableBase:otsdaq/otsdaq/TableCore/TableBase.cc [109]	TableBase-TableGroupMetadata	<> Special table 'TableGroupMetadata' constructed. 1
|Debug:ConfigurationManager:otsdaq/otsdaq/ConfigurationInterface/ConfigurationManager.cc [197]	READONLY_USER	<> username_ = READONLY_USER
|Debug:ConfigurationManager:otsdaq/otsdaq/ConfigurationInterface/ConfigurationManager.cc [244]	READONLY_USER	<> ACTIVE_GROUPS_FILENAME = /home/daq/Burnin/srcs/otsdaq_cmsburninbox/DataNCP/ServiceData/ActiveTableGroups.cfg
|Debug:ConfigurationManager:otsdaq/otsdaq/ConfigurationInterface/ConfigurationManager.cc [245]	READONLY_USER	<> ARTDAQ_DATABASE_URI = filesystemdb:///home/daq/Burnin/srcs/otsdaq_cmsburninbox/databases/filesystemdb/2023_03_NCP_db
|Debug:ConfigurationManager:otsdaq/otsdaq/ConfigurationInterface/ConfigurationManager.cc [1401]	READONLY_USER	<> ------------------------------------- init start    	 [for all plug-ins in Context group 'DefaultContext(75)']
|Debug:MessageFacilityTable_table.cc:otsdaq/otsdaq/TablePlugins/MessageFacilityTable_table.cc [120]	Found FWD/WEB/QT true/true/true and IP:Port:FwdPort 127.0.0.1:30000:30001 in MesageFacility table.
|Debug:MessageFacilityTable_table.cc:otsdaq/otsdaq/TablePlugins/MessageFacilityTable_table.cc [159]	Forwarding to Web GUI at IP:Port:FwdPort 127.0.0.1:30000:30001 with UDP forward MesageFacility.
|Debug:MessageFacilityTable_table.cc:otsdaq/otsdaq/TablePlugins/MessageFacilityTable_table.cc [204]	Wrote /home/daq/Burnin/srcs/otsdaq_cmsburninbox/DataNCP/MessageFacilityConfigurations/QuietForwarderGen.cfg:
RECEIVE_PORT 	 30000
DESTINATION_PORT 	 30001
DESTINATION_IP 	 127.0.0.1
|Debug:MessageFacilityTable_table.cc:otsdaq/otsdaq/TablePlugins/MessageFacilityTable_table.cc [276]	Opened.. /home/daq/Burnin/srcs/otsdaq_cmsburninbox/DataNCP/MessageFacilityConfigurations/MessageFacilityGen.fcl
|Debug:MessageFacilityTable_table.cc:otsdaq/otsdaq/TablePlugins/MessageFacilityTable_table.cc [287]	Opened for artdaq.. /home/daq/Burnin/srcs/otsdaq_cmsburninbox/DataNCP/MessageFacilityConfigurations/ARTDAQInterfaceMessageFacilityGen.fcl
|Debug:MessageFacilityTable_table.cc:otsdaq/otsdaq/TablePlugins/MessageFacilityTable_table.cc [296]	Wrote 
otsConsole: {
	type: UDP
	threshold: DEBUG
	filename_delimit: "/src"
	port: 30000
	host: "127.0.0.1"
}
console: {
	type: "OTS"
	threshold: "DEBUG"
	filename_delimit: "/src"
	format_string: "|%L:%N:%f [%u]	%m"

}
|Debug:ConfigurationManager:otsdaq/otsdaq/ConfigurationInterface/ConfigurationManager.cc [1567]	READONLY_USER	<> ------------------------------------- init complete 	 [for all plug-ins in Context group 'DefaultContext(75)']
|Debug:ConfigurationManager:otsdaq/otsdaq/ConfigurationInterface/ConfigurationManager.cc [1401]	READONLY_USER	<> ------------------------------------- init start    	 [for all plug-ins in Backbone group 'GroupAliasTreeEditWizBackbone(116)']
|Debug:ConfigurationManager:otsdaq/otsdaq/ConfigurationInterface/ConfigurationManager.cc [1567]	READONLY_USER	<> ------------------------------------- init complete 	 [for all plug-ins in Backbone group 'GroupAliasTreeEditWizBackbone(116)']
|Debug:ConfigurationManager:otsdaq/otsdaq/ConfigurationInterface/ConfigurationManager.cc [1386]	READONLY_USER	<> Not loading group because it is not of type Context or Backbone (it is type 'Iterate').
|Debug:ConfigurationManager:otsdaq/otsdaq/ConfigurationInterface/ConfigurationManager.cc [1386]	READONLY_USER	<> Not loading group because it is not of type Context or Backbone (it is type 'Configuration').
|Debug:AllSupervisorInfo.cc:otsdaq/otsdaq/SupervisorInfo/AllSupervisorInfo.cc [252]	The TRACE-controller app for hostname 'localhost' is CLASS:LID = ots::ChatSupervisor:110 name = ChatSupervisor
|Debug:AllSupervisorInfo.cc:otsdaq/otsdaq/SupervisorInfo/AllSupervisorInfo.cc [260]	TRACE-controller app count = 1
|Debug:AllSupervisorInfo.cc:otsdaq/otsdaq/SupervisorInfo/AllSupervisorInfo.cc [272]	Supervisor Info initialization complete!
|Debug:ConfigurationManager:otsdaq/otsdaq/ConfigurationInterface/ConfigurationManager.cc [462]	READONLY_USER	<> Destroying Backbone Key: 116
|Debug:ConfigurationManager:otsdaq/otsdaq/ConfigurationInterface/ConfigurationManager.cc [480]	READONLY_USER	<> Destroying Context Key: 75
|Debug:CorePropertySupervisorBase.cc:otsdaq/otsdaq/CoreSupervisors/CorePropertySupervisorBase.cc [68]	ChatSupervisor:UNINITIALIZED_supervisorApplicationUID	<> Getting configuration specific info for supervisor 'ChatSupervisor' of class ots::ChatSupervisor.
|Debug:TableBase:otsdaq/otsdaq/TableCore/TableBase.cc [109]	TableBase-TableGroupMetadata	<> Special table 'TableGroupMetadata' constructed. 1
|Debug:ConfigurationManager:otsdaq/otsdaq/ConfigurationInterface/ConfigurationManager.cc [197]	READONLY_USER	<> username_ = READONLY_USER
|Debug:ConfigurationManager:otsdaq/otsdaq/ConfigurationInterface/ConfigurationManager.cc [244]	READONLY_USER	<> ACTIVE_GROUPS_FILENAME = /home/daq/Burnin/srcs/otsdaq_cmsburninbox/DataNCP/ServiceData/ActiveTableGroups.cfg
|Debug:ConfigurationManager:otsdaq/otsdaq/ConfigurationInterface/ConfigurationManager.cc [245]	READONLY_USER	<> ARTDAQ_DATABASE_URI = filesystemdb:///home/daq/Burnin/srcs/otsdaq_cmsburninbox/databases/filesystemdb/2023_03_NCP_db
|Debug:ConfigurationManager:otsdaq/otsdaq/ConfigurationInterface/ConfigurationManager.cc [1401]	READONLY_USER	<> ------------------------------------- init start    	 [for all plug-ins in Context group 'DefaultContext(75)']
|Debug:MessageFacilityTable_table.cc:otsdaq/otsdaq/TablePlugins/MessageFacilityTable_table.cc [120]	Found FWD/WEB/QT true/true/true and IP:Port:FwdPort 127.0.0.1:30000:30001 in MesageFacility table.
|Debug:MessageFacilityTable_table.cc:otsdaq/otsdaq/TablePlugins/MessageFacilityTable_table.cc [159]	Forwarding to Web GUI at IP:Port:FwdPort 127.0.0.1:30000:30001 with UDP forward MesageFacility.
|Debug:MessageFacilityTable_table.cc:otsdaq/otsdaq/TablePlugins/MessageFacilityTable_table.cc [204]	Wrote /home/daq/Burnin/srcs/otsdaq_cmsburninbox/DataNCP/MessageFacilityConfigurations/QuietForwarderGen.cfg:
RECEIVE_PORT 	 30000
DESTINATION_PORT 	 30001
DESTINATION_IP 	 127.0.0.1
|Debug:MessageFacilityTable_table.cc:otsdaq/otsdaq/TablePlugins/MessageFacilityTable_table.cc [276]	Opened.. /home/daq/Burnin/srcs/otsdaq_cmsburninbox/DataNCP/MessageFacilityConfigurations/MessageFacilityGen.fcl
|Debug:MessageFacilityTable_table.cc:otsdaq/otsdaq/TablePlugins/MessageFacilityTable_table.cc [287]	Opened for artdaq.. /home/daq/Burnin/srcs/otsdaq_cmsburninbox/DataNCP/MessageFacilityConfigurations/ARTDAQInterfaceMessageFacilityGen.fcl
|Debug:MessageFacilityTable_table.cc:otsdaq/otsdaq/TablePlugins/MessageFacilityTable_table.cc [296]	Wrote 
otsConsole: {
	type: UDP
	threshold: DEBUG
	filename_delimit: "/src"
	port: 30000
	host: "127.0.0.1"
}
console: {
	type: "OTS"
	threshold: "DEBUG"
	filename_delimit: "/src"
	format_string: "|%L:%N:%f [%u]	%m"

}
|Debug:ConfigurationManager:otsdaq/otsdaq/ConfigurationInterface/ConfigurationManager.cc [1567]	READONLY_USER	<> ------------------------------------- init complete 	 [for all plug-ins in Context group 'DefaultContext(75)']
|Debug:ConfigurationManager:otsdaq/otsdaq/ConfigurationInterface/ConfigurationManager.cc [1401]	READONLY_USER	<> ------------------------------------- init start    	 [for all plug-ins in Backbone group 'GroupAliasTreeEditWizBackbone(116)']
|Debug:ConfigurationManager:otsdaq/otsdaq/ConfigurationInterface/ConfigurationManager.cc [1567]	READONLY_USER	<> ------------------------------------- init complete 	 [for all plug-ins in Backbone group 'GroupAliasTreeEditWizBackbone(116)']
|Debug:ConfigurationManager:otsdaq/otsdaq/ConfigurationInterface/ConfigurationManager.cc [1386]	READONLY_USER	<> Not loading group because it is not of type Context or Backbone (it is type 'Iterate').
|Debug:ConfigurationManager:otsdaq/otsdaq/ConfigurationInterface/ConfigurationManager.cc [1386]	READONLY_USER	<> Not loading group because it is not of type Context or Backbone (it is type 'Configuration').
|Debug:CorePropertySupervisorBase.cc:otsdaq/otsdaq/CoreSupervisors/CorePropertySupervisorBase.cc [106]	ChatSupervisor:ChatSupervisor	<> CorePropertySupervisorBase::supervisorContextUID_ = MainContext
|Debug:CorePropertySupervisorBase.cc:otsdaq/otsdaq/CoreSupervisors/CorePropertySupervisorBase.cc [107]	ChatSupervisor:ChatSupervisor	<> CorePropertySupervisorBase::supervisorApplicationUID_ = ChatSupervisor
|Debug:CorePropertySupervisorBase.cc:otsdaq/otsdaq/CoreSupervisors/CorePropertySupervisorBase.cc [108]	ChatSupervisor:ChatSupervisor	<> CorePropertySupervisorBase::supervisorConfigurationPath_ = /MainContext/LinkToApplicationTable/ChatSupervisor/LinkToSupervisorTable
|Debug:CorePropertySupervisorBase.cc:otsdaq/otsdaq/CoreSupervisors/CorePropertySupervisorBase.cc [175]	hostname = localhost
|Debug:CorePropertySupervisorBase.cc:otsdaq/otsdaq/CoreSupervisors/CorePropertySupervisorBase.cc [189]	Marked alive: /home/daq/Burnin/srcs/otsdaq_cmsburninbox/DataNCP/Logs/otsdaq_is_alive-localhost-2015.dat
|Debug:FSM:otsdaq/otsdaq/FiniteStateMachine/FiniteStateMachine.cc [19]	FSM-ChatSupervisor:ChatSupervisor	<> Constructing FiniteStateMachine
|Debug:FSM:otsdaq/otsdaq/FiniteStateMachine/RunControlStateMachine.cc [107]	FSM-ChatSupervisor:ChatSupervisor	<> Resetting RunControlStateMachine with name 'ChatSupervisor:ChatSupervisor'...
|Debug:WorkLoopManager.cc:otsdaq/otsdaq/WorkLoopManager/WorkLoopManager.cc [19]	Request name: StateMachine jobName: StateMachine
|Debug:CoreSupervisorBase.cc:otsdaq/otsdaq/CoreSupervisors/CoreSupervisorBase.cc [25]	ChatSupervisor:ChatSupervisor	<> Constructor.
|Debug:CoreSupervisorBase.cc:otsdaq/otsdaq/CoreSupervisors/CoreSupervisorBase.cc [40]	ChatSupervisor:ChatSupervisor	<> Constructed.
|Debug:CorePropertySupervisorBase.cc:otsdaq/otsdaq/CoreSupervisors/CorePropertySupervisorBase.cc [24]	ConsoleSupervisor:UNINITIALIZED_supervisorApplicationUID	<> application->getApplicationContext()->getContextDescriptor()->getURL() = http://localhost:2015
|Debug:CorePropertySupervisorBase.cc:otsdaq/otsdaq/CoreSupervisors/CorePropertySupervisorBase.cc [25]	ConsoleSupervisor:UNINITIALIZED_supervisorApplicationUID	<> application->getApplicationDescriptor()->getLocalId() = 111
|Debug:CorePropertySupervisorBase.cc:otsdaq/otsdaq/CoreSupervisors/CorePropertySupervisorBase.cc [26]	ConsoleSupervisor:UNINITIALIZED_supervisorApplicationUID	<> supervisorClass_ = ots::ConsoleSupervisor
|Debug:CorePropertySupervisorBase.cc:otsdaq/otsdaq/CoreSupervisors/CorePropertySupervisorBase.cc [27]	ConsoleSupervisor:UNINITIALIZED_supervisorApplicationUID	<> supervisorClassNoNamespace_ = ConsoleSupervisor
|Debug:AllSupervisorInfo.cc:otsdaq/otsdaq/SupervisorInfo/AllSupervisorInfo.cc [44]	Initializing info based on XDAQ context...
|Debug:SupervisorDescriptorInfoBase.cc:otsdaq/otsdaq/SupervisorInfo/SupervisorDescriptorInfoBase.cc [33]	Init
|Debug:AllSupervisorInfo.cc:otsdaq/otsdaq/SupervisorInfo/AllSupervisorInfo.cc [103]	Initializing info for Normal mode XDAQ context...
|Debug:TableBase:otsdaq/otsdaq/TableCore/TableBase.cc [109]	TableBase-TableGroupMetadata	<> Special table 'TableGroupMetadata' constructed. 1
|Debug:ConfigurationManager:otsdaq/otsdaq/ConfigurationInterface/ConfigurationManager.cc [197]	READONLY_USER	<> username_ = READONLY_USER
|Debug:ConfigurationManager:otsdaq/otsdaq/ConfigurationInterface/ConfigurationManager.cc [244]	READONLY_USER	<> ACTIVE_GROUPS_FILENAME = /home/daq/Burnin/srcs/otsdaq_cmsburninbox/DataNCP/ServiceData/ActiveTableGroups.cfg
|Debug:ConfigurationManager:otsdaq/otsdaq/ConfigurationInterface/ConfigurationManager.cc [245]	READONLY_USER	<> ARTDAQ_DATABASE_URI = filesystemdb:///home/daq/Burnin/srcs/otsdaq_cmsburninbox/databases/filesystemdb/2023_03_NCP_db
|Debug:ConfigurationManager:otsdaq/otsdaq/ConfigurationInterface/ConfigurationManager.cc [1401]	READONLY_USER	<> ------------------------------------- init start    	 [for all plug-ins in Context group 'DefaultContext(75)']
|Debug:MessageFacilityTable_table.cc:otsdaq/otsdaq/TablePlugins/MessageFacilityTable_table.cc [120]	Found FWD/WEB/QT true/true/true and IP:Port:FwdPort 127.0.0.1:30000:30001 in MesageFacility table.
|Debug:MessageFacilityTable_table.cc:otsdaq/otsdaq/TablePlugins/MessageFacilityTable_table.cc [159]	Forwarding to Web GUI at IP:Port:FwdPort 127.0.0.1:30000:30001 with UDP forward MesageFacility.
|Debug:MessageFacilityTable_table.cc:otsdaq/otsdaq/TablePlugins/MessageFacilityTable_table.cc [204]	Wrote /home/daq/Burnin/srcs/otsdaq_cmsburninbox/DataNCP/MessageFacilityConfigurations/QuietForwarderGen.cfg:
RECEIVE_PORT 	 30000
DESTINATION_PORT 	 30001
DESTINATION_IP 	 127.0.0.1
|Debug:MessageFacilityTable_table.cc:otsdaq/otsdaq/TablePlugins/MessageFacilityTable_table.cc [276]	Opened.. /home/daq/Burnin/srcs/otsdaq_cmsburninbox/DataNCP/MessageFacilityConfigurations/MessageFacilityGen.fcl
|Debug:MessageFacilityTable_table.cc:otsdaq/otsdaq/TablePlugins/MessageFacilityTable_table.cc [287]	Opened for artdaq.. /home/daq/Burnin/srcs/otsdaq_cmsburninbox/DataNCP/MessageFacilityConfigurations/ARTDAQInterfaceMessageFacilityGen.fcl
|Debug:MessageFacilityTable_table.cc:otsdaq/otsdaq/TablePlugins/MessageFacilityTable_table.cc [296]	Wrote 
otsConsole: {
	type: UDP
	threshold: DEBUG
	filename_delimit: "/src"
	port: 30000
	host: "127.0.0.1"
}
console: {
	type: "OTS"
	threshold: "DEBUG"
	filename_delimit: "/src"
	format_string: "|%L:%N:%f [%u]	%m"

}
|Debug:ConfigurationManager:otsdaq/otsdaq/ConfigurationInterface/ConfigurationManager.cc [1567]	READONLY_USER	<> ------------------------------------- init complete 	 [for all plug-ins in Context group 'DefaultContext(75)']
|Debug:ConfigurationManager:otsdaq/otsdaq/ConfigurationInterface/ConfigurationManager.cc [1401]	READONLY_USER	<> ------------------------------------- init start    	 [for all plug-ins in Backbone group 'GroupAliasTreeEditWizBackbone(116)']
|Debug:ConfigurationManager:otsdaq/otsdaq/ConfigurationInterface/ConfigurationManager.cc [1567]	READONLY_USER	<> ------------------------------------- init complete 	 [for all plug-ins in Backbone group 'GroupAliasTreeEditWizBackbone(116)']
|Debug:ConfigurationManager:otsdaq/otsdaq/ConfigurationInterface/ConfigurationManager.cc [1386]	READONLY_USER	<> Not loading group because it is not of type Context or Backbone (it is type 'Iterate').
|Debug:ConfigurationManager:otsdaq/otsdaq/ConfigurationInterface/ConfigurationManager.cc [1386]	READONLY_USER	<> Not loading group because it is not of type Context or Backbone (it is type 'Configuration').
|Debug:AllSupervisorInfo.cc:otsdaq/otsdaq/SupervisorInfo/AllSupervisorInfo.cc [252]	The TRACE-controller app for hostname 'localhost' is CLASS:LID = ots::ChatSupervisor:110 name = ChatSupervisor
|Debug:AllSupervisorInfo.cc:otsdaq/otsdaq/SupervisorInfo/AllSupervisorInfo.cc [260]	TRACE-controller app count = 1
|Debug:AllSupervisorInfo.cc:otsdaq/otsdaq/SupervisorInfo/AllSupervisorInfo.cc [272]	Supervisor Info initialization complete!
|Debug:ConfigurationManager:otsdaq/otsdaq/ConfigurationInterface/ConfigurationManager.cc [462]	READONLY_USER	<> Destroying Backbone Key: 116
|Debug:ConfigurationManager:otsdaq/otsdaq/ConfigurationInterface/ConfigurationManager.cc [480]	READONLY_USER	<> Destroying Context Key: 75
|Debug:CorePropertySupervisorBase.cc:otsdaq/otsdaq/CoreSupervisors/CorePropertySupervisorBase.cc [68]	ConsoleSupervisor:UNINITIALIZED_supervisorApplicationUID	<> Getting configuration specific info for supervisor 'ConsoleSupervisor' of class ots::ConsoleSupervisor.
|Debug:TableBase:otsdaq/otsdaq/TableCore/TableBase.cc [109]	TableBase-TableGroupMetadata	<> Special table 'TableGroupMetadata' constructed. 1
|Debug:ConfigurationManager:otsdaq/otsdaq/ConfigurationInterface/ConfigurationManager.cc [197]	READONLY_USER	<> username_ = READONLY_USER
|Debug:ConfigurationManager:otsdaq/otsdaq/ConfigurationInterface/ConfigurationManager.cc [244]	READONLY_USER	<> ACTIVE_GROUPS_FILENAME = /home/daq/Burnin/srcs/otsdaq_cmsburninbox/DataNCP/ServiceData/ActiveTableGroups.cfg
|Debug:ConfigurationManager:otsdaq/otsdaq/ConfigurationInterface/ConfigurationManager.cc [245]	READONLY_USER	<> ARTDAQ_DATABASE_URI = filesystemdb:///home/daq/Burnin/srcs/otsdaq_cmsburninbox/databases/filesystemdb/2023_03_NCP_db
|Debug:ConfigurationManager:otsdaq/otsdaq/ConfigurationInterface/ConfigurationManager.cc [1401]	READONLY_USER	<> ------------------------------------- init start    	 [for all plug-ins in Context group 'DefaultContext(75)']
|Debug:MessageFacilityTable_table.cc:otsdaq/otsdaq/TablePlugins/MessageFacilityTable_table.cc [120]	Found FWD/WEB/QT true/true/true and IP:Port:FwdPort 127.0.0.1:30000:30001 in MesageFacility table.
|Debug:MessageFacilityTable_table.cc:otsdaq/otsdaq/TablePlugins/MessageFacilityTable_table.cc [159]	Forwarding to Web GUI at IP:Port:FwdPort 127.0.0.1:30000:30001 with UDP forward MesageFacility.
|Debug:MessageFacilityTable_table.cc:otsdaq/otsdaq/TablePlugins/MessageFacilityTable_table.cc [204]	Wrote /home/daq/Burnin/srcs/otsdaq_cmsburninbox/DataNCP/MessageFacilityConfigurations/QuietForwarderGen.cfg:
RECEIVE_PORT 	 30000
DESTINATION_PORT 	 30001
DESTINATION_IP 	 127.0.0.1
|Debug:MessageFacilityTable_table.cc:otsdaq/otsdaq/TablePlugins/MessageFacilityTable_table.cc [276]	Opened.. /home/daq/Burnin/srcs/otsdaq_cmsburninbox/DataNCP/MessageFacilityConfigurations/MessageFacilityGen.fcl
|Debug:MessageFacilityTable_table.cc:otsdaq/otsdaq/TablePlugins/MessageFacilityTable_table.cc [287]	Opened for artdaq.. /home/daq/Burnin/srcs/otsdaq_cmsburninbox/DataNCP/MessageFacilityConfigurations/ARTDAQInterfaceMessageFacilityGen.fcl
|Debug:MessageFacilityTable_table.cc:otsdaq/otsdaq/TablePlugins/MessageFacilityTable_table.cc [296]	Wrote 
otsConsole: {
	type: UDP
	threshold: DEBUG
	filename_delimit: "/src"
	port: 30000
	host: "127.0.0.1"
}
console: {
	type: "OTS"
	threshold: "DEBUG"
	filename_delimit: "/src"
	format_string: "|%L:%N:%f [%u]	%m"

}
|Debug:ConfigurationManager:otsdaq/otsdaq/ConfigurationInterface/ConfigurationManager.cc [1567]	READONLY_USER	<> ------------------------------------- init complete 	 [for all plug-ins in Context group 'DefaultContext(75)']
|Debug:ConfigurationManager:otsdaq/otsdaq/ConfigurationInterface/ConfigurationManager.cc [1401]	READONLY_USER	<> ------------------------------------- init start    	 [for all plug-ins in Backbone group 'GroupAliasTreeEditWizBackbone(116)']
|Debug:ConfigurationManager:otsdaq/otsdaq/ConfigurationInterface/ConfigurationManager.cc [1567]	READONLY_USER	<> ------------------------------------- init complete 	 [for all plug-ins in Backbone group 'GroupAliasTreeEditWizBackbone(116)']
|Debug:ConfigurationManager:otsdaq/otsdaq/ConfigurationInterface/ConfigurationManager.cc [1386]	READONLY_USER	<> Not loading group because it is not of type Context or Backbone (it is type 'Iterate').
|Debug:ConfigurationManager:otsdaq/otsdaq/ConfigurationInterface/ConfigurationManager.cc [1386]	READONLY_USER	<> Not loading group because it is not of type Context or Backbone (it is type 'Configuration').
|Debug:CorePropertySupervisorBase.cc:otsdaq/otsdaq/CoreSupervisors/CorePropertySupervisorBase.cc [106]	ConsoleSupervisor:ConsoleSupervisor	<> CorePropertySupervisorBase::supervisorContextUID_ = MainContext
|Debug:CorePropertySupervisorBase.cc:otsdaq/otsdaq/CoreSupervisors/CorePropertySupervisorBase.cc [107]	ConsoleSupervisor:ConsoleSupervisor	<> CorePropertySupervisorBase::supervisorApplicationUID_ = ConsoleSupervisor
|Debug:CorePropertySupervisorBase.cc:otsdaq/otsdaq/CoreSupervisors/CorePropertySupervisorBase.cc [108]	ConsoleSupervisor:ConsoleSupervisor	<> CorePropertySupervisorBase::supervisorConfigurationPath_ = /MainContext/LinkToApplicationTable/ConsoleSupervisor/LinkToSupervisorTable
|Debug:CorePropertySupervisorBase.cc:otsdaq/otsdaq/CoreSupervisors/CorePropertySupervisorBase.cc [175]	hostname = localhost
|Debug:CorePropertySupervisorBase.cc:otsdaq/otsdaq/CoreSupervisors/CorePropertySupervisorBase.cc [189]	Marked alive: /home/daq/Burnin/srcs/otsdaq_cmsburninbox/DataNCP/Logs/otsdaq_is_alive-localhost-2015.dat
|Debug:FSM:otsdaq/otsdaq/FiniteStateMachine/FiniteStateMachine.cc [19]	FSM-ConsoleSupervisor:ConsoleSupervisor	<> Constructing FiniteStateMachine
|Debug:FSM:otsdaq/otsdaq/FiniteStateMachine/RunControlStateMachine.cc [107]	FSM-ConsoleSupervisor:ConsoleSupervisor	<> Resetting RunControlStateMachine with name 'ConsoleSupervisor:ConsoleSupervisor'...
|Debug:WorkLoopManager.cc:otsdaq/otsdaq/WorkLoopManager/WorkLoopManager.cc [19]	Request name: StateMachine jobName: StateMachine
|Debug:CoreSupervisorBase.cc:otsdaq/otsdaq/CoreSupervisors/CoreSupervisorBase.cc [25]	ConsoleSupervisor:ConsoleSupervisor	<> Constructor.
|Debug:CoreSupervisorBase.cc:otsdaq/otsdaq/CoreSupervisors/CoreSupervisorBase.cc [40]	ConsoleSupervisor:ConsoleSupervisor	<> Constructed.
|Debug:Console:otsdaq_utilities/otsdaq-utilities/Console/ConsoleSupervisor.cc [55]	ConsoleSupervisor:ConsoleSupervisor	<> Constructor started.
|Debug:Console:otsdaq_utilities/otsdaq-utilities/Console/ConsoleSupervisor.cc [65]	ConsoleSupervisor:ConsoleSupervisor	<> Constructor complete.
|Debug:CorePropertySupervisorBase.cc:otsdaq/otsdaq/CoreSupervisors/CorePropertySupervisorBase.cc [24]	ConfigurationGUISupervisor:UNINITIALIZED_supervisorApplicationUID	<> application->getApplicationContext()->getContextDescriptor()->getURL() = http://localhost:2015
|Debug:CorePropertySupervisorBase.cc:otsdaq/otsdaq/CoreSupervisors/CorePropertySupervisorBase.cc [25]	ConfigurationGUISupervisor:UNINITIALIZED_supervisorApplicationUID	<> application->getApplicationDescriptor()->getLocalId() = 113
|Debug:CorePropertySupervisorBase.cc:otsdaq/otsdaq/CoreSupervisors/CorePropertySupervisorBase.cc [26]	ConfigurationGUISupervisor:UNINITIALIZED_supervisorApplicationUID	<> supervisorClass_ = ots::ConfigurationGUISupervisor
|Debug:CorePropertySupervisorBase.cc:otsdaq/otsdaq/CoreSupervisors/CorePropertySupervisorBase.cc [27]	ConfigurationGUISupervisor:UNINITIALIZED_supervisorApplicationUID	<> supervisorClassNoNamespace_ = ConfigurationGUISupervisor
|Debug:AllSupervisorInfo.cc:otsdaq/otsdaq/SupervisorInfo/AllSupervisorInfo.cc [44]	Initializing info based on XDAQ context...
|Debug:SupervisorDescriptorInfoBase.cc:otsdaq/otsdaq/SupervisorInfo/SupervisorDescriptorInfoBase.cc [33]	Init
|Debug:AllSupervisorInfo.cc:otsdaq/otsdaq/SupervisorInfo/AllSupervisorInfo.cc [103]	Initializing info for Normal mode XDAQ context...
|Debug:TableBase:otsdaq/otsdaq/TableCore/TableBase.cc [109]	TableBase-TableGroupMetadata	<> Special table 'TableGroupMetadata' constructed. 1
|Debug:ConfigurationManager:otsdaq/otsdaq/ConfigurationInterface/ConfigurationManager.cc [197]	READONLY_USER	<> username_ = READONLY_USER
|Debug:ConfigurationManager:otsdaq/otsdaq/ConfigurationInterface/ConfigurationManager.cc [244]	READONLY_USER	<> ACTIVE_GROUPS_FILENAME = /home/daq/Burnin/srcs/otsdaq_cmsburninbox/DataNCP/ServiceData/ActiveTableGroups.cfg
|Debug:ConfigurationManager:otsdaq/otsdaq/ConfigurationInterface/ConfigurationManager.cc [245]	READONLY_USER	<> ARTDAQ_DATABASE_URI = filesystemdb:///home/daq/Burnin/srcs/otsdaq_cmsburninbox/databases/filesystemdb/2023_03_NCP_db
|Debug:Console:otsdaq_utilities/otsdaq-utilities/Console/ConsoleSupervisor.cc [96]	Starting workloop based on config file: /home/daq/Burnin/srcs/otsdaq_cmsburninbox/DataNCP/MessageFacilityConfigurations/QuietForwarder.cfg
|Debug:Socket.cc:otsdaq/otsdaq/NetworkUtilities/Socket.cc [30]	Socket constructor 127.0.0.1:30001
|Debug:Socket.cc:otsdaq/otsdaq/NetworkUtilities/Socket.cc [44]	IPAddress: 127.0.0.1 port: 30001 htons: 12661
|Debug:Socket.cc:otsdaq/otsdaq/NetworkUtilities/Socket.cc [56]	Constructed socket for port 30001=30001 htons: 12661
|Debug:ReceiverSocket.cc:otsdaq/otsdaq/NetworkUtilities/ReceiverSocket.cc [19]	ReceiverSocket constructor 127.0.0.1:30001
|Debug:Socket.cc:otsdaq/otsdaq/NetworkUtilities/Socket.cc [83]	Initializing port 30001 htons: 12661
|Debug:Socket.cc:otsdaq/otsdaq/NetworkUtilities/Socket.cc [107]	]	Binding port: 30001
|Debug:Socket.cc:otsdaq/otsdaq/NetworkUtilities/Socket.cc [119]	]	Socket Number: 9 for port: 30001 initialized.
|Debug:Socket.cc:otsdaq/otsdaq/NetworkUtilities/Socket.cc [134]	:):):):):):):):):):):):):):):):):):):):):):):):):):):):):):):):):):):)
|Debug:Socket.cc:otsdaq/otsdaq/NetworkUtilities/Socket.cc [137]	:):):):):):):):):):):):):):):):):):):):):):):):):):):):):):):):):):):)
|Debug:Socket.cc:otsdaq/otsdaq/NetworkUtilities/Socket.cc [140]	SOCKET ON PORT: 30001 ON IP: 127.0.0.1 INITIALIZED OK!
|Debug:Socket.cc:otsdaq/otsdaq/NetworkUtilities/Socket.cc [141]	:):):):):):):):):):):):):):):):):):):):):):):):):):):):):):):):):):):)
|Debug:Socket.cc:otsdaq/otsdaq/NetworkUtilities/Socket.cc [144]	:):):):):):):):):):):):):):):):):):):):):):):):):):):):):):):):):):):)
|Debug:Socket.cc:otsdaq/otsdaq/NetworkUtilities/Socket.cc [150]	]	Socket Number: 9 for port: 30001 initialized.
|Debug:Socket.cc:otsdaq/otsdaq/NetworkUtilities/Socket.cc [164]	Setting socket receive buffer size = 20971520 0x1400000
|Debug:Console:otsdaq_utilities/otsdaq-utilities/Console/ConsoleSupervisor.cc [172]	DEBUG messages look like this.
|Debug:ConfigurationManager:otsdaq/otsdaq/ConfigurationInterface/ConfigurationManager.cc [1401]	READONLY_USER	<> ------------------------------------- init start    	 [for all plug-ins in Context group 'DefaultContext(75)']
|Debug:Console:otsdaq_utilities/otsdaq-utilities/Console/ConsoleSupervisor.cc [193]	Console has first message.
|Info:Console:otsdaq_utilities/otsdaq-utilities/Console/ConsoleSupervisor.cc [197]	INFO messages look like this.
|Warning:Console:otsdaq_utilities/otsdaq-utilities/Console/ConsoleSupervisor.cc [198]	WARNING messages look like this.
|Error:Console:otsdaq_utilities/otsdaq-utilities/Console/ConsoleSupervisor.cc [199]	ERROR messages look like this.
|Debug:MessageFacilityTable_table.cc:otsdaq/otsdaq/TablePlugins/MessageFacilityTable_table.cc [120]	Found FWD/WEB/QT true/true/true and IP:Port:FwdPort 127.0.0.1:30000:30001 in MesageFacility table.
|Debug:MessageFacilityTable_table.cc:otsdaq/otsdaq/TablePlugins/MessageFacilityTable_table.cc [159]	Forwarding to Web GUI at IP:Port:FwdPort 127.0.0.1:30000:30001 with UDP forward MesageFacility.
|Debug:MessageFacilityTable_table.cc:otsdaq/otsdaq/TablePlugins/MessageFacilityTable_table.cc [204]	Wrote /home/daq/Burnin/srcs/otsdaq_cmsburninbox/DataNCP/MessageFacilityConfigurations/QuietForwarderGen.cfg:
RECEIVE_PORT 	 30000
DESTINATION_PORT 	 30001
DESTINATION_IP 	 127.0.0.1
|Debug:MessageFacilityTable_table.cc:otsdaq/otsdaq/TablePlugins/MessageFacilityTable_table.cc [276]	Opened.. /home/daq/Burnin/srcs/otsdaq_cmsburninbox/DataNCP/MessageFacilityConfigurations/MessageFacilityGen.fcl
|Debug:MessageFacilityTable_table.cc:otsdaq/otsdaq/TablePlugins/MessageFacilityTable_table.cc [287]	Opened for artdaq.. /home/daq/Burnin/srcs/otsdaq_cmsburninbox/DataNCP/MessageFacilityConfigurations/ARTDAQInterfaceMessageFacilityGen.fcl
|Debug:MessageFacilityTable_table.cc:otsdaq/otsdaq/TablePlugins/MessageFacilityTable_table.cc [296]	Wrote 
otsConsole: {
	type: UDP
	threshold: DEBUG
	filename_delimit: "/src"
	port: 30000
	host: "127.0.0.1"
}
console: {
	type: "OTS"
	threshold: "DEBUG"
	filename_delimit: "/src"
	format_string: "|%L:%N:%f [%u]	%m"

}
|Debug:ConfigurationManager:otsdaq/otsdaq/ConfigurationInterface/ConfigurationManager.cc [1567]	READONLY_USER	<> ------------------------------------- init complete 	 [for all plug-ins in Context group 'DefaultContext(75)']
|Debug:ConfigurationManager:otsdaq/otsdaq/ConfigurationInterface/ConfigurationManager.cc [1401]	READONLY_USER	<> ------------------------------------- init start    	 [for all plug-ins in Backbone group 'GroupAliasTreeEditWizBackbone(116)']
|Debug:ConfigurationManager:otsdaq/otsdaq/ConfigurationInterface/ConfigurationManager.cc [1567]	READONLY_USER	<> ------------------------------------- init complete 	 [for all plug-ins in Backbone group 'GroupAliasTreeEditWizBackbone(116)']
|Debug:ConfigurationManager:otsdaq/otsdaq/ConfigurationInterface/ConfigurationManager.cc [1386]	READONLY_USER	<> Not loading group because it is not of type Context or Backbone (it is type 'Iterate').
|Debug:ConfigurationManager:otsdaq/otsdaq/ConfigurationInterface/ConfigurationManager.cc [1386]	READONLY_USER	<> Not loading group because it is not of type Context or Backbone (it is type 'Configuration').
|Debug:AllSupervisorInfo.cc:otsdaq/otsdaq/SupervisorInfo/AllSupervisorInfo.cc [252]	The TRACE-controller app for hostname 'localhost' is CLASS:LID = ots::ChatSupervisor:110 name = ChatSupervisor
|Debug:AllSupervisorInfo.cc:otsdaq/otsdaq/SupervisorInfo/AllSupervisorInfo.cc [260]	TRACE-controller app count = 1
|Debug:AllSupervisorInfo.cc:otsdaq/otsdaq/SupervisorInfo/AllSupervisorInfo.cc [272]	Supervisor Info initialization complete!
|Debug:ConfigurationManager:otsdaq/otsdaq/ConfigurationInterface/ConfigurationManager.cc [462]	READONLY_USER	<> Destroying Backbone Key: 116
|Debug:ConfigurationManager:otsdaq/otsdaq/ConfigurationInterface/ConfigurationManager.cc [480]	READONLY_USER	<> Destroying Context Key: 75
|Debug:CorePropertySupervisorBase.cc:otsdaq/otsdaq/CoreSupervisors/CorePropertySupervisorBase.cc [68]	ConfigurationGUISupervisor:UNINITIALIZED_supervisorApplicationUID	<> Getting configuration specific info for supervisor 'ConfigurationGUISupervisor' of class ots::ConfigurationGUISupervisor.
|Debug:TableBase:otsdaq/otsdaq/TableCore/TableBase.cc [109]	TableBase-TableGroupMetadata	<> Special table 'TableGroupMetadata' constructed. 1
|Debug:ConfigurationManager:otsdaq/otsdaq/ConfigurationInterface/ConfigurationManager.cc [197]	READONLY_USER	<> username_ = READONLY_USER
|Debug:ConfigurationManager:otsdaq/otsdaq/ConfigurationInterface/ConfigurationManager.cc [244]	READONLY_USER	<> ACTIVE_GROUPS_FILENAME = /home/daq/Burnin/srcs/otsdaq_cmsburninbox/DataNCP/ServiceData/ActiveTableGroups.cfg
|Debug:ConfigurationManager:otsdaq/otsdaq/ConfigurationInterface/ConfigurationManager.cc [245]	READONLY_USER	<> ARTDAQ_DATABASE_URI = filesystemdb:///home/daq/Burnin/srcs/otsdaq_cmsburninbox/databases/filesystemdb/2023_03_NCP_db
|Debug:ConfigurationManager:otsdaq/otsdaq/ConfigurationInterface/ConfigurationManager.cc [1401]	READONLY_USER	<> ------------------------------------- init start    	 [for all plug-ins in Context group 'DefaultContext(75)']
|Debug:MessageFacilityTable_table.cc:otsdaq/otsdaq/TablePlugins/MessageFacilityTable_table.cc [120]	Found FWD/WEB/QT true/true/true and IP:Port:FwdPort 127.0.0.1:30000:30001 in MesageFacility table.
|Debug:MessageFacilityTable_table.cc:otsdaq/otsdaq/TablePlugins/MessageFacilityTable_table.cc [159]	Forwarding to Web GUI at IP:Port:FwdPort 127.0.0.1:30000:30001 with UDP forward MesageFacility.
|Debug:MessageFacilityTable_table.cc:otsdaq/otsdaq/TablePlugins/MessageFacilityTable_table.cc [204]	Wrote /home/daq/Burnin/srcs/otsdaq_cmsburninbox/DataNCP/MessageFacilityConfigurations/QuietForwarderGen.cfg:
RECEIVE_PORT 	 30000
DESTINATION_PORT 	 30001
DESTINATION_IP 	 127.0.0.1
|Debug:MessageFacilityTable_table.cc:otsdaq/otsdaq/TablePlugins/MessageFacilityTable_table.cc [276]	Opened.. /home/daq/Burnin/srcs/otsdaq_cmsburninbox/DataNCP/MessageFacilityConfigurations/MessageFacilityGen.fcl
|Debug:MessageFacilityTable_table.cc:otsdaq/otsdaq/TablePlugins/MessageFacilityTable_table.cc [287]	Opened for artdaq.. /home/daq/Burnin/srcs/otsdaq_cmsburninbox/DataNCP/MessageFacilityConfigurations/ARTDAQInterfaceMessageFacilityGen.fcl
|Debug:MessageFacilityTable_table.cc:otsdaq/otsdaq/TablePlugins/MessageFacilityTable_table.cc [296]	Wrote 
otsConsole: {
	type: UDP
	threshold: DEBUG
	filename_delimit: "/src"
	port: 30000
	host: "127.0.0.1"
}
console: {
	type: "OTS"
	threshold: "DEBUG"
	filename_delimit: "/src"
	format_string: "|%L:%N:%f [%u]	%m"

}
|Debug:ConfigurationManager:otsdaq/otsdaq/ConfigurationInterface/ConfigurationManager.cc [1567]	READONLY_USER	<> ------------------------------------- init complete 	 [for all plug-ins in Context group 'DefaultContext(75)']
|Debug:ConfigurationManager:otsdaq/otsdaq/ConfigurationInterface/ConfigurationManager.cc [1401]	READONLY_USER	<> ------------------------------------- init start    	 [for all plug-ins in Backbone group 'GroupAliasTreeEditWizBackbone(116)']
|Debug:ConfigurationManager:otsdaq/otsdaq/ConfigurationInterface/ConfigurationManager.cc [1567]	READONLY_USER	<> ------------------------------------- init complete 	 [for all plug-ins in Backbone group 'GroupAliasTreeEditWizBackbone(116)']
|Debug:ConfigurationManager:otsdaq/otsdaq/ConfigurationInterface/ConfigurationManager.cc [1386]	READONLY_USER	<> Not loading group because it is not of type Context or Backbone (it is type 'Iterate').
|Debug:ConfigurationManager:otsdaq/otsdaq/ConfigurationInterface/ConfigurationManager.cc [1386]	READONLY_USER	<> Not loading group because it is not of type Context or Backbone (it is type 'Configuration').
|Debug:CorePropertySupervisorBase.cc:otsdaq/otsdaq/CoreSupervisors/CorePropertySupervisorBase.cc [106]	ConfigurationGUISupervisor:ConfigurationGUISupervisor	<> CorePropertySupervisorBase::supervisorContextUID_ = MainContext
|Debug:CorePropertySupervisorBase.cc:otsdaq/otsdaq/CoreSupervisors/CorePropertySupervisorBase.cc [107]	ConfigurationGUISupervisor:ConfigurationGUISupervisor	<> CorePropertySupervisorBase::supervisorApplicationUID_ = ConfigurationGUISupervisor
|Debug:CorePropertySupervisorBase.cc:otsdaq/otsdaq/CoreSupervisors/CorePropertySupervisorBase.cc [108]	ConfigurationGUISupervisor:ConfigurationGUISupervisor	<> CorePropertySupervisorBase::supervisorConfigurationPath_ = /MainContext/LinkToApplicationTable/ConfigurationGUISupervisor/LinkToSupervisorTable
|Debug:CorePropertySupervisorBase.cc:otsdaq/otsdaq/CoreSupervisors/CorePropertySupervisorBase.cc [175]	hostname = localhost
|Debug:CorePropertySupervisorBase.cc:otsdaq/otsdaq/CoreSupervisors/CorePropertySupervisorBase.cc [189]	Marked alive: /home/daq/Burnin/srcs/otsdaq_cmsburninbox/DataNCP/Logs/otsdaq_is_alive-localhost-2015.dat
|Debug:FSM:otsdaq/otsdaq/FiniteStateMachine/FiniteStateMachine.cc [19]	FSM-ConfigurationGUISupervisor:ConfigurationGUISupervisor	<> Constructing FiniteStateMachine
|Debug:FSM:otsdaq/otsdaq/FiniteStateMachine/RunControlStateMachine.cc [107]	FSM-ConfigurationGUISupervisor:ConfigurationGUISupervisor	<> Resetting RunControlStateMachine with name 'ConfigurationGUISupervisor:ConfigurationGUISupervisor'...
|Debug:WorkLoopManager.cc:otsdaq/otsdaq/WorkLoopManager/WorkLoopManager.cc [19]	Request name: StateMachine jobName: StateMachine
|Debug:CoreSupervisorBase.cc:otsdaq/otsdaq/CoreSupervisors/CoreSupervisorBase.cc [25]	ConfigurationGUISupervisor:ConfigurationGUISupervisor	<> Constructor.
|Debug:CoreSupervisorBase.cc:otsdaq/otsdaq/CoreSupervisors/CoreSupervisorBase.cc [40]	ConfigurationGUISupervisor:ConfigurationGUISupervisor	<> Constructed.
|Debug:CfgGUI:otsdaq_utilities/otsdaq-utilities/ConfigurationGUI/ConfigurationGUISupervisor.cc [46]	ConfigurationGUISupervisor:ConfigurationGUISupervisor	<> Constructor started.
|Debug:CfgGUI:otsdaq_utilities/otsdaq-utilities/ConfigurationGUI/ConfigurationGUISupervisor.cc [63]	ConfigurationGUISupervisor:ConfigurationGUISupervisor	<> Initializing...
|Debug:CfgGUI:otsdaq_utilities/otsdaq-utilities/ConfigurationGUI/ConfigurationGUISupervisor.cc [65]	ConfigurationGUISupervisor:ConfigurationGUISupervisor	<> Activating saved context, which may prepare for normal mode...
|Debug:CfgGUI:otsdaq_utilities/otsdaq-utilities/ConfigurationGUI/ConfigurationGUISupervisor.cc [7211]	ConfigurationGUISupervisor:ConfigurationGUISupervisor	<> Attempting test activation of the context group.
|Debug:TableBase:otsdaq/otsdaq/TableCore/TableBase.cc [109]	TableBase-TableGroupMetadata	<> Special table 'TableGroupMetadata' constructed. 1
|Debug:ConfigurationManager:otsdaq/otsdaq/ConfigurationInterface/ConfigurationManager.cc [197]	READONLY_USER	<> username_ = READONLY_USER
|Debug:ConfigurationManager:otsdaq/otsdaq/ConfigurationInterface/ConfigurationManager.cc [244]	READONLY_USER	<> ACTIVE_GROUPS_FILENAME = /home/daq/Burnin/srcs/otsdaq_cmsburninbox/DataNCP/ServiceData/ActiveTableGroups.cfg
|Debug:ConfigurationManager:otsdaq/otsdaq/ConfigurationInterface/ConfigurationManager.cc [245]	READONLY_USER	<> ARTDAQ_DATABASE_URI = filesystemdb:///home/daq/Burnin/srcs/otsdaq_cmsburninbox/databases/filesystemdb/2023_03_NCP_db
|Debug:ConfigurationManager:otsdaq/otsdaq/ConfigurationInterface/ConfigurationManager.cc [1401]	READONLY_USER	<> ------------------------------------- init start    	 [for all plug-ins in Context group 'DefaultContext(75)']
|Debug:MessageFacilityTable_table.cc:otsdaq/otsdaq/TablePlugins/MessageFacilityTable_table.cc [120]	Found FWD/WEB/QT true/true/true and IP:Port:FwdPort 127.0.0.1:30000:30001 in MesageFacility table.
|Debug:MessageFacilityTable_table.cc:otsdaq/otsdaq/TablePlugins/MessageFacilityTable_table.cc [159]	Forwarding to Web GUI at IP:Port:FwdPort 127.0.0.1:30000:30001 with UDP forward MesageFacility.
|Debug:MessageFacilityTable_table.cc:otsdaq/otsdaq/TablePlugins/MessageFacilityTable_table.cc [204]	Wrote /home/daq/Burnin/srcs/otsdaq_cmsburninbox/DataNCP/MessageFacilityConfigurations/QuietForwarderGen.cfg:
RECEIVE_PORT 	 30000
DESTINATION_PORT 	 30001
DESTINATION_IP 	 127.0.0.1
|Debug:MessageFacilityTable_table.cc:otsdaq/otsdaq/TablePlugins/MessageFacilityTable_table.cc [276]	Opened.. /home/daq/Burnin/srcs/otsdaq_cmsburninbox/DataNCP/MessageFacilityConfigurations/MessageFacilityGen.fcl
|Debug:MessageFacilityTable_table.cc:otsdaq/otsdaq/TablePlugins/MessageFacilityTable_table.cc [287]	Opened for artdaq.. /home/daq/Burnin/srcs/otsdaq_cmsburninbox/DataNCP/MessageFacilityConfigurations/ARTDAQInterfaceMessageFacilityGen.fcl
|Debug:MessageFacilityTable_table.cc:otsdaq/otsdaq/TablePlugins/MessageFacilityTable_table.cc [296]	Wrote 
otsConsole: {
	type: UDP
	threshold: DEBUG
	filename_delimit: "/src"
	port: 30000
	host: "127.0.0.1"
}
console: {
	type: "OTS"
	threshold: "DEBUG"
	filename_delimit: "/src"
	format_string: "|%L:%N:%f [%u]	%m"

}
|Debug:ConfigurationManager:otsdaq/otsdaq/ConfigurationInterface/ConfigurationManager.cc [1567]	READONLY_USER	<> ------------------------------------- init complete 	 [for all plug-ins in Context group 'DefaultContext(75)']
|Debug:ConfigurationManager:otsdaq/otsdaq/ConfigurationInterface/ConfigurationManager.cc [1401]	READONLY_USER	<> ------------------------------------- init start    	 [for all plug-ins in Backbone group 'GroupAliasTreeEditWizBackbone(116)']
|Debug:ConfigurationManager:otsdaq/otsdaq/ConfigurationInterface/ConfigurationManager.cc [1567]	READONLY_USER	<> ------------------------------------- init complete 	 [for all plug-ins in Backbone group 'GroupAliasTreeEditWizBackbone(116)']
|Debug:ConfigurationManager:otsdaq/otsdaq/ConfigurationInterface/ConfigurationManager.cc [1386]	READONLY_USER	<> Not loading group because it is not of type Context or Backbone (it is type 'Iterate').
|Debug:ConfigurationManager:otsdaq/otsdaq/ConfigurationInterface/ConfigurationManager.cc [1386]	READONLY_USER	<> Not loading group because it is not of type Context or Backbone (it is type 'Configuration').
|Debug:ConfigurationManager:otsdaq/otsdaq/ConfigurationInterface/ConfigurationManager.cc [462]	READONLY_USER	<> Destroying Backbone Key: 116
|Debug:ConfigurationManager:otsdaq/otsdaq/ConfigurationInterface/ConfigurationManager.cc [480]	READONLY_USER	<> Destroying Context Key: 75
|Debug:CfgGUI:otsdaq_utilities/otsdaq-utilities/ConfigurationGUI/ConfigurationGUISupervisor.cc [76]	ConfigurationGUISupervisor:ConfigurationGUISupervisor	<> Done with test context.
|Debug:CfgGUI:otsdaq_utilities/otsdaq-utilities/ConfigurationGUI/ConfigurationGUISupervisor.cc [54]	ConfigurationGUISupervisor:ConfigurationGUISupervisor	<> Constructor complete.
|Debug:CorePropertySupervisorBase.cc:otsdaq/otsdaq/CoreSupervisors/CorePropertySupervisorBase.cc [24]	MacroMakerSupervisor:UNINITIALIZED_supervisorApplicationUID	<> application->getApplicationContext()->getContextDescriptor()->getURL() = http://localhost:2015
|Debug:CorePropertySupervisorBase.cc:otsdaq/otsdaq/CoreSupervisors/CorePropertySupervisorBase.cc [25]	MacroMakerSupervisor:UNINITIALIZED_supervisorApplicationUID	<> application->getApplicationDescriptor()->getLocalId() = 115
|Debug:CorePropertySupervisorBase.cc:otsdaq/otsdaq/CoreSupervisors/CorePropertySupervisorBase.cc [26]	MacroMakerSupervisor:UNINITIALIZED_supervisorApplicationUID	<> supervisorClass_ = ots::MacroMakerSupervisor
|Debug:CorePropertySupervisorBase.cc:otsdaq/otsdaq/CoreSupervisors/CorePropertySupervisorBase.cc [27]	MacroMakerSupervisor:UNINITIALIZED_supervisorApplicationUID	<> supervisorClassNoNamespace_ = MacroMakerSupervisor
|Debug:AllSupervisorInfo.cc:otsdaq/otsdaq/SupervisorInfo/AllSupervisorInfo.cc [44]	Initializing info based on XDAQ context...
|Debug:SupervisorDescriptorInfoBase.cc:otsdaq/otsdaq/SupervisorInfo/SupervisorDescriptorInfoBase.cc [33]	Init
|Debug:AllSupervisorInfo.cc:otsdaq/otsdaq/SupervisorInfo/AllSupervisorInfo.cc [103]	Initializing info for Normal mode XDAQ context...
|Debug:TableBase:otsdaq/otsdaq/TableCore/TableBase.cc [109]	TableBase-TableGroupMetadata	<> Special table 'TableGroupMetadata' constructed. 1
|Debug:ConfigurationManager:otsdaq/otsdaq/ConfigurationInterface/ConfigurationManager.cc [197]	READONLY_USER	<> username_ = READONLY_USER
|Debug:ConfigurationManager:otsdaq/otsdaq/ConfigurationInterface/ConfigurationManager.cc [244]	READONLY_USER	<> ACTIVE_GROUPS_FILENAME = /home/daq/Burnin/srcs/otsdaq_cmsburninbox/DataNCP/ServiceData/ActiveTableGroups.cfg
|Debug:ConfigurationManager:otsdaq/otsdaq/ConfigurationInterface/ConfigurationManager.cc [245]	READONLY_USER	<> ARTDAQ_DATABASE_URI = filesystemdb:///home/daq/Burnin/srcs/otsdaq_cmsburninbox/databases/filesystemdb/2023_03_NCP_db
|Debug:ConfigurationManager:otsdaq/otsdaq/ConfigurationInterface/ConfigurationManager.cc [1401]	READONLY_USER	<> ------------------------------------- init start    	 [for all plug-ins in Context group 'DefaultContext(75)']
|Debug:MessageFacilityTable_table.cc:otsdaq/otsdaq/TablePlugins/MessageFacilityTable_table.cc [120]	Found FWD/WEB/QT true/true/true and IP:Port:FwdPort 127.0.0.1:30000:30001 in MesageFacility table.
|Debug:MessageFacilityTable_table.cc:otsdaq/otsdaq/TablePlugins/MessageFacilityTable_table.cc [159]	Forwarding to Web GUI at IP:Port:FwdPort 127.0.0.1:30000:30001 with UDP forward MesageFacility.
|Debug:MessageFacilityTable_table.cc:otsdaq/otsdaq/TablePlugins/MessageFacilityTable_table.cc [204]	Wrote /home/daq/Burnin/srcs/otsdaq_cmsburninbox/DataNCP/MessageFacilityConfigurations/QuietForwarderGen.cfg:
RECEIVE_PORT 	 30000
DESTINATION_PORT 	 30001
DESTINATION_IP 	 127.0.0.1
|Debug:MessageFacilityTable_table.cc:otsdaq/otsdaq/TablePlugins/MessageFacilityTable_table.cc [276]	Opened.. /home/daq/Burnin/srcs/otsdaq_cmsburninbox/DataNCP/MessageFacilityConfigurations/MessageFacilityGen.fcl
|Debug:MessageFacilityTable_table.cc:otsdaq/otsdaq/TablePlugins/MessageFacilityTable_table.cc [287]	Opened for artdaq.. /home/daq/Burnin/srcs/otsdaq_cmsburninbox/DataNCP/MessageFacilityConfigurations/ARTDAQInterfaceMessageFacilityGen.fcl
|Debug:MessageFacilityTable_table.cc:otsdaq/otsdaq/TablePlugins/MessageFacilityTable_table.cc [296]	Wrote 
otsConsole: {
	type: UDP
	threshold: DEBUG
	filename_delimit: "/src"
	port: 30000
	host: "127.0.0.1"
}
console: {
	type: "OTS"
	threshold: "DEBUG"
	filename_delimit: "/src"
	format_string: "|%L:%N:%f [%u]	%m"

}
|Debug:ConfigurationManager:otsdaq/otsdaq/ConfigurationInterface/ConfigurationManager.cc [1567]	READONLY_USER	<> ------------------------------------- init complete 	 [for all plug-ins in Context group 'DefaultContext(75)']
|Debug:ConfigurationManager:otsdaq/otsdaq/ConfigurationInterface/ConfigurationManager.cc [1401]	READONLY_USER	<> ------------------------------------- init start    	 [for all plug-ins in Backbone group 'GroupAliasTreeEditWizBackbone(116)']
|Debug:ConfigurationManager:otsdaq/otsdaq/ConfigurationInterface/ConfigurationManager.cc [1567]	READONLY_USER	<> ------------------------------------- init complete 	 [for all plug-ins in Backbone group 'GroupAliasTreeEditWizBackbone(116)']
|Debug:ConfigurationManager:otsdaq/otsdaq/ConfigurationInterface/ConfigurationManager.cc [1386]	READONLY_USER	<> Not loading group because it is not of type Context or Backbone (it is type 'Iterate').
|Debug:ConfigurationManager:otsdaq/otsdaq/ConfigurationInterface/ConfigurationManager.cc [1386]	READONLY_USER	<> Not loading group because it is not of type Context or Backbone (it is type 'Configuration').
|Debug:AllSupervisorInfo.cc:otsdaq/otsdaq/SupervisorInfo/AllSupervisorInfo.cc [252]	The TRACE-controller app for hostname 'localhost' is CLASS:LID = ots::ChatSupervisor:110 name = ChatSupervisor
|Debug:AllSupervisorInfo.cc:otsdaq/otsdaq/SupervisorInfo/AllSupervisorInfo.cc [260]	TRACE-controller app count = 1
|Debug:AllSupervisorInfo.cc:otsdaq/otsdaq/SupervisorInfo/AllSupervisorInfo.cc [272]	Supervisor Info initialization complete!
|Debug:ConfigurationManager:otsdaq/otsdaq/ConfigurationInterface/ConfigurationManager.cc [462]	READONLY_USER	<> Destroying Backbone Key: 116
|Debug:ConfigurationManager:otsdaq/otsdaq/ConfigurationInterface/ConfigurationManager.cc [480]	READONLY_USER	<> Destroying Context Key: 75
|Debug:CorePropertySupervisorBase.cc:otsdaq/otsdaq/CoreSupervisors/CorePropertySupervisorBase.cc [68]	MacroMakerSupervisor:UNINITIALIZED_supervisorApplicationUID	<> Getting configuration specific info for supervisor 'MacroMakerSupervisor' of class ots::MacroMakerSupervisor.
|Debug:TableBase:otsdaq/otsdaq/TableCore/TableBase.cc [109]	TableBase-TableGroupMetadata	<> Special table 'TableGroupMetadata' constructed. 1
|Debug:ConfigurationManager:otsdaq/otsdaq/ConfigurationInterface/ConfigurationManager.cc [197]	READONLY_USER	<> username_ = READONLY_USER
|Debug:ConfigurationManager:otsdaq/otsdaq/ConfigurationInterface/ConfigurationManager.cc [244]	READONLY_USER	<> ACTIVE_GROUPS_FILENAME = /home/daq/Burnin/srcs/otsdaq_cmsburninbox/DataNCP/ServiceData/ActiveTableGroups.cfg
|Debug:ConfigurationManager:otsdaq/otsdaq/ConfigurationInterface/ConfigurationManager.cc [245]	READONLY_USER	<> ARTDAQ_DATABASE_URI = filesystemdb:///home/daq/Burnin/srcs/otsdaq_cmsburninbox/databases/filesystemdb/2023_03_NCP_db
|Debug:ConfigurationManager:otsdaq/otsdaq/ConfigurationInterface/ConfigurationManager.cc [1401]	READONLY_USER	<> ------------------------------------- init start    	 [for all plug-ins in Context group 'DefaultContext(75)']
|Debug:MessageFacilityTable_table.cc:otsdaq/otsdaq/TablePlugins/MessageFacilityTable_table.cc [120]	Found FWD/WEB/QT true/true/true and IP:Port:FwdPort 127.0.0.1:30000:30001 in MesageFacility table.
|Debug:MessageFacilityTable_table.cc:otsdaq/otsdaq/TablePlugins/MessageFacilityTable_table.cc [159]	Forwarding to Web GUI at IP:Port:FwdPort 127.0.0.1:30000:30001 with UDP forward MesageFacility.
|Debug:MessageFacilityTable_table.cc:otsdaq/otsdaq/TablePlugins/MessageFacilityTable_table.cc [204]	Wrote /home/daq/Burnin/srcs/otsdaq_cmsburninbox/DataNCP/MessageFacilityConfigurations/QuietForwarderGen.cfg:
RECEIVE_PORT 	 30000
DESTINATION_PORT 	 30001
DESTINATION_IP 	 127.0.0.1
|Debug:MessageFacilityTable_table.cc:otsdaq/otsdaq/TablePlugins/MessageFacilityTable_table.cc [276]	Opened.. /home/daq/Burnin/srcs/otsdaq_cmsburninbox/DataNCP/MessageFacilityConfigurations/MessageFacilityGen.fcl
|Debug:MessageFacilityTable_table.cc:otsdaq/otsdaq/TablePlugins/MessageFacilityTable_table.cc [287]	Opened for artdaq.. /home/daq/Burnin/srcs/otsdaq_cmsburninbox/DataNCP/MessageFacilityConfigurations/ARTDAQInterfaceMessageFacilityGen.fcl
|Debug:MessageFacilityTable_table.cc:otsdaq/otsdaq/TablePlugins/MessageFacilityTable_table.cc [296]	Wrote 
otsConsole: {
	type: UDP
	threshold: DEBUG
	filename_delimit: "/src"
	port: 30000
	host: "127.0.0.1"
}
console: {
	type: "OTS"
	threshold: "DEBUG"
	filename_delimit: "/src"
	format_string: "|%L:%N:%f [%u]	%m"

}
|Debug:ConfigurationManager:otsdaq/otsdaq/ConfigurationInterface/ConfigurationManager.cc [1567]	READONLY_USER	<> ------------------------------------- init complete 	 [for all plug-ins in Context group 'DefaultContext(75)']
|Debug:ConfigurationManager:otsdaq/otsdaq/ConfigurationInterface/ConfigurationManager.cc [1401]	READONLY_USER	<> ------------------------------------- init start    	 [for all plug-ins in Backbone group 'GroupAliasTreeEditWizBackbone(116)']
|Debug:ConfigurationManager:otsdaq/otsdaq/ConfigurationInterface/ConfigurationManager.cc [1567]	READONLY_USER	<> ------------------------------------- init complete 	 [for all plug-ins in Backbone group 'GroupAliasTreeEditWizBackbone(116)']
|Debug:ConfigurationManager:otsdaq/otsdaq/ConfigurationInterface/ConfigurationManager.cc [1386]	READONLY_USER	<> Not loading group because it is not of type Context or Backbone (it is type 'Iterate').
|Debug:ConfigurationManager:otsdaq/otsdaq/ConfigurationInterface/ConfigurationManager.cc [1386]	READONLY_USER	<> Not loading group because it is not of type Context or Backbone (it is type 'Configuration').
|Debug:CorePropertySupervisorBase.cc:otsdaq/otsdaq/CoreSupervisors/CorePropertySupervisorBase.cc [106]	MacroMakerSupervisor:MacroMakerSupervisor	<> CorePropertySupervisorBase::supervisorContextUID_ = MainContext
|Debug:CorePropertySupervisorBase.cc:otsdaq/otsdaq/CoreSupervisors/CorePropertySupervisorBase.cc [107]	MacroMakerSupervisor:MacroMakerSupervisor	<> CorePropertySupervisorBase::supervisorApplicationUID_ = MacroMakerSupervisor
|Debug:CorePropertySupervisorBase.cc:otsdaq/otsdaq/CoreSupervisors/CorePropertySupervisorBase.cc [108]	MacroMakerSupervisor:MacroMakerSupervisor	<> CorePropertySupervisorBase::supervisorConfigurationPath_ = /MainContext/LinkToApplicationTable/MacroMakerSupervisor/LinkToSupervisorTable
|Debug:CorePropertySupervisorBase.cc:otsdaq/otsdaq/CoreSupervisors/CorePropertySupervisorBase.cc [175]	hostname = localhost
|Debug:CorePropertySupervisorBase.cc:otsdaq/otsdaq/CoreSupervisors/CorePropertySupervisorBase.cc [189]	Marked alive: /home/daq/Burnin/srcs/otsdaq_cmsburninbox/DataNCP/Logs/otsdaq_is_alive-localhost-2015.dat
|Debug:FSM:otsdaq/otsdaq/FiniteStateMachine/FiniteStateMachine.cc [19]	FSM-MacroMakerSupervisor:MacroMakerSupervisor	<> Constructing FiniteStateMachine
|Debug:FSM:otsdaq/otsdaq/FiniteStateMachine/RunControlStateMachine.cc [107]	FSM-MacroMakerSupervisor:MacroMakerSupervisor	<> Resetting RunControlStateMachine with name 'MacroMakerSupervisor:MacroMakerSupervisor'...
|Debug:WorkLoopManager.cc:otsdaq/otsdaq/WorkLoopManager/WorkLoopManager.cc [19]	Request name: StateMachine jobName: StateMachine
|Debug:CoreSupervisorBase.cc:otsdaq/otsdaq/CoreSupervisors/CoreSupervisorBase.cc [25]	MacroMakerSupervisor:MacroMakerSupervisor	<> Constructor.
|Debug:CoreSupervisorBase.cc:otsdaq/otsdaq/CoreSupervisors/CoreSupervisorBase.cc [40]	MacroMakerSupervisor:MacroMakerSupervisor	<> Constructed.
|Debug:MacroMaker:otsdaq_utilities/otsdaq-utilities/MacroMaker/MacroMakerSupervisor.cc [35]	MacroMakerSupervisor:MacroMakerSupervisor	<> Constructing...
|Debug:MacroMaker:otsdaq_utilities/otsdaq-utilities/MacroMaker/MacroMakerSupervisor.cc [62]	MacroMakerSupervisor:MacroMakerSupervisor	<> Not Macro Maker only mode.
|Debug:MacroMaker:otsdaq_utilities/otsdaq-utilities/MacroMaker/MacroMakerSupervisor.cc [67]	MacroMakerSupervisor:MacroMakerSupervisor	<> Constructed.
06 Mar 2023 16:30:01.753 [140598891407552] INFO  localhost.p:2015 <> - Ready.
Terminating...
