{
"document" : {
"data" : {
"NAME" : "DATA_BUFFER_TABLE",
"COMMENT" : "Records for data buffer Producers and Consumers.",
"AUTHOR" : "admin",
"CREATION_TIME" : 1650463561,
"COL_TYPES" : {
"DATA_BUFFER_GROUP_ID" : "STRING",
"DATA_BUFFER_UID" : "STRING",
"LINK_TO_DATA_PROCESSOR_TABLE" : "STRING",
"LINK_TO_DATA_PROCESSOR_GROUP_ID" : "STRING",
"STATUS" : "STRING",
"COMMENT_DESCRIPTION" : "STRING",
"AUTHOR" : "STRING",
"RECORD_INSERTION_TIME" : "TIMESTAMP WITH TIMEZONE"
},
"DATA_SET" : [
{
"DATA_BUFFER_GROUP_ID" : "VisualizerDataBuffer",
"DATA_BUFFER_UID" : "VisualizerBurninBoxBuffer",
"LINK_TO_DATA_PROCESSOR_TABLE" : "DataProcessorTable",
"LINK_TO_DATA_PROCESSOR_GROUP_ID" : "VisualizerBurninBoxBuffer",
"STATUS" : "Off",
"COMMENT_DESCRIPTION" : "DEFAULT",
"AUTHOR" : "admin",
"RECORD_INSERTION_TIME" : "1626285952"
},
{
"DATA_BUFFER_GROUP_ID" : "VisualizerDataBuffer",
"DATA_BUFFER_UID" : "VisualizerPowerSupplyBuffer",
"LINK_TO_DATA_PROCESSOR_TABLE" : "DataProcessorTable",
"LINK_TO_DATA_PROCESSOR_GROUP_ID" : "VisualizerPowerSupplyBuffer",
"STATUS" : "Off",
"COMMENT_DESCRIPTION" : "DEFAULT",
"AUTHOR" : "admin",
"RECORD_INSERTION_TIME" : "1650463549"
},
{
"DATA_BUFFER_GROUP_ID" : "VisualizerDataBuffer",
"DATA_BUFFER_UID" : "TrackerBuffer",
"LINK_TO_DATA_PROCESSOR_TABLE" : "DataProcessorTable",
"LINK_TO_DATA_PROCESSOR_GROUP_ID" : "VisualizerTrackerBuffer",
"STATUS" : "Off",
"COMMENT_DESCRIPTION" : "DEFAULT",
"AUTHOR" : "admin",
"RECORD_INSERTION_TIME" : "1650463554"
}
]
},
"metadata" : {

},
"search" : [

]
},
"comments" : [

],
"origin" : {
"source" : "template",
"name" : "notprovided",
"format" : "json",
"created" : "2022-04-20T10:06:01.819-0400",
"rawdata" : [

]
},
"version" : "11",
"entities" : [
{
"name" : "OTSROOT",
"assigned" : "2022-04-20T10:06:01.820-0400"
}
],
"configurations" : [
{
"name" : "notprovided",
"assigned" : "2022-04-20T10:06:01.820-0400"
},
{
"name" : "BurninBoxConfiguration_v96",
"assigned" : "2022-04-20T10:06:05.189-0400"
}
],
"changelog" : "notprovided",
"bookkeeping" : {
"isdeleted" : false,
"isreadonly" : false,
"updates" : [
{
"event" : "addConfiguration",
"timestamp" : "2022-04-20T10:06:01.820-0400",
"value" : {
"name" : "notprovided",
"assigned" : "2022-04-20T10:06:01.820-0400"
}
},
{
"event" : "setVersion",
"timestamp" : "2022-04-20T10:06:01.820-0400",
"value" : {
"name" : "11",
"assigned" : "2022-04-20T10:06:01.820-0400"
}
},
{
"event" : "setCollection",
"timestamp" : "2022-04-20T10:06:01.820-0400",
"value" : {
"name" : "DataBufferTable",
"assigned" : "2022-04-20T10:06:01.820-0400"
}
},
{
"event" : "addEntity",
"timestamp" : "2022-04-20T10:06:01.820-0400",
"value" : {
"name" : "OTSROOT",
"assigned" : "2022-04-20T10:06:01.820-0400"
}
},
{
"event" : "addConfiguration",
"timestamp" : "2022-04-20T10:06:05.189-0400",
"value" : {
"name" : "BurninBoxConfiguration_v96",
"assigned" : "2022-04-20T10:06:05.189-0400"
}
}
],
"created" : "2022-04-20T10:06:01.819-0400"
},
"_id" : {
"$oid" : "8ca63c96b6264b2cb4b8a55e"
},
"collection" : "DataBufferTable",
"aliases" : {
"active" : [

],
"history" : [

]
},
"runs" : [

],
"attachments" : [

],
"configtype" : "notprovided"
}