{
"document" : {
"data" : {
"NAME" : "DATA_BUFFER_TABLE",
"COMMENT" : "Records for data buffer Producers and Consumers.",
"AUTHOR" : "admin",
"CREATION_TIME" : 1681504605,
"COL_TYPES" : {
"DATA_BUFFER_GROUP_ID" : "STRING",
"DATA_BUFFER_UID" : "STRING",
"LINK_TO_DATA_PROCESSOR_TABLE" : "STRING",
"LINK_TO_DATA_PROCESSOR_GROUP_ID" : "STRING",
"STATUS" : "STRING",
"COMMENT_DESCRIPTION" : "STRING",
"AUTHOR" : "STRING",
"RECORD_INSERTION_TIME" : "TIMESTAMP WITH TIMEZONE"
},
"DATA_SET" : [
{
"DATA_BUFFER_GROUP_ID" : "VisualizerDataBuffer",
"DATA_BUFFER_UID" : "VisualizerBurninBoxBuffer",
"LINK_TO_DATA_PROCESSOR_TABLE" : "DataProcessorTable",
"LINK_TO_DATA_PROCESSOR_GROUP_ID" : "VisualizerBurninBoxBuffer",
"STATUS" : "On",
"COMMENT_DESCRIPTION" : "Burnin Box status plots",
"AUTHOR" : "admin",
"RECORD_INSERTION_TIME" : "1680880165"
},
{
"DATA_BUFFER_GROUP_ID" : "VisualizerDataBuffer",
"DATA_BUFFER_UID" : "VisualizerPowerSupplyBuffer",
"LINK_TO_DATA_PROCESSOR_TABLE" : "DataProcessorTable",
"LINK_TO_DATA_PROCESSOR_GROUP_ID" : "VisualizerPowerSupplyBuffer",
"STATUS" : "On",
"COMMENT_DESCRIPTION" : "Power Supply status plots",
"AUTHOR" : "admin",
"RECORD_INSERTION_TIME" : "1681504594"
},
{
"DATA_BUFFER_GROUP_ID" : "VisualizerDataBuffer",
"DATA_BUFFER_UID" : "TrackerBuffer",
"LINK_TO_DATA_PROCESSOR_TABLE" : "DataProcessorTable",
"LINK_TO_DATA_PROCESSOR_GROUP_ID" : "VisualizerTrackerBuffer",
"STATUS" : "On",
"COMMENT_DESCRIPTION" : "Modules calibrations plots",
"AUTHOR" : "admin",
"RECORD_INSERTION_TIME" : "1680627251"
},
{
"DATA_BUFFER_GROUP_ID" : "VisualizerDataBuffer",
"DATA_BUFFER_UID" : "TrackerMonitorBuffer",
"LINK_TO_DATA_PROCESSOR_TABLE" : "DataProcessorTable",
"LINK_TO_DATA_PROCESSOR_GROUP_ID" : "VisualizerTrackerMonitorBuffer",
"STATUS" : "On",
"COMMENT_DESCRIPTION" : "Modules monitoring system",
"AUTHOR" : "admin",
"RECORD_INSERTION_TIME" : "1680627251"
}
]
},
"metadata" : {

},
"search" : [

]
},
"comments" : [

],
"origin" : {
"source" : "template",
"name" : "notprovided",
"format" : "json",
"created" : "2023-04-14T15:36:45.629-0500",
"rawdata" : [

]
},
"version" : "16",
"entities" : [
{
"name" : "OTSROOT",
"assigned" : "2023-04-14T15:36:45.630-0500"
}
],
"configurations" : [
{
"name" : "notprovided",
"assigned" : "2023-04-14T15:36:45.630-0500"
},
{
"name" : "BurninBoxConfiguration_v134",
"assigned" : "2023-04-14T15:36:49.051-0500"
},
{
"name" : "BurninBoxConfiguration_v135",
"assigned" : "2023-04-14T15:57:03.613-0500"
},
{
"name" : "BurninBoxConfiguration_v136",
"assigned" : "2023-04-14T15:59:00.156-0500"
},
{
"name" : "BurninBoxConfiguration_v137",
"assigned" : "2023-04-14T16:18:32.207-0500"
},
{
"name" : "BurninBoxConfiguration_v138",
"assigned" : "2023-04-14T16:20:11.453-0500"
}
],
"changelog" : "notprovided",
"bookkeeping" : {
"isdeleted" : false,
"isreadonly" : false,
"updates" : [
{
"event" : "addConfiguration",
"timestamp" : "2023-04-14T15:36:45.630-0500",
"value" : {
"name" : "notprovided",
"assigned" : "2023-04-14T15:36:45.630-0500"
}
},
{
"event" : "setVersion",
"timestamp" : "2023-04-14T15:36:45.630-0500",
"value" : {
"name" : "16",
"assigned" : "2023-04-14T15:36:45.630-0500"
}
},
{
"event" : "setCollection",
"timestamp" : "2023-04-14T15:36:45.630-0500",
"value" : {
"name" : "DataBufferTable",
"assigned" : "2023-04-14T15:36:45.630-0500"
}
},
{
"event" : "addEntity",
"timestamp" : "2023-04-14T15:36:45.630-0500",
"value" : {
"name" : "OTSROOT",
"assigned" : "2023-04-14T15:36:45.630-0500"
}
},
{
"event" : "addConfiguration",
"timestamp" : "2023-04-14T15:36:49.051-0500",
"value" : {
"name" : "BurninBoxConfiguration_v134",
"assigned" : "2023-04-14T15:36:49.051-0500"
}
},
{
"event" : "addConfiguration",
"timestamp" : "2023-04-14T15:57:03.613-0500",
"value" : {
"name" : "BurninBoxConfiguration_v135",
"assigned" : "2023-04-14T15:57:03.613-0500"
}
},
{
"event" : "addConfiguration",
"timestamp" : "2023-04-14T15:59:00.156-0500",
"value" : {
"name" : "BurninBoxConfiguration_v136",
"assigned" : "2023-04-14T15:59:00.156-0500"
}
},
{
"event" : "addConfiguration",
"timestamp" : "2023-04-14T16:18:32.207-0500",
"value" : {
"name" : "BurninBoxConfiguration_v137",
"assigned" : "2023-04-14T16:18:32.207-0500"
}
},
{
"event" : "addConfiguration",
"timestamp" : "2023-04-14T16:20:11.453-0500",
"value" : {
"name" : "BurninBoxConfiguration_v138",
"assigned" : "2023-04-14T16:20:11.453-0500"
}
}
],
"created" : "2023-04-14T15:36:45.629-0500"
},
"_id" : {
"$oid" : "a36330712a564652a19bc881"
},
"collection" : "DataBufferTable",
"aliases" : {
"active" : [

],
"history" : [

]
},
"runs" : [

],
"attachments" : [

],
"configtype" : "notprovided"
}