{
"document" : {
"data" : {
"NAME" : "GROUP_ALIASES_TABLE",
"COMMENT" : "Default Backbone.",
"AUTHOR" : "admin",
"CREATION_TIME" : 1603989558,
"COL_TYPES" : {
"GROUP_KEY_ALIAS" : "STRING",
"GROUP_NAME" : "STRING",
"GROUP_KEY" : "STRING",
"COMMENT_DESCRIPTION" : "STRING",
"AUTHOR" : "STRING",
"RECORD_INSERTION_TIME" : "TIMESTAMP WITH TIMEZONE"
},
"DATA_SET" : [
{
"GROUP_KEY_ALIAS" : "DefaultContext",
"GROUP_NAME" : "DefaultContext",
"GROUP_KEY" : "21",
"COMMENT_DESCRIPTION" : "This Group Alias was automatically setup by the server.",
"AUTHOR" : "admin",
"RECORD_INSERTION_TIME" : "1603989558"
},
{
"GROUP_KEY_ALIAS" : "BurninBoxConfiguration",
"GROUP_NAME" : "BurninBoxConfiguration",
"GROUP_KEY" : "25",
"COMMENT_DESCRIPTION" : "This Group Alias was automatically setup by the server.",
"AUTHOR" : "admin",
"RECORD_INSERTION_TIME" : "1603838531"
}
]
},
"metadata" : {

},
"search" : [

]
},
"comments" : [

],
"origin" : {
"source" : "template",
"name" : "notprovided",
"format" : "json",
"created" : "2020-10-29T11:39:18.387-0500",
"rawdata" : [

]
},
"version" : "101",
"entities" : [
{
"name" : "OTSROOT",
"assigned" : "2020-10-29T11:39:18.388-0500"
}
],
"configurations" : [
{
"name" : "notprovided",
"assigned" : "2020-10-29T11:39:18.388-0500"
},
{
"name" : "GroupAliasTreeEditWizBackbone_v36",
"assigned" : "2020-10-29T11:39:19.344-0500"
}
],
"changelog" : "notprovided",
"bookkeeping" : {
"isdeleted" : false,
"isreadonly" : false,
"updates" : [
{
"event" : "addConfiguration",
"timestamp" : "2020-10-29T11:39:18.388-0500",
"value" : {
"name" : "notprovided",
"assigned" : "2020-10-29T11:39:18.388-0500"
}
},
{
"event" : "setVersion",
"timestamp" : "2020-10-29T11:39:18.388-0500",
"value" : {
"name" : "101",
"assigned" : "2020-10-29T11:39:18.388-0500"
}
},
{
"event" : "setCollection",
"timestamp" : "2020-10-29T11:39:18.388-0500",
"value" : {
"name" : "GroupAliasesTable",
"assigned" : "2020-10-29T11:39:18.388-0500"
}
},
{
"event" : "addEntity",
"timestamp" : "2020-10-29T11:39:18.389-0500",
"value" : {
"name" : "OTSROOT",
"assigned" : "2020-10-29T11:39:18.388-0500"
}
},
{
"event" : "addConfiguration",
"timestamp" : "2020-10-29T11:39:19.344-0500",
"value" : {
"name" : "GroupAliasTreeEditWizBackbone_v36",
"assigned" : "2020-10-29T11:39:19.344-0500"
}
}
],
"created" : "2020-10-29T11:39:18.388-0500"
},
"_id" : {
"$oid" : "deb05518696748328f78c764"
},
"collection" : "GroupAliasesTable",
"aliases" : {
"active" : [

],
"history" : [

]
},
"runs" : [

],
"attachments" : [

],
"configtype" : "notprovided"
}