{
"ouid" : [
"0836478a160e43cc9a69c4fb",
"5e976fdcb2de4958a7c3ad1c",
"fe874dc01efc4dcf9ead360f"
],
"version" : {
"0" : [
"0836478a160e43cc9a69c4fb"
],
"1" : [
"5e976fdcb2de4958a7c3ad1c"
],
"2" : [
"fe874dc01efc4dcf9ead360f"
]
},
"configurations.name" : {
"notprovided" : [
"0836478a160e43cc9a69c4fb",
"5e976fdcb2de4958a7c3ad1c",
"fe874dc01efc4dcf9ead360f"
],
"BurninBoxConfiguration_v29" : [
"0836478a160e43cc9a69c4fb"
],
"BurninBoxConfiguration_v30" : [
"5e976fdcb2de4958a7c3ad1c"
],
"BurninBoxConfiguration_v31" : [
"5e976fdcb2de4958a7c3ad1c"
],
"BurninBoxConfiguration_v32" : [
"fe874dc01efc4dcf9ead360f"
],
"BurninBoxConfiguration_v33" : [
"fe874dc01efc4dcf9ead360f"
],
"BurninBoxConfiguration_v34" : [
"fe874dc01efc4dcf9ead360f"
],
"BurninBoxConfiguration_v35" : [
"fe874dc01efc4dcf9ead360f"
],
"BurninBoxConfiguration_v36" : [
"fe874dc01efc4dcf9ead360f"
],
"BurninBoxConfiguration_v37" : [
"fe874dc01efc4dcf9ead360f"
],
"BurninBoxConfiguration_v38" : [
"fe874dc01efc4dcf9ead360f"
],
"BurninBoxConfiguration_v39" : [
"fe874dc01efc4dcf9ead360f"
],
"BurninBoxConfiguration_v40" : [
"fe874dc01efc4dcf9ead360f"
],
"BurninBoxConfiguration_v41" : [
"fe874dc01efc4dcf9ead360f"
],
"BurninBoxConfiguration_v42" : [
"fe874dc01efc4dcf9ead360f"
],
"BurninBoxConfiguration_v43" : [
"fe874dc01efc4dcf9ead360f"
],
"BurninBoxConfiguration_v44" : [
"fe874dc01efc4dcf9ead360f"
],
"BurninBoxConfiguration_v45" : [
"fe874dc01efc4dcf9ead360f"
],
"BurninBoxConfiguration_v46" : [
"fe874dc01efc4dcf9ead360f"
],
"BurninBoxConfiguration_v47" : [
"fe874dc01efc4dcf9ead360f"
],
"BurninBoxConfiguration_v48" : [
"fe874dc01efc4dcf9ead360f"
],
"BurninBoxConfiguration_v49" : [
"fe874dc01efc4dcf9ead360f"
],
"BurninBoxConfiguration_v50" : [
"fe874dc01efc4dcf9ead360f"
],
"BurninBoxConfiguration_v51" : [
"fe874dc01efc4dcf9ead360f"
],
"BurninBoxConfiguration_v52" : [
"fe874dc01efc4dcf9ead360f"
],
"BurninBoxConfiguration_v53" : [
"fe874dc01efc4dcf9ead360f"
],
"BurninBoxConfiguration_v54" : [
"fe874dc01efc4dcf9ead360f"
],
"BurninBoxConfiguration_v55" : [
"fe874dc01efc4dcf9ead360f"
],
"BurninBoxConfiguration_v56" : [
"fe874dc01efc4dcf9ead360f"
],
"BurninBoxConfiguration_v57" : [
"fe874dc01efc4dcf9ead360f"
],
"BurninBoxConfiguration_v58" : [
"fe874dc01efc4dcf9ead360f"
],
"BurninBoxConfiguration_v59" : [
"fe874dc01efc4dcf9ead360f"
],
"BurninBoxConfiguration_v60" : [
"fe874dc01efc4dcf9ead360f"
],
"BurninBoxConfiguration_v61" : [
"fe874dc01efc4dcf9ead360f"
],
"BurninBoxConfiguration_v62" : [
"fe874dc01efc4dcf9ead360f"
],
"BurninBoxConfiguration_v63" : [
"fe874dc01efc4dcf9ead360f"
],
"BurninBoxConfiguration_v64" : [
"fe874dc01efc4dcf9ead360f"
],
"BurninBoxConfiguration_v65" : [
"fe874dc01efc4dcf9ead360f"
],
"BurninBoxConfiguration_v66" : [
"fe874dc01efc4dcf9ead360f"
],
"BurninBoxConfiguration_v67" : [
"fe874dc01efc4dcf9ead360f"
],
"BurninBoxConfiguration_v68" : [
"fe874dc01efc4dcf9ead360f"
],
"BurninBoxConfiguration_v69" : [
"fe874dc01efc4dcf9ead360f"
],
"BurninBoxConfiguration_v70" : [
"fe874dc01efc4dcf9ead360f"
],
"BurninBoxConfiguration_v71" : [
"fe874dc01efc4dcf9ead360f"
],
"BurninBoxConfiguration_v72" : [
"fe874dc01efc4dcf9ead360f"
],
"BurninBoxConfiguration_v73" : [
"fe874dc01efc4dcf9ead360f"
],
"BurninBoxConfiguration_v74" : [
"fe874dc01efc4dcf9ead360f"
],
"BurninBoxConfiguration_v75" : [
"fe874dc01efc4dcf9ead360f"
],
"BurninBoxConfiguration_v76" : [
"fe874dc01efc4dcf9ead360f"
],
"BurninBoxConfiguration_v77" : [
"fe874dc01efc4dcf9ead360f"
],
"BurninBoxConfiguration_v78" : [
"fe874dc01efc4dcf9ead360f"
],
"BurninBoxConfiguration_v79" : [
"fe874dc01efc4dcf9ead360f"
],
"BurninBoxConfiguration_v80" : [
"fe874dc01efc4dcf9ead360f"
],
"BurninBoxConfiguration_v81" : [
"fe874dc01efc4dcf9ead360f"
],
"BurninBoxConfiguration_v82" : [
"fe874dc01efc4dcf9ead360f"
],
"BurninBoxConfiguration_v83" : [
"fe874dc01efc4dcf9ead360f"
],
"BurninBoxConfiguration_v84" : [
"fe874dc01efc4dcf9ead360f"
],
"BurninBoxConfiguration_v85" : [
"fe874dc01efc4dcf9ead360f"
],
"BurninBoxConfiguration_v86" : [
"fe874dc01efc4dcf9ead360f"
],
"BurninBoxConfiguration_v87" : [
"fe874dc01efc4dcf9ead360f"
],
"BurninBoxConfiguration_v88" : [
"fe874dc01efc4dcf9ead360f"
],
"BurninBoxConfiguration_v89" : [
"fe874dc01efc4dcf9ead360f"
],
"BurninBoxConfiguration_v90" : [
"fe874dc01efc4dcf9ead360f"
],
"BurninBoxConfiguration_v91" : [
"fe874dc01efc4dcf9ead360f"
],
"BurninBoxConfiguration_v92" : [
"fe874dc01efc4dcf9ead360f"
],
"BurninBoxConfiguration_v93" : [
"fe874dc01efc4dcf9ead360f"
],
"BurninBoxConfiguration_v94" : [
"fe874dc01efc4dcf9ead360f"
],
"BurninBoxConfiguration_v95" : [
"fe874dc01efc4dcf9ead360f"
],
"BurninBoxConfiguration_v96" : [
"fe874dc01efc4dcf9ead360f"
],
"BurninBoxConfiguration_v97" : [
"fe874dc01efc4dcf9ead360f"
],
"BurninBoxConfiguration_v98" : [
"fe874dc01efc4dcf9ead360f"
],
"BurninBoxConfiguration_v99" : [
"fe874dc01efc4dcf9ead360f"
],
"BurninBoxConfiguration_v100" : [
"fe874dc01efc4dcf9ead360f"
],
"BurninBoxConfiguration_v101" : [
"fe874dc01efc4dcf9ead360f"
],
"BurninBoxConfiguration_v102" : [
"fe874dc01efc4dcf9ead360f"
],
"BurninBoxConfiguration_v103" : [
"fe874dc01efc4dcf9ead360f"
],
"BurninBoxConfiguration_v104" : [
"fe874dc01efc4dcf9ead360f"
],
"BurninBoxConfiguration_v105" : [
"fe874dc01efc4dcf9ead360f"
],
"BurninBoxConfiguration_v106" : [
"fe874dc01efc4dcf9ead360f"
],
"BurninBoxConfiguration_v107" : [
"fe874dc01efc4dcf9ead360f"
],
"BurninBoxConfiguration_v108" : [
"fe874dc01efc4dcf9ead360f"
],
"BurninBoxConfiguration_v109" : [
"fe874dc01efc4dcf9ead360f"
],
"BurninBoxConfiguration_v110" : [
"fe874dc01efc4dcf9ead360f"
],
"BurninBoxConfiguration_v111" : [
"fe874dc01efc4dcf9ead360f"
],
"BurninBoxConfiguration_v112" : [
"fe874dc01efc4dcf9ead360f"
],
"BurninBoxConfiguration_v113" : [
"fe874dc01efc4dcf9ead360f"
],
"BurninBoxConfiguration_v114" : [
"fe874dc01efc4dcf9ead360f"
],
"BurninBoxConfiguration_v115" : [
"fe874dc01efc4dcf9ead360f"
],
"BurninBoxConfiguration_v116" : [
"fe874dc01efc4dcf9ead360f"
],
"BurninBoxConfiguration_v117" : [
"fe874dc01efc4dcf9ead360f"
],
"BurninBoxConfiguration_v118" : [
"fe874dc01efc4dcf9ead360f"
],
"BurninBoxConfiguration_v119" : [
"fe874dc01efc4dcf9ead360f"
],
"BurninBoxConfiguration_v120" : [
"fe874dc01efc4dcf9ead360f"
],
"BurninBoxConfiguration_v121" : [
"fe874dc01efc4dcf9ead360f"
],
"BurninBoxConfiguration_v122" : [
"fe874dc01efc4dcf9ead360f"
],
"BurninBoxConfiguration_v123" : [
"fe874dc01efc4dcf9ead360f"
],
"BurninBoxConfiguration_v124" : [
"fe874dc01efc4dcf9ead360f"
],
"BurninBoxConfiguration_v125" : [
"fe874dc01efc4dcf9ead360f"
],
"BurninBoxConfiguration_v126" : [
"fe874dc01efc4dcf9ead360f"
],
"BurninBoxConfiguration_v127" : [
"fe874dc01efc4dcf9ead360f"
],
"BurninBoxConfiguration_v128" : [
"fe874dc01efc4dcf9ead360f"
],
"BurninBoxConfiguration_v129" : [
"fe874dc01efc4dcf9ead360f"
],
"BurninBoxConfiguration_v130" : [
"fe874dc01efc4dcf9ead360f"
],
"BurninBoxConfiguration_v131" : [
"fe874dc01efc4dcf9ead360f"
],
"BurninBoxConfiguration_v132" : [
"fe874dc01efc4dcf9ead360f"
],
"BurninBoxConfiguration_v133" : [
"fe874dc01efc4dcf9ead360f"
],
"BurninBoxConfiguration_v134" : [
"fe874dc01efc4dcf9ead360f"
],
"BurninBoxConfiguration_v135" : [
"fe874dc01efc4dcf9ead360f"
],
"BurninBoxConfiguration_v136" : [
"fe874dc01efc4dcf9ead360f"
],
"BurninBoxConfiguration_v137" : [
"fe874dc01efc4dcf9ead360f"
],
"BurninBoxConfiguration_v138" : [
"fe874dc01efc4dcf9ead360f"
],
"BurninBoxConfiguration_v139" : [
"fe874dc01efc4dcf9ead360f"
],
"BurninBoxConfiguration_v140" : [
"fe874dc01efc4dcf9ead360f"
],
"BurninBoxConfiguration_v141" : [
"fe874dc01efc4dcf9ead360f"
],
"BurninBoxConfiguration_v142" : [
"fe874dc01efc4dcf9ead360f"
],
"BurninBoxConfiguration_v143" : [
"fe874dc01efc4dcf9ead360f"
],
"BurninBoxConfiguration_v144" : [
"fe874dc01efc4dcf9ead360f"
],
"BurninBoxConfiguration_v145" : [
"fe874dc01efc4dcf9ead360f"
],
"BurninBoxConfiguration_v146" : [
"fe874dc01efc4dcf9ead360f"
],
"BurninBoxConfiguration_v147" : [
"fe874dc01efc4dcf9ead360f"
],
"BurninBoxConfiguration_v148" : [
"fe874dc01efc4dcf9ead360f"
],
"BurninBoxConfiguration_v149" : [
"fe874dc01efc4dcf9ead360f"
],
"BurninBoxConfiguration_v150" : [
"fe874dc01efc4dcf9ead360f"
],
"BurninBoxConfiguration_v151" : [
"fe874dc01efc4dcf9ead360f"
],
"BurninBoxConfiguration_v152" : [
"fe874dc01efc4dcf9ead360f"
],
"BurninBoxConfiguration_v153" : [
"fe874dc01efc4dcf9ead360f"
],
"BurninBoxConfiguration_v154" : [
"fe874dc01efc4dcf9ead360f"
],
"BurninBoxConfiguration_v155" : [
"fe874dc01efc4dcf9ead360f"
],
"BurninBoxConfiguration_v156" : [
"fe874dc01efc4dcf9ead360f"
],
"BurninBoxConfiguration_v157" : [
"fe874dc01efc4dcf9ead360f"
],
"BurninBoxConfiguration_v158" : [
"fe874dc01efc4dcf9ead360f"
],
"BurninBoxConfiguration_v159" : [
"fe874dc01efc4dcf9ead360f"
]
},
"entities.name" : {
"OTSROOT" : [
"0836478a160e43cc9a69c4fb",
"5e976fdcb2de4958a7c3ad1c",
"fe874dc01efc4dcf9ead360f"
]
},
"aliases.active.name" : {

},
"runs.name" : {

},
"configurations.assigned" : {
"notprovided" : [
"2020-10-29T13:43:53.378-0500",
"2020-10-29T13:46:36.380-0500",
"2020-10-29T14:39:26.925-0500"
],
"BurninBoxConfiguration_v29" : [
"2020-10-29T13:45:55.582-0500"
],
"BurninBoxConfiguration_v30" : [
"2020-10-29T13:46:37.863-0500"
],
"BurninBoxConfiguration_v31" : [
"2020-10-29T13:48:02.498-0500"
],
"BurninBoxConfiguration_v32" : [
"2020-10-29T14:39:28.515-0500"
],
"BurninBoxConfiguration_v33" : [
"2021-06-30T16:17:51.511-0500"
],
"BurninBoxConfiguration_v34" : [
"2021-06-30T16:23:47.863-0500"
],
"BurninBoxConfiguration_v35" : [
"2021-07-08T14:06:13.768-0500"
],
"BurninBoxConfiguration_v36" : [
"2021-07-08T14:16:57.960-0500"
],
"BurninBoxConfiguration_v37" : [
"2021-07-08T16:20:44.515-0500"
],
"BurninBoxConfiguration_v38" : [
"2021-07-09T11:47:13.718-0500"
],
"BurninBoxConfiguration_v39" : [
"2021-07-09T11:48:45.844-0500"
],
"BurninBoxConfiguration_v40" : [
"2021-07-09T16:06:00.292-0500"
],
"BurninBoxConfiguration_v41" : [
"2021-07-12T11:04:55.273-0500"
],
"BurninBoxConfiguration_v42" : [
"2021-07-13T12:01:31.100-0500"
],
"BurninBoxConfiguration_v43" : [
"2021-07-13T12:22:05.612-0500"
],
"BurninBoxConfiguration_v44" : [
"2021-07-14T13:05:58.189-0500"
],
"BurninBoxConfiguration_v45" : [
"2021-07-14T14:26:04.354-0500"
],
"BurninBoxConfiguration_v46" : [
"2021-07-14T14:46:56.673-0500"
],
"BurninBoxConfiguration_v47" : [
"2021-07-14T15:24:33.495-0500"
],
"BurninBoxConfiguration_v48" : [
"2021-07-14T16:05:29.089-0500"
],
"BurninBoxConfiguration_v49" : [
"2021-07-14T16:15:40.712-0500"
],
"BurninBoxConfiguration_v50" : [
"2021-07-14T16:17:40.552-0500"
],
"BurninBoxConfiguration_v51" : [
"2021-07-15T11:50:33.535-0500"
],
"BurninBoxConfiguration_v52" : [
"2021-07-20T13:45:53.680-0500"
],
"BurninBoxConfiguration_v53" : [
"2021-07-20T16:41:41.865-0500"
],
"BurninBoxConfiguration_v54" : [
"2021-07-20T17:09:26.571-0500"
],
"BurninBoxConfiguration_v55" : [
"2021-07-20T17:28:39.761-0500"
],
"BurninBoxConfiguration_v56" : [
"2021-07-20T17:46:27.069-0500"
],
"BurninBoxConfiguration_v57" : [
"2021-07-21T11:50:01.662-0500"
],
"BurninBoxConfiguration_v58" : [
"2021-07-21T11:58:37.308-0500"
],
"BurninBoxConfiguration_v59" : [
"2021-07-21T11:59:33.058-0500"
],
"BurninBoxConfiguration_v60" : [
"2021-07-22T18:35:00.053-0500"
],
"BurninBoxConfiguration_v61" : [
"2021-07-23T12:33:56.392-0500"
],
"BurninBoxConfiguration_v62" : [
"2021-07-24T00:54:49.194-0500"
],
"BurninBoxConfiguration_v63" : [
"2021-07-24T12:12:50.779-0500"
],
"BurninBoxConfiguration_v64" : [
"2021-07-25T21:07:15.716-0500"
],
"BurninBoxConfiguration_v65" : [
"2021-07-26T07:43:11.605-0500"
],
"BurninBoxConfiguration_v66" : [
"2021-07-26T18:37:11.678-0500"
],
"BurninBoxConfiguration_v67" : [
"2021-07-27T08:25:40.389-0500"
],
"BurninBoxConfiguration_v68" : [
"2021-08-03T11:10:36.838-0500"
],
"BurninBoxConfiguration_v69" : [
"2021-08-04T12:21:57.170-0500"
],
"BurninBoxConfiguration_v70" : [
"2021-09-02T13:43:33.580-0500"
],
"BurninBoxConfiguration_v71" : [
"2021-09-02T14:03:36.424-0500"
],
"BurninBoxConfiguration_v72" : [
"2021-09-23T15:47:04.813-0500"
],
"BurninBoxConfiguration_v73" : [
"2021-09-23T15:47:41.806-0500"
],
"BurninBoxConfiguration_v74" : [
"2021-09-24T15:36:49.691-0500"
],
"BurninBoxConfiguration_v75" : [
"2021-09-24T15:53:22.662-0500"
],
"BurninBoxConfiguration_v76" : [
"2021-09-24T16:04:21.635-0500"
],
"BurninBoxConfiguration_v77" : [
"2021-09-24T16:28:06.438-0500"
],
"BurninBoxConfiguration_v78" : [
"2021-09-27T09:02:56.054-0500"
],
"BurninBoxConfiguration_v79" : [
"2021-09-27T14:22:24.359-0500"
],
"BurninBoxConfiguration_v80" : [
"2021-09-28T09:24:50.228-0500"
],
"BurninBoxConfiguration_v81" : [
"2021-09-30T09:14:50.528-0500"
],
"BurninBoxConfiguration_v82" : [
"2021-10-01T10:56:21.033-0500"
],
"BurninBoxConfiguration_v83" : [
"2021-10-01T11:01:40.666-0500"
],
"BurninBoxConfiguration_v84" : [
"2021-10-06T10:02:30.918-0500"
],
"BurninBoxConfiguration_v85" : [
"2021-10-07T16:32:40.040-0500"
],
"BurninBoxConfiguration_v86" : [
"2021-10-08T14:03:14.868-0500"
],
"BurninBoxConfiguration_v87" : [
"2021-10-11T16:00:55.727-0500"
],
"BurninBoxConfiguration_v88" : [
"2021-10-12T09:07:17.025-0500"
],
"BurninBoxConfiguration_v89" : [
"2021-10-12T11:11:22.711-0500"
],
"BurninBoxConfiguration_v90" : [
"2021-10-14T17:03:16.110-0500"
],
"BurninBoxConfiguration_v91" : [
"2021-10-15T10:48:30.890-0500"
],
"BurninBoxConfiguration_v92" : [
"2021-10-15T15:50:48.775-0500"
],
"BurninBoxConfiguration_v93" : [
"2021-11-03T16:30:19.666-0500"
],
"BurninBoxConfiguration_v94" : [
"2021-11-10T15:11:02.067-0600"
],
"BurninBoxConfiguration_v95" : [
"2022-04-19T14:35:56.116-0400"
],
"BurninBoxConfiguration_v96" : [
"2022-04-20T10:06:05.137-0400"
],
"BurninBoxConfiguration_v97" : [
"2022-04-20T11:23:51.857-0400"
],
"BurninBoxConfiguration_v98" : [
"2022-06-03T14:30:15.992-0500"
],
"BurninBoxConfiguration_v99" : [
"2022-06-03T14:34:08.862-0500"
],
"BurninBoxConfiguration_v100" : [
"2022-06-07T14:59:58.980-0500"
],
"BurninBoxConfiguration_v101" : [
"2022-06-07T15:05:53.216-0500"
],
"BurninBoxConfiguration_v102" : [
"2022-06-07T16:09:17.187-0500"
],
"BurninBoxConfiguration_v103" : [
"2022-06-10T10:17:25.540-0500"
],
"BurninBoxConfiguration_v104" : [
"2022-06-10T10:18:21.982-0500"
],
"BurninBoxConfiguration_v105" : [
"2022-06-13T14:13:00.757-0500"
],
"BurninBoxConfiguration_v106" : [
"2022-06-13T15:22:18.108-0500"
],
"BurninBoxConfiguration_v107" : [
"2022-06-21T15:37:14.266-0500"
],
"BurninBoxConfiguration_v108" : [
"2022-06-21T15:39:36.833-0500"
],
"BurninBoxConfiguration_v109" : [
"2022-06-30T12:02:31.263-0500"
],
"BurninBoxConfiguration_v110" : [
"2023-01-19T10:05:42.662-0600"
],
"BurninBoxConfiguration_v111" : [
"2023-01-19T10:08:19.375-0600"
],
"BurninBoxConfiguration_v112" : [
"2023-01-19T11:02:44.461-0600"
],
"BurninBoxConfiguration_v113" : [
"2023-01-20T11:51:30.444-0600"
],
"BurninBoxConfiguration_v114" : [
"2023-01-30T11:15:45.565-0600"
],
"BurninBoxConfiguration_v115" : [
"2023-03-01T10:10:33.493-0600"
],
"BurninBoxConfiguration_v116" : [
"2023-03-07T16:36:50.439-0600"
],
"BurninBoxConfiguration_v117" : [
"2023-03-09T15:31:31.485-0600"
],
"BurninBoxConfiguration_v118" : [
"2023-03-15T12:03:55.573-0500"
],
"BurninBoxConfiguration_v119" : [
"2023-03-16T14:10:40.431-0500"
],
"BurninBoxConfiguration_v120" : [
"2023-04-04T11:18:53.774-0500"
],
"BurninBoxConfiguration_v121" : [
"2023-04-04T11:19:16.938-0500"
],
"BurninBoxConfiguration_v122" : [
"2023-04-04T11:23:00.463-0500"
],
"BurninBoxConfiguration_v123" : [
"2023-04-04T13:48:51.390-0500"
],
"BurninBoxConfiguration_v124" : [
"2023-04-04T13:51:58.500-0500"
],
"BurninBoxConfiguration_v125" : [
"2023-04-04T14:30:59.903-0500"
],
"BurninBoxConfiguration_v126" : [
"2023-04-04T16:05:04.063-0500"
],
"BurninBoxConfiguration_v127" : [
"2023-04-07T10:09:31.917-0500"
],
"BurninBoxConfiguration_v128" : [
"2023-04-07T16:20:29.213-0500"
],
"BurninBoxConfiguration_v129" : [
"2023-04-14T10:53:43.436-0500"
],
"BurninBoxConfiguration_v130" : [
"2023-04-14T11:01:23.100-0500"
],
"BurninBoxConfiguration_v131" : [
"2023-04-14T11:05:25.173-0500"
],
"BurninBoxConfiguration_v132" : [
"2023-04-14T12:25:10.312-0500"
],
"BurninBoxConfiguration_v133" : [
"2023-04-14T14:03:26.371-0500"
],
"BurninBoxConfiguration_v134" : [
"2023-04-14T15:36:48.968-0500"
],
"BurninBoxConfiguration_v135" : [
"2023-04-14T15:57:03.538-0500"
],
"BurninBoxConfiguration_v136" : [
"2023-04-14T15:59:00.044-0500"
],
"BurninBoxConfiguration_v137" : [
"2023-04-14T16:18:32.129-0500"
],
"BurninBoxConfiguration_v138" : [
"2023-04-14T16:20:11.355-0500"
],
"BurninBoxConfiguration_v139" : [
"2023-04-17T15:51:48.297-0500"
],
"BurninBoxConfiguration_v140" : [
"2023-04-18T10:48:01.720-0500"
],
"BurninBoxConfiguration_v141" : [
"2023-04-18T12:02:40.774-0500"
],
"BurninBoxConfiguration_v142" : [
"2023-04-18T12:03:56.274-0500"
],
"BurninBoxConfiguration_v143" : [
"2023-04-18T13:48:31.241-0500"
],
"BurninBoxConfiguration_v144" : [
"2023-04-18T14:33:54.535-0500"
],
"BurninBoxConfiguration_v145" : [
"2023-04-18T16:14:31.102-0500"
],
"BurninBoxConfiguration_v146" : [
"2023-04-18T16:20:20.608-0500"
],
"BurninBoxConfiguration_v147" : [
"2023-04-21T15:02:47.557-0500"
],
"BurninBoxConfiguration_v148" : [
"2023-05-09T09:06:43.745-0500"
],
"BurninBoxConfiguration_v149" : [
"2023-05-11T08:26:01.925-0500"
],
"BurninBoxConfiguration_v150" : [
"2023-05-11T14:10:22.352-0500"
],
"BurninBoxConfiguration_v151" : [
"2023-05-11T14:10:59.366-0500"
],
"BurninBoxConfiguration_v152" : [
"2023-05-11T14:12:47.382-0500"
],
"BurninBoxConfiguration_v153" : [
"2023-05-19T11:54:17.232-0500"
],
"BurninBoxConfiguration_v154" : [
"2023-05-19T11:57:27.053-0500"
],
"BurninBoxConfiguration_v155" : [
"2023-05-19T13:22:53.167-0500"
],
"BurninBoxConfiguration_v156" : [
"2023-06-01T14:54:09.495-0500"
],
"BurninBoxConfiguration_v157" : [
"2023-06-01T14:56:06.821-0500"
],
"BurninBoxConfiguration_v158" : [
"2023-06-01T14:56:43.444-0500"
],
"BurninBoxConfiguration_v159" : [
"2023-06-02T12:37:16.525-0500"
]
}
}