{
"ouid" : [
"1232e5c914ff4af88a57c715"
],
"version" : {
"1" : [
"1232e5c914ff4af88a57c715"
]
},
"configurations.name" : {
"notprovided" : [
"1232e5c914ff4af88a57c715"
],
"DefaultContext_v1" : [
"1232e5c914ff4af88a57c715"
],
"DefaultContext_v2" : [
"1232e5c914ff4af88a57c715"
],
"DefaultContext_v3" : [
"1232e5c914ff4af88a57c715"
],
"DefaultContext_v4" : [
"1232e5c914ff4af88a57c715"
],
"DefaultContext_v5" : [
"1232e5c914ff4af88a57c715"
],
"DefaultContext_v6" : [
"1232e5c914ff4af88a57c715"
],
"DefaultContext_v7" : [
"1232e5c914ff4af88a57c715"
],
"DefaultContext_v8" : [
"1232e5c914ff4af88a57c715"
],
"DefaultContext_v9" : [
"1232e5c914ff4af88a57c715"
],
"DefaultContext_v10" : [
"1232e5c914ff4af88a57c715"
],
"DefaultContext_v11" : [
"1232e5c914ff4af88a57c715"
],
"DefaultContext_v12" : [
"1232e5c914ff4af88a57c715"
],
"DefaultContext_v13" : [
"1232e5c914ff4af88a57c715"
],
"DefaultContext_v14" : [
"1232e5c914ff4af88a57c715"
],
"DefaultContext_v15" : [
"1232e5c914ff4af88a57c715"
],
"DefaultContext_v16" : [
"1232e5c914ff4af88a57c715"
],
"DefaultContext_v17" : [
"1232e5c914ff4af88a57c715"
],
"DefaultContext_v18" : [
"1232e5c914ff4af88a57c715"
],
"DefaultContext_v19" : [
"1232e5c914ff4af88a57c715"
],
"DefaultContext_v20" : [
"1232e5c914ff4af88a57c715"
],
"DefaultContext_v21" : [
"1232e5c914ff4af88a57c715"
],
"DefaultContext_v22" : [
"1232e5c914ff4af88a57c715"
],
"DefaultContext_v23" : [
"1232e5c914ff4af88a57c715"
],
"DefaultContext_v24" : [
"1232e5c914ff4af88a57c715"
],
"DefaultContext_v25" : [
"1232e5c914ff4af88a57c715"
],
"DefaultContext_v26" : [
"1232e5c914ff4af88a57c715"
],
"DefaultContext_v27" : [
"1232e5c914ff4af88a57c715"
],
"DefaultContext_v28" : [
"1232e5c914ff4af88a57c715"
],
"DefaultContext_v29" : [
"1232e5c914ff4af88a57c715"
],
"DefaultContext_v30" : [
"1232e5c914ff4af88a57c715"
],
"DefaultContext_v31" : [
"1232e5c914ff4af88a57c715"
],
"DefaultContext_v32" : [
"1232e5c914ff4af88a57c715"
],
"DefaultContext_v33" : [
"1232e5c914ff4af88a57c715"
],
"DefaultContext_v34" : [
"1232e5c914ff4af88a57c715"
],
"DefaultContext_v35" : [
"1232e5c914ff4af88a57c715"
],
"DefaultContext_v36" : [
"1232e5c914ff4af88a57c715"
],
"DefaultContext_v37" : [
"1232e5c914ff4af88a57c715"
],
"DefaultContext_v38" : [
"1232e5c914ff4af88a57c715"
],
"DefaultContext_v39" : [
"1232e5c914ff4af88a57c715"
],
"DefaultContext_v40" : [
"1232e5c914ff4af88a57c715"
],
"DefaultContext_v41" : [
"1232e5c914ff4af88a57c715"
],
"DefaultContext_v42" : [
"1232e5c914ff4af88a57c715"
],
"DefaultContext_v43" : [
"1232e5c914ff4af88a57c715"
],
"DefaultContext_v44" : [
"1232e5c914ff4af88a57c715"
],
"DefaultContext_v45" : [
"1232e5c914ff4af88a57c715"
],
"DefaultContext_v46" : [
"1232e5c914ff4af88a57c715"
],
"DefaultContext_v47" : [
"1232e5c914ff4af88a57c715"
],
"DefaultContext_v48" : [
"1232e5c914ff4af88a57c715"
],
"DefaultContext_v49" : [
"1232e5c914ff4af88a57c715"
],
"DefaultContext_v50" : [
"1232e5c914ff4af88a57c715"
]
},
"entities.name" : {
"OTSROOT" : [
"1232e5c914ff4af88a57c715"
]
},
"aliases.active.name" : {

},
"runs.name" : {

},
"configurations.assigned" : {
"notprovided" : [
"2018-09-06T17:34:14.945-0500"
],
"DefaultContext_v1" : [
"2018-09-06T17:34:15.385-0500"
],
"DefaultContext_v2" : [
"2018-09-10T09:24:24.076-0500"
],
"DefaultContext_v3" : [
"2018-09-11T10:00:20.393-0500"
],
"DefaultContext_v4" : [
"2019-10-22T14:55:21.262-0500"
],
"DefaultContext_v5" : [
"2020-06-29T11:00:05.253-0500"
],
"DefaultContext_v6" : [
"2020-07-29T16:01:22.355-0500"
],
"DefaultContext_v7" : [
"2020-07-29T16:34:42.711-0500"
],
"DefaultContext_v8" : [
"2020-07-29T16:39:53.550-0500"
],
"DefaultContext_v9" : [
"2020-07-29T16:40:44.167-0500"
],
"DefaultContext_v10" : [
"2020-07-29T16:45:01.456-0500"
],
"DefaultContext_v11" : [
"2020-07-29T16:49:16.264-0500"
],
"DefaultContext_v12" : [
"2020-09-02T15:22:09.426-0500"
],
"DefaultContext_v13" : [
"2020-10-05T17:04:58.166-0500"
],
"DefaultContext_v14" : [
"2020-10-05T17:07:06.664-0500"
],
"DefaultContext_v15" : [
"2020-10-05T17:43:27.110-0500"
],
"DefaultContext_v16" : [
"2020-10-05T17:51:30.053-0500"
],
"DefaultContext_v17" : [
"2020-10-09T11:58:10.148-0500"
],
"DefaultContext_v18" : [
"2020-10-09T12:53:53.859-0500"
],
"DefaultContext_v19" : [
"2020-10-09T12:57:06.617-0500"
],
"DefaultContext_v20" : [
"2020-10-09T13:00:57.962-0500"
],
"DefaultContext_v21" : [
"2020-10-09T15:30:48.405-0500"
],
"DefaultContext_v22" : [
"2020-10-09T15:32:24.087-0500"
],
"DefaultContext_v23" : [
"2020-10-09T15:32:58.457-0500"
],
"DefaultContext_v24" : [
"2020-10-09T16:47:19.035-0500"
],
"DefaultContext_v25" : [
"2020-10-12T09:37:49.901-0500"
],
"DefaultContext_v26" : [
"2020-10-12T09:41:39.412-0500"
],
"DefaultContext_v27" : [
"2020-10-29T11:54:28.311-0500"
],
"DefaultContext_v28" : [
"2020-10-29T11:54:56.290-0500"
],
"DefaultContext_v29" : [
"2020-10-29T13:33:30.996-0500"
],
"DefaultContext_v30" : [
"2020-11-16T17:04:43.294-0600"
],
"DefaultContext_v31" : [
"2020-11-16T17:07:49.631-0600"
],
"DefaultContext_v32" : [
"2020-11-16T17:10:03.759-0600"
],
"DefaultContext_v33" : [
"2021-07-07T14:45:52.179-0500"
],
"DefaultContext_v34" : [
"2021-07-07T16:02:04.296-0500"
],
"DefaultContext_v35" : [
"2021-07-07T16:05:37.879-0500"
],
"DefaultContext_v36" : [
"2021-07-08T14:00:20.377-0500"
],
"DefaultContext_v37" : [
"2021-07-08T14:17:00.113-0500"
],
"DefaultContext_v38" : [
"2021-07-08T16:21:56.208-0500"
],
"DefaultContext_v39" : [
"2021-07-08T16:24:39.341-0500"
],
"DefaultContext_v40" : [
"2021-07-14T13:02:14.148-0500"
],
"DefaultContext_v41" : [
"2021-07-14T13:03:01.292-0500"
],
"DefaultContext_v42" : [
"2021-07-14T14:39:31.740-0500"
],
"DefaultContext_v43" : [
"2021-07-21T12:08:22.562-0500"
],
"DefaultContext_v44" : [
"2021-08-03T11:10:39.516-0500"
],
"DefaultContext_v45" : [
"2021-09-02T14:08:00.903-0500"
],
"DefaultContext_v46" : [
"2021-09-24T15:36:52.553-0500"
],
"DefaultContext_v47" : [
"2021-09-28T10:22:57.549-0500"
],
"DefaultContext_v48" : [
"2021-11-10T15:11:05.225-0600"
],
"DefaultContext_v49" : [
"2022-04-18T12:56:04.280-0400"
],
"DefaultContext_v50" : [
"2022-04-20T10:06:52.194-0400"
]
}
}