{
"ouid" : [
"71527ee8029e4e919aea1dba"
],
"version" : {
"6" : [
"71527ee8029e4e919aea1dba"
]
},
"configurations.name" : {
"notprovided" : [
"71527ee8029e4e919aea1dba"
],
"iterateDefaultGroup_v6" : [
"71527ee8029e4e919aea1dba"
]
},
"entities.name" : {
"OTSROOT" : [
"71527ee8029e4e919aea1dba"
]
},
"aliases.active.name" : {

},
"runs.name" : {

},
"configurations.assigned" : {
"notprovided" : [
"2023-10-25T15:16:54.437-0500"
],
"iterateDefaultGroup_v6" : [
"2023-10-25T15:16:54.999-0500"
]
}
}