{
"ouid" : [
"4d4f3b72a03a48109efbaaa6",
"724d688b10b643b79d96e4f4",
"a563ec79adfd4a7bb1e66065"
],
"version" : {
"1" : [
"724d688b10b643b79d96e4f4"
],
"2" : [
"4d4f3b72a03a48109efbaaa6"
],
"3" : [
"a563ec79adfd4a7bb1e66065"
]
},
"configurations.name" : {
"notprovided" : [
"4d4f3b72a03a48109efbaaa6",
"724d688b10b643b79d96e4f4",
"a563ec79adfd4a7bb1e66065"
],
"DefaultContext_v1" : [
"724d688b10b643b79d96e4f4"
],
"DefaultContext_v2" : [
"724d688b10b643b79d96e4f4"
],
"DefaultContext_v3" : [
"724d688b10b643b79d96e4f4"
],
"DefaultContext_v4" : [
"724d688b10b643b79d96e4f4"
],
"DefaultContext_v5" : [
"4d4f3b72a03a48109efbaaa6"
],
"DefaultContext_v6" : [
"4d4f3b72a03a48109efbaaa6"
],
"DefaultContext_v7" : [
"4d4f3b72a03a48109efbaaa6"
],
"DefaultContext_v8" : [
"4d4f3b72a03a48109efbaaa6"
],
"DefaultContext_v9" : [
"4d4f3b72a03a48109efbaaa6"
],
"DefaultContext_v10" : [
"4d4f3b72a03a48109efbaaa6"
],
"DefaultContext_v11" : [
"4d4f3b72a03a48109efbaaa6"
],
"DefaultContext_v12" : [
"4d4f3b72a03a48109efbaaa6"
],
"DefaultContext_v13" : [
"4d4f3b72a03a48109efbaaa6"
],
"DefaultContext_v14" : [
"a563ec79adfd4a7bb1e66065"
],
"DefaultContext_v15" : [
"a563ec79adfd4a7bb1e66065"
],
"DefaultContext_v16" : [
"a563ec79adfd4a7bb1e66065"
],
"DefaultContext_v17" : [
"a563ec79adfd4a7bb1e66065"
],
"DefaultContext_v18" : [
"a563ec79adfd4a7bb1e66065"
],
"DefaultContext_v19" : [
"a563ec79adfd4a7bb1e66065"
],
"DefaultContext_v20" : [
"a563ec79adfd4a7bb1e66065"
],
"DefaultContext_v21" : [
"a563ec79adfd4a7bb1e66065"
],
"DefaultContext_v22" : [
"a563ec79adfd4a7bb1e66065"
],
"DefaultContext_v23" : [
"a563ec79adfd4a7bb1e66065"
],
"DefaultContext_v24" : [
"a563ec79adfd4a7bb1e66065"
],
"DefaultContext_v25" : [
"a563ec79adfd4a7bb1e66065"
],
"DefaultContext_v26" : [
"a563ec79adfd4a7bb1e66065"
],
"DefaultContext_v27" : [
"a563ec79adfd4a7bb1e66065"
],
"DefaultContext_v28" : [
"a563ec79adfd4a7bb1e66065"
],
"DefaultContext_v29" : [
"a563ec79adfd4a7bb1e66065"
],
"DefaultContext_v30" : [
"a563ec79adfd4a7bb1e66065"
],
"DefaultContext_v31" : [
"a563ec79adfd4a7bb1e66065"
],
"DefaultContext_v32" : [
"a563ec79adfd4a7bb1e66065"
],
"DefaultContext_v33" : [
"a563ec79adfd4a7bb1e66065"
],
"DefaultContext_v34" : [
"a563ec79adfd4a7bb1e66065"
],
"DefaultContext_v35" : [
"a563ec79adfd4a7bb1e66065"
],
"DefaultContext_v36" : [
"a563ec79adfd4a7bb1e66065"
],
"DefaultContext_v37" : [
"a563ec79adfd4a7bb1e66065"
],
"DefaultContext_v38" : [
"a563ec79adfd4a7bb1e66065"
],
"DefaultContext_v39" : [
"a563ec79adfd4a7bb1e66065"
],
"DefaultContext_v40" : [
"a563ec79adfd4a7bb1e66065"
],
"DefaultContext_v41" : [
"a563ec79adfd4a7bb1e66065"
],
"DefaultContext_v42" : [
"a563ec79adfd4a7bb1e66065"
],
"DefaultContext_v43" : [
"a563ec79adfd4a7bb1e66065"
],
"DefaultContext_v44" : [
"a563ec79adfd4a7bb1e66065"
],
"DefaultContext_v45" : [
"a563ec79adfd4a7bb1e66065"
],
"DefaultContext_v46" : [
"a563ec79adfd4a7bb1e66065"
],
"DefaultContext_v47" : [
"a563ec79adfd4a7bb1e66065"
],
"DefaultContext_v48" : [
"a563ec79adfd4a7bb1e66065"
],
"DefaultContext_v49" : [
"a563ec79adfd4a7bb1e66065"
],
"DefaultContext_v50" : [
"a563ec79adfd4a7bb1e66065"
],
"DefaultContext_v51" : [
"a563ec79adfd4a7bb1e66065"
],
"DefaultContext_v52" : [
"a563ec79adfd4a7bb1e66065"
],
"DefaultContext_v53" : [
"a563ec79adfd4a7bb1e66065"
],
"DefaultContext_v54" : [
"a563ec79adfd4a7bb1e66065"
],
"DefaultContext_v55" : [
"a563ec79adfd4a7bb1e66065"
],
"DefaultContext_v56" : [
"a563ec79adfd4a7bb1e66065"
],
"DefaultContext_v57" : [
"a563ec79adfd4a7bb1e66065"
],
"DefaultContext_v58" : [
"a563ec79adfd4a7bb1e66065"
],
"DefaultContext_v59" : [
"a563ec79adfd4a7bb1e66065"
],
"DefaultContext_v60" : [
"a563ec79adfd4a7bb1e66065"
],
"DefaultContext_v61" : [
"a563ec79adfd4a7bb1e66065"
],
"DefaultContext_v62" : [
"a563ec79adfd4a7bb1e66065"
],
"DefaultContext_v63" : [
"a563ec79adfd4a7bb1e66065"
],
"DefaultContext_v64" : [
"a563ec79adfd4a7bb1e66065"
],
"DefaultContext_v65" : [
"a563ec79adfd4a7bb1e66065"
],
"DefaultContext_v66" : [
"a563ec79adfd4a7bb1e66065"
],
"DefaultContext_v67" : [
"a563ec79adfd4a7bb1e66065"
],
"DefaultContext_v68" : [
"a563ec79adfd4a7bb1e66065"
],
"DefaultContext_v69" : [
"a563ec79adfd4a7bb1e66065"
],
"DefaultContext_v70" : [
"a563ec79adfd4a7bb1e66065"
],
"DefaultContext_v71" : [
"a563ec79adfd4a7bb1e66065"
],
"DefaultContext_v72" : [
"a563ec79adfd4a7bb1e66065"
],
"DefaultContext_v73" : [
"a563ec79adfd4a7bb1e66065"
],
"DefaultContext_v74" : [
"a563ec79adfd4a7bb1e66065"
],
"DefaultContext_v75" : [
"a563ec79adfd4a7bb1e66065"
],
"DefaultContext_v76" : [
"a563ec79adfd4a7bb1e66065"
],
"DefaultContext_v77" : [
"a563ec79adfd4a7bb1e66065"
],
"DefaultContext_v78" : [
"a563ec79adfd4a7bb1e66065"
],
"DefaultContext_v79" : [
"a563ec79adfd4a7bb1e66065"
],
"DefaultContext_v80" : [
"a563ec79adfd4a7bb1e66065"
],
"DefaultContext_v81" : [
"a563ec79adfd4a7bb1e66065"
]
},
"entities.name" : {
"OTSROOT" : [
"4d4f3b72a03a48109efbaaa6",
"724d688b10b643b79d96e4f4",
"a563ec79adfd4a7bb1e66065"
]
},
"aliases.active.name" : {

},
"runs.name" : {

},
"configurations.assigned" : {
"notprovided" : [
"2018-09-06T17:34:15.044-0500",
"2020-06-29T10:59:25.038-0500",
"2020-10-05T17:06:59.564-0500"
],
"DefaultContext_v1" : [
"2018-09-06T17:34:15.457-0500"
],
"DefaultContext_v2" : [
"2018-09-10T09:24:24.155-0500"
],
"DefaultContext_v3" : [
"2018-09-11T10:00:20.466-0500"
],
"DefaultContext_v4" : [
"2019-10-22T14:55:21.232-0500"
],
"DefaultContext_v5" : [
"2020-06-29T11:00:05.220-0500"
],
"DefaultContext_v6" : [
"2020-07-29T16:01:22.318-0500"
],
"DefaultContext_v7" : [
"2020-07-29T16:34:42.672-0500"
],
"DefaultContext_v8" : [
"2020-07-29T16:39:53.514-0500"
],
"DefaultContext_v9" : [
"2020-07-29T16:40:44.130-0500"
],
"DefaultContext_v10" : [
"2020-07-29T16:45:01.420-0500"
],
"DefaultContext_v11" : [
"2020-07-29T16:49:16.225-0500"
],
"DefaultContext_v12" : [
"2020-09-02T15:22:09.384-0500"
],
"DefaultContext_v13" : [
"2020-10-05T17:04:58.123-0500"
],
"DefaultContext_v14" : [
"2020-10-05T17:07:06.620-0500"
],
"DefaultContext_v15" : [
"2020-10-05T17:43:27.072-0500"
],
"DefaultContext_v16" : [
"2020-10-05T17:51:30.013-0500"
],
"DefaultContext_v17" : [
"2020-10-09T11:58:10.103-0500"
],
"DefaultContext_v18" : [
"2020-10-09T12:53:53.815-0500"
],
"DefaultContext_v19" : [
"2020-10-09T12:57:06.572-0500"
],
"DefaultContext_v20" : [
"2020-10-09T13:00:57.920-0500"
],
"DefaultContext_v21" : [
"2020-10-09T15:30:48.364-0500"
],
"DefaultContext_v22" : [
"2020-10-09T15:32:24.049-0500"
],
"DefaultContext_v23" : [
"2020-10-09T15:32:58.418-0500"
],
"DefaultContext_v24" : [
"2020-10-09T16:47:18.994-0500"
],
"DefaultContext_v25" : [
"2020-10-12T09:37:49.858-0500"
],
"DefaultContext_v26" : [
"2020-10-12T09:41:39.370-0500"
],
"DefaultContext_v27" : [
"2020-10-29T11:54:28.262-0500"
],
"DefaultContext_v28" : [
"2020-10-29T11:54:56.239-0500"
],
"DefaultContext_v29" : [
"2020-10-29T13:33:30.934-0500"
],
"DefaultContext_v30" : [
"2020-11-16T17:04:43.250-0600"
],
"DefaultContext_v31" : [
"2020-11-16T17:07:49.569-0600"
],
"DefaultContext_v32" : [
"2020-11-16T17:10:03.700-0600"
],
"DefaultContext_v33" : [
"2021-07-07T14:45:52.118-0500"
],
"DefaultContext_v34" : [
"2021-07-07T16:02:04.234-0500"
],
"DefaultContext_v35" : [
"2021-07-07T16:05:37.844-0500"
],
"DefaultContext_v36" : [
"2021-07-08T14:00:20.338-0500"
],
"DefaultContext_v37" : [
"2021-07-08T14:17:00.077-0500"
],
"DefaultContext_v38" : [
"2021-07-08T16:21:56.155-0500"
],
"DefaultContext_v39" : [
"2021-07-08T16:24:39.293-0500"
],
"DefaultContext_v40" : [
"2021-07-14T13:02:14.109-0500"
],
"DefaultContext_v41" : [
"2021-07-14T13:03:01.249-0500"
],
"DefaultContext_v42" : [
"2021-07-14T14:39:31.684-0500"
],
"DefaultContext_v43" : [
"2021-07-21T12:08:22.505-0500"
],
"DefaultContext_v44" : [
"2021-08-03T11:10:39.470-0500"
],
"DefaultContext_v45" : [
"2021-09-02T14:08:00.852-0500"
],
"DefaultContext_v46" : [
"2021-09-24T15:36:52.491-0500"
],
"DefaultContext_v47" : [
"2021-09-28T10:22:57.482-0500"
],
"DefaultContext_v48" : [
"2021-11-10T15:11:05.166-0600"
],
"DefaultContext_v49" : [
"2022-04-18T12:56:04.231-0400"
],
"DefaultContext_v50" : [
"2022-04-20T10:06:52.144-0400"
],
"DefaultContext_v51" : [
"2023-01-19T10:05:01.403-0600"
],
"DefaultContext_v52" : [
"2023-01-19T11:02:47.995-0600"
],
"DefaultContext_v53" : [
"2023-01-19T12:09:17.879-0600"
],
"DefaultContext_v54" : [
"2023-01-23T15:11:58.049-0600"
],
"DefaultContext_v55" : [
"2023-01-30T13:43:40.706-0600"
],
"DefaultContext_v56" : [
"2023-02-13T14:11:45.722-0600"
],
"DefaultContext_v57" : [
"2023-02-13T14:13:00.252-0600"
],
"DefaultContext_v58" : [
"2023-02-13T14:20:59.425-0600"
],
"DefaultContext_v59" : [
"2023-02-13T14:33:43.361-0600"
],
"DefaultContext_v60" : [
"2023-02-13T14:58:14.528-0600"
],
"DefaultContext_v61" : [
"2023-02-16T12:29:02.183-0600"
],
"DefaultContext_v62" : [
"2023-02-16T14:03:00.610-0600"
],
"DefaultContext_v63" : [
"2023-02-16T14:04:39.748-0600"
],
"DefaultContext_v64" : [
"2023-02-16T14:42:26.852-0600"
],
"DefaultContext_v65" : [
"2023-02-16T14:49:46.899-0600"
],
"DefaultContext_v66" : [
"2023-02-16T14:53:11.650-0600"
],
"DefaultContext_v67" : [
"2023-02-16T14:55:43.229-0600"
],
"DefaultContext_v68" : [
"2023-02-17T08:58:42.350-0600"
],
"DefaultContext_v69" : [
"2023-02-17T09:04:54.114-0600"
],
"DefaultContext_v70" : [
"2023-02-17T09:06:41.151-0600"
],
"DefaultContext_v71" : [
"2023-02-17T09:07:47.984-0600"
],
"DefaultContext_v72" : [
"2023-02-23T08:41:50.190-0600"
],
"DefaultContext_v73" : [
"2023-02-28T13:19:23.940-0600"
],
"DefaultContext_v74" : [
"2023-02-28T13:20:44.815-0600"
],
"DefaultContext_v75" : [
"2023-03-01T10:10:37.032-0600"
],
"DefaultContext_v76" : [
"2023-04-14T11:05:29.226-0500"
],
"DefaultContext_v77" : [
"2023-04-14T11:09:59.392-0500"
],
"DefaultContext_v78" : [
"2023-04-14T14:03:30.189-0500"
],
"DefaultContext_v79" : [
"2023-04-14T15:36:53.003-0500"
],
"DefaultContext_v80" : [
"2023-09-18T14:48:51.319-0500"
],
"DefaultContext_v81" : [
"2023-09-18T14:49:35.121-0500"
]
}
}