{
"document" : {
"data" : {
"NAME" : "XDAQ_CONTEXT_TABLE",
"COMMENT" : "Default simplest Outer Tracker table",
"AUTHOR" : "admin",
"CREATION_TIME" : 1602280037,
"COL_TYPES" : {
"CONTEXT_UID" : "STRING",
"STATUS" : "STRING",
"ID" : "NUMBER",
"ADDRESS" : "STRING",
"PORT" : "NUMBER",
"LINK_TO_APPLICATION_TABLE" : "STRING",
"LINK_TO_APPLICATION_GROUP_ID" : "STRING",
"COMMENT_DESCRIPTION" : "STRING",
"AUTHOR" : "STRING",
"RECORD_INSERTION_TIME" : "TIMESTAMP WITH TIMEZONE"
},
"DATA_SET" : [
{
"CONTEXT_UID" : "MainContext",
"STATUS" : "On",
"ID" : "0",
"ADDRESS" : "http://${HOSTNAME}",
"PORT" : "2015",
"LINK_TO_APPLICATION_TABLE" : "XDAQApplicationTable",
"LINK_TO_APPLICATION_GROUP_ID" : "MainContextApps",
"COMMENT_DESCRIPTION" : "main context",
"AUTHOR" : "admin",
"RECORD_INSERTION_TIME" : "1571774077"
},
{
"CONTEXT_UID" : "VisualizerContext",
"STATUS" : "Off",
"ID" : "0",
"ADDRESS" : "http://${HOSTNAME}",
"PORT" : "2020",
"LINK_TO_APPLICATION_TABLE" : "XDAQApplicationTable",
"LINK_TO_APPLICATION_GROUP_ID" : "VisualizerContextApp",
"COMMENT_DESCRIPTION" : "No Comment",
"AUTHOR" : "admin",
"RECORD_INSERTION_TIME" : "1602275539"
},
{
"CONTEXT_UID" : "TrackerContext",
"STATUS" : "On",
"ID" : "0",
"ADDRESS" : "http://${HOSTNAME}",
"PORT" : "2021",
"LINK_TO_APPLICATION_TABLE" : "XDAQApplicationTable",
"LINK_TO_APPLICATION_GROUP_ID" : "TrackerContextApps",
"COMMENT_DESCRIPTION" : "No Comment",
"AUTHOR" : "admin",
"RECORD_INSERTION_TIME" : "1602275431"
},
{
"CONTEXT_UID" : "BurninBoxContext",
"STATUS" : "On",
"ID" : "0",
"ADDRESS" : "http://${HOSTNAME}",
"PORT" : "2022",
"LINK_TO_APPLICATION_TABLE" : "XDAQApplicationTable",
"LINK_TO_APPLICATION_GROUP_ID" : "BurninBoxContextApps",
"COMMENT_DESCRIPTION" : "No Comment",
"AUTHOR" : "admin",
"RECORD_INSERTION_TIME" : "1602280034"
},
{
"CONTEXT_UID" : "PowerSupplyContext",
"STATUS" : "Off",
"ID" : "0",
"ADDRESS" : "http://${HOSTNAME}",
"PORT" : "2023",
"LINK_TO_APPLICATION_TABLE" : "XDAQApplicationTable",
"LINK_TO_APPLICATION_GROUP_ID" : "PowerSupplyContextApps",
"COMMENT_DESCRIPTION" : "No Comment",
"AUTHOR" : "admin",
"RECORD_INSERTION_TIME" : "1602266456"
}
]
},
"metadata" : {

},
"search" : [

]
},
"comments" : [

],
"origin" : {
"source" : "template",
"name" : "notprovided",
"format" : "json",
"created" : "2020-10-09T16:47:17.655-0500",
"rawdata" : [

]
},
"version" : "10",
"entities" : [
{
"name" : "OTSROOT",
"assigned" : "2020-10-09T16:47:17.655-0500"
}
],
"configurations" : [
{
"name" : "notprovided",
"assigned" : "2020-10-09T16:47:17.655-0500"
},
{
"name" : "DefaultContext_v24",
"assigned" : "2020-10-09T16:47:19.297-0500"
}
],
"changelog" : "notprovided",
"bookkeeping" : {
"isdeleted" : false,
"isreadonly" : false,
"updates" : [
{
"event" : "addConfiguration",
"timestamp" : "2020-10-09T16:47:17.655-0500",
"value" : {
"name" : "notprovided",
"assigned" : "2020-10-09T16:47:17.655-0500"
}
},
{
"event" : "setVersion",
"timestamp" : "2020-10-09T16:47:17.655-0500",
"value" : {
"name" : "10",
"assigned" : "2020-10-09T16:47:17.655-0500"
}
},
{
"event" : "setCollection",
"timestamp" : "2020-10-09T16:47:17.655-0500",
"value" : {
"name" : "XDAQContextTable",
"assigned" : "2020-10-09T16:47:17.655-0500"
}
},
{
"event" : "addEntity",
"timestamp" : "2020-10-09T16:47:17.655-0500",
"value" : {
"name" : "OTSROOT",
"assigned" : "2020-10-09T16:47:17.655-0500"
}
},
{
"event" : "addConfiguration",
"timestamp" : "2020-10-09T16:47:19.297-0500",
"value" : {
"name" : "DefaultContext_v24",
"assigned" : "2020-10-09T16:47:19.297-0500"
}
}
],
"created" : "2020-10-09T16:47:17.655-0500"
},
"_id" : {
"$oid" : "b8564b7a90284ec28429ad9c"
},
"collection" : "XDAQContextTable",
"aliases" : {
"active" : [

],
"history" : [

]
},
"runs" : [

],
"attachments" : [

],
"configtype" : "notprovided"
}