{
"ouid" : [
"0218e3094f2c4d8682f13891"
],
"version" : {
"0" : [
"0218e3094f2c4d8682f13891"
]
},
"configurations.name" : {
"notprovided" : [
"0218e3094f2c4d8682f13891"
],
"BurninBoxConfig_v0" : [
"0218e3094f2c4d8682f13891"
],
"BurninBoxConfig_v1" : [
"0218e3094f2c4d8682f13891"
],
"BurninBoxConfig_v2" : [
"0218e3094f2c4d8682f13891"
],
"BurninBoxConfig_v3" : [
"0218e3094f2c4d8682f13891"
],
"BurninBoxConfig_v4" : [
"0218e3094f2c4d8682f13891"
],
"BurninBoxConfig_v5" : [
"0218e3094f2c4d8682f13891"
],
"BurninBoxConfig_v6" : [
"0218e3094f2c4d8682f13891"
],
"BurninBoxConfig_v7" : [
"0218e3094f2c4d8682f13891"
],
"BurninBoxConfig_v8" : [
"0218e3094f2c4d8682f13891"
],
"BurninBoxConfig_v9" : [
"0218e3094f2c4d8682f13891"
],
"BurninBoxConfig_v10" : [
"0218e3094f2c4d8682f13891"
],
"BurninBoxConfig_v11" : [
"0218e3094f2c4d8682f13891"
],
"BurninBoxConfig_v12" : [
"0218e3094f2c4d8682f13891"
],
"BurninBoxConfig_v13" : [
"0218e3094f2c4d8682f13891"
],
"BurninBoxConfig_v14" : [
"0218e3094f2c4d8682f13891"
],
"BurninBoxConfig_v15" : [
"0218e3094f2c4d8682f13891"
],
"BurninBoxConfig_v16" : [
"0218e3094f2c4d8682f13891"
],
"BurninBoxConfig_v17" : [
"0218e3094f2c4d8682f13891"
],
"BurninBoxConfig_v18" : [
"0218e3094f2c4d8682f13891"
],
"BurninBoxConfig_v19" : [
"0218e3094f2c4d8682f13891"
],
"BurninBoxConfig_v20" : [
"0218e3094f2c4d8682f13891"
],
"BurninBoxConfig_v21" : [
"0218e3094f2c4d8682f13891"
],
"BurninBoxConfig_v22" : [
"0218e3094f2c4d8682f13891"
],
"BurninBoxConfig_v23" : [
"0218e3094f2c4d8682f13891"
],
"BurninBoxConfig_v24" : [
"0218e3094f2c4d8682f13891"
],
"BurninBoxConfig_v25" : [
"0218e3094f2c4d8682f13891"
],
"BurninBoxConfig_v26" : [
"0218e3094f2c4d8682f13891"
],
"BurninBoxConfig_v27" : [
"0218e3094f2c4d8682f13891"
],
"BurninBoxConfig_v28" : [
"0218e3094f2c4d8682f13891"
],
"BurninBoxConfig_v29" : [
"0218e3094f2c4d8682f13891"
],
"BurninBoxConfig_v30" : [
"0218e3094f2c4d8682f13891"
],
"BurninBoxConfig_v31" : [
"0218e3094f2c4d8682f13891"
],
"BurninBoxConfig_v32" : [
"0218e3094f2c4d8682f13891"
],
"BurninBoxConfig_v33" : [
"0218e3094f2c4d8682f13891"
],
"BurninBoxConfig_v34" : [
"0218e3094f2c4d8682f13891"
],
"BurninBoxConfig_v35" : [
"0218e3094f2c4d8682f13891"
],
"BurninBoxConfig_v36" : [
"0218e3094f2c4d8682f13891"
],
"BurninBoxConfiguration_v0" : [
"0218e3094f2c4d8682f13891"
],
"BurninBoxConfiguration_v1" : [
"0218e3094f2c4d8682f13891"
],
"BurninBoxConfiguration_v2" : [
"0218e3094f2c4d8682f13891"
]
},
"entities.name" : {
"OTSROOT" : [
"0218e3094f2c4d8682f13891"
]
},
"aliases.active.name" : {

},
"runs.name" : {

},
"configurations.assigned" : {
"notprovided" : [
"2018-09-06T17:34:14.295-0500"
],
"BurninBoxConfig_v0" : [
"2018-09-06T17:34:14.774-0500"
],
"BurninBoxConfig_v1" : [
"2018-09-10T10:45:51.352-0500"
],
"BurninBoxConfig_v2" : [
"2018-09-10T11:24:18.765-0500"
],
"BurninBoxConfig_v3" : [
"2018-09-11T09:59:56.386-0500"
],
"BurninBoxConfig_v4" : [
"2018-09-11T10:01:19.464-0500"
],
"BurninBoxConfig_v5" : [
"2018-09-11T10:11:16.087-0500"
],
"BurninBoxConfig_v6" : [
"2018-09-12T12:16:43.833-0500"
],
"BurninBoxConfig_v7" : [
"2018-09-17T11:12:09.501-0500"
],
"BurninBoxConfig_v8" : [
"2018-09-17T13:53:33.527-0500"
],
"BurninBoxConfig_v9" : [
"2018-09-17T14:03:58.179-0500"
],
"BurninBoxConfig_v10" : [
"2018-09-18T15:31:02.532-0500"
],
"BurninBoxConfig_v11" : [
"2018-09-19T09:27:02.261-0500"
],
"BurninBoxConfig_v12" : [
"2018-09-19T10:08:02.175-0500"
],
"BurninBoxConfig_v13" : [
"2018-09-19T10:23:22.100-0500"
],
"BurninBoxConfig_v14" : [
"2018-09-19T11:22:21.497-0500"
],
"BurninBoxConfig_v15" : [
"2018-09-19T12:26:55.345-0500"
],
"BurninBoxConfig_v16" : [
"2018-09-20T14:22:27.378-0500"
],
"BurninBoxConfig_v17" : [
"2018-09-20T15:42:03.197-0500"
],
"BurninBoxConfig_v18" : [
"2018-09-21T11:16:29.279-0500"
],
"BurninBoxConfig_v19" : [
"2018-09-21T13:39:25.424-0500"
],
"BurninBoxConfig_v20" : [
"2018-09-21T13:39:49.358-0500"
],
"BurninBoxConfig_v21" : [
"2019-02-28T12:04:25.821-0600"
],
"BurninBoxConfig_v22" : [
"2019-02-28T12:05:08.259-0600"
],
"BurninBoxConfig_v23" : [
"2019-02-28T13:57:09.860-0600"
],
"BurninBoxConfig_v24" : [
"2019-07-19T15:24:16.080-0500"
],
"BurninBoxConfig_v25" : [
"2019-07-19T15:25:11.072-0500"
],
"BurninBoxConfig_v26" : [
"2019-07-24T14:34:10.599-0500"
],
"BurninBoxConfig_v27" : [
"2019-07-24T14:47:23.818-0500"
],
"BurninBoxConfig_v28" : [
"2019-07-24T14:48:41.302-0500"
],
"BurninBoxConfig_v29" : [
"2020-06-29T10:55:10.830-0500"
],
"BurninBoxConfig_v30" : [
"2020-06-29T11:05:40.097-0500"
],
"BurninBoxConfig_v31" : [
"2020-06-29T11:28:21.787-0500"
],
"BurninBoxConfig_v32" : [
"2020-07-24T10:58:18.032-0500"
],
"BurninBoxConfig_v33" : [
"2020-07-24T11:00:07.676-0500"
],
"BurninBoxConfig_v34" : [
"2020-07-24T11:56:06.389-0500"
],
"BurninBoxConfig_v35" : [
"2020-07-24T12:12:09.404-0500"
],
"BurninBoxConfig_v36" : [
"2020-07-24T12:16:35.907-0500"
],
"BurninBoxConfiguration_v0" : [
"2020-07-29T15:59:40.948-0500"
],
"BurninBoxConfiguration_v1" : [
"2020-07-30T11:42:27.583-0500"
],
"BurninBoxConfiguration_v2" : [
"2020-07-30T12:05:12.974-0500"
]
}
}