{
"document" : {
"data" : {
"NAME" : "FE_INTERFACE_TABLE",
"COMMENT" : "FE interfaces top level.",
"AUTHOR" : "admin",
"CREATION_TIME" : 1596055939,
"COL_TYPES" : {
"FE_INTERFACE_GROUP_ID" : "STRING",
"FE_INTERFACE_UID" : "STRING",
"STATUS" : "STRING",
"FE_INTERFACE_PLUGIN_NAME" : "STRING",
"LINK_TO_FE_TYPE_TABLE" : "STRING",
"LINK_TO_FE_TYPE_UID" : "STRING",
"LINK_TO_FE_TO_DETECTOR_TABLE" : "STRING",
"LINK_TO_FE_TO_DETECTOR_GROUP_ID" : "STRING",
"LINK_TO_SLOW_CONTROLS_CHANNEL_TABLE" : "STRING",
"LINK_TO_SLOW_CONTROLS_CHANNEL_GROUP_ID" : "STRING",
"LINK_TO_SLOW_CONTROLS_MONITOR_TABLE" : "STRING",
"LINK_TO_SLOW_CONTROLS_MONITOR_UID" : "STRING",
"SLOW_CONTROLS_TX_SOCKET_IP_ADDRESS" : "STRING",
"SLOW_CONTROLS_TX_SOCKET_PORT" : "NUMBER",
"SLOW_CONTROLS_LOCAL_AGGREGATE_SAVING_ENABLED" : "STRING",
"SLOW_CONTROLS_LOCAL_FILE_PATH" : "STRING",
"SLOW_CONTROLS_RADIX_FILE_NAME" : "STRING",
"SLOW_CONTROLS_SAVE_BINARY_FILE" : "STRING",
"COMMENT_DESCRIPTION" : "STRING",
"AUTHOR" : "STRING",
"RECORD_INSERTION_TIME" : "TIMESTAMP WITH TIMEZONE"
},
"DATA_SET" : [
{
"FE_INTERFACE_GROUP_ID" : "FEOuterTrackerSupervisor0",
"FE_INTERFACE_UID" : "FEOuterTracker0",
"STATUS" : "On",
"FE_INTERFACE_PLUGIN_NAME" : "FEMiddlewareInterface",
"LINK_TO_FE_TYPE_TABLE" : "FEMiddlewareInterfaceTable",
"LINK_TO_FE_TYPE_UID" : "FEOuterTrackerInterface0",
"LINK_TO_FE_TO_DETECTOR_TABLE" : "NO_LINK",
"LINK_TO_FE_TO_DETECTOR_GROUP_ID" : "DEFAULT",
"LINK_TO_SLOW_CONTROLS_CHANNEL_TABLE" : "NO_LINK",
"LINK_TO_SLOW_CONTROLS_CHANNEL_GROUP_ID" : "DEFAULT",
"LINK_TO_SLOW_CONTROLS_MONITOR_TABLE" : "NO_LINK",
"LINK_TO_SLOW_CONTROLS_MONITOR_UID" : "DEFAULT",
"SLOW_CONTROLS_TX_SOCKET_IP_ADDRESS" : "DEFAULT",
"SLOW_CONTROLS_TX_SOCKET_PORT" : "0",
"SLOW_CONTROLS_LOCAL_AGGREGATE_SAVING_ENABLED" : "No",
"SLOW_CONTROLS_LOCAL_FILE_PATH" : "DEFAULT",
"SLOW_CONTROLS_RADIX_FILE_NAME" : "DEFAULT",
"SLOW_CONTROLS_SAVE_BINARY_FILE" : "False",
"COMMENT_DESCRIPTION" : "",
"AUTHOR" : "admin",
"RECORD_INSERTION_TIME" : "1596055939"
},
{
"FE_INTERFACE_GROUP_ID" : "FEBurninBoxSupervisor0",
"FE_INTERFACE_UID" : "FEBurninBox0",
"STATUS" : "On",
"FE_INTERFACE_PLUGIN_NAME" : "FECMSBurninBoxInterface",
"LINK_TO_FE_TYPE_TABLE" : "FECMSBurninBoxInterfaceTable",
"LINK_TO_FE_TYPE_UID" : "FEBurninBoxInterface0",
"LINK_TO_FE_TO_DETECTOR_TABLE" : "NO_LINK",
"LINK_TO_FE_TO_DETECTOR_GROUP_ID" : "DEFAULT",
"LINK_TO_SLOW_CONTROLS_CHANNEL_TABLE" : "NO_LINK",
"LINK_TO_SLOW_CONTROLS_CHANNEL_GROUP_ID" : "DEFAULT",
"LINK_TO_SLOW_CONTROLS_MONITOR_TABLE" : "NO_LINK",
"LINK_TO_SLOW_CONTROLS_MONITOR_UID" : "DEFAULT",
"SLOW_CONTROLS_TX_SOCKET_IP_ADDRESS" : "DEFAULT",
"SLOW_CONTROLS_TX_SOCKET_PORT" : "0",
"SLOW_CONTROLS_LOCAL_AGGREGATE_SAVING_ENABLED" : "No",
"SLOW_CONTROLS_LOCAL_FILE_PATH" : "DEFAULT",
"SLOW_CONTROLS_RADIX_FILE_NAME" : "DEFAULT",
"SLOW_CONTROLS_SAVE_BINARY_FILE" : "False",
"COMMENT_DESCRIPTION" : "",
"AUTHOR" : "admin",
"RECORD_INSERTION_TIME" : "1596055939"
}
]
},
"metadata" : {

},
"search" : [

]
},
"comments" : [

],
"origin" : {
"source" : "template",
"name" : "notprovided",
"format" : "json",
"created" : "2020-07-29T15:52:19.482-0500",
"rawdata" : [

]
},
"version" : "2",
"entities" : [
{
"name" : "OTSROOT",
"assigned" : "2020-07-29T15:52:19.483-0500"
}
],
"configurations" : [
{
"name" : "notprovided",
"assigned" : "2020-07-29T15:52:19.483-0500"
},
{
"name" : "BurninBoxConfiguration_v0",
"assigned" : "2020-07-29T15:59:40.716-0500"
},
{
"name" : "BurninBoxConfiguration_v1",
"assigned" : "2020-07-30T11:42:27.348-0500"
},
{
"name" : "BurninBoxConfiguration_v2",
"assigned" : "2020-07-30T12:05:12.730-0500"
},
{
"name" : "BurninBoxConfiguration_v3",
"assigned" : "2020-09-02T11:30:04.445-0500"
},
{
"name" : "BurninBoxConfiguration_v4",
"assigned" : "2020-09-02T11:31:32.265-0500"
},
{
"name" : "BurninBoxConfiguration_v5",
"assigned" : "2020-09-02T15:08:51.206-0500"
},
{
"name" : "BurninBoxConfiguration_v6",
"assigned" : "2020-09-02T16:01:05.950-0500"
},
{
"name" : "BurninBoxConfiguration_v7",
"assigned" : "2020-09-02T16:05:19.376-0500"
}
],
"changelog" : "notprovided",
"bookkeeping" : {
"isdeleted" : false,
"isreadonly" : false,
"updates" : [
{
"event" : "addConfiguration",
"timestamp" : "2020-07-29T15:52:19.483-0500",
"value" : {
"name" : "notprovided",
"assigned" : "2020-07-29T15:52:19.483-0500"
}
},
{
"event" : "setVersion",
"timestamp" : "2020-07-29T15:52:19.483-0500",
"value" : {
"name" : "2",
"assigned" : "2020-07-29T15:52:19.483-0500"
}
},
{
"event" : "setCollection",
"timestamp" : "2020-07-29T15:52:19.483-0500",
"value" : {
"name" : "FEInterfaceTable",
"assigned" : "2020-07-29T15:52:19.483-0500"
}
},
{
"event" : "addEntity",
"timestamp" : "2020-07-29T15:52:19.483-0500",
"value" : {
"name" : "OTSROOT",
"assigned" : "2020-07-29T15:52:19.483-0500"
}
},
{
"event" : "addConfiguration",
"timestamp" : "2020-07-29T15:59:40.716-0500",
"value" : {
"name" : "BurninBoxConfiguration_v0",
"assigned" : "2020-07-29T15:59:40.716-0500"
}
},
{
"event" : "addConfiguration",
"timestamp" : "2020-07-30T11:42:27.348-0500",
"value" : {
"name" : "BurninBoxConfiguration_v1",
"assigned" : "2020-07-30T11:42:27.348-0500"
}
},
{
"event" : "addConfiguration",
"timestamp" : "2020-07-30T12:05:12.730-0500",
"value" : {
"name" : "BurninBoxConfiguration_v2",
"assigned" : "2020-07-30T12:05:12.730-0500"
}
},
{
"event" : "addConfiguration",
"timestamp" : "2020-09-02T11:30:04.445-0500",
"value" : {
"name" : "BurninBoxConfiguration_v3",
"assigned" : "2020-09-02T11:30:04.445-0500"
}
},
{
"event" : "addConfiguration",
"timestamp" : "2020-09-02T11:31:32.265-0500",
"value" : {
"name" : "BurninBoxConfiguration_v4",
"assigned" : "2020-09-02T11:31:32.265-0500"
}
},
{
"event" : "addConfiguration",
"timestamp" : "2020-09-02T15:08:51.206-0500",
"value" : {
"name" : "BurninBoxConfiguration_v5",
"assigned" : "2020-09-02T15:08:51.206-0500"
}
},
{
"event" : "addConfiguration",
"timestamp" : "2020-09-02T16:01:05.951-0500",
"value" : {
"name" : "BurninBoxConfiguration_v6",
"assigned" : "2020-09-02T16:01:05.950-0500"
}
},
{
"event" : "addConfiguration",
"timestamp" : "2020-09-02T16:05:19.376-0500",
"value" : {
"name" : "BurninBoxConfiguration_v7",
"assigned" : "2020-09-02T16:05:19.376-0500"
}
}
],
"created" : "2020-07-29T15:52:19.482-0500"
},
"_id" : {
"$oid" : "b1c180b211974fcab4827fa1"
},
"collection" : "FEInterfaceTable",
"aliases" : {
"active" : [

],
"history" : [

]
},
"runs" : [

],
"attachments" : [

],
"configtype" : "notprovided"
}