{
"ouid" : [
"26e6bdc3aa0444438f736960",
"299006c760f14845b93ae56e",
"729d9403eade482f9584c10b",
"77d0d2725b1d4d9fb89af68c",
"ab9dd9f9a56e45089214d20c",
"b1c180b211974fcab4827fa1",
"d3fe1414d6214c77a5f785e1",
"e5b1637d56ea4c25bd622f20"
],
"version" : {
"0" : [
"26e6bdc3aa0444438f736960"
],
"1" : [
"77d0d2725b1d4d9fb89af68c"
],
"2" : [
"b1c180b211974fcab4827fa1"
],
"3" : [
"e5b1637d56ea4c25bd622f20"
],
"4" : [
"299006c760f14845b93ae56e"
],
"5" : [
"d3fe1414d6214c77a5f785e1"
],
"6" : [
"729d9403eade482f9584c10b"
],
"7" : [
"ab9dd9f9a56e45089214d20c"
]
},
"configurations.name" : {
"notprovided" : [
"26e6bdc3aa0444438f736960",
"299006c760f14845b93ae56e",
"729d9403eade482f9584c10b",
"77d0d2725b1d4d9fb89af68c",
"ab9dd9f9a56e45089214d20c",
"b1c180b211974fcab4827fa1",
"d3fe1414d6214c77a5f785e1",
"e5b1637d56ea4c25bd622f20"
],
"BurninBoxConfig_v0" : [
"26e6bdc3aa0444438f736960"
],
"BurninBoxConfig_v1" : [
"26e6bdc3aa0444438f736960"
],
"BurninBoxConfig_v2" : [
"26e6bdc3aa0444438f736960"
],
"BurninBoxConfig_v3" : [
"26e6bdc3aa0444438f736960"
],
"BurninBoxConfig_v4" : [
"26e6bdc3aa0444438f736960"
],
"BurninBoxConfig_v5" : [
"26e6bdc3aa0444438f736960"
],
"BurninBoxConfig_v6" : [
"26e6bdc3aa0444438f736960"
],
"BurninBoxConfig_v7" : [
"26e6bdc3aa0444438f736960"
],
"BurninBoxConfig_v8" : [
"26e6bdc3aa0444438f736960"
],
"BurninBoxConfig_v9" : [
"26e6bdc3aa0444438f736960"
],
"BurninBoxConfig_v10" : [
"26e6bdc3aa0444438f736960"
],
"BurninBoxConfig_v11" : [
"26e6bdc3aa0444438f736960"
],
"BurninBoxConfig_v12" : [
"26e6bdc3aa0444438f736960"
],
"BurninBoxConfig_v13" : [
"26e6bdc3aa0444438f736960"
],
"BurninBoxConfig_v14" : [
"26e6bdc3aa0444438f736960"
],
"BurninBoxConfig_v15" : [
"26e6bdc3aa0444438f736960"
],
"BurninBoxConfig_v16" : [
"26e6bdc3aa0444438f736960"
],
"BurninBoxConfig_v17" : [
"26e6bdc3aa0444438f736960"
],
"BurninBoxConfig_v18" : [
"26e6bdc3aa0444438f736960"
],
"BurninBoxConfig_v19" : [
"26e6bdc3aa0444438f736960"
],
"BurninBoxConfig_v20" : [
"26e6bdc3aa0444438f736960"
],
"BurninBoxConfig_v21" : [
"26e6bdc3aa0444438f736960"
],
"BurninBoxConfig_v22" : [
"26e6bdc3aa0444438f736960"
],
"BurninBoxConfig_v23" : [
"26e6bdc3aa0444438f736960"
],
"BurninBoxConfig_v24" : [
"77d0d2725b1d4d9fb89af68c"
],
"BurninBoxConfig_v25" : [
"77d0d2725b1d4d9fb89af68c"
],
"BurninBoxConfig_v26" : [
"77d0d2725b1d4d9fb89af68c"
],
"BurninBoxConfig_v27" : [
"77d0d2725b1d4d9fb89af68c"
],
"BurninBoxConfig_v28" : [
"77d0d2725b1d4d9fb89af68c"
],
"BurninBoxConfig_v29" : [
"77d0d2725b1d4d9fb89af68c"
],
"BurninBoxConfig_v30" : [
"77d0d2725b1d4d9fb89af68c"
],
"BurninBoxConfig_v31" : [
"77d0d2725b1d4d9fb89af68c"
],
"BurninBoxConfig_v32" : [
"77d0d2725b1d4d9fb89af68c"
],
"BurninBoxConfig_v33" : [
"77d0d2725b1d4d9fb89af68c"
],
"BurninBoxConfig_v34" : [
"77d0d2725b1d4d9fb89af68c"
],
"BurninBoxConfig_v35" : [
"77d0d2725b1d4d9fb89af68c"
],
"BurninBoxConfig_v36" : [
"77d0d2725b1d4d9fb89af68c"
],
"BurninBoxConfiguration_v0" : [
"b1c180b211974fcab4827fa1"
],
"BurninBoxConfiguration_v1" : [
"b1c180b211974fcab4827fa1"
],
"BurninBoxConfiguration_v2" : [
"b1c180b211974fcab4827fa1"
],
"BurninBoxConfiguration_v3" : [
"b1c180b211974fcab4827fa1"
],
"BurninBoxConfiguration_v4" : [
"b1c180b211974fcab4827fa1"
],
"BurninBoxConfiguration_v5" : [
"b1c180b211974fcab4827fa1"
],
"BurninBoxConfiguration_v6" : [
"b1c180b211974fcab4827fa1"
],
"BurninBoxConfiguration_v7" : [
"b1c180b211974fcab4827fa1"
],
"BurninBoxConfiguration_v8" : [
"299006c760f14845b93ae56e"
],
"BurninBoxConfiguration_v9" : [
"d3fe1414d6214c77a5f785e1"
],
"BurninBoxConfiguration_v10" : [
"d3fe1414d6214c77a5f785e1"
],
"BurninBoxConfiguration_v11" : [
"729d9403eade482f9584c10b"
],
"BurninBoxConfiguration_v12" : [
"729d9403eade482f9584c10b"
],
"BurninBoxConfiguration_v13" : [
"729d9403eade482f9584c10b"
],
"BurninBoxConfiguration_v14" : [
"729d9403eade482f9584c10b"
],
"BurninBoxConfiguration_v15" : [
"729d9403eade482f9584c10b"
],
"BurninBoxConfiguration_v16" : [
"729d9403eade482f9584c10b"
],
"BurninBoxConfiguration_v17" : [
"729d9403eade482f9584c10b"
],
"BurninBoxConfiguration_v18" : [
"729d9403eade482f9584c10b"
],
"BurninBoxConfiguration_v19" : [
"729d9403eade482f9584c10b"
],
"BurninBoxConfiguration_v20" : [
"729d9403eade482f9584c10b"
],
"BurninBoxConfiguration_v21" : [
"729d9403eade482f9584c10b"
],
"BurninBoxConfiguration_v22" : [
"729d9403eade482f9584c10b"
],
"BurninBoxConfiguration_v23" : [
"729d9403eade482f9584c10b"
],
"BurninBoxConfiguration_v24" : [
"729d9403eade482f9584c10b"
],
"BurninBoxConfiguration_v25" : [
"729d9403eade482f9584c10b"
],
"BurninBoxConfiguration_v26" : [
"729d9403eade482f9584c10b"
],
"BurninBoxConfiguration_v27" : [
"ab9dd9f9a56e45089214d20c"
],
"BurninBoxConfiguration_v28" : [
"ab9dd9f9a56e45089214d20c"
],
"BurninBoxConfiguration_v29" : [
"ab9dd9f9a56e45089214d20c"
],
"BurninBoxConfiguration_v30" : [
"ab9dd9f9a56e45089214d20c"
],
"BurninBoxConfiguration_v31" : [
"ab9dd9f9a56e45089214d20c"
],
"BurninBoxConfiguration_v32" : [
"ab9dd9f9a56e45089214d20c"
],
"BurninBoxConfiguration_v33" : [
"ab9dd9f9a56e45089214d20c"
],
"BurninBoxConfiguration_v34" : [
"ab9dd9f9a56e45089214d20c"
],
"BurninBoxConfiguration_v35" : [
"ab9dd9f9a56e45089214d20c"
],
"BurninBoxConfiguration_v36" : [
"ab9dd9f9a56e45089214d20c"
],
"BurninBoxConfiguration_v37" : [
"ab9dd9f9a56e45089214d20c"
],
"BurninBoxConfiguration_v38" : [
"ab9dd9f9a56e45089214d20c"
],
"BurninBoxConfiguration_v39" : [
"ab9dd9f9a56e45089214d20c"
],
"BurninBoxConfiguration_v40" : [
"ab9dd9f9a56e45089214d20c"
],
"BurninBoxConfiguration_v41" : [
"ab9dd9f9a56e45089214d20c"
],
"BurninBoxConfiguration_v42" : [
"ab9dd9f9a56e45089214d20c"
],
"BurninBoxConfiguration_v43" : [
"ab9dd9f9a56e45089214d20c"
],
"BurninBoxConfiguration_v44" : [
"ab9dd9f9a56e45089214d20c"
],
"BurninBoxConfiguration_v45" : [
"ab9dd9f9a56e45089214d20c"
],
"BurninBoxConfiguration_v46" : [
"ab9dd9f9a56e45089214d20c"
],
"BurninBoxConfiguration_v47" : [
"ab9dd9f9a56e45089214d20c"
],
"BurninBoxConfiguration_v48" : [
"ab9dd9f9a56e45089214d20c"
],
"BurninBoxConfiguration_v49" : [
"ab9dd9f9a56e45089214d20c"
],
"BurninBoxConfiguration_v50" : [
"ab9dd9f9a56e45089214d20c"
],
"BurninBoxConfiguration_v51" : [
"ab9dd9f9a56e45089214d20c"
],
"BurninBoxConfiguration_v52" : [
"ab9dd9f9a56e45089214d20c"
],
"BurninBoxConfiguration_v53" : [
"ab9dd9f9a56e45089214d20c"
],
"BurninBoxConfiguration_v54" : [
"ab9dd9f9a56e45089214d20c"
],
"BurninBoxConfiguration_v55" : [
"ab9dd9f9a56e45089214d20c"
],
"BurninBoxConfiguration_v56" : [
"ab9dd9f9a56e45089214d20c"
],
"BurninBoxConfiguration_v57" : [
"ab9dd9f9a56e45089214d20c"
],
"BurninBoxConfiguration_v58" : [
"ab9dd9f9a56e45089214d20c"
],
"BurninBoxConfiguration_v59" : [
"ab9dd9f9a56e45089214d20c"
],
"BurninBoxConfiguration_v60" : [
"ab9dd9f9a56e45089214d20c"
],
"BurninBoxConfiguration_v61" : [
"ab9dd9f9a56e45089214d20c"
],
"BurninBoxConfiguration_v62" : [
"ab9dd9f9a56e45089214d20c"
],
"BurninBoxConfiguration_v63" : [
"ab9dd9f9a56e45089214d20c"
],
"BurninBoxConfiguration_v64" : [
"ab9dd9f9a56e45089214d20c"
],
"BurninBoxConfiguration_v65" : [
"ab9dd9f9a56e45089214d20c"
],
"BurninBoxConfiguration_v66" : [
"ab9dd9f9a56e45089214d20c"
],
"BurninBoxConfiguration_v67" : [
"ab9dd9f9a56e45089214d20c"
],
"BurninBoxConfiguration_v68" : [
"ab9dd9f9a56e45089214d20c"
],
"BurninBoxConfiguration_v69" : [
"ab9dd9f9a56e45089214d20c"
],
"BurninBoxConfiguration_v70" : [
"ab9dd9f9a56e45089214d20c"
],
"BurninBoxConfiguration_v71" : [
"ab9dd9f9a56e45089214d20c"
],
"BurninBoxConfiguration_v72" : [
"ab9dd9f9a56e45089214d20c"
],
"BurninBoxConfiguration_v73" : [
"ab9dd9f9a56e45089214d20c"
],
"BurninBoxConfiguration_v74" : [
"ab9dd9f9a56e45089214d20c"
],
"BurninBoxConfiguration_v75" : [
"ab9dd9f9a56e45089214d20c"
],
"BurninBoxConfiguration_v76" : [
"ab9dd9f9a56e45089214d20c"
],
"BurninBoxConfiguration_v77" : [
"ab9dd9f9a56e45089214d20c"
],
"BurninBoxConfiguration_v78" : [
"ab9dd9f9a56e45089214d20c"
],
"BurninBoxConfiguration_v79" : [
"ab9dd9f9a56e45089214d20c"
],
"BurninBoxConfiguration_v80" : [
"ab9dd9f9a56e45089214d20c"
],
"BurninBoxConfiguration_v81" : [
"ab9dd9f9a56e45089214d20c"
],
"BurninBoxConfiguration_v82" : [
"ab9dd9f9a56e45089214d20c"
],
"BurninBoxConfiguration_v83" : [
"ab9dd9f9a56e45089214d20c"
],
"BurninBoxConfiguration_v84" : [
"ab9dd9f9a56e45089214d20c"
],
"BurninBoxConfiguration_v85" : [
"ab9dd9f9a56e45089214d20c"
],
"BurninBoxConfiguration_v86" : [
"ab9dd9f9a56e45089214d20c"
],
"BurninBoxConfiguration_v87" : [
"ab9dd9f9a56e45089214d20c"
],
"BurninBoxConfiguration_v88" : [
"ab9dd9f9a56e45089214d20c"
],
"BurninBoxConfiguration_v89" : [
"ab9dd9f9a56e45089214d20c"
],
"BurninBoxConfiguration_v90" : [
"ab9dd9f9a56e45089214d20c"
],
"BurninBoxConfiguration_v91" : [
"ab9dd9f9a56e45089214d20c"
],
"BurninBoxConfiguration_v92" : [
"ab9dd9f9a56e45089214d20c"
],
"BurninBoxConfiguration_v93" : [
"ab9dd9f9a56e45089214d20c"
],
"BurninBoxConfiguration_v94" : [
"ab9dd9f9a56e45089214d20c"
],
"BurninBoxConfiguration_v95" : [
"ab9dd9f9a56e45089214d20c"
],
"BurninBoxConfiguration_v96" : [
"ab9dd9f9a56e45089214d20c"
],
"BurninBoxConfiguration_v97" : [
"ab9dd9f9a56e45089214d20c"
],
"BurninBoxConfiguration_v98" : [
"ab9dd9f9a56e45089214d20c"
],
"BurninBoxConfiguration_v99" : [
"ab9dd9f9a56e45089214d20c"
],
"BurninBoxConfiguration_v100" : [
"ab9dd9f9a56e45089214d20c"
],
"BurninBoxConfiguration_v101" : [
"ab9dd9f9a56e45089214d20c"
],
"BurninBoxConfiguration_v102" : [
"ab9dd9f9a56e45089214d20c"
]
},
"entities.name" : {
"OTSROOT" : [
"26e6bdc3aa0444438f736960",
"299006c760f14845b93ae56e",
"729d9403eade482f9584c10b",
"77d0d2725b1d4d9fb89af68c",
"ab9dd9f9a56e45089214d20c",
"b1c180b211974fcab4827fa1",
"d3fe1414d6214c77a5f785e1",
"e5b1637d56ea4c25bd622f20"
]
},
"aliases.active.name" : {

},
"runs.name" : {

},
"configurations.assigned" : {
"notprovided" : [
"2018-09-06T17:34:14.114-0500",
"2019-07-19T15:24:14.694-0500",
"2020-07-29T15:52:19.483-0500",
"2020-10-05T16:51:11.904-0500",
"2020-10-05T16:58:58.832-0500",
"2020-10-05T17:09:41.197-0500",
"2020-10-05T17:30:48.275-0500",
"2020-10-29T11:54:24.392-0500"
],
"BurninBoxConfig_v0" : [
"2018-09-06T17:34:14.631-0500"
],
"BurninBoxConfig_v1" : [
"2018-09-10T10:45:51.191-0500"
],
"BurninBoxConfig_v2" : [
"2018-09-10T11:24:18.605-0500"
],
"BurninBoxConfig_v3" : [
"2018-09-11T09:59:56.224-0500"
],
"BurninBoxConfig_v4" : [
"2018-09-11T10:01:19.316-0500"
],
"BurninBoxConfig_v5" : [
"2018-09-11T10:11:15.892-0500"
],
"BurninBoxConfig_v6" : [
"2018-09-12T12:16:43.637-0500"
],
"BurninBoxConfig_v7" : [
"2018-09-17T11:12:09.296-0500"
],
"BurninBoxConfig_v8" : [
"2018-09-17T13:53:33.317-0500"
],
"BurninBoxConfig_v9" : [
"2018-09-17T14:03:58.008-0500"
],
"BurninBoxConfig_v10" : [
"2018-09-18T15:31:02.356-0500"
],
"BurninBoxConfig_v11" : [
"2018-09-19T09:27:02.083-0500"
],
"BurninBoxConfig_v12" : [
"2018-09-19T10:08:01.959-0500"
],
"BurninBoxConfig_v13" : [
"2018-09-19T10:23:21.900-0500"
],
"BurninBoxConfig_v14" : [
"2018-09-19T11:22:21.282-0500"
],
"BurninBoxConfig_v15" : [
"2018-09-19T12:26:55.141-0500"
],
"BurninBoxConfig_v16" : [
"2018-09-20T14:22:27.199-0500"
],
"BurninBoxConfig_v17" : [
"2018-09-20T15:42:02.994-0500"
],
"BurninBoxConfig_v18" : [
"2018-09-21T11:16:29.039-0500"
],
"BurninBoxConfig_v19" : [
"2018-09-21T13:39:25.190-0500"
],
"BurninBoxConfig_v20" : [
"2018-09-21T13:39:49.120-0500"
],
"BurninBoxConfig_v21" : [
"2019-02-28T12:04:25.694-0600"
],
"BurninBoxConfig_v22" : [
"2019-02-28T12:05:08.121-0600"
],
"BurninBoxConfig_v23" : [
"2019-02-28T13:57:09.730-0600"
],
"BurninBoxConfig_v24" : [
"2019-07-19T15:24:15.827-0500"
],
"BurninBoxConfig_v25" : [
"2019-07-19T15:25:10.918-0500"
],
"BurninBoxConfig_v26" : [
"2019-07-24T14:34:10.392-0500"
],
"BurninBoxConfig_v27" : [
"2019-07-24T14:47:23.623-0500"
],
"BurninBoxConfig_v28" : [
"2019-07-24T14:48:41.122-0500"
],
"BurninBoxConfig_v29" : [
"2020-06-29T10:55:10.620-0500"
],
"BurninBoxConfig_v30" : [
"2020-06-29T11:05:39.911-0500"
],
"BurninBoxConfig_v31" : [
"2020-06-29T11:28:21.596-0500"
],
"BurninBoxConfig_v32" : [
"2020-07-24T10:58:17.834-0500"
],
"BurninBoxConfig_v33" : [
"2020-07-24T11:00:07.476-0500"
],
"BurninBoxConfig_v34" : [
"2020-07-24T11:56:06.188-0500"
],
"BurninBoxConfig_v35" : [
"2020-07-24T12:12:09.207-0500"
],
"BurninBoxConfig_v36" : [
"2020-07-24T12:16:35.707-0500"
],
"BurninBoxConfiguration_v0" : [
"2020-07-29T15:59:40.716-0500"
],
"BurninBoxConfiguration_v1" : [
"2020-07-30T11:42:27.348-0500"
],
"BurninBoxConfiguration_v2" : [
"2020-07-30T12:05:12.730-0500"
],
"BurninBoxConfiguration_v3" : [
"2020-09-02T11:30:04.445-0500"
],
"BurninBoxConfiguration_v4" : [
"2020-09-02T11:31:32.265-0500"
],
"BurninBoxConfiguration_v5" : [
"2020-09-02T15:08:51.206-0500"
],
"BurninBoxConfiguration_v6" : [
"2020-09-02T16:01:05.950-0500"
],
"BurninBoxConfiguration_v7" : [
"2020-09-02T16:05:19.376-0500"
],
"BurninBoxConfiguration_v8" : [
"2020-10-05T17:05:55.450-0500"
],
"BurninBoxConfiguration_v9" : [
"2020-10-05T17:09:48.487-0500"
],
"BurninBoxConfiguration_v10" : [
"2020-10-05T17:11:02.346-0500"
],
"BurninBoxConfiguration_v11" : [
"2020-10-05T17:39:03.895-0500"
],
"BurninBoxConfiguration_v12" : [
"2020-10-05T17:43:06.125-0500"
],
"BurninBoxConfiguration_v13" : [
"2020-10-09T14:43:40.064-0500"
],
"BurninBoxConfiguration_v14" : [
"2020-10-09T15:30:46.648-0500"
],
"BurninBoxConfiguration_v15" : [
"2020-10-12T10:14:43.537-0500"
],
"BurninBoxConfiguration_v16" : [
"2020-10-12T15:33:09.125-0500"
],
"BurninBoxConfiguration_v17" : [
"2020-10-19T16:16:02.678-0500"
],
"BurninBoxConfiguration_v18" : [
"2020-10-23T11:00:20.486-0500"
],
"BurninBoxConfiguration_v19" : [
"2020-10-26T11:51:21.492-0500"
],
"BurninBoxConfiguration_v20" : [
"2020-10-26T11:51:43.145-0500"
],
"BurninBoxConfiguration_v21" : [
"2020-10-26T11:56:42.576-0500"
],
"BurninBoxConfiguration_v22" : [
"2020-10-26T14:34:34.503-0500"
],
"BurninBoxConfiguration_v23" : [
"2020-10-26T14:53:01.441-0500"
],
"BurninBoxConfiguration_v24" : [
"2020-10-26T15:02:46.699-0500"
],
"BurninBoxConfiguration_v25" : [
"2020-10-27T17:42:10.492-0500"
],
"BurninBoxConfiguration_v26" : [
"2020-10-29T11:52:32.701-0500"
],
"BurninBoxConfiguration_v27" : [
"2020-10-29T11:54:26.453-0500"
],
"BurninBoxConfiguration_v28" : [
"2020-10-29T13:30:24.428-0500"
],
"BurninBoxConfiguration_v29" : [
"2020-10-29T13:45:55.816-0500"
],
"BurninBoxConfiguration_v30" : [
"2020-10-29T13:46:38.093-0500"
],
"BurninBoxConfiguration_v31" : [
"2020-10-29T13:48:02.753-0500"
],
"BurninBoxConfiguration_v32" : [
"2020-10-29T14:39:28.771-0500"
],
"BurninBoxConfiguration_v33" : [
"2021-06-30T16:17:51.768-0500"
],
"BurninBoxConfiguration_v34" : [
"2021-06-30T16:23:48.134-0500"
],
"BurninBoxConfiguration_v35" : [
"2021-07-08T14:06:14.016-0500"
],
"BurninBoxConfiguration_v36" : [
"2021-07-08T14:16:58.211-0500"
],
"BurninBoxConfiguration_v37" : [
"2021-07-08T16:20:44.777-0500"
],
"BurninBoxConfiguration_v38" : [
"2021-07-09T11:47:13.980-0500"
],
"BurninBoxConfiguration_v39" : [
"2021-07-09T11:48:46.091-0500"
],
"BurninBoxConfiguration_v40" : [
"2021-07-09T16:06:00.567-0500"
],
"BurninBoxConfiguration_v41" : [
"2021-07-12T11:04:55.548-0500"
],
"BurninBoxConfiguration_v42" : [
"2021-07-13T12:01:31.395-0500"
],
"BurninBoxConfiguration_v43" : [
"2021-07-13T12:22:05.873-0500"
],
"BurninBoxConfiguration_v44" : [
"2021-07-14T13:05:58.468-0500"
],
"BurninBoxConfiguration_v45" : [
"2021-07-14T14:26:04.638-0500"
],
"BurninBoxConfiguration_v46" : [
"2021-07-14T14:46:56.914-0500"
],
"BurninBoxConfiguration_v47" : [
"2021-07-14T15:24:33.774-0500"
],
"BurninBoxConfiguration_v48" : [
"2021-07-14T16:05:29.379-0500"
],
"BurninBoxConfiguration_v49" : [
"2021-07-14T16:15:41.022-0500"
],
"BurninBoxConfiguration_v50" : [
"2021-07-14T16:17:40.810-0500"
],
"BurninBoxConfiguration_v51" : [
"2021-07-15T11:50:33.826-0500"
],
"BurninBoxConfiguration_v52" : [
"2021-07-20T13:45:53.955-0500"
],
"BurninBoxConfiguration_v53" : [
"2021-07-20T16:41:42.149-0500"
],
"BurninBoxConfiguration_v54" : [
"2021-07-20T17:09:26.879-0500"
],
"BurninBoxConfiguration_v55" : [
"2021-07-20T17:28:40.045-0500"
],
"BurninBoxConfiguration_v56" : [
"2021-07-20T17:46:27.361-0500"
],
"BurninBoxConfiguration_v57" : [
"2021-07-21T11:50:01.930-0500"
],
"BurninBoxConfiguration_v58" : [
"2021-07-21T11:58:37.597-0500"
],
"BurninBoxConfiguration_v59" : [
"2021-07-21T11:59:33.343-0500"
],
"BurninBoxConfiguration_v60" : [
"2021-07-22T18:35:00.371-0500"
],
"BurninBoxConfiguration_v61" : [
"2021-07-23T12:33:56.681-0500"
],
"BurninBoxConfiguration_v62" : [
"2021-07-24T00:54:49.503-0500"
],
"BurninBoxConfiguration_v63" : [
"2021-07-24T12:12:51.078-0500"
],
"BurninBoxConfiguration_v64" : [
"2021-07-25T21:07:16.008-0500"
],
"BurninBoxConfiguration_v65" : [
"2021-07-26T07:43:11.902-0500"
],
"BurninBoxConfiguration_v66" : [
"2021-07-26T18:37:11.984-0500"
],
"BurninBoxConfiguration_v67" : [
"2021-07-27T08:25:40.709-0500"
],
"BurninBoxConfiguration_v68" : [
"2021-08-03T11:10:37.116-0500"
],
"BurninBoxConfiguration_v69" : [
"2021-08-04T12:21:57.489-0500"
],
"BurninBoxConfiguration_v70" : [
"2021-09-02T13:43:33.941-0500"
],
"BurninBoxConfiguration_v71" : [
"2021-09-02T14:03:36.769-0500"
],
"BurninBoxConfiguration_v72" : [
"2021-09-23T15:47:05.159-0500"
],
"BurninBoxConfiguration_v73" : [
"2021-09-23T15:47:42.112-0500"
],
"BurninBoxConfiguration_v74" : [
"2021-09-24T15:36:50.004-0500"
],
"BurninBoxConfiguration_v75" : [
"2021-09-24T15:53:23.005-0500"
],
"BurninBoxConfiguration_v76" : [
"2021-09-24T16:04:21.979-0500"
],
"BurninBoxConfiguration_v77" : [
"2021-09-24T16:28:06.826-0500"
],
"BurninBoxConfiguration_v78" : [
"2021-09-27T09:02:56.371-0500"
],
"BurninBoxConfiguration_v79" : [
"2021-09-27T14:22:24.667-0500"
],
"BurninBoxConfiguration_v80" : [
"2021-09-28T09:24:50.554-0500"
],
"BurninBoxConfiguration_v81" : [
"2021-09-30T09:14:50.846-0500"
],
"BurninBoxConfiguration_v82" : [
"2021-10-01T10:56:21.354-0500"
],
"BurninBoxConfiguration_v83" : [
"2021-10-01T11:01:40.982-0500"
],
"BurninBoxConfiguration_v84" : [
"2021-10-06T10:02:31.242-0500"
],
"BurninBoxConfiguration_v85" : [
"2021-10-07T16:32:40.369-0500"
],
"BurninBoxConfiguration_v86" : [
"2021-10-08T14:03:15.244-0500"
],
"BurninBoxConfiguration_v87" : [
"2021-10-11T16:00:56.164-0500"
],
"BurninBoxConfiguration_v88" : [
"2021-10-12T09:07:17.406-0500"
],
"BurninBoxConfiguration_v89" : [
"2021-10-12T11:11:23.077-0500"
],
"BurninBoxConfiguration_v90" : [
"2021-10-14T17:03:16.489-0500"
],
"BurninBoxConfiguration_v91" : [
"2021-10-15T10:48:31.253-0500"
],
"BurninBoxConfiguration_v92" : [
"2021-10-15T15:50:49.183-0500"
],
"BurninBoxConfiguration_v93" : [
"2021-11-03T16:30:20.043-0500"
],
"BurninBoxConfiguration_v94" : [
"2021-11-10T15:11:02.419-0600"
],
"BurninBoxConfiguration_v95" : [
"2022-04-19T14:35:56.404-0400"
],
"BurninBoxConfiguration_v96" : [
"2022-04-20T10:06:05.402-0400"
],
"BurninBoxConfiguration_v97" : [
"2022-04-20T11:23:52.125-0400"
],
"BurninBoxConfiguration_v98" : [
"2022-04-22T09:34:09.557-0400"
],
"BurninBoxConfiguration_v99" : [
"2022-07-19T15:18:23.841-0400"
],
"BurninBoxConfiguration_v100" : [
"2022-07-22T10:08:27.096-0400"
],
"BurninBoxConfiguration_v101" : [
"2022-07-25T10:59:57.824-0400"
],
"BurninBoxConfiguration_v102" : [
"2022-07-25T11:05:52.475-0400"
]
}
}