{
"ouid" : [
"01f635505f8a4c80b779f763",
"1b8e1d8f96b54e9a9ee91eb4",
"1bc64327c9a94e45af56f792",
"35c03f8d151e465d95e08c01",
"366893e0414b4c69b9834597",
"3768fe9a7731477e803cc4e6",
"45a70be9a4ab44e6913ac1e3",
"4e1f35aa56794bae916af52d",
"51833e6ffe6d40f2b99195d0",
"5251721dc011468eaf0a4d34",
"5928d5b0699042e286189328",
"5a13f7cfd9f84cf1a389a938",
"6121dca8cdf54f8cb03b0907",
"793a90989cb344f6a4801e1f",
"795b2875095446889b5d733e",
"79df55f790e64893bc40bf58",
"9012d29c7bfa42808760312c",
"93092a7532b04fc99ab6de6f",
"be3fb7330dc9463eb487d88d",
"c121f01d531a41e48e2da3fb",
"c952e27541614c68b412532d",
"cd73dfa3eb7e4065ad31c359",
"d13948686a8149d6b7014003",
"d1fd32b65e5f415f8fc5e6fa",
"d8e7d483a2f64c0a89554cb2",
"da695073e28e45a19c05eaba",
"dcc1fa62a63f4292b21bb873",
"e2b9a3b46433414b9823242a",
"e3a0e1de6da44e4f839803b4",
"e582a9f2777047719dbff0a6",
"e8d3302a22524c8a9b872a8e",
"f1e414a4539e40d3b386eb70",
"f76c0885fad14427a5a6e217"
],
"version" : {
"0" : [
"3768fe9a7731477e803cc4e6"
],
"1" : [
"1bc64327c9a94e45af56f792"
],
"2" : [
"e2b9a3b46433414b9823242a"
],
"3" : [
"795b2875095446889b5d733e"
],
"4" : [
"45a70be9a4ab44e6913ac1e3"
],
"5" : [
"e8d3302a22524c8a9b872a8e"
],
"6" : [
"01f635505f8a4c80b779f763"
],
"7" : [
"9012d29c7bfa42808760312c"
],
"8" : [
"c952e27541614c68b412532d"
],
"9" : [
"be3fb7330dc9463eb487d88d"
],
"10" : [
"5a13f7cfd9f84cf1a389a938"
],
"11" : [
"f76c0885fad14427a5a6e217"
],
"12" : [
"f1e414a4539e40d3b386eb70"
],
"13" : [
"51833e6ffe6d40f2b99195d0"
],
"14" : [
"4e1f35aa56794bae916af52d"
],
"15" : [
"366893e0414b4c69b9834597"
],
"16" : [
"d1fd32b65e5f415f8fc5e6fa"
],
"17" : [
"d8e7d483a2f64c0a89554cb2"
],
"18" : [
"e582a9f2777047719dbff0a6"
],
"19" : [
"93092a7532b04fc99ab6de6f"
],
"20" : [
"d13948686a8149d6b7014003"
],
"21" : [
"c121f01d531a41e48e2da3fb"
],
"22" : [
"793a90989cb344f6a4801e1f"
],
"23" : [
"5251721dc011468eaf0a4d34"
],
"24" : [
"79df55f790e64893bc40bf58"
],
"25" : [
"dcc1fa62a63f4292b21bb873"
],
"26" : [
"da695073e28e45a19c05eaba"
],
"27" : [
"35c03f8d151e465d95e08c01"
],
"28" : [
"e3a0e1de6da44e4f839803b4"
],
"29" : [
"5928d5b0699042e286189328"
],
"30" : [
"1b8e1d8f96b54e9a9ee91eb4"
],
"31" : [
"6121dca8cdf54f8cb03b0907"
],
"32" : [
"cd73dfa3eb7e4065ad31c359"
]
},
"configurations.name" : {
"notprovided" : [
"01f635505f8a4c80b779f763",
"1b8e1d8f96b54e9a9ee91eb4",
"1bc64327c9a94e45af56f792",
"35c03f8d151e465d95e08c01",
"366893e0414b4c69b9834597",
"3768fe9a7731477e803cc4e6",
"45a70be9a4ab44e6913ac1e3",
"4e1f35aa56794bae916af52d",
"51833e6ffe6d40f2b99195d0",
"5251721dc011468eaf0a4d34",
"5928d5b0699042e286189328",
"5a13f7cfd9f84cf1a389a938",
"6121dca8cdf54f8cb03b0907",
"793a90989cb344f6a4801e1f",
"795b2875095446889b5d733e",
"79df55f790e64893bc40bf58",
"9012d29c7bfa42808760312c",
"93092a7532b04fc99ab6de6f",
"be3fb7330dc9463eb487d88d",
"c121f01d531a41e48e2da3fb",
"c952e27541614c68b412532d",
"cd73dfa3eb7e4065ad31c359",
"d13948686a8149d6b7014003",
"d1fd32b65e5f415f8fc5e6fa",
"d8e7d483a2f64c0a89554cb2",
"da695073e28e45a19c05eaba",
"dcc1fa62a63f4292b21bb873",
"e2b9a3b46433414b9823242a",
"e3a0e1de6da44e4f839803b4",
"e582a9f2777047719dbff0a6",
"e8d3302a22524c8a9b872a8e",
"f1e414a4539e40d3b386eb70",
"f76c0885fad14427a5a6e217"
],
"BurninBoxConfig_v0" : [
"3768fe9a7731477e803cc4e6"
],
"BurninBoxConfig_v1" : [
"1bc64327c9a94e45af56f792"
],
"BurninBoxConfig_v2" : [
"e2b9a3b46433414b9823242a"
],
"BurninBoxConfig_v3" : [
"e2b9a3b46433414b9823242a"
],
"BurninBoxConfig_v4" : [
"795b2875095446889b5d733e"
],
"BurninBoxConfig_v5" : [
"795b2875095446889b5d733e"
],
"BurninBoxConfig_v6" : [
"45a70be9a4ab44e6913ac1e3"
],
"BurninBoxConfig_v7" : [
"e8d3302a22524c8a9b872a8e"
],
"BurninBoxConfig_v8" : [
"01f635505f8a4c80b779f763"
],
"BurninBoxConfig_v9" : [
"9012d29c7bfa42808760312c"
],
"BurninBoxConfig_v10" : [
"c952e27541614c68b412532d"
],
"BurninBoxConfig_v11" : [
"be3fb7330dc9463eb487d88d"
],
"BurninBoxConfig_v12" : [
"5a13f7cfd9f84cf1a389a938"
],
"BurninBoxConfig_v13" : [
"f76c0885fad14427a5a6e217"
],
"BurninBoxConfig_v14" : [
"f1e414a4539e40d3b386eb70"
],
"BurninBoxConfig_v15" : [
"51833e6ffe6d40f2b99195d0"
],
"BurninBoxConfig_v16" : [
"4e1f35aa56794bae916af52d"
],
"BurninBoxConfig_v17" : [
"366893e0414b4c69b9834597"
],
"BurninBoxConfig_v18" : [
"d1fd32b65e5f415f8fc5e6fa"
],
"BurninBoxConfig_v19" : [
"d8e7d483a2f64c0a89554cb2"
],
"BurninBoxConfig_v20" : [
"e582a9f2777047719dbff0a6"
],
"BurninBoxConfig_v21" : [
"93092a7532b04fc99ab6de6f"
],
"BurninBoxConfig_v22" : [
"d13948686a8149d6b7014003"
],
"BurninBoxConfig_v23" : [
"d13948686a8149d6b7014003"
],
"BurninBoxConfig_v24" : [
"d13948686a8149d6b7014003"
],
"BurninBoxConfig_v25" : [
"c121f01d531a41e48e2da3fb"
],
"BurninBoxConfig_v26" : [
"c121f01d531a41e48e2da3fb"
],
"BurninBoxConfig_v27" : [
"c121f01d531a41e48e2da3fb"
],
"BurninBoxConfig_v28" : [
"c121f01d531a41e48e2da3fb"
],
"BurninBoxConfig_v29" : [
"c121f01d531a41e48e2da3fb"
],
"BurninBoxConfig_v30" : [
"793a90989cb344f6a4801e1f"
],
"BurninBoxConfig_v31" : [
"5251721dc011468eaf0a4d34"
],
"BurninBoxConfig_v32" : [
"79df55f790e64893bc40bf58"
],
"BurninBoxConfig_v33" : [
"dcc1fa62a63f4292b21bb873"
],
"BurninBoxConfig_v34" : [
"da695073e28e45a19c05eaba"
],
"BurninBoxConfig_v35" : [
"35c03f8d151e465d95e08c01"
],
"BurninBoxConfig_v36" : [
"e3a0e1de6da44e4f839803b4"
],
"BurninBoxConfiguration_v0" : [
"5928d5b0699042e286189328"
],
"BurninBoxConfiguration_v1" : [
"5928d5b0699042e286189328"
],
"BurninBoxConfiguration_v2" : [
"5928d5b0699042e286189328"
],
"BurninBoxConfiguration_v3" : [
"5928d5b0699042e286189328"
],
"BurninBoxConfiguration_v4" : [
"5928d5b0699042e286189328"
],
"BurninBoxConfiguration_v5" : [
"5928d5b0699042e286189328"
],
"BurninBoxConfiguration_v6" : [
"1b8e1d8f96b54e9a9ee91eb4"
],
"BurninBoxConfiguration_v7" : [
"1b8e1d8f96b54e9a9ee91eb4"
],
"BurninBoxConfiguration_v8" : [
"6121dca8cdf54f8cb03b0907"
],
"BurninBoxConfiguration_v9" : [
"6121dca8cdf54f8cb03b0907"
],
"BurninBoxConfiguration_v10" : [
"6121dca8cdf54f8cb03b0907"
],
"BurninBoxConfiguration_v11" : [
"6121dca8cdf54f8cb03b0907"
],
"BurninBoxConfiguration_v12" : [
"6121dca8cdf54f8cb03b0907"
],
"BurninBoxConfiguration_v13" : [
"6121dca8cdf54f8cb03b0907"
],
"BurninBoxConfiguration_v14" : [
"6121dca8cdf54f8cb03b0907"
],
"BurninBoxConfiguration_v15" : [
"6121dca8cdf54f8cb03b0907"
],
"BurninBoxConfiguration_v16" : [
"6121dca8cdf54f8cb03b0907"
],
"BurninBoxConfiguration_v17" : [
"cd73dfa3eb7e4065ad31c359"
],
"BurninBoxConfiguration_v18" : [
"cd73dfa3eb7e4065ad31c359"
],
"BurninBoxConfiguration_v19" : [
"cd73dfa3eb7e4065ad31c359"
],
"BurninBoxConfiguration_v20" : [
"cd73dfa3eb7e4065ad31c359"
],
"BurninBoxConfiguration_v21" : [
"cd73dfa3eb7e4065ad31c359"
],
"BurninBoxConfiguration_v22" : [
"cd73dfa3eb7e4065ad31c359"
],
"BurninBoxConfiguration_v23" : [
"cd73dfa3eb7e4065ad31c359"
],
"BurninBoxConfiguration_v24" : [
"cd73dfa3eb7e4065ad31c359"
],
"BurninBoxConfiguration_v25" : [
"cd73dfa3eb7e4065ad31c359"
],
"BurninBoxConfiguration_v26" : [
"cd73dfa3eb7e4065ad31c359"
],
"BurninBoxConfiguration_v27" : [
"cd73dfa3eb7e4065ad31c359"
],
"BurninBoxConfiguration_v28" : [
"cd73dfa3eb7e4065ad31c359"
],
"BurninBoxConfiguration_v29" : [
"cd73dfa3eb7e4065ad31c359"
],
"BurninBoxConfiguration_v30" : [
"cd73dfa3eb7e4065ad31c359"
],
"BurninBoxConfiguration_v31" : [
"cd73dfa3eb7e4065ad31c359"
],
"BurninBoxConfiguration_v32" : [
"cd73dfa3eb7e4065ad31c359"
],
"BurninBoxConfiguration_v33" : [
"cd73dfa3eb7e4065ad31c359"
],
"BurninBoxConfiguration_v34" : [
"cd73dfa3eb7e4065ad31c359"
],
"BurninBoxConfiguration_v35" : [
"cd73dfa3eb7e4065ad31c359"
],
"BurninBoxConfiguration_v36" : [
"cd73dfa3eb7e4065ad31c359"
],
"BurninBoxConfiguration_v37" : [
"cd73dfa3eb7e4065ad31c359"
],
"BurninBoxConfiguration_v38" : [
"cd73dfa3eb7e4065ad31c359"
],
"BurninBoxConfiguration_v39" : [
"cd73dfa3eb7e4065ad31c359"
],
"BurninBoxConfiguration_v40" : [
"cd73dfa3eb7e4065ad31c359"
],
"BurninBoxConfiguration_v41" : [
"cd73dfa3eb7e4065ad31c359"
],
"BurninBoxConfiguration_v42" : [
"cd73dfa3eb7e4065ad31c359"
],
"BurninBoxConfiguration_v43" : [
"cd73dfa3eb7e4065ad31c359"
],
"BurninBoxConfiguration_v44" : [
"cd73dfa3eb7e4065ad31c359"
],
"BurninBoxConfiguration_v45" : [
"cd73dfa3eb7e4065ad31c359"
],
"BurninBoxConfiguration_v46" : [
"cd73dfa3eb7e4065ad31c359"
],
"BurninBoxConfiguration_v47" : [
"cd73dfa3eb7e4065ad31c359"
],
"BurninBoxConfiguration_v48" : [
"cd73dfa3eb7e4065ad31c359"
],
"BurninBoxConfiguration_v49" : [
"cd73dfa3eb7e4065ad31c359"
],
"BurninBoxConfiguration_v50" : [
"cd73dfa3eb7e4065ad31c359"
],
"BurninBoxConfiguration_v51" : [
"cd73dfa3eb7e4065ad31c359"
],
"BurninBoxConfiguration_v52" : [
"cd73dfa3eb7e4065ad31c359"
],
"BurninBoxConfiguration_v53" : [
"cd73dfa3eb7e4065ad31c359"
],
"BurninBoxConfiguration_v54" : [
"cd73dfa3eb7e4065ad31c359"
],
"BurninBoxConfiguration_v55" : [
"cd73dfa3eb7e4065ad31c359"
],
"BurninBoxConfiguration_v56" : [
"cd73dfa3eb7e4065ad31c359"
],
"BurninBoxConfiguration_v57" : [
"cd73dfa3eb7e4065ad31c359"
],
"BurninBoxConfiguration_v58" : [
"cd73dfa3eb7e4065ad31c359"
],
"BurninBoxConfiguration_v59" : [
"cd73dfa3eb7e4065ad31c359"
],
"BurninBoxConfiguration_v60" : [
"cd73dfa3eb7e4065ad31c359"
],
"BurninBoxConfiguration_v61" : [
"cd73dfa3eb7e4065ad31c359"
],
"BurninBoxConfiguration_v62" : [
"cd73dfa3eb7e4065ad31c359"
],
"BurninBoxConfiguration_v63" : [
"cd73dfa3eb7e4065ad31c359"
],
"BurninBoxConfiguration_v64" : [
"cd73dfa3eb7e4065ad31c359"
],
"BurninBoxConfiguration_v65" : [
"cd73dfa3eb7e4065ad31c359"
],
"BurninBoxConfiguration_v66" : [
"cd73dfa3eb7e4065ad31c359"
],
"BurninBoxConfiguration_v67" : [
"cd73dfa3eb7e4065ad31c359"
],
"BurninBoxConfiguration_v68" : [
"cd73dfa3eb7e4065ad31c359"
],
"BurninBoxConfiguration_v69" : [
"cd73dfa3eb7e4065ad31c359"
],
"BurninBoxConfiguration_v70" : [
"cd73dfa3eb7e4065ad31c359"
],
"BurninBoxConfiguration_v71" : [
"cd73dfa3eb7e4065ad31c359"
],
"BurninBoxConfiguration_v72" : [
"cd73dfa3eb7e4065ad31c359"
],
"BurninBoxConfiguration_v73" : [
"cd73dfa3eb7e4065ad31c359"
],
"BurninBoxConfiguration_v74" : [
"cd73dfa3eb7e4065ad31c359"
],
"BurninBoxConfiguration_v75" : [
"cd73dfa3eb7e4065ad31c359"
],
"BurninBoxConfiguration_v76" : [
"cd73dfa3eb7e4065ad31c359"
],
"BurninBoxConfiguration_v77" : [
"cd73dfa3eb7e4065ad31c359"
],
"BurninBoxConfiguration_v78" : [
"cd73dfa3eb7e4065ad31c359"
],
"BurninBoxConfiguration_v79" : [
"cd73dfa3eb7e4065ad31c359"
],
"BurninBoxConfiguration_v80" : [
"cd73dfa3eb7e4065ad31c359"
],
"BurninBoxConfiguration_v81" : [
"cd73dfa3eb7e4065ad31c359"
],
"BurninBoxConfiguration_v82" : [
"cd73dfa3eb7e4065ad31c359"
],
"BurninBoxConfiguration_v83" : [
"cd73dfa3eb7e4065ad31c359"
],
"BurninBoxConfiguration_v84" : [
"cd73dfa3eb7e4065ad31c359"
],
"BurninBoxConfiguration_v85" : [
"cd73dfa3eb7e4065ad31c359"
],
"BurninBoxConfiguration_v86" : [
"cd73dfa3eb7e4065ad31c359"
],
"BurninBoxConfiguration_v87" : [
"cd73dfa3eb7e4065ad31c359"
],
"BurninBoxConfiguration_v88" : [
"cd73dfa3eb7e4065ad31c359"
],
"BurninBoxConfiguration_v89" : [
"cd73dfa3eb7e4065ad31c359"
],
"BurninBoxConfiguration_v90" : [
"cd73dfa3eb7e4065ad31c359"
],
"BurninBoxConfiguration_v91" : [
"cd73dfa3eb7e4065ad31c359"
],
"BurninBoxConfiguration_v92" : [
"cd73dfa3eb7e4065ad31c359"
],
"BurninBoxConfiguration_v93" : [
"cd73dfa3eb7e4065ad31c359"
],
"BurninBoxConfiguration_v94" : [
"cd73dfa3eb7e4065ad31c359"
],
"BurninBoxConfiguration_v95" : [
"cd73dfa3eb7e4065ad31c359"
],
"BurninBoxConfiguration_v96" : [
"cd73dfa3eb7e4065ad31c359"
],
"BurninBoxConfiguration_v97" : [
"cd73dfa3eb7e4065ad31c359"
]
},
"entities.name" : {
"OTSROOT" : [
"01f635505f8a4c80b779f763",
"1b8e1d8f96b54e9a9ee91eb4",
"1bc64327c9a94e45af56f792",
"35c03f8d151e465d95e08c01",
"366893e0414b4c69b9834597",
"3768fe9a7731477e803cc4e6",
"45a70be9a4ab44e6913ac1e3",
"4e1f35aa56794bae916af52d",
"51833e6ffe6d40f2b99195d0",
"5251721dc011468eaf0a4d34",
"5928d5b0699042e286189328",
"5a13f7cfd9f84cf1a389a938",
"6121dca8cdf54f8cb03b0907",
"793a90989cb344f6a4801e1f",
"795b2875095446889b5d733e",
"79df55f790e64893bc40bf58",
"9012d29c7bfa42808760312c",
"93092a7532b04fc99ab6de6f",
"be3fb7330dc9463eb487d88d",
"c121f01d531a41e48e2da3fb",
"c952e27541614c68b412532d",
"cd73dfa3eb7e4065ad31c359",
"d13948686a8149d6b7014003",
"d1fd32b65e5f415f8fc5e6fa",
"d8e7d483a2f64c0a89554cb2",
"da695073e28e45a19c05eaba",
"dcc1fa62a63f4292b21bb873",
"e2b9a3b46433414b9823242a",
"e3a0e1de6da44e4f839803b4",
"e582a9f2777047719dbff0a6",
"e8d3302a22524c8a9b872a8e",
"f1e414a4539e40d3b386eb70",
"f76c0885fad14427a5a6e217"
]
},
"aliases.active.name" : {

},
"runs.name" : {

},
"configurations.assigned" : {
"notprovided" : [
"2018-09-06T17:34:14.073-0500",
"2018-09-10T10:45:50.566-0500",
"2018-09-10T11:24:17.925-0500",
"2018-09-11T10:01:00.405-0500",
"2018-09-12T12:16:42.323-0500",
"2018-09-17T11:12:08.280-0500",
"2018-09-17T13:53:32.440-0500",
"2018-09-17T14:03:57.141-0500",
"2018-09-18T15:31:01.479-0500",
"2018-09-19T09:27:01.113-0500",
"2018-09-19T10:08:00.909-0500",
"2018-09-19T10:23:20.881-0500",
"2018-09-19T11:22:20.251-0500",
"2018-09-19T12:26:54.022-0500",
"2018-09-20T14:22:26.196-0500",
"2018-09-20T15:42:01.871-0500",
"2018-09-21T11:16:27.733-0500",
"2018-09-21T13:39:23.953-0500",
"2018-09-21T13:39:47.852-0500",
"2019-02-28T12:04:24.677-0600",
"2019-02-28T12:05:07.196-0600",
"2019-07-19T15:19:58.354-0500",
"2020-06-29T11:05:38.767-0500",
"2020-06-29T11:28:20.508-0500",
"2020-07-24T10:58:16.702-0500",
"2020-07-24T11:00:06.316-0500",
"2020-07-24T11:56:05.060-0500",
"2020-07-24T12:12:08.086-0500",
"2020-07-24T12:16:34.546-0500",
"2020-07-29T15:58:18.398-0500",
"2020-09-02T15:59:04.323-0500",
"2020-10-05T16:56:17.082-0500",
"2020-10-19T16:16:01.147-0500"
],
"BurninBoxConfig_v0" : [
"2018-09-06T17:34:14.594-0500"
],
"BurninBoxConfig_v1" : [
"2018-09-10T10:45:51.152-0500"
],
"BurninBoxConfig_v2" : [
"2018-09-10T11:24:18.563-0500"
],
"BurninBoxConfig_v3" : [
"2018-09-11T09:59:56.184-0500"
],
"BurninBoxConfig_v4" : [
"2018-09-11T10:01:19.280-0500"
],
"BurninBoxConfig_v5" : [
"2018-09-11T10:11:15.846-0500"
],
"BurninBoxConfig_v6" : [
"2018-09-12T12:16:43.589-0500"
],
"BurninBoxConfig_v7" : [
"2018-09-17T11:12:09.242-0500"
],
"BurninBoxConfig_v8" : [
"2018-09-17T13:53:33.266-0500"
],
"BurninBoxConfig_v9" : [
"2018-09-17T14:03:57.968-0500"
],
"BurninBoxConfig_v10" : [
"2018-09-18T15:31:02.308-0500"
],
"BurninBoxConfig_v11" : [
"2018-09-19T09:27:02.045-0500"
],
"BurninBoxConfig_v12" : [
"2018-09-19T10:08:01.910-0500"
],
"BurninBoxConfig_v13" : [
"2018-09-19T10:23:21.850-0500"
],
"BurninBoxConfig_v14" : [
"2018-09-19T11:22:21.237-0500"
],
"BurninBoxConfig_v15" : [
"2018-09-19T12:26:55.099-0500"
],
"BurninBoxConfig_v16" : [
"2018-09-20T14:22:27.155-0500"
],
"BurninBoxConfig_v17" : [
"2018-09-20T15:42:02.950-0500"
],
"BurninBoxConfig_v18" : [
"2018-09-21T11:16:28.988-0500"
],
"BurninBoxConfig_v19" : [
"2018-09-21T13:39:25.139-0500"
],
"BurninBoxConfig_v20" : [
"2018-09-21T13:39:49.069-0500"
],
"BurninBoxConfig_v21" : [
"2019-02-28T12:04:25.665-0600"
],
"BurninBoxConfig_v22" : [
"2019-02-28T12:05:08.091-0600"
],
"BurninBoxConfig_v23" : [
"2019-02-28T13:57:09.700-0600"
],
"BurninBoxConfig_v24" : [
"2019-07-19T15:24:15.778-0500"
],
"BurninBoxConfig_v25" : [
"2019-07-19T15:25:10.889-0500"
],
"BurninBoxConfig_v26" : [
"2019-07-24T14:34:10.361-0500"
],
"BurninBoxConfig_v27" : [
"2019-07-24T14:47:23.586-0500"
],
"BurninBoxConfig_v28" : [
"2019-07-24T14:48:41.078-0500"
],
"BurninBoxConfig_v29" : [
"2020-06-29T10:55:10.587-0500"
],
"BurninBoxConfig_v30" : [
"2020-06-29T11:05:39.875-0500"
],
"BurninBoxConfig_v31" : [
"2020-06-29T11:28:21.559-0500"
],
"BurninBoxConfig_v32" : [
"2020-07-24T10:58:17.797-0500"
],
"BurninBoxConfig_v33" : [
"2020-07-24T11:00:07.438-0500"
],
"BurninBoxConfig_v34" : [
"2020-07-24T11:56:06.150-0500"
],
"BurninBoxConfig_v35" : [
"2020-07-24T12:12:09.170-0500"
],
"BurninBoxConfig_v36" : [
"2020-07-24T12:16:35.669-0500"
],
"BurninBoxConfiguration_v0" : [
"2020-07-29T15:59:40.678-0500"
],
"BurninBoxConfiguration_v1" : [
"2020-07-30T11:42:27.310-0500"
],
"BurninBoxConfiguration_v2" : [
"2020-07-30T12:05:12.690-0500"
],
"BurninBoxConfiguration_v3" : [
"2020-09-02T11:30:04.408-0500"
],
"BurninBoxConfiguration_v4" : [
"2020-09-02T11:31:32.228-0500"
],
"BurninBoxConfiguration_v5" : [
"2020-09-02T15:08:51.165-0500"
],
"BurninBoxConfiguration_v6" : [
"2020-09-02T16:01:05.912-0500"
],
"BurninBoxConfiguration_v7" : [
"2020-09-02T16:05:19.340-0500"
],
"BurninBoxConfiguration_v8" : [
"2020-10-05T17:05:55.408-0500"
],
"BurninBoxConfiguration_v9" : [
"2020-10-05T17:09:48.445-0500"
],
"BurninBoxConfiguration_v10" : [
"2020-10-05T17:11:02.304-0500"
],
"BurninBoxConfiguration_v11" : [
"2020-10-05T17:39:03.855-0500"
],
"BurninBoxConfiguration_v12" : [
"2020-10-05T17:43:06.085-0500"
],
"BurninBoxConfiguration_v13" : [
"2020-10-09T14:43:40.025-0500"
],
"BurninBoxConfiguration_v14" : [
"2020-10-09T15:30:46.605-0500"
],
"BurninBoxConfiguration_v15" : [
"2020-10-12T10:14:43.493-0500"
],
"BurninBoxConfiguration_v16" : [
"2020-10-12T15:33:09.082-0500"
],
"BurninBoxConfiguration_v17" : [
"2020-10-19T16:16:02.630-0500"
],
"BurninBoxConfiguration_v18" : [
"2020-10-23T11:00:20.439-0500"
],
"BurninBoxConfiguration_v19" : [
"2020-10-26T11:51:21.437-0500"
],
"BurninBoxConfiguration_v20" : [
"2020-10-26T11:51:43.093-0500"
],
"BurninBoxConfiguration_v21" : [
"2020-10-26T11:56:42.525-0500"
],
"BurninBoxConfiguration_v22" : [
"2020-10-26T14:34:34.461-0500"
],
"BurninBoxConfiguration_v23" : [
"2020-10-26T14:53:01.390-0500"
],
"BurninBoxConfiguration_v24" : [
"2020-10-26T15:02:46.651-0500"
],
"BurninBoxConfiguration_v25" : [
"2020-10-27T17:42:10.446-0500"
],
"BurninBoxConfiguration_v26" : [
"2020-10-29T11:52:32.644-0500"
],
"BurninBoxConfiguration_v27" : [
"2020-10-29T11:54:26.408-0500"
],
"BurninBoxConfiguration_v28" : [
"2020-10-29T13:30:24.372-0500"
],
"BurninBoxConfiguration_v29" : [
"2020-10-29T13:45:55.774-0500"
],
"BurninBoxConfiguration_v30" : [
"2020-10-29T13:46:38.051-0500"
],
"BurninBoxConfiguration_v31" : [
"2020-10-29T13:48:02.700-0500"
],
"BurninBoxConfiguration_v32" : [
"2020-10-29T14:39:28.713-0500"
],
"BurninBoxConfiguration_v33" : [
"2021-06-30T16:17:51.714-0500"
],
"BurninBoxConfiguration_v34" : [
"2021-06-30T16:23:48.074-0500"
],
"BurninBoxConfiguration_v35" : [
"2021-07-08T14:06:13.965-0500"
],
"BurninBoxConfiguration_v36" : [
"2021-07-08T14:16:58.153-0500"
],
"BurninBoxConfiguration_v37" : [
"2021-07-08T16:20:44.718-0500"
],
"BurninBoxConfiguration_v38" : [
"2021-07-09T11:47:13.917-0500"
],
"BurninBoxConfiguration_v39" : [
"2021-07-09T11:48:46.038-0500"
],
"BurninBoxConfiguration_v40" : [
"2021-07-09T16:06:00.512-0500"
],
"BurninBoxConfiguration_v41" : [
"2021-07-12T11:04:55.497-0500"
],
"BurninBoxConfiguration_v42" : [
"2021-07-13T12:01:31.334-0500"
],
"BurninBoxConfiguration_v43" : [
"2021-07-13T12:22:05.825-0500"
],
"BurninBoxConfiguration_v44" : [
"2021-07-14T13:05:58.400-0500"
],
"BurninBoxConfiguration_v45" : [
"2021-07-14T14:26:04.587-0500"
],
"BurninBoxConfiguration_v46" : [
"2021-07-14T14:46:56.846-0500"
],
"BurninBoxConfiguration_v47" : [
"2021-07-14T15:24:33.715-0500"
],
"BurninBoxConfiguration_v48" : [
"2021-07-14T16:05:29.330-0500"
],
"BurninBoxConfiguration_v49" : [
"2021-07-14T16:15:40.958-0500"
],
"BurninBoxConfiguration_v50" : [
"2021-07-14T16:17:40.764-0500"
],
"BurninBoxConfiguration_v51" : [
"2021-07-15T11:50:33.773-0500"
],
"BurninBoxConfiguration_v52" : [
"2021-07-20T13:45:53.907-0500"
],
"BurninBoxConfiguration_v53" : [
"2021-07-20T16:41:42.093-0500"
],
"BurninBoxConfiguration_v54" : [
"2021-07-20T17:09:26.815-0500"
],
"BurninBoxConfiguration_v55" : [
"2021-07-20T17:28:39.990-0500"
],
"BurninBoxConfiguration_v56" : [
"2021-07-20T17:46:27.297-0500"
],
"BurninBoxConfiguration_v57" : [
"2021-07-21T11:50:01.873-0500"
],
"BurninBoxConfiguration_v58" : [
"2021-07-21T11:58:37.535-0500"
],
"BurninBoxConfiguration_v59" : [
"2021-07-21T11:59:33.290-0500"
],
"BurninBoxConfiguration_v60" : [
"2021-07-22T18:35:00.306-0500"
],
"BurninBoxConfiguration_v61" : [
"2021-07-23T12:33:56.620-0500"
],
"BurninBoxConfiguration_v62" : [
"2021-07-24T00:54:49.438-0500"
],
"BurninBoxConfiguration_v63" : [
"2021-07-24T12:12:51.023-0500"
],
"BurninBoxConfiguration_v64" : [
"2021-07-25T21:07:15.956-0500"
],
"BurninBoxConfiguration_v65" : [
"2021-07-26T07:43:11.830-0500"
],
"BurninBoxConfiguration_v66" : [
"2021-07-26T18:37:11.925-0500"
],
"BurninBoxConfiguration_v67" : [
"2021-07-27T08:25:40.642-0500"
],
"BurninBoxConfiguration_v68" : [
"2021-08-03T11:10:37.063-0500"
],
"BurninBoxConfiguration_v69" : [
"2021-08-04T12:21:57.430-0500"
],
"BurninBoxConfiguration_v70" : [
"2021-09-02T13:43:33.871-0500"
],
"BurninBoxConfiguration_v71" : [
"2021-09-02T14:03:36.698-0500"
],
"BurninBoxConfiguration_v72" : [
"2021-09-23T15:47:05.090-0500"
],
"BurninBoxConfiguration_v73" : [
"2021-09-23T15:47:42.053-0500"
],
"BurninBoxConfiguration_v74" : [
"2021-09-24T15:36:49.944-0500"
],
"BurninBoxConfiguration_v75" : [
"2021-09-24T15:53:22.925-0500"
],
"BurninBoxConfiguration_v76" : [
"2021-09-24T16:04:21.899-0500"
],
"BurninBoxConfiguration_v77" : [
"2021-09-24T16:28:06.743-0500"
],
"BurninBoxConfiguration_v78" : [
"2021-09-27T09:02:56.310-0500"
],
"BurninBoxConfiguration_v79" : [
"2021-09-27T14:22:24.596-0500"
],
"BurninBoxConfiguration_v80" : [
"2021-09-28T09:24:50.488-0500"
],
"BurninBoxConfiguration_v81" : [
"2021-09-30T09:14:50.776-0500"
],
"BurninBoxConfiguration_v82" : [
"2021-10-01T10:56:21.291-0500"
],
"BurninBoxConfiguration_v83" : [
"2021-10-01T11:01:40.921-0500"
],
"BurninBoxConfiguration_v84" : [
"2021-10-06T10:02:31.173-0500"
],
"BurninBoxConfiguration_v85" : [
"2021-10-07T16:32:40.308-0500"
],
"BurninBoxConfiguration_v86" : [
"2021-10-08T14:03:15.157-0500"
],
"BurninBoxConfiguration_v87" : [
"2021-10-11T16:00:56.069-0500"
],
"BurninBoxConfiguration_v88" : [
"2021-10-12T09:07:17.328-0500"
],
"BurninBoxConfiguration_v89" : [
"2021-10-12T11:11:23.011-0500"
],
"BurninBoxConfiguration_v90" : [
"2021-10-14T17:03:16.423-0500"
],
"BurninBoxConfiguration_v91" : [
"2021-10-15T10:48:31.163-0500"
],
"BurninBoxConfiguration_v92" : [
"2021-10-15T15:50:49.107-0500"
],
"BurninBoxConfiguration_v93" : [
"2021-11-03T16:30:19.959-0500"
],
"BurninBoxConfiguration_v94" : [
"2021-11-10T15:11:02.362-0600"
],
"BurninBoxConfiguration_v95" : [
"2022-04-19T14:35:56.343-0400"
],
"BurninBoxConfiguration_v96" : [
"2022-04-20T10:06:05.347-0400"
],
"BurninBoxConfiguration_v97" : [
"2022-04-20T11:23:52.069-0400"
]
}
}